{
   "type" : "page",
   "node_field_data" : {
      "type" : "page",
      "status" : 0,
      "promote" : 0,
      "title" : "Data repositories",
      "default_langcode" : 1,
      "uid" : 1,
      "changed" : null,
      "revision_translation_affected" : 1,
      "sticky" : 0,
      "created" : 1381435111,
      "langcode" : "und"
   },
   "vid" : 2473,
   "asidebox" : null,
   "field_tags" : [],
   "field_image" : null,
   "node__body" : {
      "bundle" : "page",
      "delta" : 0,
      "body_value" : "<h2>Disciplinary data repositories</h2><p><span style=\"color: #333333; font-family: 'Source Sans Pro', Calibri, Candara, Arial, sans-serif; font-size: 16px; font-style: normal; font-variant-ligatures: normal; font-variant-caps: normal; font-weight: normal; letter-spacing: normal; orphans: 2; text-align: start; text-indent: 0px; text-transform: none; white-space: normal; widows: 2; word-spacing: 0px; -webkit-text-stroke-width: 0px; background-color: #ffffff; display: inline !important; float: none;\">When you're ready to deposit your data for sharing and archiving, a number of repositories are available. First, look into whether there is a repository in your field where the most likely users of your data would look. The <a href=\"http://www.re3data.org/\" target=\"_blank\"> re3data.org</a> registry maintains a list of over 1,500 repositories that accept research data.</span></p><h2>The Duke Digital Repository</h2><p><span style=\"color: #333333; font-family: 'Source Sans Pro', Calibri, Candara, Arial, sans-serif; font-size: 16px; font-style: normal; font-variant-ligatures: normal; font-variant-caps: normal; font-weight: normal; letter-spacing: normal; orphans: 2; text-align: start; text-indent: 0px; text-transform: none; white-space: normal; widows: 2; word-spacing: 0px; -webkit-text-stroke-width: 0px; background-color: #ffffff; display: inline !important; float: none;\">The <a href=\"https://repository.duke.edu/\" target=\"_blank\">Duke Digital Repository (DDR)</a> is a service of Duke University Libraries that supports the activities of the University's faculty, researchers, students, and library staff by preserving, securing, and providing access to digital resources. <a href=\"https://library.duke.edu/ddr/research-data\" target=\"_blank\">Depositing your data in the DDR</a> is one way to receive a digital object identifier (DOI) for your dataset.<br></span></p><h2>General data repositories</h2><ul><li><a href=\"https://dataverse.harvard.edu/\" target=\"_blank\">Harvard&nbsp;Dataverse</a></li><li><a href=\"https://dataverse.unc.edu/\" target=\"_blank\">UNC Dataverse</a></li><li><a href=\"https://figshare.com/\" target=\"_blank\">Figshare</a></li><li><a href=\"https://zenodo.org/\" target=\"_blank\">Zenodo</a></li><li><a href=\"http://datadryad.org/\" target=\"_blank\">Dryad Digital Repository</a></li></ul><p>Need help choosing a repository? Contact us at <a href=\"mailto:askdata@duke.edu\">askdata@duke.edu</a></p>",
      "body_summary" : "",
      "langcode" : "und",
      "entity_id" : 99,
      "deleted" : 0,
      "body_format" : "full_html",
      "revision_id" : 2473
   },
   "path_alias" : {
      "langcode" : "und",
      "pid" : 120,
      "status" : 0,
      "language" : "und",
      "alias" : "/tutorials/data-management/repositories"
   },
   "nid" : "99",
   "node_access" : null,
   "uuid" : "0422090a-763e-4607-ba4f-fd9bde20767b",
   "revisions" : [
      {
         "promote" : 0,
         "title" : "Data repositories",
         "uid" : 67,
         "status" : 0,
         "field_revision" : {
            "default_langcode" : 1,
            "uid" : 1,
            "title" : "Data repositories",
            "langcode" : null,
            "created" : null,
            "sticky" : 0,
            "status" : 0,
            "revision_translation_affected" : 1,
            "changed" : null
         },
         "timestamp" : 1530888904,
         "sticky" : 0,
         "comment" : 1,
         "vuuid" : "f88abf50-22ef-4bb1-bcd7-e549b765a0bb",
         "log" : "",
         "node_revision__body" : {
            "body_format" : "full_html",
            "entity_id" : 99,
            "deleted" : 0,
            "revision_id" : 2473,
            "body_value" : "<h2>Disciplinary data repositories</h2><p><span style=\"color: #333333; font-family: 'Source Sans Pro', Calibri, Candara, Arial, sans-serif; font-size: 16px; font-style: normal; font-variant-ligatures: normal; font-variant-caps: normal; font-weight: normal; letter-spacing: normal; orphans: 2; text-align: start; text-indent: 0px; text-transform: none; white-space: normal; widows: 2; word-spacing: 0px; -webkit-text-stroke-width: 0px; background-color: #ffffff; display: inline !important; float: none;\">When you're ready to deposit your data for sharing and archiving, a number of repositories are available. First, look into whether there is a repository in your field where the most likely users of your data would look. The <a href=\"http://www.re3data.org/\" target=\"_blank\"> re3data.org</a> registry maintains a list of over 1,500 repositories that accept research data.</span></p><h2>The Duke Digital Repository</h2><p><span style=\"color: #333333; font-family: 'Source Sans Pro', Calibri, Candara, Arial, sans-serif; font-size: 16px; font-style: normal; font-variant-ligatures: normal; font-variant-caps: normal; font-weight: normal; letter-spacing: normal; orphans: 2; text-align: start; text-indent: 0px; text-transform: none; white-space: normal; widows: 2; word-spacing: 0px; -webkit-text-stroke-width: 0px; background-color: #ffffff; display: inline !important; float: none;\">The <a href=\"https://repository.duke.edu/\" target=\"_blank\">Duke Digital Repository (DDR)</a> is a service of Duke University Libraries that supports the activities of the University's faculty, researchers, students, and library staff by preserving, securing, and providing access to digital resources. <a href=\"https://library.duke.edu/ddr/research-data\" target=\"_blank\">Depositing your data in the DDR</a> is one way to receive a digital object identifier (DOI) for your dataset.<br></span></p><h2>General data repositories</h2><ul><li><a href=\"https://dataverse.harvard.edu/\" target=\"_blank\">Harvard&nbsp;Dataverse</a></li><li><a href=\"https://dataverse.unc.edu/\" target=\"_blank\">UNC Dataverse</a></li><li><a href=\"https://figshare.com/\" target=\"_blank\">Figshare</a></li><li><a href=\"https://zenodo.org/\" target=\"_blank\">Zenodo</a></li><li><a href=\"http://datadryad.org/\" target=\"_blank\">Dryad Digital Repository</a></li></ul><p>Need help choosing a repository? Contact us at <a href=\"mailto:askdata@duke.edu\">askdata@duke.edu</a></p>",
            "bundle" : "page",
            "delta" : 0,
            "body_summary" : "",
            "langcode" : "und"
         },
         "node_revision__field_tags" : []
      }
   ],
   "langcode" : "und"
}

