{
   "nid" : "90",
   "path_alias" : {
      "language" : "und",
      "status" : 0,
      "alias" : "/sources/housing_foreclosures",
      "pid" : 111,
      "langcode" : "und"
   },
   "node__body" : {
      "revision_id" : 2365,
      "body_format" : "full_html",
      "entity_id" : 90,
      "deleted" : 0,
      "langcode" : "und",
      "body_summary" : "",
      "body_value" : "<p>The following material provides some useful links for scholars researching housing characteristics, foreclosures and mortgages.</p><p></p><table valign=\"top\"><thead><tr class=\"header\"><th>Source</th><th>Details</th><th>Notes</th></tr></thead><tbody><tr><td colspan=\"3\"><b>Data Sources</b></td></tr><tr><td><a href=\"http://www.ffiec.gov/\" target=\"_blank\">Federal Financial Institutions Examination Council (FFIEC)</a></td><td>Provides a variety of reports required by mortgage disclosure regulations. Disaggregation into loan types and federal program types are available.</td><td>Click the \"Reports\" link on the navigation toolbar to see a variety of report types. The <span style=\"text-decoration: underline;\">Home Mortgage Disclosure Act</span> section provides quantitative information on mortgages for Metropolitan Statistical Areas (MSAs), provided as PDFs.&nbsp;</td></tr><tr><td><a href=\"http://www.huduser.org/portal/newhome.html\" target=\"_blank\" title=\"HUD User\">HUD User</a></td><td>Contains research and data about housing and related government initiatives</td><td>See the \"Data Sets\" section for survey information, Government Sponsored Enterprise (GSE) information and current federal housing policy</td></tr><tr><td><a href=\"http://www.mortgagebankers.org/ResearchandForecasts/ProductsandSurveys/NationalDelinquencySurvey.htm\" target=\"_blank\">National Delinquency Survey</a> (Mortgage Banker Association, via <a href=\"http://library.fuqua.duke.edu/dstream.htm\" target=\"_blank\">DataStream</a>)</td><td>Provides quarterly delinquency and foreclosure statistics at the national, regional and state levels. Loan types and degrees of delinquency are disaggregated.</td><td>Can only be accessed through DataStream at the Ford Library</td></tr><tr><td><a href=\"http://www.newyorkfed.org/creditconditions/\" target=\"_blank\">U.S. Credit Conditions (Federal Reserve Bank of New York)</a></td><td>A variety of mortgage indicators and household debt and credit statistics by state and county. Also provides external links to economic data sources. Limited time series data.</td><td>Use the provided web application to explore the data graphically. Data can be downloaded as Excel spreadsheets. Each tab provides a different type of information.</td></tr><tr><td colspan=\"3\">&nbsp;</td></tr><tr><td colspan=\"3\"><b>Information Sources</b></td></tr><tr><td><a href=\"http://www.ffiec.gov/hmda/default.htm\" target=\"_blank\">Home Mortgage Disclosure Act (HDMA)</a></td><td>Informational resource for home mortgage regulation and gateway to statistical information</td><td>See the FFIEC site to obtain data</td></tr><tr><td><a href=\"http://www.realtor.org/research-and-statistics\" target=\"_blank\">Realtor.org Research site</a></td><td>Provides recent market analysis, reports and some statistical information</td><td>From the main page, click the \"Research\" tab to the right. Some statistics are available, see individual reports for availability.</td></tr></tbody></table><p></p><p>&nbsp;</p>",
      "bundle" : "page",
      "delta" : 0
   },
   "field_image" : null,
   "langcode" : "und",
   "revisions" : [
      {
         "field_revision" : {
            "changed" : null,
            "revision_translation_affected" : 1,
            "sticky" : 0,
            "title" : "Housing and Foreclosures Data and Information",
            "uid" : 1,
            "langcode" : null,
            "default_langcode" : 1,
            "created" : null,
            "status" : 1
         },
         "timestamp" : 1524762119,
         "status" : 1,
         "title" : "Housing and Foreclosures Data and Information",
         "uid" : 55,
         "promote" : 0,
         "node_revision__field_tags" : [],
         "log" : "",
         "vuuid" : "1237d302-d77c-4107-a769-a727926ff47f",
         "node_revision__body" : {
            "delta" : 0,
            "bundle" : "page",
            "body_value" : "<p>The following material provides some useful links for scholars researching housing characteristics, foreclosures and mortgages.</p><p></p><table valign=\"top\"><thead><tr class=\"header\"><th>Source</th><th>Details</th><th>Notes</th></tr></thead><tbody><tr><td colspan=\"3\"><b>Data Sources</b></td></tr><tr><td><a href=\"http://www.ffiec.gov/\" target=\"_blank\">Federal Financial Institutions Examination Council (FFIEC)</a></td><td>Provides a variety of reports required by mortgage disclosure regulations. Disaggregation into loan types and federal program types are available.</td><td>Click the \"Reports\" link on the navigation toolbar to see a variety of report types. The <span style=\"text-decoration: underline;\">Home Mortgage Disclosure Act</span> section provides quantitative information on mortgages for Metropolitan Statistical Areas (MSAs), provided as PDFs.&nbsp;</td></tr><tr><td><a href=\"http://www.huduser.org/portal/newhome.html\" target=\"_blank\" title=\"HUD User\">HUD User</a></td><td>Contains research and data about housing and related government initiatives</td><td>See the \"Data Sets\" section for survey information, Government Sponsored Enterprise (GSE) information and current federal housing policy</td></tr><tr><td><a href=\"http://www.mortgagebankers.org/ResearchandForecasts/ProductsandSurveys/NationalDelinquencySurvey.htm\" target=\"_blank\">National Delinquency Survey</a> (Mortgage Banker Association, via <a href=\"http://library.fuqua.duke.edu/dstream.htm\" target=\"_blank\">DataStream</a>)</td><td>Provides quarterly delinquency and foreclosure statistics at the national, regional and state levels. Loan types and degrees of delinquency are disaggregated.</td><td>Can only be accessed through DataStream at the Ford Library</td></tr><tr><td><a href=\"http://www.newyorkfed.org/creditconditions/\" target=\"_blank\">U.S. Credit Conditions (Federal Reserve Bank of New York)</a></td><td>A variety of mortgage indicators and household debt and credit statistics by state and county. Also provides external links to economic data sources. Limited time series data.</td><td>Use the provided web application to explore the data graphically. Data can be downloaded as Excel spreadsheets. Each tab provides a different type of information.</td></tr><tr><td colspan=\"3\">&nbsp;</td></tr><tr><td colspan=\"3\"><b>Information Sources</b></td></tr><tr><td><a href=\"http://www.ffiec.gov/hmda/default.htm\" target=\"_blank\">Home Mortgage Disclosure Act (HDMA)</a></td><td>Informational resource for home mortgage regulation and gateway to statistical information</td><td>See the FFIEC site to obtain data</td></tr><tr><td><a href=\"http://www.realtor.org/research-and-statistics\" target=\"_blank\">Realtor.org Research site</a></td><td>Provides recent market analysis, reports and some statistical information</td><td>From the main page, click the \"Research\" tab to the right. Some statistics are available, see individual reports for availability.</td></tr></tbody></table><p></p><p>&nbsp;</p>",
            "body_summary" : "",
            "langcode" : "und",
            "deleted" : 0,
            "entity_id" : 90,
            "body_format" : "full_html",
            "revision_id" : 2365
         },
         "comment" : 1,
         "sticky" : 0
      }
   ],
   "uuid" : "0ae5b44e-1228-4630-879c-dfe89563f223",
   "node_access" : null,
   "type" : "page",
   "field_tags" : [],
   "asidebox" : {
      "body_title" : "",
      "bid" : null,
      "vid" : 2365,
      "body_format" : null,
      "block_delta" : null,
      "block_module" : null,
      "nid" : 90,
      "status" : "disabled",
      "body_value" : null
   },
   "node_field_data" : {
      "changed" : null,
      "revision_translation_affected" : 1,
      "sticky" : 0,
      "langcode" : "und",
      "created" : 1381423776,
      "type" : "page",
      "status" : 1,
      "title" : "Housing and Foreclosures Data and Information",
      "default_langcode" : 1,
      "uid" : 1,
      "promote" : 0
   },
   "vid" : 2365
}

