{
   "node_access" : null,
   "uuid" : "376cec60-0684-4124-af20-93d093da7f2a",
   "revisions" : [
      {
         "status" : 1,
         "promote" : 0,
         "uid" : 5,
         "title" : "Combat Area Casualties Dataset",
         "timestamp" : 1614871798,
         "field_revision" : {
            "revision_translation_affected" : 1,
            "changed" : null,
            "langcode" : null,
            "uid" : 1,
            "title" : "Combat Area Casualties Dataset",
            "default_langcode" : 1,
            "created" : null,
            "sticky" : 0,
            "status" : 1
         },
         "comment" : 1,
         "sticky" : 0,
         "node_revision__field_tags" : [],
         "node_revision__body" : {
            "revision_id" : 2952,
            "body_format" : "full_html",
            "deleted" : 0,
            "entity_id" : 10,
            "body_summary" : "",
            "langcode" : "und",
            "body_value" : "<p>This series contains records of U.S. military officers and soldiers who died as a result of either a hostile or nonhostile occurrence or who were missing in action or prisoners of war in the Southeast Asian combat area during the Vietnam War&nbsp;—&nbsp;including casualties that occurred in Cambodia, China, Laos, North Vietnam, South Vietnam and Thailand. The records derive from information submitted by each of the military services on Department of Defense Form 1300, Individual Report of Casualty. The database has both final and nonfinal records. A data field in each record distinguishes between them. Final records, also referred to as the \"last\" records, represent the most current official information about a deceased casualty or about repatriated personnel. Nonfinal records, also referred to as \"previous\" records, are those that precede the final records.</p><h2>Coverage</h2><ul><li><p>6/8/1956 - 1/21/1998</p></li><li><p>Note that information is restricted when the person is not deceased</p></li><li><p>This is a public use version with restricted records included without identifiers</p></li></ul><h2>Finding Aid Sources</h2><ul><li><p>National Archives and Records Administration (NARA)</p></li><li><p>Directorate for Information Operations and Reports in the Office of the Secretary of Defense</p></li></ul><h2>Documentation</h2><ul><li><p><a href=\"%20%20%20%20National%20Archives%20and%20Records%20Administration%20(NARA)%20%20%20%20%20%20Directorate%20for%20Information%20Operations%20and%20Reports%20in%20the%20Office%20of%20the%20Secretary%20of%20Defense\">Online defintions of variables</a></p></li><li><p><a href=\"https://catalog.archives.gov/OpaAPI/media/1965870/content/arcmedia/electronic-records/rg-330/cacdb/153.1DP.pdf?download=false\" title=\"Codebook Combat Area Casualties Current File\">Full (pdf) Codebook for the Combat Area Casualties Current File</a></p></li></ul><h2>Public Use Data Files</h2><ul><li><p><a href=\"/data/files/cac/CACCF.xls\" title=\"CAC Data\" class=\"dataset\" style=\"color: #336699;\">XLS file</a></p></li><li><p><a href=\"/data/files/cac/CACCF.xls\" title=\"CAC Data\" class=\"dataset\" style=\"color: #336699;\"></a><a href=\"/data/files/cac/CACDEC98.ASC\" title=\"CAC Data\" class=\"dataset\" style=\"color: #336699;\">ASC text file</a></p></li></ul>",
            "bundle" : "about_page",
            "delta" : 0
         },
         "vuuid" : "aee4c787-496e-4dd4-9ad8-ccfed5449614",
         "log" : ""
      }
   ],
   "langcode" : "und",
   "field_image" : null,
   "node__body" : {
      "delta" : 0,
      "bundle" : "about_page",
      "body_value" : "<p>This series contains records of U.S. military officers and soldiers who died as a result of either a hostile or nonhostile occurrence or who were missing in action or prisoners of war in the Southeast Asian combat area during the Vietnam War&nbsp;—&nbsp;including casualties that occurred in Cambodia, China, Laos, North Vietnam, South Vietnam and Thailand. The records derive from information submitted by each of the military services on Department of Defense Form 1300, Individual Report of Casualty. The database has both final and nonfinal records. A data field in each record distinguishes between them. Final records, also referred to as the \"last\" records, represent the most current official information about a deceased casualty or about repatriated personnel. Nonfinal records, also referred to as \"previous\" records, are those that precede the final records.</p><h2>Coverage</h2><ul><li><p>6/8/1956 - 1/21/1998</p></li><li><p>Note that information is restricted when the person is not deceased</p></li><li><p>This is a public use version with restricted records included without identifiers</p></li></ul><h2>Finding Aid Sources</h2><ul><li><p>National Archives and Records Administration (NARA)</p></li><li><p>Directorate for Information Operations and Reports in the Office of the Secretary of Defense</p></li></ul><h2>Documentation</h2><ul><li><p><a href=\"%20%20%20%20National%20Archives%20and%20Records%20Administration%20(NARA)%20%20%20%20%20%20Directorate%20for%20Information%20Operations%20and%20Reports%20in%20the%20Office%20of%20the%20Secretary%20of%20Defense\">Online defintions of variables</a></p></li><li><p><a href=\"https://catalog.archives.gov/OpaAPI/media/1965870/content/arcmedia/electronic-records/rg-330/cacdb/153.1DP.pdf?download=false\" title=\"Codebook Combat Area Casualties Current File\">Full (pdf) Codebook for the Combat Area Casualties Current File</a></p></li></ul><h2>Public Use Data Files</h2><ul><li><p><a href=\"/data/files/cac/CACCF.xls\" title=\"CAC Data\" class=\"dataset\" style=\"color: #336699;\">XLS file</a></p></li><li><p><a href=\"/data/files/cac/CACCF.xls\" title=\"CAC Data\" class=\"dataset\" style=\"color: #336699;\"></a><a href=\"/data/files/cac/CACDEC98.ASC\" title=\"CAC Data\" class=\"dataset\" style=\"color: #336699;\">ASC text file</a></p></li></ul>",
      "body_summary" : "",
      "langcode" : "und",
      "deleted" : 0,
      "entity_id" : 10,
      "body_format" : "full_html",
      "revision_id" : 2952
   },
   "path_alias" : {
      "alias" : "/sources/cac-vietnam",
      "language" : "und",
      "status" : 0,
      "pid" : 24,
      "langcode" : "und"
   },
   "nid" : "10",
   "node_field_data" : {
      "revision_translation_affected" : 1,
      "changed" : null,
      "langcode" : "und",
      "created" : 1374866506,
      "sticky" : 0,
      "type" : "about_page",
      "title" : "Combat Area Casualties Dataset",
      "default_langcode" : 1,
      "uid" : 1,
      "promote" : 0,
      "status" : 1
   },
   "vid" : 2952,
   "asidebox" : {
      "bid" : 303,
      "body_title" : "More Information ",
      "block_delta" : "5",
      "vid" : 2952,
      "body_format" : "full_html",
      "block_module" : "block",
      "status" : "html",
      "nid" : 10,
      "body_value" : "<p>Each record includes:</p><ul><li><p>the casualty's name</p></li><li><p>file reference number</p></li><li><p>date of birth</p></li><li><p>date of death or repatriation</p></li><li><p>date Southeast Asian tour began</p></li><li><p>record processing date</p></li><li><p>city and state of home of record</p></li><li><p>the casualty's military service branch</p></li><li><p>country of casualty</p></li><li><p>type of casualty</p></li><li><p>military grade and pay grade</p></li><li><p>military occupation</p></li><li><p>service component</p></li><li><p>race</p></li><li><p>religion</p></li><li><p>length of service</p></li><li><p>marital status, sex</p></li><li><p>citizenship</p></li><li><p>the reason or cause of casualty</p></li><li><p>whether the casualty involved an aircraft</p></li><li><p>the status of the casualty's body (whether recovered or not)</p></li><li><p>whether the casualty was posthumously promoted</p></li><li><p>the South Vietnam province where the casualty occurred, when applicable</p></li></ul><p><strong>NOTE: Service numbers have been removed from this public use file.</strong></p>"
   },
   "field_tags" : [],
   "type" : "about_page"
}

