{
   "node__body" : {
      "delta" : 0,
      "bundle" : "about_page",
      "body_value" : "<p>This page provides a variety of Census 2010 indicators for North Carolina counties and census tracts, compiled by the Data and GIS Services Department. The maps were sourced from the&nbsp;<a href=\"http://www.census.gov/geo/maps-data/data/tiger-line.html\" target=\"_blank\">2011 Tiger/Line shapefiles collection</a>&nbsp;located at the&nbsp;<a href=\"http://www.census.gov/\" target=\"_blank\">U.S. Census Bureau</a>.</p><p>The map attributes closely reflect those provided in the <a href=\"/data/collections/gis/esri\">ESRI Data and Maps series</a> to facilitate ease of use. Please refer to the codebook for compilation details, and specific indicators and Census field codes found in the data.</p><ul><li><p><a href=\"/data/files/gis/nc/Codebook.pdf\" target=\"_blank\">Codebook</a></p></li><li><p><a href=\"/data/files/gis/nc/census_2010_nc_counties.zip\">North Carolina, Counties</a></p></li><li><p><a href=\"/data/files/gis/nc/census_2010_nc_tract.zip\">North Carolina, Tracts</a></p></li></ul>",
      "body_summary" : "",
      "langcode" : "und",
      "entity_id" : 7,
      "deleted" : 0,
      "body_format" : "full_html",
      "revision_id" : 2283
   },
   "path_alias" : {
      "langcode" : "und",
      "pid" : 21,
      "alias" : "/sources/census10_nc",
      "status" : 0,
      "language" : "und"
   },
   "field_image" : null,
   "nid" : "7",
   "node_access" : null,
   "langcode" : "und",
   "uuid" : "3cb39780-4d88-48a8-b883-89213d7856c1",
   "revisions" : [
      {
         "field_revision" : {
            "status" : 1,
            "sticky" : 0,
            "default_langcode" : 1,
            "uid" : 1,
            "langcode" : null,
            "title" : "Census 2010 Maps — North Carolina Counties and Tracts",
            "created" : null,
            "changed" : null,
            "revision_translation_affected" : 1
         },
         "timestamp" : 1524756368,
         "uid" : 67,
         "title" : "Census 2010 Maps — North Carolina Counties and Tracts",
         "promote" : 0,
         "status" : 1,
         "vuuid" : "8d1c2cf8-e8ad-4d98-a46a-695e6ef6f85a",
         "log" : "",
         "node_revision__body" : {
            "body_value" : "<p>This page provides a variety of Census 2010 indicators for North Carolina counties and census tracts, compiled by the Data and GIS Services Department. The maps were sourced from the&nbsp;<a href=\"http://www.census.gov/geo/maps-data/data/tiger-line.html\" target=\"_blank\">2011 Tiger/Line shapefiles collection</a>&nbsp;located at the&nbsp;<a href=\"http://www.census.gov/\" target=\"_blank\">U.S. Census Bureau</a>.</p><p>The map attributes closely reflect those provided in the <a href=\"/data/collections/gis/esri\">ESRI Data and Maps series</a> to facilitate ease of use. Please refer to the codebook for compilation details, and specific indicators and Census field codes found in the data.</p><ul><li><p><a href=\"/data/files/gis/nc/Codebook.pdf\" target=\"_blank\">Codebook</a></p></li><li><p><a href=\"/data/files/gis/nc/census_2010_nc_counties.zip\">North Carolina, Counties</a></p></li><li><p><a href=\"/data/files/gis/nc/census_2010_nc_tract.zip\">North Carolina, Tracts</a></p></li></ul>",
            "delta" : 0,
            "bundle" : "about_page",
            "body_summary" : "",
            "langcode" : "und",
            "body_format" : "full_html",
            "entity_id" : 7,
            "deleted" : 0,
            "revision_id" : 2283
         },
         "node_revision__field_tags" : [],
         "sticky" : 0,
         "comment" : 1
      }
   ],
   "type" : "about_page",
   "vid" : 2283,
   "node_field_data" : {
      "changed" : null,
      "revision_translation_affected" : 1,
      "sticky" : 0,
      "created" : 1374864766,
      "langcode" : "und",
      "type" : "about_page",
      "status" : 1,
      "promote" : 0,
      "default_langcode" : 1,
      "title" : "Census 2010 Maps — North Carolina Counties and Tracts",
      "uid" : 1
   },
   "field_tags" : [],
   "asidebox" : {
      "bid" : null,
      "body_title" : "",
      "block_delta" : null,
      "body_format" : null,
      "vid" : 2283,
      "block_module" : null,
      "status" : "disabled",
      "nid" : 7,
      "body_value" : null
   }
}

