{
   "nid" : "46",
   "path_alias" : {
      "pid" : 60,
      "langcode" : "und",
      "alias" : "/sources/gis/esri/esri_2006",
      "language" : "und",
      "status" : 0
   },
   "node__body" : {
      "delta" : 0,
      "bundle" : "about_page",
      "body_value" : "<p><strong>ESRI Data and Maps 2006</strong> is a map collection included with a license to <a href=\"https://oit.duke.edu/comp-print/software/license/detail.php?id=30\">ArcGIS Software</a>.&nbsp; All layers are compressed in \".zip\" format and require <a href=\"https://oit.duke.edu/comp-print/software/license/detail.php?id=30\">GIS software</a> capable of reading&nbsp;<strong>Smart Data Compression (SDC) files.</strong></p><p>Only current members of the Duke Community may access this collection.&nbsp; Redistribution is strictly prohibited.&nbsp;<a href=\"http://help.arcgis.com/en/arcgisdesktop/10.0/help/index.html#/License_agreement/00r90000002w000000/\">Get more information about redistribution rights</a>.</p><h3>Canada</h3><table class=\"table\"><thead><tr><th>Layer Name</th><th style=\"width: 15%;\" scope=\"col\">ArcGIS Layer</th><th style=\"width: 15%;\" scope=\"col\">Metadata</th></tr></thead><tbody><tr><td>FSA Postal Centroids</td><td><a href=\"http://library.duke.edu/data/duke-only/gis/esri/esridm/2006/canada/postal.zip\">SDC</a></td><td><a href=\"http://library.duke.edu/data/files/esri/esridm/2006/canada/postal.html\">Metadata</a></td></tr><tr><td>Major Cities</td><td><a href=\"http://library.duke.edu/data/duke-only/gis/esri/esridm/2006/canada/mjcities.zip\">SDC</a></td><td><a href=\"http://library.duke.edu/data/files/esri/esridm/2006/canada/mjcities.html\">Metadata</a></td></tr><tr><td>Rural Cities</td><td><a href=\"http://library.duke.edu/data/duke-only/gis/esri/esridm/2006/canada/rurcities.zip\">SDC</a></td><td><a href=\"http://library.duke.edu/data/files/esri/esridm/2006/canada/rurcities.html\">Metadata</a></td></tr><tr><td>Urban Cities</td><td><a href=\"http://library.duke.edu/data/duke-only/gis/esri/esridm/2006/canada/urbcities.zip\">SDC</a></td><td><a href=\"http://library.duke.edu/data/files/esri/esridm/2006/canada/urbcities.html\">Metadata</a></td></tr></tbody></table><p>&nbsp;</p><h3>Europe</h3><table class=\"table\"><thead><tr><th>Layer Name</th><th style=\"width: 15%;\" scope=\"col\">ArcGIS Layer</th><th style=\"width: 15%;\" scope=\"col\">Metadata</th></tr></thead><tbody><tr><td>Cities</td><td><a href=\"http://library.duke.edu/data/duke-only/gis/esri/esridm/2006/europe/basemap/cities.zip\">SDC</a></td><td><a href=\"http://library.duke.edu/data/files/esri/esridm/2006/europe/basemap/cities.html\">Metadata</a></td></tr><tr><td>Countries</td><td><a href=\"http://library.duke.edu/data/duke-only/gis/esri/esridm/2006/europe/basemap/country.zip\">SDC</a></td><td><a href=\"http://library.duke.edu/data/files/esri/esridm/2006/europe/basemap/country.html\">Metadata</a></td></tr><tr><td>Ferries</td><td><a href=\"http://library.duke.edu/data/duke-only/gis/esri/esridm/2006/europe/basemap/ferries.zip\">SDC</a></td><td><a href=\"http://library.duke.edu/data/files/esri/esridm/2006/europe/basemap/ferries.html\">Metadata</a></td></tr><tr><td>Major Roads</td><td><a href=\"http://library.duke.edu/data/duke-only/gis/esri/esridm/2006/europe/basemap/mjrroads.zip\">SDC</a></td><td><a href=\"http://library.duke.edu/data/files/esri/esridm/2006/europe/basemap/mjrroads.html\">Metadata</a></td></tr><tr><td>Major Water</td><td><a href=\"http://library.duke.edu/data/duke-only/gis/esri/esridm/2006/europe/basemap/mjrwater.zip\">SDC</a></td><td><a href=\"http://library.duke.edu/data/files/esri/esridm/2006/europe/basemap/mjrwater.html\">Metadata</a></td></tr><tr><td>NUTS 0 Demographics</td><td><a href=\"http://library.duke.edu/data/duke-only/gis/esri/esridm/2006/europe/demography/nuts0.zip\">SDC</a></td><td><a href=\"http://library.duke.edu/data/files/esri/esridm/2006/europe/demography/nuts0.html\">Metadata</a></td></tr><tr><td>NUTS 1 Demographics</td><td><a href=\"http://library.duke.edu/data/duke-only/gis/esri/esridm/2006/europe/demography/nuts1.zip\">SDC</a></td><td><a href=\"http://library.duke.edu/data/files/esri/esridm/2006/europe/demography/nuts1.html\">Metadata</a></td></tr><tr><td>NUTS 2 Demographics</td><td><a href=\"http://library.duke.edu/data/duke-only/gis/esri/esridm/2006/europe/demography/nuts2.zip\">SDC</a></td><td><a href=\"http://library.duke.edu/data/files/esri/esridm/2006/europe/demography/nuts2.html\">Metadata</a></td></tr><tr><td>NUTS 3 Demographics</td><td><a href=\"http://library.duke.edu/data/duke-only/gis/esri/esridm/2006/europe/demography/nuts3.zip\">SDC</a></td><td><a href=\"http://library.duke.edu/data/files/esri/esridm/2006/europe/demography/nuts3.html\">Metadata</a></td></tr><tr><td>Places</td><td><a href=\"http://library.duke.edu/data/duke-only/gis/esri/esridm/2006/europe/basemap/places.zip\">SDC</a></td><td><a href=\"http://library.duke.edu/data/files/esri/esridm/2006/europe/basemap/places.html\">Metadata</a></td></tr><tr><td>Provinces Level 1</td><td><a href=\"http://library.duke.edu/data/duke-only/gis/esri/esridm/2006/europe/basemap/prov1.zip\">SDC</a></td><td><a href=\"http://library.duke.edu/data/files/esri/esridm/2006/europe/basemap/prov1.html\">Metadata</a></td></tr><tr><td>Provinces Level 2</td><td><a href=\"http://library.duke.edu/data/duke-only/gis/esri/esridm/2006/europe/basemap/prov2.zip\">SDC</a></td><td><a href=\"http://library.duke.edu/data/files/esri/esridm/2006/europe/basemap/prov2.html\">Metadata</a></td></tr><tr><td>Provinces Level 3</td><td><a href=\"http://library.duke.edu/data/duke-only/gis/esri/esridm/2006/europe/basemap/prov3.zip\">SDC</a></td><td><a href=\"http://library.duke.edu/data/files/esri/esridm/2006/europe/basemap/prov3.html\">Metadata</a></td></tr><tr><td>Railroads</td><td><a href=\"http://library.duke.edu/data/duke-only/gis/esri/esridm/2006/europe/basemap/rails.zip\">SDC</a></td><td><a href=\"http://library.duke.edu/data/files/esri/esridm/2006/europe/basemap/rails.html\">Metadata</a></td></tr><tr><td>Railroad Stations</td><td><a href=\"http://library.duke.edu/data/duke-only/gis/esri/esridm/2006/europe/basemap/rr_stns.zip\">SDC</a></td><td><a href=\"http://library.duke.edu/data/files/esri/esridm/2006/europe/basemap/rr_stns.html\">Metadata</a></td></tr><tr><td>Roads</td><td><a href=\"http://library.duke.edu/data/duke-only/gis/esri/esridm/2006/europe/basemap/roads.zip\">SDC</a></td><td><a href=\"http://library.duke.edu/data/files/esri/esridm/2006/europe/basemap/roads.html\">Metadata</a></td></tr><tr><td>Urbanized Areas</td><td><a href=\"http://library.duke.edu/data/duke-only/gis/esri/esridm/2006/europe/basemap/urban.zip\">SDC</a></td><td><a href=\"http://library.duke.edu/data/files/esri/esridm/2006/europe/basemap/urban.html\">Metadata</a></td></tr><tr><td>Water Bodies</td><td><a href=\"http://library.duke.edu/data/duke-only/gis/esri/esridm/2006/europe/basemap/water.zip\">SDC</a></td><td><a href=\"http://library.duke.edu/data/files/esri/esridm/2006/europe/basemap/water.html\">Metadata</a></td></tr></tbody></table><p>&nbsp;</p><h3>Mexico</h3><table class=\"table\"><thead><tr><th>Layer Name</th><th style=\"width: 15%;\" scope=\"col\">ArcGIS Layer</th><th style=\"width: 15%;\" scope=\"col\">Metadata</th></tr></thead><tbody><tr><td>Cities</td><td><a href=\"http://library.duke.edu/data/duke-only/gis/esri/esridm/2006/mexico/city.zip\">SDC</a></td><td><a href=\"http://library.duke.edu/data/files/esri/esridm/2006/mexico/city.html\">Metadata</a></td></tr><tr><td>Municipalities</td><td><a href=\"http://library.duke.edu/data/duke-only/gis/esri/esridm/2006/mexico/admin.zip\">SDC</a></td><td><a href=\"http://library.duke.edu/data/files/esri/esridm/2006/mexico/admin.html\">Metadata</a></td></tr><tr><td>Railroads</td><td><a href=\"http://library.duke.edu/data/duke-only/gis/esri/esridm/2006/mexico/rails.zip\">SDC</a></td><td><a href=\"http://library.duke.edu/data/files/esri/esridm/2006/mexico/rails.html\">Metadata</a></td></tr><tr><td>Roads</td><td><a href=\"http://library.duke.edu/data/duke-only/gis/esri/esridm/2006/mexico/roads.zip\">SDC</a></td><td><a href=\"http://library.duke.edu/data/files/esri/esridm/2006/mexico/roads.html\">Metadata</a></td></tr><tr><td>States</td><td><a href=\"http://library.duke.edu/data/duke-only/gis/esri/esridm/2006/mexico/states.zip\">SDC</a></td><td><a href=\"http://library.duke.edu/data/files/esri/esridm/2006/mexico/states.html\">Metadata</a></td></tr><tr><td>Urban Areas</td><td><a href=\"http://library.duke.edu/data/duke-only/gis/esri/esridm/2006/mexico/urban.zip\">SDC</a></td><td><a href=\"http://library.duke.edu/data/files/esri/esridm/2006/mexico/urban.html\">Metadata</a></td></tr></tbody></table><p>&nbsp;</p><h3>United States</h3><table class=\"table\"><thead><tr><th>Layer Name</th><th style=\"width: 15%;\" scope=\"col\">ArcGIS Layer</th><th style=\"width: 15%;\" scope=\"col\">Metadata</th></tr></thead><tbody><tr><td>109th Congressional Districts</td><td><a href=\"http://library.duke.edu/data/duke-only/gis/esri/esridm/2006/usa/cd109.zip\">SDC</a></td><td><a href=\"http://library.duke.edu/data/files/esri/esridm/2006/usa/cd109.html\">Metadata</a></td></tr><tr><td>Airports</td><td><a href=\"http://library.duke.edu/data/duke-only/gis/esri/esridm/2006/usa/airportp.zip\">SDC</a></td><td><a href=\"http://library.duke.edu/data/files/esri/esridm/2006/usa/airportp.html\">Metadata</a></td></tr><tr><td>Census Block Centroid Populations</td><td><a href=\"http://library.duke.edu/data/duke-only/gis/esri/esridm/2006/usa/blockpop.zip\">SDC</a></td><td><a href=\"http://library.duke.edu/data/files/esri/esridm/2006/usa/blockpop.html\">Metadata</a></td></tr><tr><td>Census Block Groups</td><td><a href=\"http://library.duke.edu/data/duke-only/gis/esri/esridm/2006/usa/blkgrp.zip\">SDC</a></td><td><a href=\"http://library.duke.edu/data/files/esri/esridm/2006/usa/blkgrp.html\">Metadata</a></td></tr><tr><td>Census Feature Class Codes (table)</td><td><a href=\"http://library.duke.edu/data/duke-only/gis/esri/esridm/2006/usa/cfcc.zip\">Table</a></td><td><a href=\"http://library.duke.edu/data/files/esri/esridm/2006/usa/cfcc.html\">Metadata</a></td></tr><tr><td>Census Tracts</td><td><a href=\"http://library.duke.edu/data/duke-only/gis/esri/esridm/2006/usa/tracts.zip\">SDC</a></td><td><a href=\"http://library.duke.edu/data/files/esri/esridm/2006/usa/tracts.html\">Metadata</a></td></tr><tr><td>Core-Based Statistical Areas</td><td><a href=\"http://library.duke.edu/data/duke-only/gis/esri/esridm/2006/usa/cbsa.zip\">SDC</a></td><td><a href=\"http://library.duke.edu/data/files/esri/esridm/2006/usa/cbsa.html\">Metadata</a></td></tr><tr><td>Counties</td><td><a href=\"http://library.duke.edu/data/duke-only/gis/esri/esridm/2006/usa/dtl_cnty.zip\">SDC</a></td><td><a href=\"http://library.duke.edu/data/files/esri/esridm/2006/usa/dtl_cnty.html\">Metadata</a></td></tr><tr><td>Hospitals</td><td><a href=\"http://library.duke.edu/data/duke-only/gis/esri/esridm/2006/usa/hospitals.zip\">SDC</a></td><td><a href=\"http://library.duke.edu/data/files/esri/esridm/2006/usa/hospitals.html\">Metadata</a></td></tr><tr><td>Institutions</td><td><a href=\"http://library.duke.edu/data/duke-only/gis/esri/esridm/2006/usa/institut.zip\">SDC</a></td><td><a href=\"http://library.duke.edu/data/files/esri/esridm/2006/usa/institut.html\">Metadata</a></td></tr><tr><td>Large Area Landmarks</td><td><a href=\"http://library.duke.edu/data/duke-only/gis/esri/esridm/2006/usa/lalndmrk.zip\">SDC</a></td><td><a href=\"http://library.duke.edu/data/files/esri/esridm/2006/usa/lalndmrk.html\">Metadata</a></td></tr><tr><td>Major Highways</td><td><a href=\"http://library.duke.edu/data/duke-only/gis/esri/esridm/2006/usa/mjr_hwys.zip\">SDC</a></td><td><a href=\"http://library.duke.edu/data/files/esri/esridm/2006/usa/mjr_hwys.html\">Metadata</a></td></tr><tr><td>Major Roads</td><td><a href=\"http://library.duke.edu/data/duke-only/gis/esri/esridm/2006/usa/mjrrds.zip\">SDC</a></td><td><a href=\"http://library.duke.edu/data/files/esri/esridm/2006/usa/mjrrds.html\">Metadata</a></td></tr><tr><td>National Atlas - Historic Earthquakes</td><td><a href=\"http://library.duke.edu/data/duke-only/gis/esri/esridm/2006/usa/quakehis.zip\">SDC</a></td><td><a href=\"http://library.duke.edu/data/files/esri/esridm/2006/usa/quakehis.html\">Metadata</a></td></tr><tr><td>National Atlas - Volcanoes</td><td><a href=\"http://library.duke.edu/data/duke-only/gis/esri/esridm/2006/usa/volcano.zip\">SDC</a></td><td><a href=\"http://library.duke.edu/data/files/esri/esridm/2006/usa/volcano.html\">Metadata</a></td></tr><tr><td>Park Landmarks</td><td><a href=\"http://library.duke.edu/data/duke-only/gis/esri/esridm/2006/usa/park_dtl.zip\">SDC</a></td><td><a href=\"http://library.duke.edu/data/files/esri/esridm/2006/usa/park_dtl.html\">Metadata</a></td></tr><tr><td>Populated Place Areas</td><td><a href=\"http://library.duke.edu/data/duke-only/gis/esri/esridm/2006/usa/placeply.zip\">SDC</a></td><td><a href=\"http://library.duke.edu/data/files/esri/esridm/2006/usa/placeply.html\">Metadata</a></td></tr><tr><td>Recreation Areas</td><td><a href=\"http://library.duke.edu/data/duke-only/gis/esri/esridm/2006/usa/recareas.zip\">SDC</a></td><td><a href=\"http://library.duke.edu/data/files/esri/esridm/2006/usa/recareas.html\">Metadata</a></td></tr><tr><td>States</td><td><a href=\"http://library.duke.edu/data/duke-only/gis/esri/esridm/2006/usa/dtl_st.zip\">SDC</a></td><td><a href=\"http://library.duke.edu/data/files/esri/esridm/2006/usa/dtl_st.html\">Metadata</a></td></tr><tr><td>Telephone Area Code Boundaries</td><td><a href=\"http://library.duke.edu/data/duke-only/gis/esri/esridm/2006/usa/areacode.zip\">SDC</a></td><td><a href=\"http://library.duke.edu/data/files/esri/esridm/2006/usa/areacode.html\">Metadata</a></td></tr><tr><td>Transportation Terminals</td><td><a href=\"http://library.duke.edu/data/duke-only/gis/esri/esridm/2006/usa/tranterm.zip\">SDC</a></td><td><a href=\"http://library.duke.edu/data/files/esri/esridm/2006/usa/tranterm.html\">Metadata</a></td></tr><tr><td>Water Feature Lines</td><td><a href=\"http://library.duke.edu/data/duke-only/gis/esri/esridm/2006/usa/hydroln.zip\">SDC</a></td><td><a href=\"http://library.duke.edu/data/files/esri/esridm/2006/usa/hydroln.html\">Metadata</a></td></tr><tr><td>ZIP Code Areas (Five-Digit)</td><td><a href=\"http://library.duke.edu/data/duke-only/gis/esri/esridm/2006/usa/zip_poly.zip\">SDC</a></td><td><a href=\"http://library.duke.edu/data/files/esri/esridm/2006/usa/zip_poly.html\">Metadata</a></td></tr><tr><td>ZIP Code Areas (Three-Digit)</td><td><a href=\"http://library.duke.edu/data/duke-only/gis/esri/esridm/2006/usa/zip3.zip\">SDC</a></td><td><a href=\"http://library.duke.edu/data/files/esri/esridm/2006/usa/zip3.html\">Metadata</a></td></tr><tr><td>ZIP Code Points</td><td><a href=\"http://library.duke.edu/data/duke-only/gis/esri/esridm/2006/usa/zip_usa.zip\">SDC</a></td><td><a href=\"http://library.duke.edu/data/files/esri/esridm/2006/usa/zip_usa.html\">Metadata</a></td></tr></tbody></table><p>&nbsp;</p><h3>World</h3><table class=\"table\"><thead><tr><th>Layer Name</th><th style=\"width: 15%;\" scope=\"col\">ArcGIS Layer</th><th style=\"width: 15%;\" scope=\"col\">Metadata</th></tr></thead><tbody><tr><td>Administrative Units</td><td><a href=\"http://library.duke.edu/data/duke-only/gis/esri/esridm/2006/world/admin.zip\">SDC</a></td><td><a href=\"http://library.duke.edu/data/files/esri/esridm/2006/world/admin.html\">Metadata</a></td></tr><tr><td>Continents</td><td><a href=\"http://library.duke.edu/data/duke-only/gis/esri/esridm/2006/world/continent.zip\">SDC</a></td><td><a href=\"http://library.duke.edu/data/files/esri/esridm/2006/world/continent.html\">Metadata</a></td></tr><tr><td>Countries 2006</td><td><a href=\"http://library.duke.edu/data/duke-only/gis/esri/esridm/2006/world/cntry06.zip\">SDC</a></td><td><a href=\"http://library.duke.edu/data/files/esri/esridm/2006/world/cntry06.html\">Metadata</a></td></tr><tr><td>Countries (Generalized)</td><td><a href=\"http://library.duke.edu/data/duke-only/gis/esri/esridm/2006/world/country.zip\">SDC</a></td><td><a href=\"http://library.duke.edu/data/files/esri/esridm/2006/world/country.html\">Metadata</a></td></tr><tr><td>Country Memberships of Political Organizations (table)</td><td><a href=\"http://library.duke.edu/data/duke-only/gis/esri/esridm/2006/world/pol_org.zip\">Table</a></td><td><a href=\"http://library.duke.edu/data/files/esri/esridm/2006/world/pol_org.html\">Metadata</a></td></tr><tr><td>Regions</td><td><a href=\"http://library.duke.edu/data/duke-only/gis/esri/esridm/2006/world/region.zip\">SDC</a></td><td><a href=\"http://library.duke.edu/data/files/esri/esridm/2006/world/region.html\">Metadata</a></td></tr><tr><td>Time Zones</td><td><a href=\"http://library.duke.edu/data/duke-only/gis/esri/esridm/2006/world/timezone.zip\">SDC</a></td><td><a href=\"http://library.duke.edu/data/files/esri/esridm/2006/world/timezone.html\">Metadata</a></td></tr><tr><td>UTM Zones</td><td><a href=\"http://library.duke.edu/data/duke-only/gis/esri/esridm/2006/world/utmzone.zip\">SDC</a></td><td><a href=\"http://library.duke.edu/data/files/esri/esridm/2006/world/utmzone.html\">Metadata</a></td></tr><tr><td>World Map Background</td><td><a href=\"http://library.duke.edu/data/duke-only/gis/esri/esridm/2006/world/world30.zip\">SDC</a></td><td><a href=\"http://library.duke.edu/data/files/esri/esridm/2006/world/world30.html\">Metadata</a></td></tr></tbody></table>",
      "body_summary" : "",
      "langcode" : "und",
      "deleted" : 0,
      "entity_id" : 46,
      "body_format" : "full_html",
      "revision_id" : 2423
   },
   "field_image" : null,
   "langcode" : "und",
   "revisions" : [
      {
         "sticky" : 0,
         "comment" : 1,
         "node_revision__body" : {
            "body_summary" : "",
            "langcode" : "und",
            "bundle" : "about_page",
            "delta" : 0,
            "body_value" : "<p><strong>ESRI Data and Maps 2006</strong> is a map collection included with a license to <a href=\"https://oit.duke.edu/comp-print/software/license/detail.php?id=30\">ArcGIS Software</a>.&nbsp; All layers are compressed in \".zip\" format and require <a href=\"https://oit.duke.edu/comp-print/software/license/detail.php?id=30\">GIS software</a> capable of reading&nbsp;<strong>Smart Data Compression (SDC) files.</strong></p><p>Only current members of the Duke Community may access this collection.&nbsp; Redistribution is strictly prohibited.&nbsp;<a href=\"http://help.arcgis.com/en/arcgisdesktop/10.0/help/index.html#/License_agreement/00r90000002w000000/\">Get more information about redistribution rights</a>.</p><h3>Canada</h3><table class=\"table\"><thead><tr><th>Layer Name</th><th style=\"width: 15%;\" scope=\"col\">ArcGIS Layer</th><th style=\"width: 15%;\" scope=\"col\">Metadata</th></tr></thead><tbody><tr><td>FSA Postal Centroids</td><td><a href=\"http://library.duke.edu/data/duke-only/gis/esri/esridm/2006/canada/postal.zip\">SDC</a></td><td><a href=\"http://library.duke.edu/data/files/esri/esridm/2006/canada/postal.html\">Metadata</a></td></tr><tr><td>Major Cities</td><td><a href=\"http://library.duke.edu/data/duke-only/gis/esri/esridm/2006/canada/mjcities.zip\">SDC</a></td><td><a href=\"http://library.duke.edu/data/files/esri/esridm/2006/canada/mjcities.html\">Metadata</a></td></tr><tr><td>Rural Cities</td><td><a href=\"http://library.duke.edu/data/duke-only/gis/esri/esridm/2006/canada/rurcities.zip\">SDC</a></td><td><a href=\"http://library.duke.edu/data/files/esri/esridm/2006/canada/rurcities.html\">Metadata</a></td></tr><tr><td>Urban Cities</td><td><a href=\"http://library.duke.edu/data/duke-only/gis/esri/esridm/2006/canada/urbcities.zip\">SDC</a></td><td><a href=\"http://library.duke.edu/data/files/esri/esridm/2006/canada/urbcities.html\">Metadata</a></td></tr></tbody></table><p>&nbsp;</p><h3>Europe</h3><table class=\"table\"><thead><tr><th>Layer Name</th><th style=\"width: 15%;\" scope=\"col\">ArcGIS Layer</th><th style=\"width: 15%;\" scope=\"col\">Metadata</th></tr></thead><tbody><tr><td>Cities</td><td><a href=\"http://library.duke.edu/data/duke-only/gis/esri/esridm/2006/europe/basemap/cities.zip\">SDC</a></td><td><a href=\"http://library.duke.edu/data/files/esri/esridm/2006/europe/basemap/cities.html\">Metadata</a></td></tr><tr><td>Countries</td><td><a href=\"http://library.duke.edu/data/duke-only/gis/esri/esridm/2006/europe/basemap/country.zip\">SDC</a></td><td><a href=\"http://library.duke.edu/data/files/esri/esridm/2006/europe/basemap/country.html\">Metadata</a></td></tr><tr><td>Ferries</td><td><a href=\"http://library.duke.edu/data/duke-only/gis/esri/esridm/2006/europe/basemap/ferries.zip\">SDC</a></td><td><a href=\"http://library.duke.edu/data/files/esri/esridm/2006/europe/basemap/ferries.html\">Metadata</a></td></tr><tr><td>Major Roads</td><td><a href=\"http://library.duke.edu/data/duke-only/gis/esri/esridm/2006/europe/basemap/mjrroads.zip\">SDC</a></td><td><a href=\"http://library.duke.edu/data/files/esri/esridm/2006/europe/basemap/mjrroads.html\">Metadata</a></td></tr><tr><td>Major Water</td><td><a href=\"http://library.duke.edu/data/duke-only/gis/esri/esridm/2006/europe/basemap/mjrwater.zip\">SDC</a></td><td><a href=\"http://library.duke.edu/data/files/esri/esridm/2006/europe/basemap/mjrwater.html\">Metadata</a></td></tr><tr><td>NUTS 0 Demographics</td><td><a href=\"http://library.duke.edu/data/duke-only/gis/esri/esridm/2006/europe/demography/nuts0.zip\">SDC</a></td><td><a href=\"http://library.duke.edu/data/files/esri/esridm/2006/europe/demography/nuts0.html\">Metadata</a></td></tr><tr><td>NUTS 1 Demographics</td><td><a href=\"http://library.duke.edu/data/duke-only/gis/esri/esridm/2006/europe/demography/nuts1.zip\">SDC</a></td><td><a href=\"http://library.duke.edu/data/files/esri/esridm/2006/europe/demography/nuts1.html\">Metadata</a></td></tr><tr><td>NUTS 2 Demographics</td><td><a href=\"http://library.duke.edu/data/duke-only/gis/esri/esridm/2006/europe/demography/nuts2.zip\">SDC</a></td><td><a href=\"http://library.duke.edu/data/files/esri/esridm/2006/europe/demography/nuts2.html\">Metadata</a></td></tr><tr><td>NUTS 3 Demographics</td><td><a href=\"http://library.duke.edu/data/duke-only/gis/esri/esridm/2006/europe/demography/nuts3.zip\">SDC</a></td><td><a href=\"http://library.duke.edu/data/files/esri/esridm/2006/europe/demography/nuts3.html\">Metadata</a></td></tr><tr><td>Places</td><td><a href=\"http://library.duke.edu/data/duke-only/gis/esri/esridm/2006/europe/basemap/places.zip\">SDC</a></td><td><a href=\"http://library.duke.edu/data/files/esri/esridm/2006/europe/basemap/places.html\">Metadata</a></td></tr><tr><td>Provinces Level 1</td><td><a href=\"http://library.duke.edu/data/duke-only/gis/esri/esridm/2006/europe/basemap/prov1.zip\">SDC</a></td><td><a href=\"http://library.duke.edu/data/files/esri/esridm/2006/europe/basemap/prov1.html\">Metadata</a></td></tr><tr><td>Provinces Level 2</td><td><a href=\"http://library.duke.edu/data/duke-only/gis/esri/esridm/2006/europe/basemap/prov2.zip\">SDC</a></td><td><a href=\"http://library.duke.edu/data/files/esri/esridm/2006/europe/basemap/prov2.html\">Metadata</a></td></tr><tr><td>Provinces Level 3</td><td><a href=\"http://library.duke.edu/data/duke-only/gis/esri/esridm/2006/europe/basemap/prov3.zip\">SDC</a></td><td><a href=\"http://library.duke.edu/data/files/esri/esridm/2006/europe/basemap/prov3.html\">Metadata</a></td></tr><tr><td>Railroads</td><td><a href=\"http://library.duke.edu/data/duke-only/gis/esri/esridm/2006/europe/basemap/rails.zip\">SDC</a></td><td><a href=\"http://library.duke.edu/data/files/esri/esridm/2006/europe/basemap/rails.html\">Metadata</a></td></tr><tr><td>Railroad Stations</td><td><a href=\"http://library.duke.edu/data/duke-only/gis/esri/esridm/2006/europe/basemap/rr_stns.zip\">SDC</a></td><td><a href=\"http://library.duke.edu/data/files/esri/esridm/2006/europe/basemap/rr_stns.html\">Metadata</a></td></tr><tr><td>Roads</td><td><a href=\"http://library.duke.edu/data/duke-only/gis/esri/esridm/2006/europe/basemap/roads.zip\">SDC</a></td><td><a href=\"http://library.duke.edu/data/files/esri/esridm/2006/europe/basemap/roads.html\">Metadata</a></td></tr><tr><td>Urbanized Areas</td><td><a href=\"http://library.duke.edu/data/duke-only/gis/esri/esridm/2006/europe/basemap/urban.zip\">SDC</a></td><td><a href=\"http://library.duke.edu/data/files/esri/esridm/2006/europe/basemap/urban.html\">Metadata</a></td></tr><tr><td>Water Bodies</td><td><a href=\"http://library.duke.edu/data/duke-only/gis/esri/esridm/2006/europe/basemap/water.zip\">SDC</a></td><td><a href=\"http://library.duke.edu/data/files/esri/esridm/2006/europe/basemap/water.html\">Metadata</a></td></tr></tbody></table><p>&nbsp;</p><h3>Mexico</h3><table class=\"table\"><thead><tr><th>Layer Name</th><th style=\"width: 15%;\" scope=\"col\">ArcGIS Layer</th><th style=\"width: 15%;\" scope=\"col\">Metadata</th></tr></thead><tbody><tr><td>Cities</td><td><a href=\"http://library.duke.edu/data/duke-only/gis/esri/esridm/2006/mexico/city.zip\">SDC</a></td><td><a href=\"http://library.duke.edu/data/files/esri/esridm/2006/mexico/city.html\">Metadata</a></td></tr><tr><td>Municipalities</td><td><a href=\"http://library.duke.edu/data/duke-only/gis/esri/esridm/2006/mexico/admin.zip\">SDC</a></td><td><a href=\"http://library.duke.edu/data/files/esri/esridm/2006/mexico/admin.html\">Metadata</a></td></tr><tr><td>Railroads</td><td><a href=\"http://library.duke.edu/data/duke-only/gis/esri/esridm/2006/mexico/rails.zip\">SDC</a></td><td><a href=\"http://library.duke.edu/data/files/esri/esridm/2006/mexico/rails.html\">Metadata</a></td></tr><tr><td>Roads</td><td><a href=\"http://library.duke.edu/data/duke-only/gis/esri/esridm/2006/mexico/roads.zip\">SDC</a></td><td><a href=\"http://library.duke.edu/data/files/esri/esridm/2006/mexico/roads.html\">Metadata</a></td></tr><tr><td>States</td><td><a href=\"http://library.duke.edu/data/duke-only/gis/esri/esridm/2006/mexico/states.zip\">SDC</a></td><td><a href=\"http://library.duke.edu/data/files/esri/esridm/2006/mexico/states.html\">Metadata</a></td></tr><tr><td>Urban Areas</td><td><a href=\"http://library.duke.edu/data/duke-only/gis/esri/esridm/2006/mexico/urban.zip\">SDC</a></td><td><a href=\"http://library.duke.edu/data/files/esri/esridm/2006/mexico/urban.html\">Metadata</a></td></tr></tbody></table><p>&nbsp;</p><h3>United States</h3><table class=\"table\"><thead><tr><th>Layer Name</th><th style=\"width: 15%;\" scope=\"col\">ArcGIS Layer</th><th style=\"width: 15%;\" scope=\"col\">Metadata</th></tr></thead><tbody><tr><td>109th Congressional Districts</td><td><a href=\"http://library.duke.edu/data/duke-only/gis/esri/esridm/2006/usa/cd109.zip\">SDC</a></td><td><a href=\"http://library.duke.edu/data/files/esri/esridm/2006/usa/cd109.html\">Metadata</a></td></tr><tr><td>Airports</td><td><a href=\"http://library.duke.edu/data/duke-only/gis/esri/esridm/2006/usa/airportp.zip\">SDC</a></td><td><a href=\"http://library.duke.edu/data/files/esri/esridm/2006/usa/airportp.html\">Metadata</a></td></tr><tr><td>Census Block Centroid Populations</td><td><a href=\"http://library.duke.edu/data/duke-only/gis/esri/esridm/2006/usa/blockpop.zip\">SDC</a></td><td><a href=\"http://library.duke.edu/data/files/esri/esridm/2006/usa/blockpop.html\">Metadata</a></td></tr><tr><td>Census Block Groups</td><td><a href=\"http://library.duke.edu/data/duke-only/gis/esri/esridm/2006/usa/blkgrp.zip\">SDC</a></td><td><a href=\"http://library.duke.edu/data/files/esri/esridm/2006/usa/blkgrp.html\">Metadata</a></td></tr><tr><td>Census Feature Class Codes (table)</td><td><a href=\"http://library.duke.edu/data/duke-only/gis/esri/esridm/2006/usa/cfcc.zip\">Table</a></td><td><a href=\"http://library.duke.edu/data/files/esri/esridm/2006/usa/cfcc.html\">Metadata</a></td></tr><tr><td>Census Tracts</td><td><a href=\"http://library.duke.edu/data/duke-only/gis/esri/esridm/2006/usa/tracts.zip\">SDC</a></td><td><a href=\"http://library.duke.edu/data/files/esri/esridm/2006/usa/tracts.html\">Metadata</a></td></tr><tr><td>Core-Based Statistical Areas</td><td><a href=\"http://library.duke.edu/data/duke-only/gis/esri/esridm/2006/usa/cbsa.zip\">SDC</a></td><td><a href=\"http://library.duke.edu/data/files/esri/esridm/2006/usa/cbsa.html\">Metadata</a></td></tr><tr><td>Counties</td><td><a href=\"http://library.duke.edu/data/duke-only/gis/esri/esridm/2006/usa/dtl_cnty.zip\">SDC</a></td><td><a href=\"http://library.duke.edu/data/files/esri/esridm/2006/usa/dtl_cnty.html\">Metadata</a></td></tr><tr><td>Hospitals</td><td><a href=\"http://library.duke.edu/data/duke-only/gis/esri/esridm/2006/usa/hospitals.zip\">SDC</a></td><td><a href=\"http://library.duke.edu/data/files/esri/esridm/2006/usa/hospitals.html\">Metadata</a></td></tr><tr><td>Institutions</td><td><a href=\"http://library.duke.edu/data/duke-only/gis/esri/esridm/2006/usa/institut.zip\">SDC</a></td><td><a href=\"http://library.duke.edu/data/files/esri/esridm/2006/usa/institut.html\">Metadata</a></td></tr><tr><td>Large Area Landmarks</td><td><a href=\"http://library.duke.edu/data/duke-only/gis/esri/esridm/2006/usa/lalndmrk.zip\">SDC</a></td><td><a href=\"http://library.duke.edu/data/files/esri/esridm/2006/usa/lalndmrk.html\">Metadata</a></td></tr><tr><td>Major Highways</td><td><a href=\"http://library.duke.edu/data/duke-only/gis/esri/esridm/2006/usa/mjr_hwys.zip\">SDC</a></td><td><a href=\"http://library.duke.edu/data/files/esri/esridm/2006/usa/mjr_hwys.html\">Metadata</a></td></tr><tr><td>Major Roads</td><td><a href=\"http://library.duke.edu/data/duke-only/gis/esri/esridm/2006/usa/mjrrds.zip\">SDC</a></td><td><a href=\"http://library.duke.edu/data/files/esri/esridm/2006/usa/mjrrds.html\">Metadata</a></td></tr><tr><td>National Atlas - Historic Earthquakes</td><td><a href=\"http://library.duke.edu/data/duke-only/gis/esri/esridm/2006/usa/quakehis.zip\">SDC</a></td><td><a href=\"http://library.duke.edu/data/files/esri/esridm/2006/usa/quakehis.html\">Metadata</a></td></tr><tr><td>National Atlas - Volcanoes</td><td><a href=\"http://library.duke.edu/data/duke-only/gis/esri/esridm/2006/usa/volcano.zip\">SDC</a></td><td><a href=\"http://library.duke.edu/data/files/esri/esridm/2006/usa/volcano.html\">Metadata</a></td></tr><tr><td>Park Landmarks</td><td><a href=\"http://library.duke.edu/data/duke-only/gis/esri/esridm/2006/usa/park_dtl.zip\">SDC</a></td><td><a href=\"http://library.duke.edu/data/files/esri/esridm/2006/usa/park_dtl.html\">Metadata</a></td></tr><tr><td>Populated Place Areas</td><td><a href=\"http://library.duke.edu/data/duke-only/gis/esri/esridm/2006/usa/placeply.zip\">SDC</a></td><td><a href=\"http://library.duke.edu/data/files/esri/esridm/2006/usa/placeply.html\">Metadata</a></td></tr><tr><td>Recreation Areas</td><td><a href=\"http://library.duke.edu/data/duke-only/gis/esri/esridm/2006/usa/recareas.zip\">SDC</a></td><td><a href=\"http://library.duke.edu/data/files/esri/esridm/2006/usa/recareas.html\">Metadata</a></td></tr><tr><td>States</td><td><a href=\"http://library.duke.edu/data/duke-only/gis/esri/esridm/2006/usa/dtl_st.zip\">SDC</a></td><td><a href=\"http://library.duke.edu/data/files/esri/esridm/2006/usa/dtl_st.html\">Metadata</a></td></tr><tr><td>Telephone Area Code Boundaries</td><td><a href=\"http://library.duke.edu/data/duke-only/gis/esri/esridm/2006/usa/areacode.zip\">SDC</a></td><td><a href=\"http://library.duke.edu/data/files/esri/esridm/2006/usa/areacode.html\">Metadata</a></td></tr><tr><td>Transportation Terminals</td><td><a href=\"http://library.duke.edu/data/duke-only/gis/esri/esridm/2006/usa/tranterm.zip\">SDC</a></td><td><a href=\"http://library.duke.edu/data/files/esri/esridm/2006/usa/tranterm.html\">Metadata</a></td></tr><tr><td>Water Feature Lines</td><td><a href=\"http://library.duke.edu/data/duke-only/gis/esri/esridm/2006/usa/hydroln.zip\">SDC</a></td><td><a href=\"http://library.duke.edu/data/files/esri/esridm/2006/usa/hydroln.html\">Metadata</a></td></tr><tr><td>ZIP Code Areas (Five-Digit)</td><td><a href=\"http://library.duke.edu/data/duke-only/gis/esri/esridm/2006/usa/zip_poly.zip\">SDC</a></td><td><a href=\"http://library.duke.edu/data/files/esri/esridm/2006/usa/zip_poly.html\">Metadata</a></td></tr><tr><td>ZIP Code Areas (Three-Digit)</td><td><a href=\"http://library.duke.edu/data/duke-only/gis/esri/esridm/2006/usa/zip3.zip\">SDC</a></td><td><a href=\"http://library.duke.edu/data/files/esri/esridm/2006/usa/zip3.html\">Metadata</a></td></tr><tr><td>ZIP Code Points</td><td><a href=\"http://library.duke.edu/data/duke-only/gis/esri/esridm/2006/usa/zip_usa.zip\">SDC</a></td><td><a href=\"http://library.duke.edu/data/files/esri/esridm/2006/usa/zip_usa.html\">Metadata</a></td></tr></tbody></table><p>&nbsp;</p><h3>World</h3><table class=\"table\"><thead><tr><th>Layer Name</th><th style=\"width: 15%;\" scope=\"col\">ArcGIS Layer</th><th style=\"width: 15%;\" scope=\"col\">Metadata</th></tr></thead><tbody><tr><td>Administrative Units</td><td><a href=\"http://library.duke.edu/data/duke-only/gis/esri/esridm/2006/world/admin.zip\">SDC</a></td><td><a href=\"http://library.duke.edu/data/files/esri/esridm/2006/world/admin.html\">Metadata</a></td></tr><tr><td>Continents</td><td><a href=\"http://library.duke.edu/data/duke-only/gis/esri/esridm/2006/world/continent.zip\">SDC</a></td><td><a href=\"http://library.duke.edu/data/files/esri/esridm/2006/world/continent.html\">Metadata</a></td></tr><tr><td>Countries 2006</td><td><a href=\"http://library.duke.edu/data/duke-only/gis/esri/esridm/2006/world/cntry06.zip\">SDC</a></td><td><a href=\"http://library.duke.edu/data/files/esri/esridm/2006/world/cntry06.html\">Metadata</a></td></tr><tr><td>Countries (Generalized)</td><td><a href=\"http://library.duke.edu/data/duke-only/gis/esri/esridm/2006/world/country.zip\">SDC</a></td><td><a href=\"http://library.duke.edu/data/files/esri/esridm/2006/world/country.html\">Metadata</a></td></tr><tr><td>Country Memberships of Political Organizations (table)</td><td><a href=\"http://library.duke.edu/data/duke-only/gis/esri/esridm/2006/world/pol_org.zip\">Table</a></td><td><a href=\"http://library.duke.edu/data/files/esri/esridm/2006/world/pol_org.html\">Metadata</a></td></tr><tr><td>Regions</td><td><a href=\"http://library.duke.edu/data/duke-only/gis/esri/esridm/2006/world/region.zip\">SDC</a></td><td><a href=\"http://library.duke.edu/data/files/esri/esridm/2006/world/region.html\">Metadata</a></td></tr><tr><td>Time Zones</td><td><a href=\"http://library.duke.edu/data/duke-only/gis/esri/esridm/2006/world/timezone.zip\">SDC</a></td><td><a href=\"http://library.duke.edu/data/files/esri/esridm/2006/world/timezone.html\">Metadata</a></td></tr><tr><td>UTM Zones</td><td><a href=\"http://library.duke.edu/data/duke-only/gis/esri/esridm/2006/world/utmzone.zip\">SDC</a></td><td><a href=\"http://library.duke.edu/data/files/esri/esridm/2006/world/utmzone.html\">Metadata</a></td></tr><tr><td>World Map Background</td><td><a href=\"http://library.duke.edu/data/duke-only/gis/esri/esridm/2006/world/world30.zip\">SDC</a></td><td><a href=\"http://library.duke.edu/data/files/esri/esridm/2006/world/world30.html\">Metadata</a></td></tr></tbody></table>",
            "revision_id" : 2423,
            "deleted" : 0,
            "entity_id" : 46,
            "body_format" : "full_html"
         },
         "vuuid" : "58afc4db-b544-4ff0-88d8-336d8fc7d232",
         "log" : "",
         "node_revision__field_tags" : [],
         "promote" : 0,
         "uid" : 55,
         "title" : "ESRI Data and Maps 2006",
         "status" : 1,
         "timestamp" : 1524763362,
         "field_revision" : {
            "sticky" : 0,
            "created" : null,
            "langcode" : null,
            "uid" : 1,
            "default_langcode" : 1,
            "title" : "ESRI Data and Maps 2006",
            "status" : 1,
            "changed" : null,
            "revision_translation_affected" : 1
         }
      }
   ],
   "uuid" : "45ccc8de-f930-44b1-984a-15f36becd970",
   "node_access" : null,
   "type" : "about_page",
   "field_tags" : [],
   "asidebox" : {
      "block_module" : null,
      "nid" : 46,
      "status" : "disabled",
      "body_value" : null,
      "body_title" : "",
      "bid" : null,
      "body_format" : null,
      "vid" : 2423,
      "block_delta" : null
   },
   "vid" : 2423,
   "node_field_data" : {
      "changed" : null,
      "revision_translation_affected" : 1,
      "sticky" : 0,
      "created" : 1375126859,
      "langcode" : "und",
      "type" : "about_page",
      "promote" : 0,
      "default_langcode" : 1,
      "uid" : 1,
      "title" : "ESRI Data and Maps 2006",
      "status" : 1
   }
}

