{
   "field_tags" : [],
   "asidebox" : {
      "status" : "disabled",
      "nid" : 19,
      "body_value" : null,
      "block_module" : null,
      "block_delta" : null,
      "body_format" : null,
      "vid" : 2385,
      "bid" : null,
      "body_title" : ""
   },
   "vid" : 2385,
   "node_field_data" : {
      "changed" : null,
      "revision_translation_affected" : 1,
      "sticky" : 0,
      "langcode" : "und",
      "created" : 1375117662,
      "type" : "about_page",
      "uid" : 1,
      "default_langcode" : 1,
      "title" : "Eurasia Bibliography, First Century",
      "promote" : 0,
      "status" : 1
   },
   "type" : "about_page",
   "langcode" : "und",
   "uuid" : "49f63f01-00bd-49e5-ba46-f00dd7cab03e",
   "revisions" : [
      {
         "comment" : 1,
         "sticky" : 0,
         "node_revision__field_tags" : [],
         "node_revision__body" : {
            "revision_id" : 2385,
            "body_format" : "full_html",
            "entity_id" : 19,
            "deleted" : 0,
            "langcode" : "und",
            "body_summary" : "",
            "body_value" : "<table class=\"table\"><thead><tr><th>Author</th><th style=\"width: 40%;\" scope=\"col\">Title</th><th style=\"width: 15%;\" scope=\"col\">Publisher</th><th style=\"height: 10%;\" scope=\"col\">Location</th><th style=\"height: 10%;\" scope=\"col\">Year</th></tr></thead><tbody><tr><td>Bengtson, Hermann et al.</td><td>Grosser Historischer Weltatlas: 1 - Vorgeschichte und Alterum</td><td>Bayerischer Schulbuch - Verlag</td><td>München</td><td>1978</td></tr><tr><td>Bereznay et al.</td><td>Atlas of European History</td><td>Times Books</td><td>London</td><td>1994</td></tr><tr><td>Bouillet, M. N.</td><td>Dictionnaire universel d'histoire et de géographie</td><td>Hachette et Cie</td><td>Paris</td><td>1863</td></tr><tr><td>Diodore De Sicile</td><td>Bibliothèque historique</td><td>Librairie de L. Hachette et Cie</td><td>Paris</td><td>1865</td></tr><tr><td>Dreyss, Ch.</td><td>Chronologie universelle</td><td>Librairie de L. Hachette et Cie</td><td>Paris</td><td>1864</td></tr><tr><td>Duby, Georges et al.</td><td>Atlas historique</td><td>Larousse</td><td>Paris</td><td>1978</td></tr><tr><td>Ferrari-Bravo, Anna et al.</td><td>Le strade dell'Italia romana</td><td>TCI</td><td>Milano</td><td>2004</td></tr><tr><td>Gibbon, Edward</td><td>Histoire du déclin et de la chute de l'empire romain</td><td>Robert Laffont</td><td>Paris</td><td>1983</td></tr><tr><td>Hacquard, Georges, Dautry, J., Maisani, O.</td><td>Guide romain antique</td><td>Hachette</td><td>Paris</td><td>1952</td></tr><tr><td>Julien, Charles-André</td><td>Histoire de l'Afrique du Nord : Des origines à 1830</td><td>Payot et Rivages</td><td>Paris</td><td>1994</td></tr><tr><td>Melis, Roberto et al.</td><td>Atlante Storico del Mondo</td><td>TCI</td><td>Milano</td><td>1994</td></tr><tr><td>Motta, G.</td><td>Atlante Storico</td><td>I.G.D.A.</td><td>Novara</td><td>1979</td></tr><tr><td>Putzger, Friedrich Wilhelm</td><td>Historischer Atlas</td><td>Sauerländer &amp; Co.</td><td>Aarau</td><td>1981</td></tr><tr><td>Scarre, Chris</td><td>Atlas de la Rome antique</td><td>Autrement</td><td>Paris</td><td>2000</td></tr><tr><td>Talbert, Richard J.A. et al.</td><td>Barrington Atlas of the Greek and Roman World</td><td>Princeton University Press</td><td>Princeton &amp; Oxford</td><td>2000</td></tr><tr><td>Vidal-Lablache</td><td>Atlas général</td><td>Armand Colin</td><td>Paris</td><td>1928</td></tr><tr><td>Zahn, Ulf et al.</td><td>Grosser Atlas zur Weltgeschichte</td><td>Westermann</td><td>Braunschweig</td><td>1997</td></tr></tbody></table>",
            "bundle" : "about_page",
            "delta" : 0
         },
         "log" : "",
         "vuuid" : "2e6e97bc-fdba-444d-96e8-ca79827b8bb2",
         "status" : 1,
         "uid" : 55,
         "title" : "Eurasia Bibliography, First Century",
         "promote" : 0,
         "timestamp" : 1524762294,
         "field_revision" : {
            "status" : 1,
            "sticky" : 0,
            "created" : null,
            "langcode" : null,
            "title" : "Eurasia Bibliography, First Century",
            "uid" : 1,
            "default_langcode" : 1,
            "changed" : null,
            "revision_translation_affected" : 1
         }
      }
   ],
   "node_access" : null,
   "nid" : "19",
   "node__body" : {
      "body_format" : "full_html",
      "entity_id" : 19,
      "deleted" : 0,
      "revision_id" : 2385,
      "body_value" : "<table class=\"table\"><thead><tr><th>Author</th><th style=\"width: 40%;\" scope=\"col\">Title</th><th style=\"width: 15%;\" scope=\"col\">Publisher</th><th style=\"height: 10%;\" scope=\"col\">Location</th><th style=\"height: 10%;\" scope=\"col\">Year</th></tr></thead><tbody><tr><td>Bengtson, Hermann et al.</td><td>Grosser Historischer Weltatlas: 1 - Vorgeschichte und Alterum</td><td>Bayerischer Schulbuch - Verlag</td><td>München</td><td>1978</td></tr><tr><td>Bereznay et al.</td><td>Atlas of European History</td><td>Times Books</td><td>London</td><td>1994</td></tr><tr><td>Bouillet, M. N.</td><td>Dictionnaire universel d'histoire et de géographie</td><td>Hachette et Cie</td><td>Paris</td><td>1863</td></tr><tr><td>Diodore De Sicile</td><td>Bibliothèque historique</td><td>Librairie de L. Hachette et Cie</td><td>Paris</td><td>1865</td></tr><tr><td>Dreyss, Ch.</td><td>Chronologie universelle</td><td>Librairie de L. Hachette et Cie</td><td>Paris</td><td>1864</td></tr><tr><td>Duby, Georges et al.</td><td>Atlas historique</td><td>Larousse</td><td>Paris</td><td>1978</td></tr><tr><td>Ferrari-Bravo, Anna et al.</td><td>Le strade dell'Italia romana</td><td>TCI</td><td>Milano</td><td>2004</td></tr><tr><td>Gibbon, Edward</td><td>Histoire du déclin et de la chute de l'empire romain</td><td>Robert Laffont</td><td>Paris</td><td>1983</td></tr><tr><td>Hacquard, Georges, Dautry, J., Maisani, O.</td><td>Guide romain antique</td><td>Hachette</td><td>Paris</td><td>1952</td></tr><tr><td>Julien, Charles-André</td><td>Histoire de l'Afrique du Nord : Des origines à 1830</td><td>Payot et Rivages</td><td>Paris</td><td>1994</td></tr><tr><td>Melis, Roberto et al.</td><td>Atlante Storico del Mondo</td><td>TCI</td><td>Milano</td><td>1994</td></tr><tr><td>Motta, G.</td><td>Atlante Storico</td><td>I.G.D.A.</td><td>Novara</td><td>1979</td></tr><tr><td>Putzger, Friedrich Wilhelm</td><td>Historischer Atlas</td><td>Sauerländer &amp; Co.</td><td>Aarau</td><td>1981</td></tr><tr><td>Scarre, Chris</td><td>Atlas de la Rome antique</td><td>Autrement</td><td>Paris</td><td>2000</td></tr><tr><td>Talbert, Richard J.A. et al.</td><td>Barrington Atlas of the Greek and Roman World</td><td>Princeton University Press</td><td>Princeton &amp; Oxford</td><td>2000</td></tr><tr><td>Vidal-Lablache</td><td>Atlas général</td><td>Armand Colin</td><td>Paris</td><td>1928</td></tr><tr><td>Zahn, Ulf et al.</td><td>Grosser Atlas zur Weltgeschichte</td><td>Westermann</td><td>Braunschweig</td><td>1997</td></tr></tbody></table>",
      "delta" : 0,
      "bundle" : "about_page",
      "langcode" : "und",
      "body_summary" : ""
   },
   "path_alias" : {
      "alias" : "/sources/euratlas1/bib_first",
      "language" : "und",
      "status" : 0,
      "langcode" : "und",
      "pid" : 33
   },
   "field_image" : null
}

