{
   "langcode" : "und",
   "revisions" : [
      {
         "comment" : 1,
         "sticky" : 0,
         "node_revision__field_tags" : [],
         "node_revision__body" : {
            "body_value" : "<p class=\"well\"><strong>Spring 2021</strong> - The Brandaleone Lab for Data and Visualization Sciences will remain closed to in-person use for the spring semester. During this period, we are offering remote access to the lab computers, and staff can recommend a wide range of data and visualization software to help with your analytics needs while our physical lab is closed. If you would like additional information or assistance, email us at <a href=\"mailto:askdata@duke.edu\">askdata@duke.edu</a> and we'll be happy to help.</p>\r\n\r\n<h2>Remote access to DVS Lab computers</h2>\r\n<p>We are just beginning to offer remote access to the computers in the DVS Lab using a client software called Splashtop. Email <a href=\"mailto:askdata@duke.edu\">askdata@duke.edu</a> to get added to the list of authorized users (<em>requires a Duke NetID and password</em>). After you have been registered in our system, follow the instructions in <a href=\"https://drive.google.com/file/d/1Lap_K0PPmIHYeSGmeoPGcbUtUAqwRIOY/view?usp=sharing\">this PDF guide</a> to download the Splashtop Business client software and get connected.</p>\r\n\r\n<h2>Popular Data and Visualization Software</h2>\r\n\r\n<h3>Bloomberg</h3>\r\n<p>Online access to Bloomberg is now available for current members of the Duke community. Full details are available at: <a href=\"https://guides.library.duke.edu/bloomberg\" title=\"Bloomberg access\">https://guides.library.duke.edu/bloomberg</a></p>\r\n\r\n<h3>Tableau</span></h3>\r\n<p>Students can request a free year-long (renewable) Tableau Desktop license through <a href=\"https://www.tableau.com/academic/students\">Tableau for Students</a>. Faculty and staff, if they are doing non-profit research (not Duke administrative work) or teaching, can request a free license through <a href=\"https://www.tableau.com/academic/teaching\">Tableau for Teaching</a>. Everyone else, if you can't afford a standard Tableau license (not available through OIT), will need to use <a href=\"https://public.tableau.com/en-us/s/\">Tableau Public</a>, which is free and fully-functional, but only allows you to save your work to the Tableau Public server.</p>\r\n\r\n<h2>Other Sources of Data Software</h2>\r\n\r\n<h3>Duke-Licensed Data and Visualization Software</h3>\r\n<p>Duke students, faculty, and staff can download <a href=\"https://software.duke.edu/\">university-licensed software</a> for use on their own computers. If you have questions about accessing and installing software, please email the site-license office at <a href=\"mailto:site@duke.edu\">site@duke.edu</a>.</p>\r\n\r\n<h3>Virtual Computing</h3>\r\n<p><a href=\"https://vcm.duke.edu/\">Virtual Computing Manager</a> (VCM) is a service providing the Duke community with easy access to virtual software packages and virtual machine (VM) reservations. There are basic operating system VMs as well as VMs with <a href=\"https://vcm.duke.edu/apps/index\">common applications</a> pre-installed. For more details, explore the <a href=\"https://vcm.duke.edu/help\">help page</a> or contact the <a href=\"http://www.oit.duke.edu/help/\">OIT Service Desk</a> for assistance.</p>",
            "bundle" : "page",
            "delta" : 0,
            "body_summary" : "",
            "langcode" : "und",
            "body_format" : "full_html_no_wysiwyg",
            "deleted" : 0,
            "entity_id" : 226,
            "revision_id" : 2948
         },
         "log" : "",
         "vuuid" : "46fef506-e1fe-4115-8e95-f1a804ff27ba",
         "status" : 1,
         "promote" : 0,
         "uid" : 55,
         "title" : "Computing Resources",
         "timestamp" : 1612965484,
         "field_revision" : {
            "status" : 1,
            "sticky" : 0,
            "created" : null,
            "uid" : 1,
            "title" : "Computing Resources",
            "langcode" : null,
            "default_langcode" : 1,
            "changed" : null,
            "revision_translation_affected" : 1
         }
      }
   ],
   "uuid" : "5672b00d-7215-46c9-9f78-5c95aa657062",
   "node_access" : null,
   "nid" : "226",
   "path_alias" : {
      "langcode" : "und",
      "pid" : 299,
      "alias" : "/computing",
      "status" : 0,
      "language" : "und"
   },
   "node__body" : {
      "delta" : 0,
      "bundle" : "page",
      "body_value" : "<p class=\"well\"><strong>Spring 2021</strong> - The Brandaleone Lab for Data and Visualization Sciences will remain closed to in-person use for the spring semester. During this period, we are offering remote access to the lab computers, and staff can recommend a wide range of data and visualization software to help with your analytics needs while our physical lab is closed. If you would like additional information or assistance, email us at <a href=\"mailto:askdata@duke.edu\">askdata@duke.edu</a> and we'll be happy to help.</p>\r\n\r\n<h2>Remote access to DVS Lab computers</h2>\r\n<p>We are just beginning to offer remote access to the computers in the DVS Lab using a client software called Splashtop. Email <a href=\"mailto:askdata@duke.edu\">askdata@duke.edu</a> to get added to the list of authorized users (<em>requires a Duke NetID and password</em>). After you have been registered in our system, follow the instructions in <a href=\"https://drive.google.com/file/d/1Lap_K0PPmIHYeSGmeoPGcbUtUAqwRIOY/view?usp=sharing\">this PDF guide</a> to download the Splashtop Business client software and get connected.</p>\r\n\r\n<h2>Popular Data and Visualization Software</h2>\r\n\r\n<h3>Bloomberg</h3>\r\n<p>Online access to Bloomberg is now available for current members of the Duke community. Full details are available at: <a href=\"https://guides.library.duke.edu/bloomberg\" title=\"Bloomberg access\">https://guides.library.duke.edu/bloomberg</a></p>\r\n\r\n<h3>Tableau</span></h3>\r\n<p>Students can request a free year-long (renewable) Tableau Desktop license through <a href=\"https://www.tableau.com/academic/students\">Tableau for Students</a>. Faculty and staff, if they are doing non-profit research (not Duke administrative work) or teaching, can request a free license through <a href=\"https://www.tableau.com/academic/teaching\">Tableau for Teaching</a>. Everyone else, if you can't afford a standard Tableau license (not available through OIT), will need to use <a href=\"https://public.tableau.com/en-us/s/\">Tableau Public</a>, which is free and fully-functional, but only allows you to save your work to the Tableau Public server.</p>\r\n\r\n<h2>Other Sources of Data Software</h2>\r\n\r\n<h3>Duke-Licensed Data and Visualization Software</h3>\r\n<p>Duke students, faculty, and staff can download <a href=\"https://software.duke.edu/\">university-licensed software</a> for use on their own computers. If you have questions about accessing and installing software, please email the site-license office at <a href=\"mailto:site@duke.edu\">site@duke.edu</a>.</p>\r\n\r\n<h3>Virtual Computing</h3>\r\n<p><a href=\"https://vcm.duke.edu/\">Virtual Computing Manager</a> (VCM) is a service providing the Duke community with easy access to virtual software packages and virtual machine (VM) reservations. There are basic operating system VMs as well as VMs with <a href=\"https://vcm.duke.edu/apps/index\">common applications</a> pre-installed. For more details, explore the <a href=\"https://vcm.duke.edu/help\">help page</a> or contact the <a href=\"http://www.oit.duke.edu/help/\">OIT Service Desk</a> for assistance.</p>",
      "langcode" : "und",
      "body_summary" : "",
      "entity_id" : 226,
      "deleted" : 0,
      "body_format" : "full_html_no_wysiwyg",
      "revision_id" : 2948
   },
   "field_image" : null,
   "field_tags" : [],
   "asidebox" : {
      "body_title" : "",
      "bid" : null,
      "body_format" : null,
      "vid" : 2948,
      "block_delta" : null,
      "block_module" : null,
      "body_value" : null,
      "nid" : 226,
      "status" : "disabled"
   },
   "node_field_data" : {
      "revision_translation_affected" : 1,
      "changed" : null,
      "created" : 1595957657,
      "langcode" : "und",
      "sticky" : 0,
      "type" : "page",
      "promote" : 0,
      "title" : "Computing Resources",
      "uid" : 1,
      "default_langcode" : 1,
      "status" : 1
   },
   "vid" : 2948,
   "type" : "page"
}

