{
   "node_access" : null,
   "revisions" : [
      {
         "node_revision__field_tags" : [],
         "log" : "",
         "vuuid" : "896647dc-4acf-4f54-ad10-235baeb81101",
         "node_revision__body" : {
            "entity_id" : 109,
            "deleted" : 0,
            "body_format" : "full_html",
            "revision_id" : 2319,
            "delta" : 0,
            "bundle" : "page",
            "body_value" : "<p><img src=\"/data/sites/default/files/datagis/users/angela.zoss/contest-banner.png\" alt=\"2014 Student Data Visualization Contest\" width=\"250\" height=\"65\" class=\"image-left img-responsive\">Data and Visualization Services is now accepting submissions to its 2nd annual student data visualization contest.&nbsp; If you are a current Duke student and are undertaking a data analysis project in your classes or free time, start working on your submission now!</p><p>The purpose of the contest is to highlight outstanding student data visualization work at Duke University. Data and Visualization Services wants to give you a chance to showcase the hard work that goes into your visualization projects.</p><p></p><p>Data visualization here is broadly defined, encompassing everything from charts and graphs to 3D models to maps to data art.&nbsp; Data visualizations may be part of a larger research project or may be developed specifically to communicate a trend or phenomenon. Some are static images, while others may be animated simulations or interactive web experiences.&nbsp; Browse through <a href=\"http://bit.ly/visgallery\">last year's submissions</a> to get an idea of the range of work that counts as visualization.</p><p></p><p>The Student Data Visualization Contest is sponsored by Data and Visualization Services, Perkins Library, Scalable Computing Support Center, Office of Information Technology, and the Office of the Vice Provost for Research.</p><p></p><h3>Eligibility:</h3><p></p><p>To be eligible to submit to the contest, you must have been a Duke student (undergraduate, graduate, or professional) during the spring or fall semesters in 2013, submitting work completed before you graduated.</p><p></p><h3>Submission instructions <strong>(updated 1/16/14)</strong>:</h3><p></p><p>Full submissions will be due on <b>Sunday, January 19</b>. To submit, students should add themselves to the 2014 DataVis Contest Sakai site.&nbsp; (First, log in to <a href=\"http://sakai.duke.edu/\">Sakai</a>. Inside Sakai, you should click on \"Membership\" on the menu on the left.&nbsp; Then you can click on the \"Joinable Sites\" button and search for \"DataVis\" in the search box on that page.)&nbsp; Inside the Sakai contest site, you will click on Submissions to upload the files for your submission.</p><p></p><p>The full submission must include:</p><ul><li>an image file of the visualization, suitable for the <a href=\"http://bit.ly/visgallery\">Duke Visualization Flickr gallery</a><ul><li>Format: JPG, GIF, PNG, SVG, PDF, or TIFF</li><li>Size: no larger than 1200px x 800px, 72ppi preferred</li><li>Text: Please make sure the image itself includes a title and some sort of caption or descriptive text that contextualizes the visualization. The image file should stand alone and be understandable without any supporting documentation. (If you are not sure how to add text to visualizations, please contact <a href=\"mailto:askdata@duke.edu\">askdata@duke.edu</a>.)</li><li>Also note: This is not a full poster version of the project. Instead, it should constitute a single data visualization, or a few screenshots from an interactive visualization website.&nbsp; Again, see the <a href=\"http://bit.ly/visgallery\">gallery of last year's submissions</a> for examples.</li></ul></li><li>a document containing both a brief description of visualization process and short biography for each member of the visualization team<ul><li>Length: at most two pages, including bios</li><li>Visualization description: This should focus on the visualization techniques used, and it should not contain tangential material about the larger research project. Make sure to outline the basic methods used to create the visualization, the reasoning behind the design choices, and the potential insights revealed by the visualization. If the visualization comes from an interactive website, feel free to include the URL in the description.</li><li>Bios: at most 50 words for each creator</li></ul></li></ul><p></p><h3>Judging:</h3><p></p><p>A panel of five judges from across campus will review submissions. The submissions will be judged based on:</p><ul><li>ability of the visualization to generate insights</li><li>ability of the visualization to tell a story that reaches broad audiences</li><li>aesthetics and design</li><li>technical merit</li><li>novelty</li></ul><h3></h3><h3>Prizes:</h3><p></p><p>The judging panel will select the top three submissions, each of which will be converted into a poster and displayed in the Data and Visualization Services lab.&nbsp; The three finalists will also receive Amazon gift cards - $250 for the top submission, $150 for the second place submission, and $100 for the third place submission.&nbsp; The winning submission will also be converted to an exhibit to be displayed on the <a href=\"http://link.duke.edu/\">LINK</a> <a href=\"https://wiki.duke.edu/display/LMW/LMW+Home\">Media Wall</a>.</p><p></p><h3>Additional information:</h3><p></p><p>Please address all questions to Angela Zoss (<a href=\"mailto:angela.zoss@duke.edu\">angela.zoss@duke.edu</a>), Data Visualization Coordinator, 226 Perkins Library.</p>",
            "body_summary" : "",
            "langcode" : "und"
         },
         "comment" : 1,
         "sticky" : 0,
         "field_revision" : {
            "sticky" : 0,
            "created" : null,
            "title" : "2014 Student Data Visualization Contest",
            "uid" : 1,
            "langcode" : null,
            "default_langcode" : 1,
            "status" : 1,
            "changed" : null,
            "revision_translation_affected" : 1
         },
         "timestamp" : 1524761238,
         "status" : 1,
         "title" : "2014 Student Data Visualization Contest",
         "uid" : 55,
         "promote" : 0
      }
   ],
   "uuid" : "a402b39c-b5e3-4c43-9086-dffcd2faee25",
   "langcode" : "und",
   "field_image" : null,
   "path_alias" : {
      "langcode" : "und",
      "pid" : 131,
      "language" : "und",
      "status" : 0,
      "alias" : "/workshops/contest2014"
   },
   "node__body" : {
      "revision_id" : 2319,
      "body_format" : "full_html",
      "deleted" : 0,
      "entity_id" : 109,
      "body_summary" : "",
      "langcode" : "und",
      "body_value" : "<p><img src=\"/data/sites/default/files/datagis/users/angela.zoss/contest-banner.png\" alt=\"2014 Student Data Visualization Contest\" width=\"250\" height=\"65\" class=\"image-left img-responsive\">Data and Visualization Services is now accepting submissions to its 2nd annual student data visualization contest.&nbsp; If you are a current Duke student and are undertaking a data analysis project in your classes or free time, start working on your submission now!</p><p>The purpose of the contest is to highlight outstanding student data visualization work at Duke University. Data and Visualization Services wants to give you a chance to showcase the hard work that goes into your visualization projects.</p><p></p><p>Data visualization here is broadly defined, encompassing everything from charts and graphs to 3D models to maps to data art.&nbsp; Data visualizations may be part of a larger research project or may be developed specifically to communicate a trend or phenomenon. Some are static images, while others may be animated simulations or interactive web experiences.&nbsp; Browse through <a href=\"http://bit.ly/visgallery\">last year's submissions</a> to get an idea of the range of work that counts as visualization.</p><p></p><p>The Student Data Visualization Contest is sponsored by Data and Visualization Services, Perkins Library, Scalable Computing Support Center, Office of Information Technology, and the Office of the Vice Provost for Research.</p><p></p><h3>Eligibility:</h3><p></p><p>To be eligible to submit to the contest, you must have been a Duke student (undergraduate, graduate, or professional) during the spring or fall semesters in 2013, submitting work completed before you graduated.</p><p></p><h3>Submission instructions <strong>(updated 1/16/14)</strong>:</h3><p></p><p>Full submissions will be due on <b>Sunday, January 19</b>. To submit, students should add themselves to the 2014 DataVis Contest Sakai site.&nbsp; (First, log in to <a href=\"http://sakai.duke.edu/\">Sakai</a>. Inside Sakai, you should click on \"Membership\" on the menu on the left.&nbsp; Then you can click on the \"Joinable Sites\" button and search for \"DataVis\" in the search box on that page.)&nbsp; Inside the Sakai contest site, you will click on Submissions to upload the files for your submission.</p><p></p><p>The full submission must include:</p><ul><li>an image file of the visualization, suitable for the <a href=\"http://bit.ly/visgallery\">Duke Visualization Flickr gallery</a><ul><li>Format: JPG, GIF, PNG, SVG, PDF, or TIFF</li><li>Size: no larger than 1200px x 800px, 72ppi preferred</li><li>Text: Please make sure the image itself includes a title and some sort of caption or descriptive text that contextualizes the visualization. The image file should stand alone and be understandable without any supporting documentation. (If you are not sure how to add text to visualizations, please contact <a href=\"mailto:askdata@duke.edu\">askdata@duke.edu</a>.)</li><li>Also note: This is not a full poster version of the project. Instead, it should constitute a single data visualization, or a few screenshots from an interactive visualization website.&nbsp; Again, see the <a href=\"http://bit.ly/visgallery\">gallery of last year's submissions</a> for examples.</li></ul></li><li>a document containing both a brief description of visualization process and short biography for each member of the visualization team<ul><li>Length: at most two pages, including bios</li><li>Visualization description: This should focus on the visualization techniques used, and it should not contain tangential material about the larger research project. Make sure to outline the basic methods used to create the visualization, the reasoning behind the design choices, and the potential insights revealed by the visualization. If the visualization comes from an interactive website, feel free to include the URL in the description.</li><li>Bios: at most 50 words for each creator</li></ul></li></ul><p></p><h3>Judging:</h3><p></p><p>A panel of five judges from across campus will review submissions. The submissions will be judged based on:</p><ul><li>ability of the visualization to generate insights</li><li>ability of the visualization to tell a story that reaches broad audiences</li><li>aesthetics and design</li><li>technical merit</li><li>novelty</li></ul><h3></h3><h3>Prizes:</h3><p></p><p>The judging panel will select the top three submissions, each of which will be converted into a poster and displayed in the Data and Visualization Services lab.&nbsp; The three finalists will also receive Amazon gift cards - $250 for the top submission, $150 for the second place submission, and $100 for the third place submission.&nbsp; The winning submission will also be converted to an exhibit to be displayed on the <a href=\"http://link.duke.edu/\">LINK</a> <a href=\"https://wiki.duke.edu/display/LMW/LMW+Home\">Media Wall</a>.</p><p></p><h3>Additional information:</h3><p></p><p>Please address all questions to Angela Zoss (<a href=\"mailto:angela.zoss@duke.edu\">angela.zoss@duke.edu</a>), Data Visualization Coordinator, 226 Perkins Library.</p>",
      "bundle" : "page",
      "delta" : 0
   },
   "nid" : "109",
   "vid" : 2319,
   "node_field_data" : {
      "sticky" : 0,
      "created" : 1382895298,
      "langcode" : "und",
      "changed" : null,
      "revision_translation_affected" : 1,
      "status" : 1,
      "promote" : 0,
      "uid" : 1,
      "default_langcode" : 1,
      "title" : "2014 Student Data Visualization Contest",
      "type" : "page"
   },
   "asidebox" : {
      "vid" : 2319,
      "body_format" : "full_html",
      "block_delta" : null,
      "body_title" : "",
      "bid" : null,
      "body_value" : "<div class=\"grid_4\"><h3>Data visualizations can be:</h3><h3></h3><ul><li>statistical charts and graphs</li><li>computational models</li><li>mapping of historical data</li><li><a href=\"http://guides.library.duke.edu/vis_types\">much more</a>!</li></ul></div>",
      "nid" : 109,
      "status" : "html",
      "block_module" : null
   },
   "field_tags" : [],
   "type" : "page"
}

