{
   "langcode" : "und",
   "revisions" : [
      {
         "sticky" : 0,
         "comment" : 1,
         "node_revision__body" : {
            "revision_id" : 2933,
            "entity_id" : 12,
            "deleted" : 0,
            "body_format" : "full_html",
            "langcode" : "und",
            "body_summary" : "",
            "bundle" : "about_page",
            "delta" : 0,
            "body_value" : "<p>ArcGIS layers are compressed in \".zip\" format and require <a href=\"https://oit.duke.edu/comp-print/software/license/detail.php?id=30\" target=\"_blank\">GIS software</a> capable of reading ESRI geodatabases or shapefiles, or MrSID format raster data.</p><p>Google Earth layers are compressed \".kmz\" files.</p><p>All vector layers use the N.C. State Plane coordinate system (linear units = feet).&nbsp; Lambert Conformal Conic Projection, 1983 North American Datum (NAD83)</p><p><a href=\"http://dukeforest.duke.edu/files/2013/12/LocationMap_6Jan14.jpg\" target=\"_blank\">View a PDF map containing locations of these divisions</a>.</p><p>These data are restricted to current students, faculty and staff. &nbsp;Non-Duke users who require the layers for non-commercial purposes should contact <a href=\"mailto:mark.thomas@duke.edu?cc=joel.herndon@duke.edu&amp;subject=Duke GIS layer query\">Mark Thomas</a> for assistance or with questions.</p><p>&nbsp;</p><h3>1931</h3><table class=\"table\"><thead><tr><th>Layer Name</th><th style=\"width: 20%;\" scope=\"col\">ArcGIS Layer</th><th style=\"width: 20%;\" scope=\"col\">Google Earth Layer</th></tr></thead><tbody><tr><td>Cultural Operations</td><td><a href=\"http://library.duke.edu/data/duke-only/gis/forest/mgmt_1931/cultural_ops_1931.zip\">Shapefile</a> / <a href=\"http://library.duke.edu/data/files/forest/1931/cultural_ops_1931.html\" target=\"_blank\">Metadata</a></td><td><a href=\"http://library.duke.edu/data/duke-only/gis/forest/kml/1931/cultural_ops_1931.kml\">KMZ</a></td></tr><tr><td>Disturbances</td><td><a href=\"http://library.duke.edu/data/duke-only/gis/forest/mgmt_1931/disturbances_1931.zip\">Shapefile</a> / <a href=\"http://library.duke.edu/data/files/forest/1931/disturbances_1931.html\" target=\"_blank\">Metadata</a></td><td><a href=\"http://library.duke.edu/data/duke-only/gis/forest/kml/1931/disturbances_1931.kml\">KMZ</a></td></tr><tr><td>Harvestings</td><td><a href=\"http://library.duke.edu/data/duke-only/gis/forest/mgmt_1931/harvesting_1931.zip\">Shapefile</a> / <a href=\"http://library.duke.edu/data/files/forest/1931/harvesting_1931.html\" target=\"_blank\">Metadata</a></td><td><a href=\"http://library.duke.edu/data/duke-only/gis/forest/kml/1931/harvesting_1931.kml\">KMZ</a></td></tr><tr><td>Plantations</td><td><a href=\"http://library.duke.edu/data/duke-only/gis/forest/mgmt_1931/plantations_1931.zip\">Shapefile</a> / <a href=\"http://library.duke.edu/data/files/forest/1931/plantations_1931.html\" target=\"_blank\">Metadata</a></td><td><a href=\"http://library.duke.edu/data/duke-only/gis/forest/kml/1931/plantations_1931.kml\">KMZ</a></td></tr><tr><td>Standings</td><td><a href=\"http://library.duke.edu/data/duke-only/gis/forest/stands_1931/dur_std_1931.zip\">Shapefile</a> / <a href=\"http://library.duke.edu/data/files/forest/1931/dur_std_1931.html\" target=\"_blank\">Metadata</a></td><td><a href=\"http://library.duke.edu/data/duke-only/gis/forest/kml/1931/dur_std_1931.kml\">KMZ</a></td></tr></tbody></table><p>&nbsp;</p><h3>1944</h3><table class=\"table\"><thead><tr><th>Layer Name</th><th style=\"width: 20%;\" scope=\"col\">ArcGIS Layer</th><th style=\"width: 20%;\" scope=\"col\">Google Earth Layer</th></tr></thead><tbody><tr><td>Cultural Operations</td><td><a href=\"http://library.duke.edu/data/duke-only/gis/forest/mgmt_1944/cultural_ops_1944.zip\">Shapefile</a> / <a href=\"http://library.duke.edu/data/files/forest/1944/cultural_ops_1944.htm\" target=\"_blank\">Metadata</a></td><td><a href=\"http://library.duke.edu/data/duke-only/gis/forest/kml/1944/cultural_ops_1944.kmz\">KMZ</a></td></tr><tr><td>Disturbances</td><td><a href=\"http://library.duke.edu/data/duke-only/gis/forest/mgmt_1944/disturbances_1944.zip\">Shapefile</a> / <a href=\"http://library.duke.edu/data/files/forest/1944/disturbances_1944.htm\" target=\"_blank\">Metadata</a></td><td><a href=\"http://library.duke.edu/data/duke-only/gis/forest/kml/1944/disturbances_1944.kmz\">KMZ</a></td></tr><tr><td>Harvestings</td><td><a href=\"http://library.duke.edu/data/duke-only/gis/forest/mgmt_1944/harvesting_1944.zip\">Shapefile</a> / <a href=\"http://library.duke.edu/data/files/forest/1944/harvesting_1944.htm\" target=\"_blank\">Metadata</a></td><td><a href=\"http://library.duke.edu/data/duke-only/gis/forest/kml/1944/harvesting_1944.kmz\">KMZ</a></td></tr><tr><td>Plantations</td><td><a href=\"http://library.duke.edu/data/duke-only/gis/forest/mgmt_1944/plantations_1944.zip\">Shapefile</a> / <a href=\"http://library.duke.edu/data/files/forest/1944/plantations_1944.htm\" target=\"_blank\">Metadata</a></td><td><a href=\"http://library.duke.edu/data/duke-only/gis/forest/kml/1944/plantations_1944.kmz\">KMZ</a></td></tr><tr><td>Standings, Durham Division</td><td><a href=\"http://library.duke.edu/data/duke-only/gis/forest/stands_1944/dur_std_1944.zip\">Shapefile</a> / <a href=\"http://library.duke.edu/data/files/forest/1944/dur_std_1944.htm\" target=\"_blank\">Metadata</a></td><td><a href=\"http://library.duke.edu/data/duke-only/gis/forest/kml/1944/dur_std_1944.kmz\">KMZ</a></td></tr><tr><td>Standings, Korstian Division</td><td><a href=\"http://library.duke.edu/data/duke-only/gis/forest/stands_1944/kor_std_1944.zip\">Shapefile</a> / <a href=\"http://library.duke.edu/data/files/forest/1944/kor_std_1944.htm\" target=\"_blank\">Metadata</a></td><td><a href=\"http://library.duke.edu/data/duke-only/gis/forest/kml/1944/kor_std_1944.kmz\">KMZ</a></td></tr><tr><td>Standings, Henry J. Oosting Natural Area</td><td><a href=\"http://library.duke.edu/data/duke-only/gis/forest/stands_1944/oosting_std_1944.zip\">Shapefile</a> / <a href=\"http://library.duke.edu/data/files/forest/1944/oosting_std_1944.htm\" target=\"_blank\">Metadata</a></td><td><a href=\"http://library.duke.edu/data/duke-only/gis/forest/kml/1944/oosting_std_1944.kmz\">KMZ</a></td></tr></tbody></table><p>&nbsp;</p><h3>1952</h3><table class=\"table\"><thead><tr><th>Layer Name</th><th style=\"width: 20%;\" scope=\"col\">ArcGIS Layer</th><th style=\"width: 20%;\" scope=\"col\">Google Earth Layer</th></tr></thead><tbody><tr><td>Cultural Operations</td><td><a href=\"http://library.duke.edu/data/duke-only/gis/forest/mgmt_1952/cultural_ops_1952.zip\">Shapefile</a> / <a href=\"http://library.duke.edu/data/files/forest/1952/cultural_ops_1952.htm\" target=\"_blank\">Metadata</a></td><td><a href=\"http://library.duke.edu/data/duke-only/gis/forest/kml/1952/cultural_ops_1952.kmz\">KMZ</a></td></tr><tr><td>Disturbances</td><td><a href=\"http://library.duke.edu/data/duke-only/gis/forest/mgmt_1952/disturbances_1952.zip\">Shapefile</a> / <a href=\"http://library.duke.edu/data/files/forest/1952/disturbances_1952.htm\" target=\"_blank\">Metadata</a></td><td><a href=\"http://library.duke.edu/data/duke-only/gis/forest/kml/1952/disturbances_1952.kmz\">KMZ</a></td></tr><tr><td>Harvestings</td><td><a href=\"http://library.duke.edu/data/duke-only/gis/forest/mgmt_1952/harvesting_1952.zip\">Shapefile</a> / <a href=\"http://library.duke.edu/data/files/forest/1952/harvesting_1952.htm\" target=\"_blank\">Metadata</a></td><td><a href=\"http://library.duke.edu/data/duke-only/gis/forest/kml/1952/harvesting_1952.kmz\">KMZ</a></td></tr><tr><td>Plantations</td><td><a href=\"http://library.duke.edu/data/duke-only/gis/forest/mgmt_1952/plantations_1952.zip\">Shapefile</a> / <a href=\"http://library.duke.edu/data/files/forest/1952/plantations_1952.htm\" target=\"_blank\">Metadata</a></td><td><a href=\"http://library.duke.edu/data/duke-only/gis/forest/kml/1952/plantations_1952.kmz\">KMZ</a></td></tr><tr><td>Standings, Blackwood Division</td><td><a href=\"http://library.duke.edu/data/duke-only/gis/forest/stands_1952/blkwd_std_1952.zip\">Shapefile</a> / <a href=\"http://library.duke.edu/data/files/forest/1952/blkwd_std_1952.htm\" target=\"_blank\">Metadata</a></td><td><a href=\"http://library.duke.edu/data/duke-only/gis/forest/kml/1952/blkwd_std_1952.kmz\">KMZ</a></td></tr><tr><td>Standings, Durham Division</td><td><a href=\"http://library.duke.edu/data/duke-only/gis/forest/stands_1952/dur_std_1952.zip\">Shapefile</a> / <a href=\"http://library.duke.edu/data/files/forest/1952/dur_std_1952.htm\" target=\"_blank\">Metadata</a></td><td><a href=\"http://library.duke.edu/data/duke-only/gis/forest/kml/1952/dur_std_1952.kmz\">KMZ</a></td></tr><tr><td>Standings, Eno Division</td><td><a href=\"http://library.duke.edu/data/duke-only/gis/forest/stands_1952/eno_std_1952.zip\">Shapefile</a> / <a href=\"http://library.duke.edu/data/files/forest/1952/eno_std_1952.htm\" target=\"_blank\">Metadata</a></td><td><a href=\"http://library.duke.edu/data/duke-only/gis/forest/kml/1952/eno_std_1952.kmz\">KMZ</a></td></tr><tr><td>Standings, Hillsboro Division</td><td><a href=\"http://library.duke.edu/data/duke-only/gis/forest/stands_1952/hill_std_1952.zip\">Shapefile</a> / <a href=\"http://library.duke.edu/data/files/forest/1952/hill_std_1952.htm\" target=\"_blank\">Metadata</a></td><td><a href=\"http://library.duke.edu/data/duke-only/gis/forest/kml/1952/hill_std_1952.kmz\">KMZ</a></td></tr><tr><td>Standings, Korstian Division</td><td><a href=\"http://library.duke.edu/data/duke-only/gis/forest/stands_1952/kor_std_1952.zip\">Shapefile</a> / <a href=\"http://library.duke.edu/data/files/forest/1952/kor_std_1952.htm\" target=\"_blank\">Metadata</a></td><td><a href=\"http://library.duke.edu/data/duke-only/gis/forest/kml/1952/kor_std_1952.kmz\">KMZ</a></td></tr><tr><td>Standings,&nbsp;Henry J. Oosting Natural Area</td><td><a href=\"http://library.duke.edu/data/duke-only/gis/forest/stands_1952/oosting_std_1952.zip\">Shapefile</a> / <a href=\"http://library.duke.edu/data/files/forest/1952/oosting_std_1952.htm\" target=\"_blank\">Metadata</a></td><td><a href=\"http://library.duke.edu/data/duke-only/gis/forest/kml/1952/oosting_std_1952.kmz\">KMZ</a></td></tr></tbody></table><p>&nbsp;</p><h3>1963</h3><table class=\"table\"><thead><tr><th>Layer Name</th><th style=\"width: 20%;\" scope=\"col\">ArcGIS Layer</th><th style=\"width: 20%;\" scope=\"col\">Google Earth Layer</th></tr></thead><tbody><tr><td>Cultural Operations</td><td><a href=\"http://library.duke.edu/data/duke-only/gis/forest/mgmt_1963/cultural_ops_1963.zip\">Shapefile</a> / <a href=\"http://library.duke.edu/data/files/forest/1963/cultural_ops_1963.htm\" target=\"_blank\">Metadata</a></td><td><a href=\"http://library.duke.edu/data/duke-only/gis/forest/kml/1963/disturbances_1963.kmz\">KMZ</a></td></tr><tr><td>Disturbances</td><td><a href=\"http://library.duke.edu/data/duke-only/gis/forest/mgmt_1963/disturbances_1963.zip\">Shapefile</a> / <a href=\"http://library.duke.edu/data/files/forest/1963/disturbances_1963.htm\" target=\"_blank\">Metadata</a></td><td><a href=\"http://library.duke.edu/data/duke-only/gis/forest/kml/1963/disturbances_1963.kmz\">KMZ</a></td></tr><tr><td>Harvestings</td><td><a href=\"http://library.duke.edu/data/duke-only/gis/forest/mgmt_1963/harvesting_1963.zip\">Shapefile</a> / <a href=\"http://library.duke.edu/data/files/forest/1963/harvesting_1963.htm\" target=\"_blank\">Metadata</a></td><td><a href=\"http://library.duke.edu/data/duke-only/gis/forest/kml/1963/harvesting_1963.kmz\">KMZ</a></td></tr><tr><td>Plantations</td><td><a href=\"http://library.duke.edu/data/duke-only/gis/forest/mgmt_1963/plantations_1963.zip\">Shapefile</a> / <a href=\"http://library.duke.edu/data/files/forest/1963/plantations_1963.htm\" target=\"_blank\">Metadata</a></td><td><a href=\"http://library.duke.edu/data/duke-only/gis/forest/kml/1963/plantations_1963.kmz\">KMZ</a></td></tr><tr><td>Standings, Blackwood Division</td><td><a href=\"http://library.duke.edu/data/duke-only/gis/forest/stands_1963/blkwd_std_1963.zip\">Shapefile</a> / <a href=\"http://library.duke.edu/data/files/forest/1963/blkwd_std_1963.htm\" target=\"_blank\">Metadata</a></td><td><a href=\"http://library.duke.edu/data/duke-only/gis/forest/kml/1963/blkwd_std_1963.kmz\">KMZ</a></td></tr><tr><td>Standings, Durham Division</td><td><a href=\"http://library.duke.edu/data/duke-only/gis/forest/stands_1963/dur_std_1963.zip\">Shapefile</a> / <a href=\"http://library.duke.edu/data/files/forest/1963/dur_std_1963.htm\" target=\"_blank\">Metadata</a></td><td><a href=\"http://library.duke.edu/data/duke-only/gis/forest/kml/1963/dur_std_1963.kmz\">KMZ</a></td></tr><tr><td>Standings, Eno Division</td><td><a href=\"http://library.duke.edu/data/duke-only/gis/forest/stands_1963/eno_std_1963.zip\">Shapefile</a> / <a href=\"http://library.duke.edu/data/files/forest/1963/eno_std_1963.htm\" target=\"_blank\">Metadata</a></td><td><a href=\"http://library.duke.edu/data/duke-only/gis/forest/kml/1963/eno_std_1963.kmz\">KMZ</a></td></tr><tr><td>Standings, Hillsboro Division</td><td><a href=\"http://library.duke.edu/data/duke-only/gis/forest/stands_1963/hill_std_1963.zip\">Shapefile</a> / <a href=\"http://library.duke.edu/data/files/forest/1963/hill_std_1963.htm\" target=\"_blank\">Metadata</a></td><td><a href=\"http://library.duke.edu/data/duke-only/gis/forest/kml/1963/hill_std_1963.kmz\">KMZ</a></td></tr><tr><td>Standings, Korstian Division</td><td><a href=\"http://library.duke.edu/data/duke-only/gis/forest/stands_1963/kor_std_1963.zip\">Shapefile</a> / <a href=\"http://library.duke.edu/data/files/forest/1963/kor_std_1963.htm\" target=\"_blank\">Metadata</a></td><td><a href=\"http://library.duke.edu/data/duke-only/gis/forest/kml/1963/kor_std_1963.kmz\">KMZ</a></td></tr></tbody></table><p>&nbsp;</p><h3>1975</h3><table class=\"table\"><thead><tr><th>Layer Name</th><th style=\"width: 20%;\" scope=\"col\">ArcGIS Layer</th><th style=\"width: 20%;\" scope=\"col\">Google Earth Layer</th></tr></thead><tbody><tr><td>Cultural Operations</td><td><a href=\"http://library.duke.edu/data/duke-only/gis/forest/mgmt_1975/cultural_ops_1975.zip\">Shapefile</a> / <a href=\"http://library.duke.edu/data/files/forest/1975/cultural_ops_1975.htm\">Netadata</a></td><td><a href=\"http://library.duke.edu/data/duke-only/gis/forest/kml/1975/cultural_ops_1975.kmz\">KMZ</a></td></tr><tr><td>Disturbances</td><td><a href=\"http://library.duke.edu/data/duke-only/gis/forest/mgmt_1975/disturbances_1975.zip\">Shapefile</a> / <a href=\"http://library.duke.edu/data/files/forest/1975/disturbances_1975.htm\" target=\"_blank\">Metadata</a></td><td><a href=\"http://library.duke.edu/data/duke-only/gis/forest/kml/1975/disturbances_1975.kmz\">KMZ</a></td></tr><tr><td>Harvestings</td><td><a href=\"http://library.duke.edu/data/duke-only/gis/forest/mgmt_1975/harvesting_1975.zip\">Shapefile</a> / <a href=\"http://library.duke.edu/data/files/forest/1975/harvesting_1975.htm\" target=\"_blank\">Metadata</a></td><td><a href=\"http://library.duke.edu/data/duke-only/gis/forest/kml/1975/harvesting_1975.kmz\">KMZ</a></td></tr><tr><td>Plantations</td><td><a href=\"http://library.duke.edu/data/duke-only/gis/forest/mgmt_1975/plantations_1975.zip\">Shapefile</a> / <a href=\"http://library.duke.edu/data/files/forest/1975/plantations_1975.htm\" target=\"_blank\">Metadata</a></td><td><a href=\"http://library.duke.edu/data/duke-only/gis/forest/kml/1975/plantations_1975.kmz\">KMZ</a></td></tr><tr><td>Standings, Blackwood Division</td><td><a href=\"http://library.duke.edu/data/duke-only/gis/forest/stands_1975/blkwd_std_1975.zip\">Shapefile</a> / <a href=\"http://library.duke.edu/data/files/forest/1975/blkwd_std_1975.htm\" target=\"_blank\">Metadata</a></td><td><a href=\"http://library.duke.edu/data/duke-only/gis/forest/kml/1975/blkwd_std_1975.kmz\">KMZ</a></td></tr><tr><td>Standings, Durham Division</td><td><a href=\"http://library.duke.edu/data/duke-only/gis/forest/stands_1975/dur_std_1975.zip\">Shapefile</a> / <a href=\"http://library.duke.edu/data/files/forest/1975/dur_std_1975.htm\" target=\"_blank\">Metadata</a></td><td><a href=\"http://library.duke.edu/data/duke-only/gis/forest/kml/1975/dur_std_1975.kmz\">KMZ</a></td></tr><tr><td>Standings, Eno Division</td><td><a href=\"http://library.duke.edu/data/duke-only/gis/forest/stands_1975/eno_std_1975.zip\">Shapefile</a> / <a href=\"http://library.duke.edu/data/files/forest/1975/eno_std_1975.htm\" target=\"_blank\">Metadata</a></td><td><a href=\"http://library.duke.edu/data/duke-only/gis/forest/kml/1975/eno_std_1975.kmz\">KMZ</a></td></tr><tr><td>Standings, Hillsboro Division</td><td><a href=\"http://library.duke.edu/data/duke-only/gis/forest/stands_1975/hill_std_1975.zip\">Shapefile</a> / <a href=\"http://library.duke.edu/data/files/forest/1975/hill_std_1975.htm\" target=\"_blank\">Metadata</a></td><td><a href=\"http://library.duke.edu/data/duke-only/gis/forest/kml/1975/hill_std_1975.kmz\">KMZ</a></td></tr><tr><td>Standings, Korstian Division</td><td><a href=\"http://library.duke.edu/data/duke-only/gis/forest/stands_1975/kor_std_1975.zip\">Shapefile</a> / <a href=\"http://library.duke.edu/data/files/forest/1975/kor_std_1975.htm\" target=\"_blank\">Metadata</a></td><td><a href=\"http://library.duke.edu/data/duke-only/gis/forest/kml/1975/kor_std_1975.kmz\">KMZ</a></td></tr></tbody></table><p>&nbsp;</p><h3>1986</h3><table class=\"table\"><thead><tr><th>Layer Name</th><th style=\"width: 20%;\" scope=\"col\">ArcGIS Layer</th><th style=\"width: 20%;\" scope=\"col\">Google Earth Layer</th></tr></thead><tbody><tr><td>Cultural Operations</td><td><a href=\"http://library.duke.edu/data/duke-only/gis/forest/mgmt_1986/cultural_ops_1986.zip\">Shapefile</a> / <a href=\"http://library.duke.edu/data/files/forest/1986/cultural_ops_1986.htm\" target=\"_blank\">Metadata</a></td><td><a href=\"http://library.duke.edu/data/duke-only/gis/forest/kml/1986/cultural_ops_1986.kmz\">KMZ</a></td></tr><tr><td>Disturbances</td><td><a href=\"http://library.duke.edu/data/duke-only/gis/forest/mgmt_1986/disturbances_1986.zip\">Shapefile</a> / <a href=\"http://library.duke.edu/data/files/forest/1986/disturbances_1986.htm\" target=\"_blank\">Metadata</a></td><td><a href=\"http://library.duke.edu/data/duke-only/gis/forest/kml/1986/disturbances_1986.kmz\">KMZ</a></td></tr><tr><td>Harvestings</td><td><a href=\"http://library.duke.edu/data/duke-only/gis/forest/mgmt_1986/harvesting_1986.zip\">Shapefile</a> / <a href=\"http://library.duke.edu/data/files/forest/1986/harvesting_1986.htm\" target=\"_blank\">Metadata</a></td><td><a href=\"http://library.duke.edu/data/duke-only/gis/forest/kml/1986/harvesting_1986.kmz\">KMZ</a></td></tr><tr><td>Plantations</td><td><a href=\"http://library.duke.edu/data/duke-only/gis/forest/mgmt_1986/plantations_1986.zip\">Shapefile</a> / <a href=\"http://library.duke.edu/data/files/forest/1986/plantations_1986.htm\" target=\"_blank\">Metadata</a></td><td><a href=\"http://library.duke.edu/data/duke-only/gis/forest/kml/1986/plantations_1986.kmz\">KMZ</a></td></tr><tr><td>Standings, Blackwood Division</td><td><a href=\"http://library.duke.edu/data/duke-only/gis/forest/stands_1986/blkwd_std_1986.zip\">Shapefile</a> / <a href=\"http://library.duke.edu/data/files/forest/1986/blkwd_std_1986.htm\" target=\"_blank\">Metadata</a></td><td><a href=\"http://library.duke.edu/data/duke-only/gis/forest/kml/1986/blkwd_std_1986.kmz\">KMZ</a></td></tr><tr><td>Standings, Dailey Division (1982)</td><td><a href=\"http://library.duke.edu/data/duke-only/gis/forest/stands_1986/da_std_1982.zip\">Shapefile</a> / <a href=\"http://library.duke.edu/data/files/forest/1986/da_std_1982.htm\" target=\"_blank\">Metadata</a></td><td><a href=\"http://library.duke.edu/data/duke-only/gis/forest/kml/1986/da_std_1982.kmz\">KMZ</a></td></tr><tr><td>Standings, Durham Division</td><td><a href=\"http://library.duke.edu/data/duke-only/gis/forest/stands_1986/dur_std_1986.zip\">Shapefile</a> / <a href=\"http://library.duke.edu/data/files/forest/1986/dur_std_1986.htm\" target=\"_blank\">Metadata</a></td><td><a href=\"http://library.duke.edu/data/duke-only/gis/forest/kml/1986/dur_std_1986.kmz\">KMZ</a></td></tr><tr><td>Standings, Eno Division</td><td><a href=\"http://library.duke.edu/data/duke-only/gis/forest/stands_1986/eno_std_1986.zip\">Shapefile</a> / <a href=\"http://library.duke.edu/data/files/forest/1986/eno_std_1986.htm\" target=\"_blank\">Metadata</a></td><td><a href=\"http://library.duke.edu/data/duke-only/gis/forest/kml/1986/eno_std_1986.kmz\">KMZ</a></td></tr><tr><td>Standings, Hillsboro Division</td><td><a href=\"http://library.duke.edu/data/duke-only/gis/forest/stands_1986/hill_std_1986.zip\">Shapefile</a> / <a href=\"http://library.duke.edu/data/files/forest/1986/hill_std_1986.htm\" target=\"_blank\">Metadata</a></td><td><a href=\"http://library.duke.edu/data/duke-only/gis/forest/kml/1986/hill_std_1986.kmz\">KMZ</a></td></tr><tr><td>Standings, Korstian Division</td><td><a href=\"http://library.duke.edu/data/duke-only/gis/forest/stands_1986/kor_std_1986.zip\">Shapefile</a> / <a href=\"http://library.duke.edu/data/files/forest/1986/kor_std_1986.htm\" target=\"_blank\">Metadata</a></td><td><a href=\"http://library.duke.edu/data/duke-only/gis/forest/kml/1986/kor_std_1986.kmz\">KMZ</a></td></tr></tbody></table>"
         },
         "vuuid" : "da4c3829-a1a9-4fb3-9dba-a07da514cc94",
         "log" : "",
         "node_revision__field_tags" : [
            {
               "deleted" : 0,
               "entity_id" : 12,
               "field_tags_target_id" : 6,
               "revision_id" : 2933,
               "language" : "und",
               "bundle" : "about_page",
               "delta" : 0,
               "langcode" : "und"
            }
         ],
         "uid" : 5,
         "title" : "Duke Forest GIS Collections",
         "promote" : 0,
         "status" : 1,
         "timestamp" : 1612113594,
         "field_revision" : {
            "created" : null,
            "langcode" : null,
            "title" : "Duke Forest GIS Collections",
            "uid" : 1,
            "default_langcode" : 1,
            "sticky" : 0,
            "status" : 1,
            "revision_translation_affected" : 1,
            "changed" : null
         }
      }
   ],
   "uuid" : "a6805a0d-0af7-4d44-b104-dd643a6a5345",
   "node_access" : null,
   "nid" : "12",
   "path_alias" : {
      "status" : 0,
      "language" : "und",
      "alias" : "/sources/gis/forest",
      "langcode" : "und",
      "pid" : 26
   },
   "node__body" : {
      "deleted" : 0,
      "entity_id" : 12,
      "body_format" : "full_html",
      "revision_id" : 2933,
      "bundle" : "about_page",
      "delta" : 0,
      "body_value" : "<p>ArcGIS layers are compressed in \".zip\" format and require <a href=\"https://oit.duke.edu/comp-print/software/license/detail.php?id=30\" target=\"_blank\">GIS software</a> capable of reading ESRI geodatabases or shapefiles, or MrSID format raster data.</p><p>Google Earth layers are compressed \".kmz\" files.</p><p>All vector layers use the N.C. State Plane coordinate system (linear units = feet).&nbsp; Lambert Conformal Conic Projection, 1983 North American Datum (NAD83)</p><p><a href=\"http://dukeforest.duke.edu/files/2013/12/LocationMap_6Jan14.jpg\" target=\"_blank\">View a PDF map containing locations of these divisions</a>.</p><p>These data are restricted to current students, faculty and staff. &nbsp;Non-Duke users who require the layers for non-commercial purposes should contact <a href=\"mailto:mark.thomas@duke.edu?cc=joel.herndon@duke.edu&amp;subject=Duke GIS layer query\">Mark Thomas</a> for assistance or with questions.</p><p>&nbsp;</p><h3>1931</h3><table class=\"table\"><thead><tr><th>Layer Name</th><th style=\"width: 20%;\" scope=\"col\">ArcGIS Layer</th><th style=\"width: 20%;\" scope=\"col\">Google Earth Layer</th></tr></thead><tbody><tr><td>Cultural Operations</td><td><a href=\"http://library.duke.edu/data/duke-only/gis/forest/mgmt_1931/cultural_ops_1931.zip\">Shapefile</a> / <a href=\"http://library.duke.edu/data/files/forest/1931/cultural_ops_1931.html\" target=\"_blank\">Metadata</a></td><td><a href=\"http://library.duke.edu/data/duke-only/gis/forest/kml/1931/cultural_ops_1931.kml\">KMZ</a></td></tr><tr><td>Disturbances</td><td><a href=\"http://library.duke.edu/data/duke-only/gis/forest/mgmt_1931/disturbances_1931.zip\">Shapefile</a> / <a href=\"http://library.duke.edu/data/files/forest/1931/disturbances_1931.html\" target=\"_blank\">Metadata</a></td><td><a href=\"http://library.duke.edu/data/duke-only/gis/forest/kml/1931/disturbances_1931.kml\">KMZ</a></td></tr><tr><td>Harvestings</td><td><a href=\"http://library.duke.edu/data/duke-only/gis/forest/mgmt_1931/harvesting_1931.zip\">Shapefile</a> / <a href=\"http://library.duke.edu/data/files/forest/1931/harvesting_1931.html\" target=\"_blank\">Metadata</a></td><td><a href=\"http://library.duke.edu/data/duke-only/gis/forest/kml/1931/harvesting_1931.kml\">KMZ</a></td></tr><tr><td>Plantations</td><td><a href=\"http://library.duke.edu/data/duke-only/gis/forest/mgmt_1931/plantations_1931.zip\">Shapefile</a> / <a href=\"http://library.duke.edu/data/files/forest/1931/plantations_1931.html\" target=\"_blank\">Metadata</a></td><td><a href=\"http://library.duke.edu/data/duke-only/gis/forest/kml/1931/plantations_1931.kml\">KMZ</a></td></tr><tr><td>Standings</td><td><a href=\"http://library.duke.edu/data/duke-only/gis/forest/stands_1931/dur_std_1931.zip\">Shapefile</a> / <a href=\"http://library.duke.edu/data/files/forest/1931/dur_std_1931.html\" target=\"_blank\">Metadata</a></td><td><a href=\"http://library.duke.edu/data/duke-only/gis/forest/kml/1931/dur_std_1931.kml\">KMZ</a></td></tr></tbody></table><p>&nbsp;</p><h3>1944</h3><table class=\"table\"><thead><tr><th>Layer Name</th><th style=\"width: 20%;\" scope=\"col\">ArcGIS Layer</th><th style=\"width: 20%;\" scope=\"col\">Google Earth Layer</th></tr></thead><tbody><tr><td>Cultural Operations</td><td><a href=\"http://library.duke.edu/data/duke-only/gis/forest/mgmt_1944/cultural_ops_1944.zip\">Shapefile</a> / <a href=\"http://library.duke.edu/data/files/forest/1944/cultural_ops_1944.htm\" target=\"_blank\">Metadata</a></td><td><a href=\"http://library.duke.edu/data/duke-only/gis/forest/kml/1944/cultural_ops_1944.kmz\">KMZ</a></td></tr><tr><td>Disturbances</td><td><a href=\"http://library.duke.edu/data/duke-only/gis/forest/mgmt_1944/disturbances_1944.zip\">Shapefile</a> / <a href=\"http://library.duke.edu/data/files/forest/1944/disturbances_1944.htm\" target=\"_blank\">Metadata</a></td><td><a href=\"http://library.duke.edu/data/duke-only/gis/forest/kml/1944/disturbances_1944.kmz\">KMZ</a></td></tr><tr><td>Harvestings</td><td><a href=\"http://library.duke.edu/data/duke-only/gis/forest/mgmt_1944/harvesting_1944.zip\">Shapefile</a> / <a href=\"http://library.duke.edu/data/files/forest/1944/harvesting_1944.htm\" target=\"_blank\">Metadata</a></td><td><a href=\"http://library.duke.edu/data/duke-only/gis/forest/kml/1944/harvesting_1944.kmz\">KMZ</a></td></tr><tr><td>Plantations</td><td><a href=\"http://library.duke.edu/data/duke-only/gis/forest/mgmt_1944/plantations_1944.zip\">Shapefile</a> / <a href=\"http://library.duke.edu/data/files/forest/1944/plantations_1944.htm\" target=\"_blank\">Metadata</a></td><td><a href=\"http://library.duke.edu/data/duke-only/gis/forest/kml/1944/plantations_1944.kmz\">KMZ</a></td></tr><tr><td>Standings, Durham Division</td><td><a href=\"http://library.duke.edu/data/duke-only/gis/forest/stands_1944/dur_std_1944.zip\">Shapefile</a> / <a href=\"http://library.duke.edu/data/files/forest/1944/dur_std_1944.htm\" target=\"_blank\">Metadata</a></td><td><a href=\"http://library.duke.edu/data/duke-only/gis/forest/kml/1944/dur_std_1944.kmz\">KMZ</a></td></tr><tr><td>Standings, Korstian Division</td><td><a href=\"http://library.duke.edu/data/duke-only/gis/forest/stands_1944/kor_std_1944.zip\">Shapefile</a> / <a href=\"http://library.duke.edu/data/files/forest/1944/kor_std_1944.htm\" target=\"_blank\">Metadata</a></td><td><a href=\"http://library.duke.edu/data/duke-only/gis/forest/kml/1944/kor_std_1944.kmz\">KMZ</a></td></tr><tr><td>Standings, Henry J. Oosting Natural Area</td><td><a href=\"http://library.duke.edu/data/duke-only/gis/forest/stands_1944/oosting_std_1944.zip\">Shapefile</a> / <a href=\"http://library.duke.edu/data/files/forest/1944/oosting_std_1944.htm\" target=\"_blank\">Metadata</a></td><td><a href=\"http://library.duke.edu/data/duke-only/gis/forest/kml/1944/oosting_std_1944.kmz\">KMZ</a></td></tr></tbody></table><p>&nbsp;</p><h3>1952</h3><table class=\"table\"><thead><tr><th>Layer Name</th><th style=\"width: 20%;\" scope=\"col\">ArcGIS Layer</th><th style=\"width: 20%;\" scope=\"col\">Google Earth Layer</th></tr></thead><tbody><tr><td>Cultural Operations</td><td><a href=\"http://library.duke.edu/data/duke-only/gis/forest/mgmt_1952/cultural_ops_1952.zip\">Shapefile</a> / <a href=\"http://library.duke.edu/data/files/forest/1952/cultural_ops_1952.htm\" target=\"_blank\">Metadata</a></td><td><a href=\"http://library.duke.edu/data/duke-only/gis/forest/kml/1952/cultural_ops_1952.kmz\">KMZ</a></td></tr><tr><td>Disturbances</td><td><a href=\"http://library.duke.edu/data/duke-only/gis/forest/mgmt_1952/disturbances_1952.zip\">Shapefile</a> / <a href=\"http://library.duke.edu/data/files/forest/1952/disturbances_1952.htm\" target=\"_blank\">Metadata</a></td><td><a href=\"http://library.duke.edu/data/duke-only/gis/forest/kml/1952/disturbances_1952.kmz\">KMZ</a></td></tr><tr><td>Harvestings</td><td><a href=\"http://library.duke.edu/data/duke-only/gis/forest/mgmt_1952/harvesting_1952.zip\">Shapefile</a> / <a href=\"http://library.duke.edu/data/files/forest/1952/harvesting_1952.htm\" target=\"_blank\">Metadata</a></td><td><a href=\"http://library.duke.edu/data/duke-only/gis/forest/kml/1952/harvesting_1952.kmz\">KMZ</a></td></tr><tr><td>Plantations</td><td><a href=\"http://library.duke.edu/data/duke-only/gis/forest/mgmt_1952/plantations_1952.zip\">Shapefile</a> / <a href=\"http://library.duke.edu/data/files/forest/1952/plantations_1952.htm\" target=\"_blank\">Metadata</a></td><td><a href=\"http://library.duke.edu/data/duke-only/gis/forest/kml/1952/plantations_1952.kmz\">KMZ</a></td></tr><tr><td>Standings, Blackwood Division</td><td><a href=\"http://library.duke.edu/data/duke-only/gis/forest/stands_1952/blkwd_std_1952.zip\">Shapefile</a> / <a href=\"http://library.duke.edu/data/files/forest/1952/blkwd_std_1952.htm\" target=\"_blank\">Metadata</a></td><td><a href=\"http://library.duke.edu/data/duke-only/gis/forest/kml/1952/blkwd_std_1952.kmz\">KMZ</a></td></tr><tr><td>Standings, Durham Division</td><td><a href=\"http://library.duke.edu/data/duke-only/gis/forest/stands_1952/dur_std_1952.zip\">Shapefile</a> / <a href=\"http://library.duke.edu/data/files/forest/1952/dur_std_1952.htm\" target=\"_blank\">Metadata</a></td><td><a href=\"http://library.duke.edu/data/duke-only/gis/forest/kml/1952/dur_std_1952.kmz\">KMZ</a></td></tr><tr><td>Standings, Eno Division</td><td><a href=\"http://library.duke.edu/data/duke-only/gis/forest/stands_1952/eno_std_1952.zip\">Shapefile</a> / <a href=\"http://library.duke.edu/data/files/forest/1952/eno_std_1952.htm\" target=\"_blank\">Metadata</a></td><td><a href=\"http://library.duke.edu/data/duke-only/gis/forest/kml/1952/eno_std_1952.kmz\">KMZ</a></td></tr><tr><td>Standings, Hillsboro Division</td><td><a href=\"http://library.duke.edu/data/duke-only/gis/forest/stands_1952/hill_std_1952.zip\">Shapefile</a> / <a href=\"http://library.duke.edu/data/files/forest/1952/hill_std_1952.htm\" target=\"_blank\">Metadata</a></td><td><a href=\"http://library.duke.edu/data/duke-only/gis/forest/kml/1952/hill_std_1952.kmz\">KMZ</a></td></tr><tr><td>Standings, Korstian Division</td><td><a href=\"http://library.duke.edu/data/duke-only/gis/forest/stands_1952/kor_std_1952.zip\">Shapefile</a> / <a href=\"http://library.duke.edu/data/files/forest/1952/kor_std_1952.htm\" target=\"_blank\">Metadata</a></td><td><a href=\"http://library.duke.edu/data/duke-only/gis/forest/kml/1952/kor_std_1952.kmz\">KMZ</a></td></tr><tr><td>Standings,&nbsp;Henry J. Oosting Natural Area</td><td><a href=\"http://library.duke.edu/data/duke-only/gis/forest/stands_1952/oosting_std_1952.zip\">Shapefile</a> / <a href=\"http://library.duke.edu/data/files/forest/1952/oosting_std_1952.htm\" target=\"_blank\">Metadata</a></td><td><a href=\"http://library.duke.edu/data/duke-only/gis/forest/kml/1952/oosting_std_1952.kmz\">KMZ</a></td></tr></tbody></table><p>&nbsp;</p><h3>1963</h3><table class=\"table\"><thead><tr><th>Layer Name</th><th style=\"width: 20%;\" scope=\"col\">ArcGIS Layer</th><th style=\"width: 20%;\" scope=\"col\">Google Earth Layer</th></tr></thead><tbody><tr><td>Cultural Operations</td><td><a href=\"http://library.duke.edu/data/duke-only/gis/forest/mgmt_1963/cultural_ops_1963.zip\">Shapefile</a> / <a href=\"http://library.duke.edu/data/files/forest/1963/cultural_ops_1963.htm\" target=\"_blank\">Metadata</a></td><td><a href=\"http://library.duke.edu/data/duke-only/gis/forest/kml/1963/disturbances_1963.kmz\">KMZ</a></td></tr><tr><td>Disturbances</td><td><a href=\"http://library.duke.edu/data/duke-only/gis/forest/mgmt_1963/disturbances_1963.zip\">Shapefile</a> / <a href=\"http://library.duke.edu/data/files/forest/1963/disturbances_1963.htm\" target=\"_blank\">Metadata</a></td><td><a href=\"http://library.duke.edu/data/duke-only/gis/forest/kml/1963/disturbances_1963.kmz\">KMZ</a></td></tr><tr><td>Harvestings</td><td><a href=\"http://library.duke.edu/data/duke-only/gis/forest/mgmt_1963/harvesting_1963.zip\">Shapefile</a> / <a href=\"http://library.duke.edu/data/files/forest/1963/harvesting_1963.htm\" target=\"_blank\">Metadata</a></td><td><a href=\"http://library.duke.edu/data/duke-only/gis/forest/kml/1963/harvesting_1963.kmz\">KMZ</a></td></tr><tr><td>Plantations</td><td><a href=\"http://library.duke.edu/data/duke-only/gis/forest/mgmt_1963/plantations_1963.zip\">Shapefile</a> / <a href=\"http://library.duke.edu/data/files/forest/1963/plantations_1963.htm\" target=\"_blank\">Metadata</a></td><td><a href=\"http://library.duke.edu/data/duke-only/gis/forest/kml/1963/plantations_1963.kmz\">KMZ</a></td></tr><tr><td>Standings, Blackwood Division</td><td><a href=\"http://library.duke.edu/data/duke-only/gis/forest/stands_1963/blkwd_std_1963.zip\">Shapefile</a> / <a href=\"http://library.duke.edu/data/files/forest/1963/blkwd_std_1963.htm\" target=\"_blank\">Metadata</a></td><td><a href=\"http://library.duke.edu/data/duke-only/gis/forest/kml/1963/blkwd_std_1963.kmz\">KMZ</a></td></tr><tr><td>Standings, Durham Division</td><td><a href=\"http://library.duke.edu/data/duke-only/gis/forest/stands_1963/dur_std_1963.zip\">Shapefile</a> / <a href=\"http://library.duke.edu/data/files/forest/1963/dur_std_1963.htm\" target=\"_blank\">Metadata</a></td><td><a href=\"http://library.duke.edu/data/duke-only/gis/forest/kml/1963/dur_std_1963.kmz\">KMZ</a></td></tr><tr><td>Standings, Eno Division</td><td><a href=\"http://library.duke.edu/data/duke-only/gis/forest/stands_1963/eno_std_1963.zip\">Shapefile</a> / <a href=\"http://library.duke.edu/data/files/forest/1963/eno_std_1963.htm\" target=\"_blank\">Metadata</a></td><td><a href=\"http://library.duke.edu/data/duke-only/gis/forest/kml/1963/eno_std_1963.kmz\">KMZ</a></td></tr><tr><td>Standings, Hillsboro Division</td><td><a href=\"http://library.duke.edu/data/duke-only/gis/forest/stands_1963/hill_std_1963.zip\">Shapefile</a> / <a href=\"http://library.duke.edu/data/files/forest/1963/hill_std_1963.htm\" target=\"_blank\">Metadata</a></td><td><a href=\"http://library.duke.edu/data/duke-only/gis/forest/kml/1963/hill_std_1963.kmz\">KMZ</a></td></tr><tr><td>Standings, Korstian Division</td><td><a href=\"http://library.duke.edu/data/duke-only/gis/forest/stands_1963/kor_std_1963.zip\">Shapefile</a> / <a href=\"http://library.duke.edu/data/files/forest/1963/kor_std_1963.htm\" target=\"_blank\">Metadata</a></td><td><a href=\"http://library.duke.edu/data/duke-only/gis/forest/kml/1963/kor_std_1963.kmz\">KMZ</a></td></tr></tbody></table><p>&nbsp;</p><h3>1975</h3><table class=\"table\"><thead><tr><th>Layer Name</th><th style=\"width: 20%;\" scope=\"col\">ArcGIS Layer</th><th style=\"width: 20%;\" scope=\"col\">Google Earth Layer</th></tr></thead><tbody><tr><td>Cultural Operations</td><td><a href=\"http://library.duke.edu/data/duke-only/gis/forest/mgmt_1975/cultural_ops_1975.zip\">Shapefile</a> / <a href=\"http://library.duke.edu/data/files/forest/1975/cultural_ops_1975.htm\">Netadata</a></td><td><a href=\"http://library.duke.edu/data/duke-only/gis/forest/kml/1975/cultural_ops_1975.kmz\">KMZ</a></td></tr><tr><td>Disturbances</td><td><a href=\"http://library.duke.edu/data/duke-only/gis/forest/mgmt_1975/disturbances_1975.zip\">Shapefile</a> / <a href=\"http://library.duke.edu/data/files/forest/1975/disturbances_1975.htm\" target=\"_blank\">Metadata</a></td><td><a href=\"http://library.duke.edu/data/duke-only/gis/forest/kml/1975/disturbances_1975.kmz\">KMZ</a></td></tr><tr><td>Harvestings</td><td><a href=\"http://library.duke.edu/data/duke-only/gis/forest/mgmt_1975/harvesting_1975.zip\">Shapefile</a> / <a href=\"http://library.duke.edu/data/files/forest/1975/harvesting_1975.htm\" target=\"_blank\">Metadata</a></td><td><a href=\"http://library.duke.edu/data/duke-only/gis/forest/kml/1975/harvesting_1975.kmz\">KMZ</a></td></tr><tr><td>Plantations</td><td><a href=\"http://library.duke.edu/data/duke-only/gis/forest/mgmt_1975/plantations_1975.zip\">Shapefile</a> / <a href=\"http://library.duke.edu/data/files/forest/1975/plantations_1975.htm\" target=\"_blank\">Metadata</a></td><td><a href=\"http://library.duke.edu/data/duke-only/gis/forest/kml/1975/plantations_1975.kmz\">KMZ</a></td></tr><tr><td>Standings, Blackwood Division</td><td><a href=\"http://library.duke.edu/data/duke-only/gis/forest/stands_1975/blkwd_std_1975.zip\">Shapefile</a> / <a href=\"http://library.duke.edu/data/files/forest/1975/blkwd_std_1975.htm\" target=\"_blank\">Metadata</a></td><td><a href=\"http://library.duke.edu/data/duke-only/gis/forest/kml/1975/blkwd_std_1975.kmz\">KMZ</a></td></tr><tr><td>Standings, Durham Division</td><td><a href=\"http://library.duke.edu/data/duke-only/gis/forest/stands_1975/dur_std_1975.zip\">Shapefile</a> / <a href=\"http://library.duke.edu/data/files/forest/1975/dur_std_1975.htm\" target=\"_blank\">Metadata</a></td><td><a href=\"http://library.duke.edu/data/duke-only/gis/forest/kml/1975/dur_std_1975.kmz\">KMZ</a></td></tr><tr><td>Standings, Eno Division</td><td><a href=\"http://library.duke.edu/data/duke-only/gis/forest/stands_1975/eno_std_1975.zip\">Shapefile</a> / <a href=\"http://library.duke.edu/data/files/forest/1975/eno_std_1975.htm\" target=\"_blank\">Metadata</a></td><td><a href=\"http://library.duke.edu/data/duke-only/gis/forest/kml/1975/eno_std_1975.kmz\">KMZ</a></td></tr><tr><td>Standings, Hillsboro Division</td><td><a href=\"http://library.duke.edu/data/duke-only/gis/forest/stands_1975/hill_std_1975.zip\">Shapefile</a> / <a href=\"http://library.duke.edu/data/files/forest/1975/hill_std_1975.htm\" target=\"_blank\">Metadata</a></td><td><a href=\"http://library.duke.edu/data/duke-only/gis/forest/kml/1975/hill_std_1975.kmz\">KMZ</a></td></tr><tr><td>Standings, Korstian Division</td><td><a href=\"http://library.duke.edu/data/duke-only/gis/forest/stands_1975/kor_std_1975.zip\">Shapefile</a> / <a href=\"http://library.duke.edu/data/files/forest/1975/kor_std_1975.htm\" target=\"_blank\">Metadata</a></td><td><a href=\"http://library.duke.edu/data/duke-only/gis/forest/kml/1975/kor_std_1975.kmz\">KMZ</a></td></tr></tbody></table><p>&nbsp;</p><h3>1986</h3><table class=\"table\"><thead><tr><th>Layer Name</th><th style=\"width: 20%;\" scope=\"col\">ArcGIS Layer</th><th style=\"width: 20%;\" scope=\"col\">Google Earth Layer</th></tr></thead><tbody><tr><td>Cultural Operations</td><td><a href=\"http://library.duke.edu/data/duke-only/gis/forest/mgmt_1986/cultural_ops_1986.zip\">Shapefile</a> / <a href=\"http://library.duke.edu/data/files/forest/1986/cultural_ops_1986.htm\" target=\"_blank\">Metadata</a></td><td><a href=\"http://library.duke.edu/data/duke-only/gis/forest/kml/1986/cultural_ops_1986.kmz\">KMZ</a></td></tr><tr><td>Disturbances</td><td><a href=\"http://library.duke.edu/data/duke-only/gis/forest/mgmt_1986/disturbances_1986.zip\">Shapefile</a> / <a href=\"http://library.duke.edu/data/files/forest/1986/disturbances_1986.htm\" target=\"_blank\">Metadata</a></td><td><a href=\"http://library.duke.edu/data/duke-only/gis/forest/kml/1986/disturbances_1986.kmz\">KMZ</a></td></tr><tr><td>Harvestings</td><td><a href=\"http://library.duke.edu/data/duke-only/gis/forest/mgmt_1986/harvesting_1986.zip\">Shapefile</a> / <a href=\"http://library.duke.edu/data/files/forest/1986/harvesting_1986.htm\" target=\"_blank\">Metadata</a></td><td><a href=\"http://library.duke.edu/data/duke-only/gis/forest/kml/1986/harvesting_1986.kmz\">KMZ</a></td></tr><tr><td>Plantations</td><td><a href=\"http://library.duke.edu/data/duke-only/gis/forest/mgmt_1986/plantations_1986.zip\">Shapefile</a> / <a href=\"http://library.duke.edu/data/files/forest/1986/plantations_1986.htm\" target=\"_blank\">Metadata</a></td><td><a href=\"http://library.duke.edu/data/duke-only/gis/forest/kml/1986/plantations_1986.kmz\">KMZ</a></td></tr><tr><td>Standings, Blackwood Division</td><td><a href=\"http://library.duke.edu/data/duke-only/gis/forest/stands_1986/blkwd_std_1986.zip\">Shapefile</a> / <a href=\"http://library.duke.edu/data/files/forest/1986/blkwd_std_1986.htm\" target=\"_blank\">Metadata</a></td><td><a href=\"http://library.duke.edu/data/duke-only/gis/forest/kml/1986/blkwd_std_1986.kmz\">KMZ</a></td></tr><tr><td>Standings, Dailey Division (1982)</td><td><a href=\"http://library.duke.edu/data/duke-only/gis/forest/stands_1986/da_std_1982.zip\">Shapefile</a> / <a href=\"http://library.duke.edu/data/files/forest/1986/da_std_1982.htm\" target=\"_blank\">Metadata</a></td><td><a href=\"http://library.duke.edu/data/duke-only/gis/forest/kml/1986/da_std_1982.kmz\">KMZ</a></td></tr><tr><td>Standings, Durham Division</td><td><a href=\"http://library.duke.edu/data/duke-only/gis/forest/stands_1986/dur_std_1986.zip\">Shapefile</a> / <a href=\"http://library.duke.edu/data/files/forest/1986/dur_std_1986.htm\" target=\"_blank\">Metadata</a></td><td><a href=\"http://library.duke.edu/data/duke-only/gis/forest/kml/1986/dur_std_1986.kmz\">KMZ</a></td></tr><tr><td>Standings, Eno Division</td><td><a href=\"http://library.duke.edu/data/duke-only/gis/forest/stands_1986/eno_std_1986.zip\">Shapefile</a> / <a href=\"http://library.duke.edu/data/files/forest/1986/eno_std_1986.htm\" target=\"_blank\">Metadata</a></td><td><a href=\"http://library.duke.edu/data/duke-only/gis/forest/kml/1986/eno_std_1986.kmz\">KMZ</a></td></tr><tr><td>Standings, Hillsboro Division</td><td><a href=\"http://library.duke.edu/data/duke-only/gis/forest/stands_1986/hill_std_1986.zip\">Shapefile</a> / <a href=\"http://library.duke.edu/data/files/forest/1986/hill_std_1986.htm\" target=\"_blank\">Metadata</a></td><td><a href=\"http://library.duke.edu/data/duke-only/gis/forest/kml/1986/hill_std_1986.kmz\">KMZ</a></td></tr><tr><td>Standings, Korstian Division</td><td><a href=\"http://library.duke.edu/data/duke-only/gis/forest/stands_1986/kor_std_1986.zip\">Shapefile</a> / <a href=\"http://library.duke.edu/data/files/forest/1986/kor_std_1986.htm\" target=\"_blank\">Metadata</a></td><td><a href=\"http://library.duke.edu/data/duke-only/gis/forest/kml/1986/kor_std_1986.kmz\">KMZ</a></td></tr></tbody></table>",
      "langcode" : "und",
      "body_summary" : ""
   },
   "field_image" : null,
   "asidebox" : {
      "block_delta" : null,
      "vid" : 2933,
      "body_format" : null,
      "bid" : null,
      "body_title" : "",
      "status" : "disabled",
      "nid" : 12,
      "body_value" : null,
      "block_module" : null
   },
   "field_tags" : [
      {
         "language" : "und",
         "delta" : 0,
         "bundle" : "about_page",
         "term_uuid" : "a3e2a3b8-ace9-447b-81b4-6e4533159e08",
         "langcode" : "und",
         "entity_id" : 12,
         "deleted" : 0,
         "field_tags_target_id" : 6,
         "revision_id" : 2933
      }
   ],
   "node_field_data" : {
      "promote" : 0,
      "title" : "Duke Forest GIS Collections",
      "default_langcode" : 1,
      "uid" : 1,
      "status" : 1,
      "type" : "about_page",
      "sticky" : 0,
      "created" : 1374866699,
      "langcode" : "und",
      "changed" : null,
      "revision_translation_affected" : 1
   },
   "vid" : 2933,
   "type" : "about_page"
}

