{
   "type" : "about_page",
   "asidebox" : {
      "nid" : 40,
      "status" : "disabled",
      "body_value" : null,
      "block_module" : null,
      "vid" : 2932,
      "body_format" : null,
      "block_delta" : null,
      "body_title" : "",
      "bid" : null
   },
   "field_tags" : [],
   "node_field_data" : {
      "type" : "about_page",
      "status" : 1,
      "default_langcode" : 1,
      "uid" : 1,
      "title" : "Address Locator Files",
      "promote" : 0,
      "changed" : null,
      "revision_translation_affected" : 1,
      "sticky" : 0,
      "langcode" : "und",
      "created" : 1375126438
   },
   "vid" : 2932,
   "nid" : "40",
   "node__body" : {
      "revision_id" : 2932,
      "entity_id" : 40,
      "deleted" : 0,
      "body_format" : "full_html",
      "body_summary" : "",
      "langcode" : "und",
      "delta" : 0,
      "bundle" : "about_page",
      "body_value" : "<p>The following address locators allow geocoding with ArcGIS software.&nbsp; Each set of files will need to be unzipped before use. &nbsp;The North Carolina address locators are available to all. &nbsp;Current studets, faculty and staff may access locators for Duke University, Durham County, and the United States as a whole.</p><p style=\"padding-left: 30px;\"><a href=\"https://duke.box.com/v/AddressLocators\" target=\"_blank\" title=\"2018 Address Locators\">USA and Canada for 2019&nbsp;</a>(Duke only)</p><dl style=\"padding-left: 30px;\"><dd style=\"padding-left: 30px;\">From the ArcGIS Business Analyst Data package for 2019.</dd></dl><p style=\"padding-left: 30px;\"><a href=\"/data/duke-only/gis/esri/esridm/2008/streetmap_na/data/locator_files.zip\" target=\"_blank\" title=\"ESRI Locator\">Nationwide 2008</a>&nbsp;(Duke only)</p><dl style=\"padding-left: 30px;\"><dd style=\"padding-left: 30px;\">From <a href=\"/data/collections/gis/esri/esri_2008#streetmap\" target=\"_blank\" title=\"Streetmap North America\">Streetmap North America</a> in the <a href=\"/data/collections/gis/esri/esri_2008\" target=\"_blank\" title=\"EDM 2008\">ESRI Data and Maps 2008</a> collection.</dd></dl><p style=\"padding-left: 30px;\"><a href=\"/data/files/address_locators/NCDOT/NCDOT_locators.zip\" target=\"_blank\" title=\"NCDOT locator\">North Carolina</a></p><dl style=\"padding-left: 30px;\"><dd style=\"padding-left: 30px;\">Created from the <a href=\"https://connect.ncdot.gov/resources/gis/Pages/GIS-Data-Layers.aspx\" target=\"_blank\" title=\"NCDOT ISRN Roads\">NCDOT Integrated Statewide Road Network (ISRN)</a></dd></dl><p style=\"padding-left: 30px;\"><a href=\"/data/duke-only/gis/durham/address_locators/Durham_locators.zip\" target=\"_blank\" title=\"Durham locator\">Durham County</a> (Duke only)</p><dl style=\"padding-left: 30px;\"><dd style=\"padding-left: 30px;\">Created from the Roads layer in the <a href=\"/data/collections/gis/durham\" target=\"_blank\" title=\"Durham GIS Features\">Durham GIS Features</a> collection.</dd></dl><p style=\"padding-left: 30px;\"><a href=\"/data/duke-only/gis/duke/address_locators/Duke_locators.ZIP\">Duke University and vicinity</a> (Duke only)</p><dl style=\"padding-left: 30px;\"><dd style=\"padding-left: 30px;\">Created from the Street Centerline layer in the <a href=\"/data/collections/gis/duke\" target=\"_blank\" title=\"Duke FMD GIS\">Duke University GIS Layer</a> collection.</dd></dl>"
   },
   "path_alias" : {
      "status" : 0,
      "language" : "und",
      "alias" : "/sources/gis/address_locators",
      "pid" : 54,
      "langcode" : "und"
   },
   "field_image" : null,
   "langcode" : "und",
   "uuid" : "a8f4ddd3-dc33-472f-a6e2-2239f48151f6",
   "revisions" : [
      {
         "promote" : 0,
         "uid" : 5,
         "title" : "Address Locator Files",
         "status" : 1,
         "timestamp" : 1612113398,
         "field_revision" : {
            "revision_translation_affected" : 1,
            "changed" : null,
            "status" : 1,
            "title" : "Address Locator Files",
            "langcode" : null,
            "uid" : 1,
            "default_langcode" : 1,
            "created" : null,
            "sticky" : 0
         },
         "sticky" : 0,
         "comment" : 1,
         "node_revision__body" : {
            "revision_id" : 2932,
            "deleted" : 0,
            "entity_id" : 40,
            "body_format" : "full_html",
            "langcode" : "und",
            "body_summary" : "",
            "delta" : 0,
            "bundle" : "about_page",
            "body_value" : "<p>The following address locators allow geocoding with ArcGIS software.&nbsp; Each set of files will need to be unzipped before use. &nbsp;The North Carolina address locators are available to all. &nbsp;Current studets, faculty and staff may access locators for Duke University, Durham County, and the United States as a whole.</p><p style=\"padding-left: 30px;\"><a href=\"https://duke.box.com/v/AddressLocators\" target=\"_blank\" title=\"2018 Address Locators\">USA and Canada for 2019&nbsp;</a>(Duke only)</p><dl style=\"padding-left: 30px;\"><dd style=\"padding-left: 30px;\">From the ArcGIS Business Analyst Data package for 2019.</dd></dl><p style=\"padding-left: 30px;\"><a href=\"/data/duke-only/gis/esri/esridm/2008/streetmap_na/data/locator_files.zip\" target=\"_blank\" title=\"ESRI Locator\">Nationwide 2008</a>&nbsp;(Duke only)</p><dl style=\"padding-left: 30px;\"><dd style=\"padding-left: 30px;\">From <a href=\"/data/collections/gis/esri/esri_2008#streetmap\" target=\"_blank\" title=\"Streetmap North America\">Streetmap North America</a> in the <a href=\"/data/collections/gis/esri/esri_2008\" target=\"_blank\" title=\"EDM 2008\">ESRI Data and Maps 2008</a> collection.</dd></dl><p style=\"padding-left: 30px;\"><a href=\"/data/files/address_locators/NCDOT/NCDOT_locators.zip\" target=\"_blank\" title=\"NCDOT locator\">North Carolina</a></p><dl style=\"padding-left: 30px;\"><dd style=\"padding-left: 30px;\">Created from the <a href=\"https://connect.ncdot.gov/resources/gis/Pages/GIS-Data-Layers.aspx\" target=\"_blank\" title=\"NCDOT ISRN Roads\">NCDOT Integrated Statewide Road Network (ISRN)</a></dd></dl><p style=\"padding-left: 30px;\"><a href=\"/data/duke-only/gis/durham/address_locators/Durham_locators.zip\" target=\"_blank\" title=\"Durham locator\">Durham County</a> (Duke only)</p><dl style=\"padding-left: 30px;\"><dd style=\"padding-left: 30px;\">Created from the Roads layer in the <a href=\"/data/collections/gis/durham\" target=\"_blank\" title=\"Durham GIS Features\">Durham GIS Features</a> collection.</dd></dl><p style=\"padding-left: 30px;\"><a href=\"/data/duke-only/gis/duke/address_locators/Duke_locators.ZIP\">Duke University and vicinity</a> (Duke only)</p><dl style=\"padding-left: 30px;\"><dd style=\"padding-left: 30px;\">Created from the Street Centerline layer in the <a href=\"/data/collections/gis/duke\" target=\"_blank\" title=\"Duke FMD GIS\">Duke University GIS Layer</a> collection.</dd></dl>"
         },
         "vuuid" : "feacd0f6-cc11-4987-9c97-36c0072c9eb6",
         "log" : "",
         "node_revision__field_tags" : []
      }
   ],
   "node_access" : null
}

