{
   "node_field_data" : {
      "default_langcode" : 1,
      "uid" : 1,
      "title" : "ESRI Data and Maps 2005",
      "promote" : 0,
      "status" : 1,
      "type" : "about_page",
      "sticky" : 0,
      "langcode" : "und",
      "created" : 1375126815,
      "changed" : null,
      "revision_translation_affected" : 1
   },
   "vid" : 2421,
   "field_tags" : [],
   "asidebox" : {
      "bid" : null,
      "body_title" : "",
      "block_delta" : null,
      "vid" : 2421,
      "body_format" : null,
      "block_module" : null,
      "status" : "disabled",
      "nid" : 45,
      "body_value" : null
   },
   "type" : "about_page",
   "node_access" : null,
   "langcode" : "und",
   "uuid" : "b461d7c2-e067-40ad-8ff0-771472d4bb4c",
   "revisions" : [
      {
         "node_revision__field_tags" : [],
         "node_revision__body" : {
            "body_value" : "<p><strong>ESRI Data and Maps</strong> is a five-CD collection of annual map data that is included with a license to <a href=\"https://oit.duke.edu/comp-print/software/license/detail.php?id=30\">ArcGIS software</a>. These data are provided by Duke University Libraries in coordination with the Nicholas School of the Environment. All layers are compressed in \".zip\" format and require <a href=\"https://oit.duke.edu/comp-print/software/license/detail.php?id=30\">GIS software</a> capable of&nbsp;reading<strong> Smart Data Compression (SDC) files.</strong></p><p>Only current members of the Duke Community may access this collection. Redistribution is strictly prohibited.&nbsp;<a href=\"http://help.arcgis.com/en/arcgisdesktop/10.0/help/index.html#/License_agreement/00r90000002w000000/\">Get more information about redistribution rights</a>.</p><p>&nbsp;</p><h3>Canada</h3><table class=\"table\"><thead><tr><th>Layer Name</th><th style=\"width: 15%;\" scope=\"col\">ArcGIS Layer</th><th style=\"width: 15%;\" scope=\"col\">Metadata</th></tr></thead><tbody><tr><td>FSA Postal Centroids</td><td><a href=\"http://library.duke.edu/data/duke-only/gis/esri/esridm/2005/canada/census/postal.zip\">SDC</a></td><td><a href=\"http://library.duke.edu/data/files/esri/esridm/2005/canada/census/postal.html\">Metadata</a></td></tr><tr><td>Highways</td><td><a href=\"http://library.duke.edu/data/duke-only/gis/esri/esridm/2005/canada/census/mjrroads.zip\">SDC</a></td><td><a href=\"http://library.duke.edu/data/files/esri/esridm/2005/canada/census/mjrroads.html\">Metadata</a></td></tr><tr><td>Indian Reserves</td><td><a href=\"http://library.duke.edu/data/duke-only/gis/esri/esridm/2005/canada/census/indnrsrv.zip\">SDC</a></td><td><a href=\"http://library.duke.edu/data/files/esri/esridm/2005/canada/census/indnrsrv.html\">Metadata</a></td></tr><tr><td>Major Cities</td><td><a href=\"http://library.duke.edu/data/duke-only/gis/esri/esridm/2005/canada/census/mjcities.zip\">SDC</a></td><td><a href=\"http://library.duke.edu/data/files/esri/esridm/2005/canada/census/mjcities.html\">Metadata</a></td></tr><tr><td>Middle Cities</td><td><a href=\"http://library.duke.edu/data/duke-only/gis/esri/esridm/2005/canada/census/mdcities.zip\">SDC</a></td><td><a href=\"http://library.duke.edu/data/files/esri/esridm/2005/canada/census/mdcities.html\">Metadata</a></td></tr><tr><td>Municipalities</td><td><a href=\"http://library.duke.edu/data/duke-only/gis/esri/esridm/2005/canada/census/municplt.zip\">SDC</a></td><td><a href=\"http://library.duke.edu/data/files/esri/esridm/2005/canada/census/municplt.html\">Metadata</a></td></tr><tr><td>National Parks</td><td><a href=\"http://library.duke.edu/data/duke-only/gis/esri/esridm/2005/canada/census/natlpark.zip\">SDC</a></td><td><a href=\"http://library.duke.edu/data/files/esri/esridm/2005/canada/census/natlpark.html\">Metadata</a></td></tr><tr><td>Provinces</td><td><a href=\"http://library.duke.edu/data/duke-only/gis/esri/esridm/2005/canada/census/province.zip\">SDC</a></td><td><a href=\"http://library.duke.edu/data/files/esri/esridm/2005/canada/census/province.html\">Metadata</a></td></tr><tr><td>Provincial Parks</td><td><a href=\"http://library.duke.edu/data/duke-only/gis/esri/esridm/2005/canada/census/provpark.zip\">SDC</a></td><td><a href=\"http://library.duke.edu/data/files/esri/esridm/2005/canada/census/provpark.html\">Metadata</a></td></tr><tr><td>Railways</td><td><a href=\"http://library.duke.edu/data/duke-only/gis/esri/esridm/2005/canada/census/rails.zip\">SDC</a></td><td><a href=\"http://library.duke.edu/data/files/esri/esridm/2005/canada/census/rails.html\">Metadata</a></td></tr><tr><td>Regional Municipalities</td><td><a href=\"http://library.duke.edu/data/duke-only/gis/esri/esridm/2005/canada/census/regnmuni.zip\">SDC</a></td><td><a href=\"http://library.duke.edu/data/files/esri/esridm/2005/canada/census/regnmuni.html\">Metadata</a></td></tr><tr><td>Telephone Area Code Boundaries</td><td><a href=\"http://library.duke.edu/data/duke-only/gis/esri/esridm/2005/canada/census/areacode.zip\">SDC</a></td><td><a href=\"http://library.duke.edu/data/files/esri/esridm/2005/canada/census/areacode.html\">Metadata</a></td></tr><tr><td>Water Bodies</td><td><a href=\"http://library.duke.edu/data/duke-only/gis/esri/esridm/2005/canada/census/water.zip\">SDC</a></td><td><a href=\"http://library.duke.edu/data/files/esri/esridm/2005/canada/census/water.html\">Metadata</a></td></tr></tbody></table><p>&nbsp;</p><h3>Europe</h3><table class=\"table\"><thead><tr><th>Layer Name</th><th style=\"width: 15%;\" scope=\"col\">ArcGIS Layer</th><th style=\"width: 15%;\" scope=\"col\">Metadata</th></tr></thead><tbody><tr><td>Cities</td><td><a href=\"http://library.duke.edu/data/duke-only/gis/esri/esridm/2005/europe/census/cities.zip\">SDC</a></td><td><a href=\"http://library.duke.edu/data/files/esri/esridm/2005/europe/census/cities.html\">Metadata</a></td></tr><tr><td>Countries</td><td><a href=\"http://library.duke.edu/data/duke-only/gis/esri/esridm/2005/europe/census/country.zip\">SDC</a></td><td><a href=\"http://library.duke.edu/data/files/esri/esridm/2005/europe/census/country.html\">Metadata</a></td></tr><tr><td>Ferries</td><td><a href=\"http://library.duke.edu/data/duke-only/gis/esri/esridm/2005/europe/census/ferries.zip\">SDC</a></td><td><a href=\"http://library.duke.edu/data/files/esri/esridm/2005/europe/census/ferries.html\">Metadata</a></td></tr><tr><td>Major Roads</td><td><a href=\"http://library.duke.edu/data/duke-only/gis/esri/esridm/2005/europe/census/mjrroads.zip\">SDC</a></td><td><a href=\"http://library.duke.edu/data/files/esri/esridm/2005/europe/census/mjrroads.html\">Metadata</a></td></tr><tr><td>Major Water</td><td><a href=\"http://library.duke.edu/data/duke-only/gis/esri/esridm/2005/europe/census/mjrwater.zip\">SDC</a></td><td><a href=\"http://library.duke.edu/data/files/esri/esridm/2005/europe/census/mjrwater.html\">Metadata</a></td></tr><tr><td>Places</td><td><a href=\"http://library.duke.edu/data/duke-only/gis/esri/esridm/2005/europe/census/places.zip\">SDC</a></td><td><a href=\"http://library.duke.edu/data/files/esri/esridm/2005/europe/census/places.html\">Metadata</a></td></tr><tr><td>Provinces Level 1</td><td><a href=\"http://library.duke.edu/data/duke-only/gis/esri/esridm/2005/europe/census/prov1.zip\">SDC</a></td><td><a href=\"http://library.duke.edu/data/files/esri/esridm/2005/europe/census/prov1.html\">Metadata</a></td></tr><tr><td>Provinces Level 2</td><td><a href=\"http://library.duke.edu/data/duke-only/gis/esri/esridm/2005/europe/census/prov2.zip\">SDC</a></td><td><a href=\"http://library.duke.edu/data/files/esri/esridm/2005/europe/census/prov2.html\">Metadata</a></td></tr><tr><td>Provinces Level 3</td><td><a href=\"http://library.duke.edu/data/duke-only/gis/esri/esridm/2005/europe/census/prov3.zip\">SDC</a></td><td><a href=\"http://library.duke.edu/data/files/esri/esridm/2005/europe/census/prov3.html\">Metadata</a></td></tr><tr><td>Railroads</td><td><a href=\"http://library.duke.edu/data/duke-only/gis/esri/esridm/2005/europe/census/rails.zip\">SDC</a></td><td><a href=\"http://library.duke.edu/data/files/esri/esridm/2005/europe/census/rails.html\">Metadata</a></td></tr><tr><td>Railroad Stations</td><td><a href=\"http://library.duke.edu/data/duke-only/gis/esri/esridm/2005/europe/census/rr_stns.zip\">SDC</a></td><td><a href=\"http://library.duke.edu/data/files/esri/esridm/2005/europe/census/rr_stns.html\">Metadata</a></td></tr><tr><td>Roads</td><td><a href=\"http://library.duke.edu/data/duke-only/gis/esri/esridm/2005/europe/census/roads.zip\">SDC</a></td><td><a href=\"http://library.duke.edu/data/files/esri/esridm/2005/europe/census/roads.html\">Metadata</a></td></tr><tr><td>Urbanized Areas</td><td><a href=\"http://library.duke.edu/data/duke-only/gis/esri/esridm/2005/europe/census/urban.zip\">SDC</a></td><td><a href=\"http://library.duke.edu/data/files/esri/esridm/2005/europe/census/urban.html\">Metadata</a></td></tr><tr><td>Water Bodies</td><td><a href=\"http://library.duke.edu/data/duke-only/gis/esri/esridm/2005/europe/census/water.zip\">SDC</a></td><td><a href=\"http://library.duke.edu/data/files/esri/esridm/2005/europe/census/water.html\">Metadata</a></td></tr></tbody></table><p>&nbsp;</p><h3>Mexico</h3><table class=\"table\"><thead><tr><th>Layer Name</th><th style=\"width: 15%;\" scope=\"col\">ArcGIS Layer</th><th style=\"width: 15%;\" scope=\"col\">Metadata</th></tr></thead><tbody><tr><td>Cities</td><td><a href=\"http://library.duke.edu/data/duke-only/gis/esri/esridm/2005/mexico/census/city.zip\">SDC</a></td><td><a href=\"http://library.duke.edu/data/files/esri/esridm/2005/mexico/census/city.html\">Metadata</a></td></tr><tr><td>Contours</td><td><a href=\"http://library.duke.edu/data/duke-only/gis/esri/esridm/2005/mexico/census/contours.zip\">SDC</a></td><td><a href=\"http://library.duke.edu/data/files/esri/esridm/2005/mexico/census/contours.html\">Metadata</a></td></tr><tr><td>Municipalities</td><td><a href=\"http://library.duke.edu/data/duke-only/gis/esri/esridm/2005/mexico/census/admin.zip\">SDC</a></td><td><a href=\"http://library.duke.edu/data/files/esri/esridm/2005/mexico/census/admin.html\">Metadata</a></td></tr><tr><td>Railroads</td><td><a href=\"http://library.duke.edu/data/duke-only/gis/esri/esridm/2005/mexico/census/rails.zip\">SDC</a></td><td><a href=\"http://library.duke.edu/data/files/esri/esridm/2005/mexico/census/rails.html\">Metadata</a></td></tr><tr><td>Rivers and Streams</td><td><a href=\"http://library.duke.edu/data/duke-only/gis/esri/esridm/2005/mexico/census/hydro_l.zip\">SDC</a></td><td><a href=\"http://library.duke.edu/data/files/esri/esridm/2005/mexico/census/hydro_l.html\">Metadata</a></td></tr><tr><td>Roads</td><td><a href=\"http://library.duke.edu/data/duke-only/gis/esri/esridm/2005/mexico/census/roads.zip\">SDC</a></td><td><a href=\"http://library.duke.edu/data/files/esri/esridm/2005/mexico/census/roads.html\">Metadata</a></td></tr><tr><td>States</td><td><a href=\"http://library.duke.edu/data/duke-only/gis/esri/esridm/2005/mexico/census/states.zip\">SDC</a></td><td><a href=\"http://library.duke.edu/data/files/esri/esridm/2005/mexico/census/states.html\">Metadata</a></td></tr><tr><td>Urban Areas</td><td><a href=\"http://library.duke.edu/data/duke-only/gis/esri/esridm/2005/mexico/census/urban.zip\">SDC</a></td><td><a href=\"http://library.duke.edu/data/files/esri/esridm/2005/mexico/census/urban.html\">Metadata</a></td></tr><tr><td>Water Bodies</td><td><a href=\"http://library.duke.edu/data/duke-only/gis/esri/esridm/2005/mexico/census/hydro_p.zip\">SDC</a></td><td><a href=\"http://library.duke.edu/data/files/esri/esridm/2005/mexico/census/hydro_p.html\">Metadata</a></td></tr></tbody></table><p>&nbsp;</p><h3>United States</h3><table class=\"table\"><thead><tr><th>Layer Name</th><th style=\"width: 15%;\" scope=\"col\">ArcGIS Layer</th><th style=\"width: 15%;\" scope=\"col\">Metadata</th></tr></thead><tbody><tr><td>108th Congressional Districts</td><td><a href=\"http://library.duke.edu/data/duke-only/gis/esri/esridm/2005/usa/cd108.zip\">SDC</a></td><td><a href=\"http://library.duke.edu/data/files/esri/esridm/2005/usa/cd108.html\">Metadata</a></td></tr><tr><td>109th Congressional Districts</td><td><a href=\"http://library.duke.edu/data/duke-only/gis/esri/esridm/2005/usa/cd109.zip\">SDC</a></td><td><a href=\"http://library.duke.edu/data/files/esri/esridm/2005/usa/cd109.html\">Metadata</a></td></tr><tr><td>Census Block Centroid Populations</td><td><a href=\"http://library.duke.edu/data/duke-only/gis/esri/esridm/2005/usa/blockpop.zip\">SDC</a></td><td><a href=\"http://library.duke.edu/data/files/esri/esridm/2005/usa/blockpop.html\">Metadata</a></td></tr><tr><td>Census Block Groups</td><td><a href=\"http://library.duke.edu/data/duke-only/gis/esri/esridm/2005/usa/blkgrp.zip\">SDC</a></td><td><a href=\"http://library.duke.edu/data/files/esri/esridm/2005/usa/cfcc.html\">Metadata</a></td></tr><tr><td>Census Feature Class Codes (table)</td><td><a href=\"http://library.duke.edu/data/duke-only/gis/esri/esridm/2005/usa/cfcc.zip\">SDC</a></td><td><a href=\"http://library.duke.edu/data/files/esri/esridm/2005/usa/cfcc.html\">Metadata</a></td></tr><tr><td>Census Tracts</td><td><a href=\"http://library.duke.edu/data/duke-only/gis/esri/esridm/2005/usa/tracts.zip\">SDC</a></td><td><a href=\"http://library.duke.edu/data/files/esri/esridm/2005/usa/tracts.html\">Metadata</a></td></tr><tr><td>Census Urbanized Areas</td><td><a href=\"http://library.duke.edu/data/duke-only/gis/esri/esridm/2005/usa/urban.zip\">SDC</a></td><td><a href=\"http://library.duke.edu/data/files/esri/esridm/2005/usa/urban.html\">Metadata</a></td></tr><tr><td>Cities</td><td><a href=\"http://library.duke.edu/data/duke-only/gis/esri/esridm/2005/usa/cities.zip\">SDC</a></td><td><a href=\"http://library.duke.edu/data/files/esri/esridm/2005/usa/cities.html\">Metadata</a></td></tr><tr><td>Core Based Statistical Areas</td><td><a href=\"http://library.duke.edu/data/duke-only/gis/esri/esridm/2005/usa/cbsa.zip\">SDC</a></td><td><a href=\"http://library.duke.edu/data/files/esri/esridm/2005/usa/cbsa.html\">Metadata</a></td></tr><tr><td>Counties</td><td><a href=\"http://library.duke.edu/data/duke-only/gis/esri/esridm/2005/usa/dtl_cnty.zip\">SDC</a></td><td><a href=\"http://library.duke.edu/data/files/esri/esridm/2005/usa/dtl_cnty.html\">Metadata</a></td></tr><tr><td>Counties (generalized)</td><td><a href=\"http://library.duke.edu/data/duke-only/gis/esri/esridm/2005/usa/counties.zip\">SDC</a></td><td><a href=\"http://library.duke.edu/data/files/esri/esridm/2005/usa/counties.html\">Metadata</a></td></tr><tr><td>County Boundaries</td><td><a href=\"http://library.duke.edu/data/duke-only/gis/esri/esridm/2005/usa/dtl_cnty_ln.zip\">SDC</a></td><td><a href=\"http://library.duke.edu/data/files/esri/esridm/2005/usa/dtl_cnty_ln.html\">Metadata</a></td></tr><tr><td>County Population Estimates 1990 (table)</td><td><a href=\"http://library.duke.edu/data/duke-only/gis/esri/esridm/2005/usa/popestmt90.zip\">SDC</a></td><td><a href=\"http://library.duke.edu/data/files/esri/esridm/2005/usa/popestmt90.html\">Metadata</a></td></tr><tr><td>County Population Estimates 2000 (table)</td><td><a href=\"http://library.duke.edu/data/duke-only/gis/esri/esridm/2005/usa/popestmt00.zip\">SDC</a></td><td><a href=\"http://library.duke.edu/data/files/esri/esridm/2005/usa/popestmt00.html\">Metadata</a></td></tr><tr><td>Geographic Names Information System - Churches</td><td><a href=\"http://library.duke.edu/data/duke-only/gis/esri/esridm/2005/usa/gchurch.zip\">SDC</a></td><td><a href=\"http://library.duke.edu/data/files/esri/esridm/2005/usa/gchurch.html\">Metadata</a></td></tr><tr><td>National Atlas - Cities</td><td><a href=\"http://library.duke.edu/data/duke-only/gis/esri/esridm/2005/usa/cities_dtl.zip\">SDC</a></td><td><a href=\"http://library.duke.edu/data/files/esri/esridm/2005/usa/cities_dtl.html\">Metadata</a></td></tr><tr><td>National Atlas - Urbanized Areas</td><td><a href=\"http://library.duke.edu/data/duke-only/gis/esri/esridm/2005/usa/urban_dtl.zip\">SDC</a></td><td><a href=\"http://library.duke.edu/data/files/esri/esridm/2005/usa/urban_dtl.html\">Metadata</a></td></tr><tr><td>Populated Place Areas</td><td><a href=\"http://library.duke.edu/data/duke-only/gis/esri/esridm/2005/usa/placeply.zip\">SDC</a></td><td><a href=\"http://library.duke.edu/data/files/esri/esridm/2005/usa/placeply.html\">Metadata</a></td></tr><tr><td>Populated Place Points</td><td><a href=\"http://library.duke.edu/data/duke-only/gis/esri/esridm/2005/usa/places.zip\">SDC</a></td><td><a href=\"http://library.duke.edu/data/files/esri/esridm/2005/usa/places.html\">Metadata</a></td></tr><tr><td>States</td><td><a href=\"http://library.duke.edu/data/duke-only/gis/esri/esridm/2005/usa/dtl_st.zip\">SDC</a></td><td><a href=\"http://library.duke.edu/data/files/esri/esridm/2005/usa/dtl_st.html\">Metadata</a></td></tr><tr><td>States (generalized)</td><td><a href=\"http://library.duke.edu/data/duke-only/gis/esri/esridm/2005/usa/states.zip\">SDC</a></td><td><a href=\"http://library.duke.edu/data/files/esri/esridm/2005/usa/states.html\">Metadata</a></td></tr><tr><td>State Boundaries</td><td><a href=\"http://library.duke.edu/data/duke-only/gis/esri/esridm/2005/usa/dtl_st_ln.zip\">SDC</a></td><td><a href=\"http://library.duke.edu/data/files/esri/esridm/2005/usa/dtl_st_ln.html\">Metadata</a></td></tr><tr><td>Telephone Area Code Boundaries</td><td><a href=\"http://library.duke.edu/data/duke-only/gis/esri/esridm/2005/usa/areacode.zip\">SDC</a></td><td><a href=\"http://library.duke.edu/data/files/esri/esridm/2005/usa/areacode.html\">Metadata</a></td></tr><tr><td>ZIP Code Areas (Five-Digit)</td><td><a href=\"http://library.duke.edu/data/duke-only/gis/esri/esridm/2005/usa/zip_poly.zip\">SDC</a></td><td><a href=\"http://library.duke.edu/data/files/esri/esridm/2005/usa/zip_poly.html\">Metadata</a></td></tr><tr><td>ZIP Code Areas (Three-Digit)</td><td><a href=\"http://library.duke.edu/data/duke-only/gis/esri/esridm/2005/usa/zip3.zip\">SDC</a></td><td><a href=\"http://library.duke.edu/data/files/esri/esridm/2005/usa/zip3.html\">Metadata</a></td></tr><tr><td>ZIP Code Points</td><td><a href=\"http://library.duke.edu/data/duke-only/gis/esri/esridm/2005/usa/zip_usa.zip\">SDC</a></td><td><a href=\"http://library.duke.edu/data/files/esri/esridm/2005/usa/zip_usa.html\">Metadata</a></td></tr></tbody></table><p>&nbsp;</p><h3>World</h3><table class=\"table\"><thead><tr><th>Layer Name</th><th style=\"width: 15%;\" scope=\"col\">ArcGIS Layer</th><th style=\"width: 15%;\" scope=\"col\">Metadata</th></tr></thead><tbody><tr><td>Administrative Units</td><td><a href=\"http://library.duke.edu/data/duke-only/gis/esri/esridm/2005/world/admin.zip\">SDC</a></td><td><a href=\"http://library.duke.edu/data/files/esri/esridm/2005/world/admin.html\">Metadata</a></td></tr><tr><td>Cities</td><td><a href=\"http://library.duke.edu/data/duke-only/gis/esri/esridm/2005/world/cities.zip\">SDC</a></td><td><a href=\"http://library.duke.edu/data/files/esri/esridm/2005/world/cities.html\">Metadata</a></td></tr><tr><td>Continents</td><td><a href=\"http://library.duke.edu/data/duke-only/gis/esri/esridm/2005/world/continent.zip\">SDC</a></td><td><a href=\"http://library.duke.edu/data/files/esri/esridm/2005/world/continent.html\">Metadata</a></td></tr><tr><td>Countries (Generalized)</td><td><a href=\"http://library.duke.edu/data/duke-only/gis/esri/esridm/2005/world/country.zip\">SDC</a></td><td><a href=\"http://library.duke.edu/data/files/esri/esridm/2005/world/country.html\">Metadata</a></td></tr><tr><td>Countries 1992</td><td><a href=\"http://library.duke.edu/data/duke-only/gis/esri/esridm/2005/world/cntry92.zip\">SDC</a></td><td><a href=\"http://library.duke.edu/data/files/esri/esridm/2005/world/cntry92.html\">Metadata</a></td></tr><tr><td>Countries 2005</td><td><a href=\"http://library.duke.edu/data/duke-only/gis/esri/esridm/2005/world/cntry05.zip\">SDC</a></td><td><a href=\"http://library.duke.edu/data/files/esri/esridm/2005/world/cntry05.html\">Metadata</a></td></tr><tr><td>Country Members of Political Organizations (table)</td><td><a href=\"http://library.duke.edu/data/duke-only/gis/esri/esridm/2005/world/pol_org.zip\">SDC</a></td><td><a href=\"http://library.duke.edu/data/files/esri/esridm/2005/world/pol_org.html\">Metadata</a></td></tr><tr><td>Country Watch Demographics (table)</td><td><a href=\"http://library.duke.edu/data/duke-only/gis/esri/esridm/2005/world/cntrywch.zip\">SDC</a></td><td><a href=\"http://library.duke.edu/data/files/esri/esridm/2005/world/cntrywch.html\">Metadata</a></td></tr><tr><td>Drainage Systems</td><td><a href=\"http://library.duke.edu/data/duke-only/gis/esri/esridm/2005/world/drainage.zip\">SDC</a></td><td><a href=\"http://library.duke.edu/data/files/esri/esridm/2005/world/drainage.html\">Metadata</a></td></tr><tr><td>Gazetteer</td><td><a href=\"http://library.duke.edu/data/duke-only/gis/esri/esridm/2005/world/gaz.zip\">SDC</a></td><td><a href=\"http://library.duke.edu/data/files/esri/esridm/2005/world/gaz.html\">Metadata</a></td></tr><tr><td>Lakes</td><td><a href=\"http://library.duke.edu/data/duke-only/gis/esri/esridm/2005/world/lakes.zip\">SDC</a></td><td><a href=\"http://library.duke.edu/data/files/esri/esridm/2005/world/lakes.html\">Metadata</a></td></tr><tr><td>Latitude and Longitude Grids</td><td><a href=\"http://library.duke.edu/data/duke-only/gis/esri/esridm/2005/world/latlong.zip\">SDC</a></td><td><a href=\"http://library.duke.edu/data/files/esri/esridm/2005/world/latlong.html\">Metadata</a></td></tr><tr><td>Named Latitudes and Longitudes</td><td><a href=\"http://library.duke.edu/data/duke-only/gis/esri/esridm/2005/world/geogrid.zip\">SDC</a></td><td><a href=\"http://library.duke.edu/data/files/esri/esridm/2005/world/geogrid.html\">Metadata</a></td></tr><tr><td>Regions</td><td><a href=\"http://library.duke.edu/data/duke-only/gis/esri/esridm/2005/world/region.zip\">SDC</a></td><td><a href=\"http://library.duke.edu/data/files/esri/esridm/2005/world/region.html\">Metadata</a></td></tr><tr><td>Rivers</td><td><a href=\"http://library.duke.edu/data/duke-only/gis/esri/esridm/2005/world/rivers.zip\">SDC</a></td><td><a href=\"http://library.duke.edu/data/files/esri/esridm/2005/world/rivers.html\">Metadata</a></td></tr><tr><td>Time Zones</td><td><a href=\"http://library.duke.edu/data/duke-only/gis/esri/esridm/2005/world/timezone.zip\">SDC</a></td><td><a href=\"http://library.duke.edu/data/files/esri/esridm/2005/world/timezone.html\">Metadata</a></td></tr><tr><td>UTM Zones</td><td><a href=\"http://library.duke.edu/data/duke-only/gis/esri/esridm/2005/world/utmzone.zip\">SDC</a></td><td><a href=\"http://library.duke.edu/data/files/esri/esridm/2005/world/utmzone.html\">Metadata</a></td></tr><tr><td>World Map Background</td><td><a href=\"http://library.duke.edu/data/duke-only/gis/esri/esridm/2005/world/world30.zip\">SDC</a></td><td><a href=\"http://library.duke.edu/data/files/esri/esridm/2005/world/world30.html\">Metadata</a></td></tr><tr><td>World Wildlife Fund Marine Ecoregions</td><td><a href=\"http://library.duke.edu/data/duke-only/gis/esri/esridm/2005/world/wwf_mar.zip\">SDC</a></td><td><a href=\"http://library.duke.edu/data/files/esri/esridm/2005/world/wwf_mar.html\">Metadata</a></td></tr><tr><td>World Wildlife Fund Terrestrial Ecoregions</td><td><a href=\"http://library.duke.edu/data/duke-only/gis/esri/esridm/2005/world/wwf_terr.zip\">SDC</a></td><td><a href=\"http://library.duke.edu/data/files/esri/esridm/2005/world/wwf_terr.html\">Metadata</a></td></tr></tbody></table>",
            "delta" : 0,
            "bundle" : "about_page",
            "langcode" : "und",
            "body_summary" : "",
            "body_format" : "full_html",
            "entity_id" : 45,
            "deleted" : 0,
            "revision_id" : 2421
         },
         "vuuid" : "e34229f2-b873-45c5-8127-e8973ead6e42",
         "log" : "",
         "comment" : 1,
         "sticky" : 0,
         "timestamp" : 1524763347,
         "field_revision" : {
            "changed" : null,
            "revision_translation_affected" : 1,
            "sticky" : 0,
            "title" : "ESRI Data and Maps 2005",
            "langcode" : null,
            "default_langcode" : 1,
            "uid" : 1,
            "created" : null,
            "status" : 1
         },
         "status" : 1,
         "promote" : 0,
         "title" : "ESRI Data and Maps 2005",
         "uid" : 55
      }
   ],
   "node__body" : {
      "body_format" : "full_html",
      "deleted" : 0,
      "entity_id" : 45,
      "revision_id" : 2421,
      "body_value" : "<p><strong>ESRI Data and Maps</strong> is a five-CD collection of annual map data that is included with a license to <a href=\"https://oit.duke.edu/comp-print/software/license/detail.php?id=30\">ArcGIS software</a>. These data are provided by Duke University Libraries in coordination with the Nicholas School of the Environment. All layers are compressed in \".zip\" format and require <a href=\"https://oit.duke.edu/comp-print/software/license/detail.php?id=30\">GIS software</a> capable of&nbsp;reading<strong> Smart Data Compression (SDC) files.</strong></p><p>Only current members of the Duke Community may access this collection. Redistribution is strictly prohibited.&nbsp;<a href=\"http://help.arcgis.com/en/arcgisdesktop/10.0/help/index.html#/License_agreement/00r90000002w000000/\">Get more information about redistribution rights</a>.</p><p>&nbsp;</p><h3>Canada</h3><table class=\"table\"><thead><tr><th>Layer Name</th><th style=\"width: 15%;\" scope=\"col\">ArcGIS Layer</th><th style=\"width: 15%;\" scope=\"col\">Metadata</th></tr></thead><tbody><tr><td>FSA Postal Centroids</td><td><a href=\"http://library.duke.edu/data/duke-only/gis/esri/esridm/2005/canada/census/postal.zip\">SDC</a></td><td><a href=\"http://library.duke.edu/data/files/esri/esridm/2005/canada/census/postal.html\">Metadata</a></td></tr><tr><td>Highways</td><td><a href=\"http://library.duke.edu/data/duke-only/gis/esri/esridm/2005/canada/census/mjrroads.zip\">SDC</a></td><td><a href=\"http://library.duke.edu/data/files/esri/esridm/2005/canada/census/mjrroads.html\">Metadata</a></td></tr><tr><td>Indian Reserves</td><td><a href=\"http://library.duke.edu/data/duke-only/gis/esri/esridm/2005/canada/census/indnrsrv.zip\">SDC</a></td><td><a href=\"http://library.duke.edu/data/files/esri/esridm/2005/canada/census/indnrsrv.html\">Metadata</a></td></tr><tr><td>Major Cities</td><td><a href=\"http://library.duke.edu/data/duke-only/gis/esri/esridm/2005/canada/census/mjcities.zip\">SDC</a></td><td><a href=\"http://library.duke.edu/data/files/esri/esridm/2005/canada/census/mjcities.html\">Metadata</a></td></tr><tr><td>Middle Cities</td><td><a href=\"http://library.duke.edu/data/duke-only/gis/esri/esridm/2005/canada/census/mdcities.zip\">SDC</a></td><td><a href=\"http://library.duke.edu/data/files/esri/esridm/2005/canada/census/mdcities.html\">Metadata</a></td></tr><tr><td>Municipalities</td><td><a href=\"http://library.duke.edu/data/duke-only/gis/esri/esridm/2005/canada/census/municplt.zip\">SDC</a></td><td><a href=\"http://library.duke.edu/data/files/esri/esridm/2005/canada/census/municplt.html\">Metadata</a></td></tr><tr><td>National Parks</td><td><a href=\"http://library.duke.edu/data/duke-only/gis/esri/esridm/2005/canada/census/natlpark.zip\">SDC</a></td><td><a href=\"http://library.duke.edu/data/files/esri/esridm/2005/canada/census/natlpark.html\">Metadata</a></td></tr><tr><td>Provinces</td><td><a href=\"http://library.duke.edu/data/duke-only/gis/esri/esridm/2005/canada/census/province.zip\">SDC</a></td><td><a href=\"http://library.duke.edu/data/files/esri/esridm/2005/canada/census/province.html\">Metadata</a></td></tr><tr><td>Provincial Parks</td><td><a href=\"http://library.duke.edu/data/duke-only/gis/esri/esridm/2005/canada/census/provpark.zip\">SDC</a></td><td><a href=\"http://library.duke.edu/data/files/esri/esridm/2005/canada/census/provpark.html\">Metadata</a></td></tr><tr><td>Railways</td><td><a href=\"http://library.duke.edu/data/duke-only/gis/esri/esridm/2005/canada/census/rails.zip\">SDC</a></td><td><a href=\"http://library.duke.edu/data/files/esri/esridm/2005/canada/census/rails.html\">Metadata</a></td></tr><tr><td>Regional Municipalities</td><td><a href=\"http://library.duke.edu/data/duke-only/gis/esri/esridm/2005/canada/census/regnmuni.zip\">SDC</a></td><td><a href=\"http://library.duke.edu/data/files/esri/esridm/2005/canada/census/regnmuni.html\">Metadata</a></td></tr><tr><td>Telephone Area Code Boundaries</td><td><a href=\"http://library.duke.edu/data/duke-only/gis/esri/esridm/2005/canada/census/areacode.zip\">SDC</a></td><td><a href=\"http://library.duke.edu/data/files/esri/esridm/2005/canada/census/areacode.html\">Metadata</a></td></tr><tr><td>Water Bodies</td><td><a href=\"http://library.duke.edu/data/duke-only/gis/esri/esridm/2005/canada/census/water.zip\">SDC</a></td><td><a href=\"http://library.duke.edu/data/files/esri/esridm/2005/canada/census/water.html\">Metadata</a></td></tr></tbody></table><p>&nbsp;</p><h3>Europe</h3><table class=\"table\"><thead><tr><th>Layer Name</th><th style=\"width: 15%;\" scope=\"col\">ArcGIS Layer</th><th style=\"width: 15%;\" scope=\"col\">Metadata</th></tr></thead><tbody><tr><td>Cities</td><td><a href=\"http://library.duke.edu/data/duke-only/gis/esri/esridm/2005/europe/census/cities.zip\">SDC</a></td><td><a href=\"http://library.duke.edu/data/files/esri/esridm/2005/europe/census/cities.html\">Metadata</a></td></tr><tr><td>Countries</td><td><a href=\"http://library.duke.edu/data/duke-only/gis/esri/esridm/2005/europe/census/country.zip\">SDC</a></td><td><a href=\"http://library.duke.edu/data/files/esri/esridm/2005/europe/census/country.html\">Metadata</a></td></tr><tr><td>Ferries</td><td><a href=\"http://library.duke.edu/data/duke-only/gis/esri/esridm/2005/europe/census/ferries.zip\">SDC</a></td><td><a href=\"http://library.duke.edu/data/files/esri/esridm/2005/europe/census/ferries.html\">Metadata</a></td></tr><tr><td>Major Roads</td><td><a href=\"http://library.duke.edu/data/duke-only/gis/esri/esridm/2005/europe/census/mjrroads.zip\">SDC</a></td><td><a href=\"http://library.duke.edu/data/files/esri/esridm/2005/europe/census/mjrroads.html\">Metadata</a></td></tr><tr><td>Major Water</td><td><a href=\"http://library.duke.edu/data/duke-only/gis/esri/esridm/2005/europe/census/mjrwater.zip\">SDC</a></td><td><a href=\"http://library.duke.edu/data/files/esri/esridm/2005/europe/census/mjrwater.html\">Metadata</a></td></tr><tr><td>Places</td><td><a href=\"http://library.duke.edu/data/duke-only/gis/esri/esridm/2005/europe/census/places.zip\">SDC</a></td><td><a href=\"http://library.duke.edu/data/files/esri/esridm/2005/europe/census/places.html\">Metadata</a></td></tr><tr><td>Provinces Level 1</td><td><a href=\"http://library.duke.edu/data/duke-only/gis/esri/esridm/2005/europe/census/prov1.zip\">SDC</a></td><td><a href=\"http://library.duke.edu/data/files/esri/esridm/2005/europe/census/prov1.html\">Metadata</a></td></tr><tr><td>Provinces Level 2</td><td><a href=\"http://library.duke.edu/data/duke-only/gis/esri/esridm/2005/europe/census/prov2.zip\">SDC</a></td><td><a href=\"http://library.duke.edu/data/files/esri/esridm/2005/europe/census/prov2.html\">Metadata</a></td></tr><tr><td>Provinces Level 3</td><td><a href=\"http://library.duke.edu/data/duke-only/gis/esri/esridm/2005/europe/census/prov3.zip\">SDC</a></td><td><a href=\"http://library.duke.edu/data/files/esri/esridm/2005/europe/census/prov3.html\">Metadata</a></td></tr><tr><td>Railroads</td><td><a href=\"http://library.duke.edu/data/duke-only/gis/esri/esridm/2005/europe/census/rails.zip\">SDC</a></td><td><a href=\"http://library.duke.edu/data/files/esri/esridm/2005/europe/census/rails.html\">Metadata</a></td></tr><tr><td>Railroad Stations</td><td><a href=\"http://library.duke.edu/data/duke-only/gis/esri/esridm/2005/europe/census/rr_stns.zip\">SDC</a></td><td><a href=\"http://library.duke.edu/data/files/esri/esridm/2005/europe/census/rr_stns.html\">Metadata</a></td></tr><tr><td>Roads</td><td><a href=\"http://library.duke.edu/data/duke-only/gis/esri/esridm/2005/europe/census/roads.zip\">SDC</a></td><td><a href=\"http://library.duke.edu/data/files/esri/esridm/2005/europe/census/roads.html\">Metadata</a></td></tr><tr><td>Urbanized Areas</td><td><a href=\"http://library.duke.edu/data/duke-only/gis/esri/esridm/2005/europe/census/urban.zip\">SDC</a></td><td><a href=\"http://library.duke.edu/data/files/esri/esridm/2005/europe/census/urban.html\">Metadata</a></td></tr><tr><td>Water Bodies</td><td><a href=\"http://library.duke.edu/data/duke-only/gis/esri/esridm/2005/europe/census/water.zip\">SDC</a></td><td><a href=\"http://library.duke.edu/data/files/esri/esridm/2005/europe/census/water.html\">Metadata</a></td></tr></tbody></table><p>&nbsp;</p><h3>Mexico</h3><table class=\"table\"><thead><tr><th>Layer Name</th><th style=\"width: 15%;\" scope=\"col\">ArcGIS Layer</th><th style=\"width: 15%;\" scope=\"col\">Metadata</th></tr></thead><tbody><tr><td>Cities</td><td><a href=\"http://library.duke.edu/data/duke-only/gis/esri/esridm/2005/mexico/census/city.zip\">SDC</a></td><td><a href=\"http://library.duke.edu/data/files/esri/esridm/2005/mexico/census/city.html\">Metadata</a></td></tr><tr><td>Contours</td><td><a href=\"http://library.duke.edu/data/duke-only/gis/esri/esridm/2005/mexico/census/contours.zip\">SDC</a></td><td><a href=\"http://library.duke.edu/data/files/esri/esridm/2005/mexico/census/contours.html\">Metadata</a></td></tr><tr><td>Municipalities</td><td><a href=\"http://library.duke.edu/data/duke-only/gis/esri/esridm/2005/mexico/census/admin.zip\">SDC</a></td><td><a href=\"http://library.duke.edu/data/files/esri/esridm/2005/mexico/census/admin.html\">Metadata</a></td></tr><tr><td>Railroads</td><td><a href=\"http://library.duke.edu/data/duke-only/gis/esri/esridm/2005/mexico/census/rails.zip\">SDC</a></td><td><a href=\"http://library.duke.edu/data/files/esri/esridm/2005/mexico/census/rails.html\">Metadata</a></td></tr><tr><td>Rivers and Streams</td><td><a href=\"http://library.duke.edu/data/duke-only/gis/esri/esridm/2005/mexico/census/hydro_l.zip\">SDC</a></td><td><a href=\"http://library.duke.edu/data/files/esri/esridm/2005/mexico/census/hydro_l.html\">Metadata</a></td></tr><tr><td>Roads</td><td><a href=\"http://library.duke.edu/data/duke-only/gis/esri/esridm/2005/mexico/census/roads.zip\">SDC</a></td><td><a href=\"http://library.duke.edu/data/files/esri/esridm/2005/mexico/census/roads.html\">Metadata</a></td></tr><tr><td>States</td><td><a href=\"http://library.duke.edu/data/duke-only/gis/esri/esridm/2005/mexico/census/states.zip\">SDC</a></td><td><a href=\"http://library.duke.edu/data/files/esri/esridm/2005/mexico/census/states.html\">Metadata</a></td></tr><tr><td>Urban Areas</td><td><a href=\"http://library.duke.edu/data/duke-only/gis/esri/esridm/2005/mexico/census/urban.zip\">SDC</a></td><td><a href=\"http://library.duke.edu/data/files/esri/esridm/2005/mexico/census/urban.html\">Metadata</a></td></tr><tr><td>Water Bodies</td><td><a href=\"http://library.duke.edu/data/duke-only/gis/esri/esridm/2005/mexico/census/hydro_p.zip\">SDC</a></td><td><a href=\"http://library.duke.edu/data/files/esri/esridm/2005/mexico/census/hydro_p.html\">Metadata</a></td></tr></tbody></table><p>&nbsp;</p><h3>United States</h3><table class=\"table\"><thead><tr><th>Layer Name</th><th style=\"width: 15%;\" scope=\"col\">ArcGIS Layer</th><th style=\"width: 15%;\" scope=\"col\">Metadata</th></tr></thead><tbody><tr><td>108th Congressional Districts</td><td><a href=\"http://library.duke.edu/data/duke-only/gis/esri/esridm/2005/usa/cd108.zip\">SDC</a></td><td><a href=\"http://library.duke.edu/data/files/esri/esridm/2005/usa/cd108.html\">Metadata</a></td></tr><tr><td>109th Congressional Districts</td><td><a href=\"http://library.duke.edu/data/duke-only/gis/esri/esridm/2005/usa/cd109.zip\">SDC</a></td><td><a href=\"http://library.duke.edu/data/files/esri/esridm/2005/usa/cd109.html\">Metadata</a></td></tr><tr><td>Census Block Centroid Populations</td><td><a href=\"http://library.duke.edu/data/duke-only/gis/esri/esridm/2005/usa/blockpop.zip\">SDC</a></td><td><a href=\"http://library.duke.edu/data/files/esri/esridm/2005/usa/blockpop.html\">Metadata</a></td></tr><tr><td>Census Block Groups</td><td><a href=\"http://library.duke.edu/data/duke-only/gis/esri/esridm/2005/usa/blkgrp.zip\">SDC</a></td><td><a href=\"http://library.duke.edu/data/files/esri/esridm/2005/usa/cfcc.html\">Metadata</a></td></tr><tr><td>Census Feature Class Codes (table)</td><td><a href=\"http://library.duke.edu/data/duke-only/gis/esri/esridm/2005/usa/cfcc.zip\">SDC</a></td><td><a href=\"http://library.duke.edu/data/files/esri/esridm/2005/usa/cfcc.html\">Metadata</a></td></tr><tr><td>Census Tracts</td><td><a href=\"http://library.duke.edu/data/duke-only/gis/esri/esridm/2005/usa/tracts.zip\">SDC</a></td><td><a href=\"http://library.duke.edu/data/files/esri/esridm/2005/usa/tracts.html\">Metadata</a></td></tr><tr><td>Census Urbanized Areas</td><td><a href=\"http://library.duke.edu/data/duke-only/gis/esri/esridm/2005/usa/urban.zip\">SDC</a></td><td><a href=\"http://library.duke.edu/data/files/esri/esridm/2005/usa/urban.html\">Metadata</a></td></tr><tr><td>Cities</td><td><a href=\"http://library.duke.edu/data/duke-only/gis/esri/esridm/2005/usa/cities.zip\">SDC</a></td><td><a href=\"http://library.duke.edu/data/files/esri/esridm/2005/usa/cities.html\">Metadata</a></td></tr><tr><td>Core Based Statistical Areas</td><td><a href=\"http://library.duke.edu/data/duke-only/gis/esri/esridm/2005/usa/cbsa.zip\">SDC</a></td><td><a href=\"http://library.duke.edu/data/files/esri/esridm/2005/usa/cbsa.html\">Metadata</a></td></tr><tr><td>Counties</td><td><a href=\"http://library.duke.edu/data/duke-only/gis/esri/esridm/2005/usa/dtl_cnty.zip\">SDC</a></td><td><a href=\"http://library.duke.edu/data/files/esri/esridm/2005/usa/dtl_cnty.html\">Metadata</a></td></tr><tr><td>Counties (generalized)</td><td><a href=\"http://library.duke.edu/data/duke-only/gis/esri/esridm/2005/usa/counties.zip\">SDC</a></td><td><a href=\"http://library.duke.edu/data/files/esri/esridm/2005/usa/counties.html\">Metadata</a></td></tr><tr><td>County Boundaries</td><td><a href=\"http://library.duke.edu/data/duke-only/gis/esri/esridm/2005/usa/dtl_cnty_ln.zip\">SDC</a></td><td><a href=\"http://library.duke.edu/data/files/esri/esridm/2005/usa/dtl_cnty_ln.html\">Metadata</a></td></tr><tr><td>County Population Estimates 1990 (table)</td><td><a href=\"http://library.duke.edu/data/duke-only/gis/esri/esridm/2005/usa/popestmt90.zip\">SDC</a></td><td><a href=\"http://library.duke.edu/data/files/esri/esridm/2005/usa/popestmt90.html\">Metadata</a></td></tr><tr><td>County Population Estimates 2000 (table)</td><td><a href=\"http://library.duke.edu/data/duke-only/gis/esri/esridm/2005/usa/popestmt00.zip\">SDC</a></td><td><a href=\"http://library.duke.edu/data/files/esri/esridm/2005/usa/popestmt00.html\">Metadata</a></td></tr><tr><td>Geographic Names Information System - Churches</td><td><a href=\"http://library.duke.edu/data/duke-only/gis/esri/esridm/2005/usa/gchurch.zip\">SDC</a></td><td><a href=\"http://library.duke.edu/data/files/esri/esridm/2005/usa/gchurch.html\">Metadata</a></td></tr><tr><td>National Atlas - Cities</td><td><a href=\"http://library.duke.edu/data/duke-only/gis/esri/esridm/2005/usa/cities_dtl.zip\">SDC</a></td><td><a href=\"http://library.duke.edu/data/files/esri/esridm/2005/usa/cities_dtl.html\">Metadata</a></td></tr><tr><td>National Atlas - Urbanized Areas</td><td><a href=\"http://library.duke.edu/data/duke-only/gis/esri/esridm/2005/usa/urban_dtl.zip\">SDC</a></td><td><a href=\"http://library.duke.edu/data/files/esri/esridm/2005/usa/urban_dtl.html\">Metadata</a></td></tr><tr><td>Populated Place Areas</td><td><a href=\"http://library.duke.edu/data/duke-only/gis/esri/esridm/2005/usa/placeply.zip\">SDC</a></td><td><a href=\"http://library.duke.edu/data/files/esri/esridm/2005/usa/placeply.html\">Metadata</a></td></tr><tr><td>Populated Place Points</td><td><a href=\"http://library.duke.edu/data/duke-only/gis/esri/esridm/2005/usa/places.zip\">SDC</a></td><td><a href=\"http://library.duke.edu/data/files/esri/esridm/2005/usa/places.html\">Metadata</a></td></tr><tr><td>States</td><td><a href=\"http://library.duke.edu/data/duke-only/gis/esri/esridm/2005/usa/dtl_st.zip\">SDC</a></td><td><a href=\"http://library.duke.edu/data/files/esri/esridm/2005/usa/dtl_st.html\">Metadata</a></td></tr><tr><td>States (generalized)</td><td><a href=\"http://library.duke.edu/data/duke-only/gis/esri/esridm/2005/usa/states.zip\">SDC</a></td><td><a href=\"http://library.duke.edu/data/files/esri/esridm/2005/usa/states.html\">Metadata</a></td></tr><tr><td>State Boundaries</td><td><a href=\"http://library.duke.edu/data/duke-only/gis/esri/esridm/2005/usa/dtl_st_ln.zip\">SDC</a></td><td><a href=\"http://library.duke.edu/data/files/esri/esridm/2005/usa/dtl_st_ln.html\">Metadata</a></td></tr><tr><td>Telephone Area Code Boundaries</td><td><a href=\"http://library.duke.edu/data/duke-only/gis/esri/esridm/2005/usa/areacode.zip\">SDC</a></td><td><a href=\"http://library.duke.edu/data/files/esri/esridm/2005/usa/areacode.html\">Metadata</a></td></tr><tr><td>ZIP Code Areas (Five-Digit)</td><td><a href=\"http://library.duke.edu/data/duke-only/gis/esri/esridm/2005/usa/zip_poly.zip\">SDC</a></td><td><a href=\"http://library.duke.edu/data/files/esri/esridm/2005/usa/zip_poly.html\">Metadata</a></td></tr><tr><td>ZIP Code Areas (Three-Digit)</td><td><a href=\"http://library.duke.edu/data/duke-only/gis/esri/esridm/2005/usa/zip3.zip\">SDC</a></td><td><a href=\"http://library.duke.edu/data/files/esri/esridm/2005/usa/zip3.html\">Metadata</a></td></tr><tr><td>ZIP Code Points</td><td><a href=\"http://library.duke.edu/data/duke-only/gis/esri/esridm/2005/usa/zip_usa.zip\">SDC</a></td><td><a href=\"http://library.duke.edu/data/files/esri/esridm/2005/usa/zip_usa.html\">Metadata</a></td></tr></tbody></table><p>&nbsp;</p><h3>World</h3><table class=\"table\"><thead><tr><th>Layer Name</th><th style=\"width: 15%;\" scope=\"col\">ArcGIS Layer</th><th style=\"width: 15%;\" scope=\"col\">Metadata</th></tr></thead><tbody><tr><td>Administrative Units</td><td><a href=\"http://library.duke.edu/data/duke-only/gis/esri/esridm/2005/world/admin.zip\">SDC</a></td><td><a href=\"http://library.duke.edu/data/files/esri/esridm/2005/world/admin.html\">Metadata</a></td></tr><tr><td>Cities</td><td><a href=\"http://library.duke.edu/data/duke-only/gis/esri/esridm/2005/world/cities.zip\">SDC</a></td><td><a href=\"http://library.duke.edu/data/files/esri/esridm/2005/world/cities.html\">Metadata</a></td></tr><tr><td>Continents</td><td><a href=\"http://library.duke.edu/data/duke-only/gis/esri/esridm/2005/world/continent.zip\">SDC</a></td><td><a href=\"http://library.duke.edu/data/files/esri/esridm/2005/world/continent.html\">Metadata</a></td></tr><tr><td>Countries (Generalized)</td><td><a href=\"http://library.duke.edu/data/duke-only/gis/esri/esridm/2005/world/country.zip\">SDC</a></td><td><a href=\"http://library.duke.edu/data/files/esri/esridm/2005/world/country.html\">Metadata</a></td></tr><tr><td>Countries 1992</td><td><a href=\"http://library.duke.edu/data/duke-only/gis/esri/esridm/2005/world/cntry92.zip\">SDC</a></td><td><a href=\"http://library.duke.edu/data/files/esri/esridm/2005/world/cntry92.html\">Metadata</a></td></tr><tr><td>Countries 2005</td><td><a href=\"http://library.duke.edu/data/duke-only/gis/esri/esridm/2005/world/cntry05.zip\">SDC</a></td><td><a href=\"http://library.duke.edu/data/files/esri/esridm/2005/world/cntry05.html\">Metadata</a></td></tr><tr><td>Country Members of Political Organizations (table)</td><td><a href=\"http://library.duke.edu/data/duke-only/gis/esri/esridm/2005/world/pol_org.zip\">SDC</a></td><td><a href=\"http://library.duke.edu/data/files/esri/esridm/2005/world/pol_org.html\">Metadata</a></td></tr><tr><td>Country Watch Demographics (table)</td><td><a href=\"http://library.duke.edu/data/duke-only/gis/esri/esridm/2005/world/cntrywch.zip\">SDC</a></td><td><a href=\"http://library.duke.edu/data/files/esri/esridm/2005/world/cntrywch.html\">Metadata</a></td></tr><tr><td>Drainage Systems</td><td><a href=\"http://library.duke.edu/data/duke-only/gis/esri/esridm/2005/world/drainage.zip\">SDC</a></td><td><a href=\"http://library.duke.edu/data/files/esri/esridm/2005/world/drainage.html\">Metadata</a></td></tr><tr><td>Gazetteer</td><td><a href=\"http://library.duke.edu/data/duke-only/gis/esri/esridm/2005/world/gaz.zip\">SDC</a></td><td><a href=\"http://library.duke.edu/data/files/esri/esridm/2005/world/gaz.html\">Metadata</a></td></tr><tr><td>Lakes</td><td><a href=\"http://library.duke.edu/data/duke-only/gis/esri/esridm/2005/world/lakes.zip\">SDC</a></td><td><a href=\"http://library.duke.edu/data/files/esri/esridm/2005/world/lakes.html\">Metadata</a></td></tr><tr><td>Latitude and Longitude Grids</td><td><a href=\"http://library.duke.edu/data/duke-only/gis/esri/esridm/2005/world/latlong.zip\">SDC</a></td><td><a href=\"http://library.duke.edu/data/files/esri/esridm/2005/world/latlong.html\">Metadata</a></td></tr><tr><td>Named Latitudes and Longitudes</td><td><a href=\"http://library.duke.edu/data/duke-only/gis/esri/esridm/2005/world/geogrid.zip\">SDC</a></td><td><a href=\"http://library.duke.edu/data/files/esri/esridm/2005/world/geogrid.html\">Metadata</a></td></tr><tr><td>Regions</td><td><a href=\"http://library.duke.edu/data/duke-only/gis/esri/esridm/2005/world/region.zip\">SDC</a></td><td><a href=\"http://library.duke.edu/data/files/esri/esridm/2005/world/region.html\">Metadata</a></td></tr><tr><td>Rivers</td><td><a href=\"http://library.duke.edu/data/duke-only/gis/esri/esridm/2005/world/rivers.zip\">SDC</a></td><td><a href=\"http://library.duke.edu/data/files/esri/esridm/2005/world/rivers.html\">Metadata</a></td></tr><tr><td>Time Zones</td><td><a href=\"http://library.duke.edu/data/duke-only/gis/esri/esridm/2005/world/timezone.zip\">SDC</a></td><td><a href=\"http://library.duke.edu/data/files/esri/esridm/2005/world/timezone.html\">Metadata</a></td></tr><tr><td>UTM Zones</td><td><a href=\"http://library.duke.edu/data/duke-only/gis/esri/esridm/2005/world/utmzone.zip\">SDC</a></td><td><a href=\"http://library.duke.edu/data/files/esri/esridm/2005/world/utmzone.html\">Metadata</a></td></tr><tr><td>World Map Background</td><td><a href=\"http://library.duke.edu/data/duke-only/gis/esri/esridm/2005/world/world30.zip\">SDC</a></td><td><a href=\"http://library.duke.edu/data/files/esri/esridm/2005/world/world30.html\">Metadata</a></td></tr><tr><td>World Wildlife Fund Marine Ecoregions</td><td><a href=\"http://library.duke.edu/data/duke-only/gis/esri/esridm/2005/world/wwf_mar.zip\">SDC</a></td><td><a href=\"http://library.duke.edu/data/files/esri/esridm/2005/world/wwf_mar.html\">Metadata</a></td></tr><tr><td>World Wildlife Fund Terrestrial Ecoregions</td><td><a href=\"http://library.duke.edu/data/duke-only/gis/esri/esridm/2005/world/wwf_terr.zip\">SDC</a></td><td><a href=\"http://library.duke.edu/data/files/esri/esridm/2005/world/wwf_terr.html\">Metadata</a></td></tr></tbody></table>",
      "delta" : 0,
      "bundle" : "about_page",
      "langcode" : "und",
      "body_summary" : ""
   },
   "path_alias" : {
      "langcode" : "und",
      "pid" : 59,
      "alias" : "/sources/gis/esri/esri_2005",
      "language" : "und",
      "status" : 0
   },
   "field_image" : null,
   "nid" : "45"
}

