{
   "path_alias" : {
      "status" : 0,
      "language" : "und",
      "alias" : "/sources/gis/esri/esri_2013",
      "langcode" : "und",
      "pid" : 130
   },
   "node__body" : {
      "body_format" : "full_html",
      "entity_id" : 108,
      "deleted" : 0,
      "revision_id" : 2413,
      "body_value" : "<p><strong>ESRI Data and Maps 2013</strong> is a map collection included with a license to <a href=\"https://oit.duke.edu/comp-print/software/license/detail.php?id=30\">ArcGIS Software</a>.&nbsp; You can read more about the collection at <a href=\"http://resources.arcgis.com/en/help/main/10.1/#/A_quick_tour_of_what_s_new_in_ArcGIS_10_1/016w0000002r000000/\">esri.com</a>.</p><p>The Thematic Maps and Layers files contain style and display information and are optional downloads. &nbsp;They themselves do not contain data, but they do style data downloaded as shapefiles.</p><p>What's new in this edition of ESRI Data and Maps? &nbsp;Find out at <a href=\"http://resources.arcgis.com/en/help/main/10.1/#/A_quick_tour_of_what_s_new_in_ArcGIS_10_1/016w0000002r000000/\">esri.com</a>.</p><p>All layers are compressed in \".zip\" format and require <a href=\"https://oit.duke.edu/comp-print/software/license/detail.php?id=30\">GIS software</a> capable of reading <strong>Smart Data Compression (SDC)</strong> files.</p><p>Only current members of the Duke Community may access this collection.&nbsp; Redistribution is strictly prohibited.&nbsp; For more about redistribution rights, go to&nbsp; <a href=\"http://help.arcgis.com/en/arcgisdesktop/10.0/help/index.html#/License_agreement/00r90000002w000000/\">esri.com</a>.</p><h3>Europe - Background</h3><table class=\"table\"><thead><tr><th>Layer Name</th><th style=\"width: 15%;\" scope=\"col\">ArcGIS Layer</th><th style=\"width: 15%;\" scope=\"col\">Metadata</th></tr></thead><tbody><tr><td>Continents</td><td><a href=\"http://library.duke.edu/data/duke-only/gis/esri/esridm/2013/europe/background/continent.zip\">SDC</a></td><td><a href=\"http://library.duke.edu/data/files/esri/esridm/2013/europe/background/continent.html\">Metadata</a></td></tr><tr><td>Lakes</td><td><a href=\"http://library.duke.edu/data/duke-only/gis/esri/esridm/2013/europe/background/lakes.zip\">SDC</a></td><td><a href=\"http://library.duke.edu/data/files/esri/esridm/2013/europe/background/lakes.html\">Metadata</a></td></tr><tr><td>Rivers</td><td><a href=\"http://library.duke.edu/data/duke-only/gis/esri/esridm/2013/europe/background/rivers.zip\">SDC</a></td><td><a href=\"http://library.duke.edu/data/files/esri/esridm/2013/europe/background/rivers.html\">Metadata</a></td></tr><tr><td>World 30 Degree Grid</td><td><a href=\"http://library.duke.edu/data/duke-only/gis/esri/esridm/2013/europe/background/world30.zip\">SDC</a></td><td><a href=\"http://library.duke.edu/data/files/esri/esridm/2013/europe/background/world30.html\">Metadata</a></td></tr></tbody></table><p>&nbsp;</p><h3>Europe&nbsp;</h3><table class=\"table\"><thead><tr><th>Layer Name</th><th style=\"width: 15%;\" scope=\"col\">ArcGIS Layer</th><th style=\"width: 15%;\" scope=\"col\">Metadata</th></tr></thead><tbody><tr><td>Thematic Maps and Layers</td><td><a href=\"http://library.duke.edu/data/duke-only/gis/esri/esridm/2013/europe_layers.zip\">ZIP</a></td><td><a href=\"http://library.duke.edu/data/files/esri/esridm/2013/europe/data/nuts0.html\"></a></td></tr><tr><td>NUTS 0 Demographics</td><td><a href=\"http://library.duke.edu/data/duke-only/gis/esri/esridm/2013/europe/data/nuts0.zip\">SDC</a></td><td><a href=\"http://library.duke.edu/data/files/esri/esridm/2013/europe/data/nuts0.html\">Metadata</a></td></tr><tr><td>NUTS 1 Demographics</td><td><a href=\"http://library.duke.edu/data/duke-only/gis/esri/esridm/2013/europe/data/nuts1.zip\">SDC</a></td><td><a href=\"http://library.duke.edu/data/files/esri/esridm/2013/europe/data/nuts1.html\">Metadata</a></td></tr><tr><td>NUTS 2 Demographics</td><td><a href=\"http://library.duke.edu/data/duke-only/gis/esri/esridm/2013/europe/data/nuts2.zip\">SDC</a></td><td><a href=\"http://library.duke.edu/data/files/esri/esridm/2013/europe/data/nuts2.html\">Metadata</a></td></tr><tr><td>NUTS 3 Demographics</td><td><a href=\"http://library.duke.edu/data/duke-only/gis/esri/esridm/2013/europe/data/nuts3.zip\">SDC</a></td><td><a href=\"http://library.duke.edu/data/files/esri/esridm/2013/europe/data/nuts3.html\">Metadata</a></td></tr></tbody></table><p>&nbsp;</p><h3>Streetmap North America - Background</h3><table class=\"table\"><thead><tr><th>Layer Name</th><th style=\"width: 15%;\" scope=\"col\">ArcGIS Layer</th><th style=\"width: 15%;\" scope=\"col\">Metadata</th></tr></thead><tbody><tr><td>Major World Cities</td><td><a href=\"http://library.duke.edu/data/duke-only/gis/esri/esridm/2013/streetmap_na/data/background/landmark_cities.zip\">SDC</a></td><td><a href=\"http://library.duke.edu/data/files/esri/esridm/2013/streetmap_na/data/data/background/landmark_cities.html\">Metadata</a></td></tr><tr><td>North America Boundaries</td><td><a href=\"http://library.duke.edu/data/duke-only/gis/esri/esridm/2013/streetmap_na/data/background/na_bnd.zip\">SDC</a></td><td><a href=\"http://library.duke.edu/data/files/esri/esridm/2013/streetmap_na/data/data/background/na_bnd.html\">Metadata</a></td></tr><tr><td>United States County Boundaries</td><td><a href=\"http://library.duke.edu/data/duke-only/gis/esri/esridm/2013/streetmap_na/data/background/dtl_cnty_ln.zip\">SDC</a></td><td><a href=\"http://library.duke.edu/data/files/esri/esridm/2013/streetmap_nadata/background/dtl_cnty_ln.html\">Metadata</a></td></tr></tbody></table><p>&nbsp;</p><h3>Streetmap North America</h3><table class=\"table\"><thead><tr><th>Layer Name</th><th style=\"width: 15%;\" scope=\"col\">ArcGIS Layer</th><th style=\"width: 15%;\" scope=\"col\">Metadata</th></tr></thead><tbody><tr><td>Thematic Maps and Layers</td><td><a href=\"http://library.duke.edu/data/duke-only/gis/esri/esridm/2013/streetmap_na_layers.zip\">ZIP</a></td><td></td></tr><tr><td>Locator Files (2GB)</td><td><a href=\"http://library.duke.edu/data/duke-only/gis/esri/esridm/2013/streetmap_na/data/locator_files.zip\">Locator Files</a></td><td>&nbsp;</td></tr><tr><td>Census Feature Class Codes (table)</td><td><a href=\"http://library.duke.edu/data/duke-only/gis/esri/esridm/2013/streetmap_na/data/cfcc.zip\">SDC</a></td><td>&nbsp;</td></tr><tr><td>Latitude/Longitude Maximum Extent (polygon)</td><td><a href=\"http://library.duke.edu/data/duke-only/gis/esri/esridm/2013/streetmap_na/data/grid.zip\">SDC</a></td><td><a href=\"http://library.duke.edu/data/files/esri/esridm/2013/streetmap_na/data/grid.html\">Metadata</a></td></tr><tr><td>Nations</td><td><a href=\"http://library.duke.edu/data/duke-only/gis/esri/esridm/2013/streetmap_na/data/nation.zip\">SDC</a></td><td><a href=\"http://library.duke.edu/data/files/esri/esridm/2013/streetmap_na/data/nation.html\">Metadata</a></td></tr><tr><td>U.S. and Canada Airports</td><td><a href=\"http://library.duke.edu/data/duke-only/gis/esri/esridm/2013/streetmap_na/data/airports.zip\">SDC</a></td><td><a href=\"http://library.duke.edu/data/files/esri/esridm/2013/streetmap_na/data/airports.html\">Metadata</a></td></tr><tr><td>U.S. and Canada City Areas</td><td><a href=\"http://library.duke.edu/data/duke-only/gis/esri/esridm/2013/streetmap_na/data/citylim.zip\">SDC</a></td><td><a href=\"http://library.duke.edu/data/files/esri/esridm/2013/streetmap_na/data/citylim.html\">Metadata</a></td></tr><tr><td>U.S. and Canada City Points</td><td><a href=\"http://library.duke.edu/data/duke-only/gis/esri/esridm/2013/streetmap_na/data/cities.zip\">SDC</a></td><td><a href=\"http://library.duke.edu/data/files/esri/esridm/2013/streetmap_na/data/cities.html\">Metadata</a></td></tr><tr><td>U.S. and Canada Detailed Streets</td><td><a href=\"http://library.duke.edu/data/duke-only/gis/esri/esridm/2013/streetmap_na/data/streets.zip\">SDC</a></td><td><a href=\"http://library.duke.edu/data/files/esri/esridm/2013/streetmap_na/data/streets.html\">Metadata</a></td></tr><tr><td>U.S. and Canada Highway Exits</td><td><a href=\"http://library.duke.edu/data/duke-only/gis/esri/esridm/2013/streetmap_na/data/exits.zip\">SDC</a></td><td><a href=\"http://library.duke.edu/data/files/esri/esridm/2013/streetmap_na/data/exits.html\">Metadata</a></td></tr><tr><td>U.S. and Canada Highways</td><td><a href=\"http://library.duke.edu/data/duke-only/gis/esri/esridm/2013/streetmap_na/data/highways.zip\">SDC</a></td><td><a href=\"http://library.duke.edu/data/files/esri/esridm/2013/streetmap_na/data/highways.html\">Metadata</a></td></tr><tr><td>U.S. and Canada Interstate Highways</td><td><a href=\"http://library.duke.edu/data/duke-only/gis/esri/esridm/2013/streetmap_na/data/interstates.zip\">SDC</a></td><td><a href=\"http://library.duke.edu/data/files/esri/esridm/2013/streetmap_na/data/interstates.html\">Metadata</a></td></tr><tr><td>U.S. and Canada Lakes</td><td><a href=\"http://library.duke.edu/data/duke-only/gis/esri/esridm/2013/streetmap_na/data/Lakes_na.zip\">SDC</a></td><td><a href=\"http://library.duke.edu/data/files/esri/esridm/2013/streetmap_na/data/Lakes_na.html\">Metadata</a></td></tr><tr><td>U.S. and Canada Large-Area Landmarks</td><td><a href=\"http://library.duke.edu/data/duke-only/gis/esri/esridm/2013/streetmap_na/data/landmarks.zip\">SDC</a></td><td><a href=\"http://library.duke.edu/data/files/esri/esridm/2013/streetmap_na/data/landmarks.html\">Metadata</a></td></tr><tr><td>U.S. and Canada Major Cities</td><td><a href=\"http://library.duke.edu/data/duke-only/gis/esri/esridm/2013/streetmap_na/data/mcities.zip\">SDC</a></td><td><a href=\"http://library.duke.edu/data/files/esri/esridm/2013/streetmap_na/data/mcities.html\">Metadata</a></td></tr><tr><td>U.S. and Canada Major Roads</td><td><a href=\"http://library.duke.edu/data/duke-only/gis/esri/esridm/2013/streetmap_na/data/mroads.zip\">SDC</a></td><td><a href=\"http://library.duke.edu/data/files/esri/esridm/2013/streetmap_na/data/mroads.html\">Metadata</a></td></tr><tr><td>U.S. and Canada Parks</td><td><a href=\"http://library.duke.edu/data/duke-only/gis/esri/esridm/2013/streetmap_na/data/parks.zip\">SDC</a></td><td><a href=\"http://library.duke.edu/data/files/esri/esridm/2013/streetmap_na/data/parks.html\">Metadata</a></td></tr><tr><td>U.S. and Canada Railroads</td><td><a href=\"http://library.duke.edu/data/duke-only/gis/esri/esridm/2013/streetmap_na/data/railroads.zip\" class=\"arcgis\">SDC</a></td><td><a href=\"http://library.duke.edu/data/files/esri/esridm/2013/streetmap_na/data/railroads.html\" class=\"metadata\">Metadata</a></td></tr><tr><td>U.S. and Canada Rivers</td><td><a href=\"http://library.duke.edu/data/duke-only/gis/esri/esridm/2013/streetmap_na/data/rivers.zip\">SDC</a></td><td><a href=\"http://library.duke.edu/data/files/esri/esridm/2013/streetmap_na/data/rivers.html\">Metadata</a></td></tr><tr><td>U.S. and Canada Streets Cartographic</td><td><a href=\"http://library.duke.edu/data/duke-only/gis/esri/esridm/2013/streetmap_na/data/streetscarto.zip\">SDC</a></td><td><a href=\"http://library.duke.edu/data/files/esri/esridm/2013/streetmap_na/data/streetscarto.html\">Metadata</a></td></tr><tr><td>U.S. and Canada Water Polygons</td><td><a href=\"http://library.duke.edu/data/duke-only/gis/esri/esridm/2013/streetmap_na/data/waterp.zip\">SDC</a></td><td><a href=\"http://library.duke.edu/data/files/esri/esridm/2013/streetmap_na/data/waterp.html\">Metadata</a></td></tr><tr><td>U.S. Counties</td><td><a href=\"http://library.duke.edu/data/duke-only/gis/esri/esridm/2013/streetmap_na/data/counties.zip\">SDC</a></td><td><a href=\"http://library.duke.edu/data/files/esri/esridm/2013/streetmap_na/data/counties.html\">Metadata</a></td></tr><tr><td>U.S. States and Canada Provinces</td><td><a href=\"http://library.duke.edu/data/duke-only/gis/esri/esridm/2013/streetmap_na/data/states.zip\">SDC</a></td><td><a href=\"http://library.duke.edu/data/files/esri/esridm/2013/streetmap_na/data/states.html\">Metadata</a></td></tr></tbody></table><p>&nbsp;</p><h3>United States - Background</h3><table class=\"table\"><thead><tr><th>Layer Name</th><th style=\"width: 15%;\" scope=\"col\">ArcGIS Layer</th><th style=\"width: 15%;\" scope=\"col\">Metadata</th></tr></thead><tbody><tr><td>Coastal Wayer Polygons</td><td><a href=\"http://library.duke.edu/data/duke-only/gis/esri/esridm/2013/usa/background/coastal.zip\">SDC</a></td><td><a href=\"http://library.duke.edu/data/files/esri/esridm/2013/usa/background/coastal.html\">Metadata</a></td></tr><tr><td>Countries Proximate to U.S.</td><td><a href=\"http://library.duke.edu/data/duke-only/gis/esri/esridm/2013/usa/background/sm_cntry.zip\">SDC</a></td><td><a href=\"http://library.duke.edu/data/files/esri/esridm/2013/usa/background/sm_cntry.html\">Metadata</a></td></tr><tr><td>World Map Background</td><td><a href=\"http://library.duke.edu/data/duke-only/gis/esri/esridm/2013/usa/background/world30.zip\">SDC</a></td><td><a href=\"http://library.duke.edu/data/files/esri/esridm/2013/usa/background/world30.html\">Metadata</a></td></tr></tbody></table><p>&nbsp;</p><h3>United States - Census</h3><table class=\"table\"><thead><tr><th>Layer Name</th><th style=\"width: 15%;\" scope=\"col\">ArcGIS Layer</th><th style=\"width: 15%;\" scope=\"col\">Metadata</th></tr></thead><tbody><tr><td>Thematic Maps and Layers</td><td><a href=\"http://library.duke.edu/data/duke-only/gis/esri/esridm/2013/usa_layers.zip\">ZIP</a></td><td><a href=\"http://library.duke.edu/data/files/esri/esridm/2013/usa/census/cd113.html\"></a></td></tr><tr><td>113th Congressional Districts</td><td><a href=\"http://library.duke.edu/data/duke-only/gis/esri/esridm/2013/usa/census/cd113.zip\">SDC</a></td><td><a href=\"http://library.duke.edu/data/files/esri/esridm/2013/usa/census/cd113.html\">Metadata</a></td></tr><tr><td>Census Block Centroid Populations</td><td><a href=\"http://library.duke.edu/data/duke-only/gis/esri/esridm/2013/usa/census/blockpop.zip\">SDC</a></td><td><a href=\"http://library.duke.edu/data/files/esri/esridm/2013/usa/census/blockpop.html\">Metadata</a></td></tr><tr><td>Census Block Groups</td><td><a href=\"http://library.duke.edu/data/duke-only/gis/esri/esridm/2013/usa/census/blkgrp.zip\">SDC</a></td><td><a href=\"http://library.duke.edu/data/files/esri/esridm/2013/usa/census/blkgrp.html\">Metadata</a></td></tr><tr><td>Census Tracts</td><td><a href=\"http://library.duke.edu/data/duke-only/gis/esri/esridm/2013/usa/census/tracts.zip\">SDC</a></td><td><a href=\"http://library.duke.edu/data/files/esri/esridm/2013/usa/census/tracts.html\">Metadata</a></td></tr><tr><td>Cities</td><td><a href=\"http://library.duke.edu/data/duke-only/gis/esri/esridm/2013/usa/census/cities.zip\">SDC</a></td><td><a href=\"http://library.duke.edu/data/files/esri/esridm/2013/usa/census/cities.html\">Metadata</a></td></tr><tr><td>Core-Based Statistical Areas</td><td><a href=\"http://library.duke.edu/data/duke-only/gis/esri/esridm/2013/usa/census/cbsa.zip\">SDC</a></td><td><a href=\"http://library.duke.edu/data/files/esri/esridm/2013/usa/census/cbsa.html\">Metadata</a></td></tr><tr><td>Counties</td><td><a href=\"http://library.duke.edu/data/duke-only/gis/esri/esridm/2013/usa/census/dtl_cnty.zip\">SDC</a></td><td><a href=\"http://library.duke.edu/data/files/esri/esridm/2013/usa/census/dtl_cnty.html\">Metadata</a></td></tr><tr><td>Counties (generalized)</td><td><a href=\"http://library.duke.edu/data/duke-only/gis/esri/esridm/2013/usa/census/counties.zip\">SDC</a></td><td><a href=\"http://library.duke.edu/data/files/esri/esridm/2013/usa/census/counties.html\">Metadata</a></td></tr><tr><td>County Boundaries</td><td><a href=\"http://library.duke.edu/data/duke-only/gis/esri/esridm/2013/usa/census/dtl_cnty_ln.zip\">SDC</a></td><td><a href=\"http://library.duke.edu/data/files/esri/esridm/2013/usa/census/dtl_cnty_ln.html\">Metadata</a></td></tr><tr><td>National Atlas - Cities</td><td><a href=\"http://library.duke.edu/data/duke-only/gis/esri/esridm/2013/usa/census/cities_dtl.zip\">SDC</a></td><td><a href=\"http://library.duke.edu/data/files/esri/esridm/2013/usa/census/cities_dtl.html\">Metadata</a></td></tr><tr><td>National Atlas - Urbanized Areas</td><td><a href=\"http://library.duke.edu/data/duke-only/gis/esri/esridm/2013/usa/census/urban_dtl.zip\">SDC</a></td><td><a href=\"http://library.duke.edu/data/files/esri/esridm/2013/usa/census/urban_dtl.html\">Metadata</a></td></tr><tr><td>Populated Place Areas</td><td><a href=\"http://library.duke.edu/data/duke-only/gis/esri/esridm/2013/usa/census/placeply.zip\">SDC</a></td><td><a href=\"http://library.duke.edu/data/files/esri/esridm/2013/usa/census/placeply.html\">Metadata</a></td></tr><tr><td>Populated Place Points</td><td><a href=\"http://library.duke.edu/data/duke-only/gis/esri/esridm/2013/usa/census/places.zip\">SDC</a></td><td><a href=\"http://library.duke.edu/data/files/esri/esridm/2013/usa/census/places.html\">Metadata</a></td></tr><tr><td>State Boundaries</td><td><a href=\"http://library.duke.edu/data/duke-only/gis/esri/esridm/2013/usa/census/dtl_st_ln.zip\">SDC</a></td><td><a href=\"http://library.duke.edu/data/files/esri/esridm/2013/usa/census/dtl_st_ln.html\">Metadata</a></td></tr><tr><td>States</td><td><a href=\"http://library.duke.edu/data/duke-only/gis/esri/esridm/2013/usa/census/dtl_st.zip\">SDC</a></td><td><a href=\"http://library.duke.edu/data/files/esri/esridm/2013/usa/census/dtl_st.html\">Metadata</a></td></tr><tr><td>States (generalized)</td><td><a href=\"http://library.duke.edu/data/duke-only/gis/esri/esridm/2013/usa/census/states.zip\">SDC</a></td><td><a href=\"http://library.duke.edu/data/files/esri/esridm/2013/usa/census/states.html\">Metadata</a></td></tr><tr><td>Telephone Area Code Boundaries</td><td><a href=\"http://library.duke.edu/data/duke-only/gis/esri/esridm/2013/usa/census/areacode.zip\">SDC</a></td><td><a href=\"http://library.duke.edu/data/files/esri/esridm/2013/usa/census/areacode.html\">Metadata</a></td></tr><tr><td>Urbanized Areas</td><td><a href=\"http://library.duke.edu/data/duke-only/gis/esri/esridm/2013/usa/census/urban.zip\">SDC</a></td><td><a href=\"http://library.duke.edu/data/files/esri/esridm/2013/usa/census/urban.html\">Metadata</a></td></tr><tr><td>ZIP Code Areas (Five-Digit)</td><td><a href=\"http://library.duke.edu/data/duke-only/gis/esri/esridm/2013/usa/census/zip_poly.zip\">SDC</a></td><td><a href=\"http://library.duke.edu/data/files/esri/esridm/2013/usa/census/zip_poly.html\">Metadata</a></td></tr><tr><td>ZIP Code Areas (Three-Digit)</td><td><a href=\"http://library.duke.edu/data/duke-only/gis/esri/esridm/2013/usa/census/zip3.zip\">SDC</a></td><td><a href=\"http://library.duke.edu/data/files/esri/esridm/2013/usa/census/zip3.html\">Metadata</a></td></tr><tr><td>ZIP Code Points</td><td><a href=\"http://library.duke.edu/data/duke-only/gis/esri/esridm/2013/usa/census/zip_usa.zip\">SDC</a></td><td><a href=\"http://library.duke.edu/data/files/esri/esridm/2013/usa/census/zip_usa.html\">Metadata</a></td></tr></tbody></table><p>&nbsp;</p><h3>United States - Hydrography</h3><table class=\"table\"><thead><tr><th>Layer Name</th><th style=\"width: 15%;\" scope=\"col\">ArcGIS Layer</th><th style=\"width: 15%;\" scope=\"col\">Metadata</th></tr></thead><tbody><tr><td>Drainage Systems</td><td><a href=\"http://library.duke.edu/data/duke-only/gis/esri/esridm/2013/usa/hydro/drainage.zip\">SDC</a></td><td><a href=\"http://library.duke.edu/data/files/esri/esridm/2013/usa/hydro/drainage.html\">Metadata</a></td></tr><tr><td>Lakes (generalized)</td><td><a href=\"http://library.duke.edu/data/duke-only/gis/esri/esridm/2013/usa/hydro/lakes.zip\">SDC</a></td><td><a href=\"http://library.duke.edu/data/files/esri/esridm/2013/usa/hydro/lakes.html\">Metadata</a></td></tr><tr><td>National Atlas - Water Feature Areas</td><td><a href=\"http://library.duke.edu/data/duke-only/gis/esri/esridm/2013/usa/hydro/hydroply.zip\">SDC</a></td><td><a href=\"http://library.duke.edu/data/files/esri/esridm/2013/usa/hydro/hydroply.html\">Metadata</a></td></tr><tr><td>National Atlas - Water Feature Lines</td><td><a href=\"http://library.duke.edu/data/duke-only/gis/esri/esridm/2013/usa/hydro/hydroln.zip\">SDC</a></td><td><a href=\"http://library.duke.edu/data/files/esri/esridm/2013/usa/hydro/hydroln.html\">Metadata</a></td></tr><tr><td>Rivers and Streams</td><td><a href=\"http://library.duke.edu/data/duke-only/gis/esri/esridm/2013/usa/hydro/dtl_riv.zip\">SDC</a></td><td><a href=\"http://library.duke.edu/data/files/esri/esridm/2013/usa/hydro/dtl_riv.html\">Metadata</a></td></tr><tr><td>Rivers (generalized)</td><td><a href=\"http://library.duke.edu/data/duke-only/gis/esri/esridm/2013/usa/hydro/rivers.zip\">SDC</a></td><td><a href=\"http://library.duke.edu/data/files/esri/esridm/2013/usa/hydro/rivers.html\">Metadata</a></td></tr><tr><td>Water Bodies</td><td><a href=\"http://library.duke.edu/data/duke-only/gis/esri/esridm/2013/usa/hydro/dtl_wat.zip\">SDC</a></td><td><a href=\"http://library.duke.edu/data/files/esri/esridm/2013/usa/hydro/dtl_wat.html\">Metadata</a></td></tr></tbody></table><p>&nbsp;</p><h3>United States - Landmarks</h3><table class=\"table\"><thead><tr><th>Layer Name</th><th style=\"width: 15%;\" scope=\"col\">ArcGIS Layer</th><th style=\"width: 15%;\" scope=\"col\">Metadata</th></tr></thead><tbody><tr><td>Geographic Names Information System - Buildings</td><td><a href=\"http://library.duke.edu/data/duke-only/gis/esri/esridm/2013/usa/landmarks/gblding.zip\">SDC</a></td><td><a href=\"http://library.duke.edu/data/files/esri/esridm/2013/usa/landmarks/gblding.html\">Metadata</a></td></tr><tr><td>Geographic Names Information System - Cemeteries</td><td><a href=\"http://library.duke.edu/data/duke-only/gis/esri/esridm/2013/usa/landmarks/gcemetry.zip\">SDC</a></td><td><a href=\"http://library.duke.edu/data/files/esri/esridm/2013/usa/landmarks/gcemetry.html\">Metadata</a></td></tr><tr><td>Geographic Names Information System - Churches</td><td><a href=\"http://library.duke.edu/data/duke-only/gis/esri/esridm/2013/usa/landmarks/gchurch.zip\">SDC</a></td><td><a href=\"http://library.duke.edu/data/files/esri/esridm/2013/usa/landmarks/gchurch.html\">Metadata</a></td></tr><tr><td>Geographic Names Information System - Golf Locales</td><td><a href=\"http://library.duke.edu/data/duke-only/gis/esri/esridm/2013/usa/landmarks/ggolf.zip\">SDC</a></td><td><a href=\"http://library.duke.edu/data/files/esri/esridm/2013/usa/landmarks/ggolf.html\">Metadata</a></td></tr><tr><td>Geographic Names Information System - Hospitals</td><td><a href=\"http://library.duke.edu/data/duke-only/gis/esri/esridm/2013/usa/landmarks/ghospitl.zip\">SDC</a></td><td><a href=\"http://library.duke.edu/data/files/esri/esridm/2013/usa/landmarks/ghospitl.html\">Metadata</a></td></tr><tr><td>Geographic Names Information System - Locales</td><td><a href=\"http://library.duke.edu/data/duke-only/gis/esri/esridm/2013/usa/landmarks/glocale.zip\">SDC</a></td><td><a href=\"http://library.duke.edu/data/files/esri/esridm/2013/usa/landmarks/glocale.html\">Metadata</a></td></tr><tr><td>Geographic Names Information System - Populated Places</td><td><a href=\"http://library.duke.edu/data/duke-only/gis/esri/esridm/2013/usa/landmarks/gppl.zip\">SDC</a></td><td><a href=\"http://library.duke.edu/data/files/esri/esridm/2013/usa/landmarks/gppl.html\">Metadata</a></td></tr><tr><td>Geographic Names Information System - Schools</td><td><a href=\"http://library.duke.edu/data/duke-only/gis/esri/esridm/2013/usa/landmarks/gschools.zip\">SDC</a></td><td><a href=\"http://library.duke.edu/data/files/esri/esridm/2013/usa/landmarks/gschools.html\">Metadata</a></td></tr><tr><td>Geographic Names Information System - Summits</td><td><a href=\"http://library.duke.edu/data/duke-only/gis/esri/esridm/2013/usa/landmarks/gsummit.zip\">SDC</a></td><td><a href=\"http://library.duke.edu/data/files/esri/esridm/2013/usa/landmarks/gsummit.html\">Metadata</a></td></tr><tr><td>Institutions</td><td><a href=\"http://library.duke.edu/data/duke-only/gis/esri/esridm/2013/usa/landmarks/institut.zip\">SDC</a></td><td><a href=\"http://library.duke.edu/data/files/esri/esridm/2013/usa/landmarks/institut.html\">Metadata</a></td></tr><tr><td>Large Area Landmarks</td><td><a href=\"http://library.duke.edu/data/duke-only/gis/esri/esridm/2013/usa/landmarks/lalndmrk.zip\">SDC</a></td><td><a href=\"http://library.duke.edu/data/files/esri/esridm/2013/usa/landmarks/lalndmrk.html\">Metadata</a></td></tr><tr><td>Major Parks</td><td><a href=\"http://library.duke.edu/data/duke-only/gis/esri/esridm/2013/usa/landmarks/parks.zip\">SDC</a></td><td><a href=\"http://library.duke.edu/data/files/esri/esridm/2013/usa/landmarks/parks.html\">Metadata</a></td></tr><tr><td>National Atlas - Federal and Indian Land Areas</td><td><a href=\"http://library.duke.edu/data/duke-only/gis/esri/esridm/2013/usa/landmarks/fedlandp.zip\">SDC</a></td><td><a href=\"http://library.duke.edu/data/files/esri/esridm/2013/usa/landmarks/fedlandp.html\">Metadata</a></td></tr><tr><td>National Atlas - Federal Land Lines</td><td><a href=\"http://library.duke.edu/data/duke-only/gis/esri/esridm/2013/usa/landmarks/fedlandl.zip\">SDC</a></td><td><a href=\"http://library.duke.edu/data/files/esri/esridm/2013/usa/landmarks/fedlandl.html\">Metadata</a></td></tr><tr><td>Parks</td><td><a href=\"http://library.duke.edu/data/duke-only/gis/esri/esridm/2013/usa/landmarks/park_dtl.zip\">SDC</a></td><td><a href=\"http://library.duke.edu/data/files/esri/esridm/2013/usa/landmarks/park_dtl.html\">Metadata</a></td></tr><tr><td>Recreation Areas</td><td><a href=\"http://library.duke.edu/data/duke-only/gis/esri/esridm/2013/usa/landmarks/recareas.zip\">SDC</a></td><td><a href=\"http://library.duke.edu/data/files/esri/esridm/2013/usa/landmarks/recareas.html\">Metadata</a></td></tr></tbody></table><p>&nbsp;</p><h3>United States - Other</h3><table class=\"table\"><thead><tr><th>Layer Name</th><th style=\"width: 15%;\" scope=\"col\">ArcGIS Layer</th><th style=\"width: 15%;\" scope=\"col\">Metadata</th></tr></thead><tbody><tr><td>National Atlas - Public Land Survey</td><td><a href=\"http://library.duke.edu/data/duke-only/gis/esri/esridm/2013/usa/other/publdsur.zip\">SDC</a></td><td><a href=\"http://library.duke.edu/data/files/esri/esridm/2013/usa/other/publdsur.html\">Metadata</a></td></tr><tr><td>State Plane Zones NAD 1927</td><td><a href=\"http://library.duke.edu/data/duke-only/gis/esri/esridm/2013/usa/other/spcszn27.zip\">SDC</a></td><td><a href=\"http://library.duke.edu/data/files/esri/esridm/2013/usa/other/spcszn27.html\">Metadata</a></td></tr><tr><td>State Plane Zones NAD 1983</td><td><a href=\"http://library.duke.edu/data/duke-only/gis/esri/esridm/2013/usa/other/spcszn83.zip\">SDC</a></td><td><a href=\"http://library.duke.edu/data/files/esri/esridm/2013/usa/other/spcszn83.html\">Metadata</a></td></tr><tr><td>USGS Topographic Quadrangles 1:24,000</td><td><a href=\"http://library.duke.edu/data/duke-only/gis/esri/esridm/2013/usa/other/topoq24.zip\">SDC</a></td><td><a href=\"http://library.duke.edu/data/files/esri/esridm/2013/usa/other/topoq24.html\">Metadata</a></td></tr><tr><td>USGS Topographic Quadrangles 1:100,000</td><td><a href=\"http://library.duke.edu/data/duke-only/gis/esri/esridm/2013/usa/other/topoq100.zip\">SDC</a></td><td><a href=\"http://library.duke.edu/data/files/esri/esridm/2013/usa/other/topoq100.html\">Metadata</a></td></tr><tr><td>USGS Topographic Quadrangles 1:250,000</td><td><a href=\"http://library.duke.edu/data/duke-only/gis/esri/esridm/2013/usa/other/topoq250.zip\">SDC</a></td><td><a href=\"http://library.duke.edu/data/files/esri/esridm/2013/usa/other/topoq250.html\">Metadata</a></td></tr></tbody></table><p>&nbsp;</p><h3>United States - Transportation</h3><table class=\"table\"><thead><tr><th>Layer Name</th><th style=\"width: 15%;\" scope=\"col\">ArcGIS Layer</th><th style=\"width: 15%;\" scope=\"col\">Metadata</th></tr></thead><tbody><tr><td>Airports</td><td><a href=\"http://library.duke.edu/data/duke-only/gis/esri/esridm/2013/usa/trans/airportp.zip\">SDC</a></td><td><a href=\"http://library.duke.edu/data/files/esri/esridm/2013/usa/trans/airportp.html\">Metadata</a></td></tr><tr><td>Highways</td><td><a href=\"http://library.duke.edu/data/duke-only/gis/esri/esridm/2013/usa/trans/highways.zip\">SDC</a></td><td><a href=\"http://library.duke.edu/data/files/esri/esridm/2013/usa/trans/highways.html\">Metadata</a></td></tr><tr><td>Major Highways</td><td><a href=\"http://library.duke.edu/data/duke-only/gis/esri/esridm/2013/usa/trans/mjr_hwys.zip\">SDC</a></td><td><a href=\"http://library.duke.edu/data/files/esri/esridm/2013/usa/trans/mjr_hwys.html\">Metadata</a></td></tr><tr><td>National Atlas - Airports</td><td><a href=\"http://library.duke.edu/data/duke-only/gis/esri/esridm/2013/usa/trans/airports.zip\">SDC</a></td><td><a href=\"http://library.duke.edu/data/files/esri/esridm/2013/usa/trans/airports.html\">Metadata</a></td></tr><tr><td>National Transportation Atlas - Interstate Highways</td><td><a href=\"http://library.duke.edu/data/duke-only/gis/esri/esridm/2013/usa/trans/intrstat.zip\">SDC</a></td><td><a href=\"http://library.duke.edu/data/files/esri/esridm/2013/usa/trans/intrstat.html\">Metadata</a></td></tr><tr><td>National Transportation Atlas - Railroads</td><td><a href=\"http://library.duke.edu/data/duke-only/gis/esri/esridm/2013/usa/trans/rail100k.zip\">SDC</a></td><td><a href=\"http://library.duke.edu/data/files/esri/esridm/2013/usa/trans/rail100k.html\">Metadata</a></td></tr><tr><td>Transportation Terminals</td><td><a href=\"http://library.duke.edu/data/duke-only/gis/esri/esridm/2013/usa/trans/tranterm.zip\">SDC</a></td><td><a href=\"http://library.duke.edu/data/files/esri/esridm/2013/usa/trans/tranterm.html\">Metadata</a></td></tr></tbody></table><p>&nbsp;</p><h3>World - Background</h3><table class=\"table\"><thead><tr><th>Layer Name</th><th style=\"width: 15%;\" scope=\"col\">ArcGIS Layer</th><th style=\"width: 15%;\" scope=\"col\">Metadata</th></tr></thead><tbody><tr><td>Continents</td><td><a href=\"http://library.duke.edu/data/duke-only/gis/esri/esridm/2013/world/background/continent_ln.zip\">SDC</a></td><td><a href=\"http://library.duke.edu/data/files/esri/esridm/2013/world/background/continent_ln.html\">Metadata</a></td></tr><tr><td>Regions</td><td><a href=\"http://library.duke.edu/data/duke-only/gis/esri/esridm/2013/world/background/region_ln.zip\">SDC</a></td><td><a href=\"http://library.duke.edu/data/files/esri/esridm/2013/world/background/region_ln.html\">Metadata</a></td></tr></tbody></table><p>&nbsp;</p><h3>World</h3><p></p><table class=\"table\"><thead><tr><th>Layer Name</th><th style=\"width: 15%;\" scope=\"row\">ArcGIS Layer</th><th style=\"width: 15%;\" scope=\"col\">Metadata</th></tr></thead><tbody><tr><td>Thematic Maps and Layers</td><td><a href=\"http://library.duke.edu/data/duke-only/gis/esri/esridm/2013/world_layers.zip\">ZIP</a></td><td><a href=\"http://library.duke.edu/data/files/esri/esridm/2013/world/data/admin.html\"></a></td></tr><tr><td>Administrative Units</td><td><a href=\"http://library.duke.edu/data/duke-only/gis/esri/esridm/2013/world/data/admin.zip\">SDC</a></td><td><a href=\"http://library.duke.edu/data/files/esri/esridm/2013/world/data/admin.html\">Metadata</a></td></tr><tr><td>Census IPC Demographics (table)</td><td><a href=\"http://library.duke.edu/data/duke-only/gis/esri/esridm/2013/world/data/cntry_ipc.zip\">SDC</a></td><td>&nbsp;</td></tr><tr><td>Cities</td><td><a href=\"http://library.duke.edu/data/duke-only/gis/esri/esridm/2013/world/data/cities.zip\">SDC</a></td><td><a href=\"http://library.duke.edu/data/files/esri/esridm/2013/world/data/cities.html\">Metadata</a></td></tr><tr><td>Continents</td><td><a href=\"http://library.duke.edu/data/duke-only/gis/esri/esridm/2013/world/data/continent.zip\">SDC</a></td><td><a href=\"http://library.duke.edu/data/files/esri/esridm/2013/world/data/continent.html\">Metadata</a></td></tr><tr><td>Countries (generalized)</td><td><a href=\"http://library.duke.edu/data/duke-only/gis/esri/esridm/2013/world/data/country.zip\">SDC</a></td><td><a href=\"http://library.duke.edu/data/files/esri/esridm/2013/world/data/country.html\">Metadata</a></td></tr><tr><td>Country Memberships of Political Organizations (table)</td><td><a href=\"http://library.duke.edu/data/duke-only/gis/esri/esridm/2013/world/data/pol_org.zip\">SDC</a></td><td>&nbsp;</td></tr><tr><td>Drainage Systems</td><td><a href=\"http://library.duke.edu/data/duke-only/gis/esri/esridm/2013/world/data/drainage.zip\">SDC</a></td><td><a href=\"http://library.duke.edu/data/files/esri/esridm/2013/world/data/drainage.html\">Metadata</a></td></tr><tr><td>Gazetteer</td><td><a href=\"http://library.duke.edu/data/duke-only/gis/esri/esridm/2013/world/data/gaz.zip\">SDC</a></td><td><a href=\"http://library.duke.edu/data/files/esri/esridm/2013/world/data/gaz.html\">Metadata</a></td></tr><tr><td>Lakes</td><td><a href=\"http://library.duke.edu/data/duke-only/gis/esri/esridm/2013/world/data/lakes.zip\">SDC</a></td><td><a href=\"http://library.duke.edu/data/files/esri/esridm/2013/world/data/lakes.html\">Metadata</a></td></tr><tr><td>Latitude and Longitude Grids</td><td><a href=\"http://library.duke.edu/data/duke-only/gis/esri/esridm/2013/world/data/latlong.zip\">SDC</a></td><td><a href=\"http://library.duke.edu/data/files/esri/esridm/2013/world/data/latlong.html\">Metadata</a></td></tr><tr><td>Named Latitudes and Longitudes</td><td><a href=\"http://library.duke.edu/data/duke-only/gis/esri/esridm/2013/world/data/geogrid.zip\">SDC</a></td><td><a href=\"http://library.duke.edu/data/files/esri/esridm/2013/world/data/geogrid.html\">Metadata</a></td></tr><tr><td>Regions</td><td><a href=\"http://library.duke.edu/data/duke-only/gis/esri/esridm/2013/world/data/region.zip\">SDC</a></td><td><a href=\"http://library.duke.edu/data/files/esri/esridm/2013/world/data/region.html\">Metadata</a></td></tr><tr><td>Rivers</td><td><a href=\"http://library.duke.edu/data/duke-only/gis/esri/esridm/2013/world/data/rivers.zip\">SDC</a></td><td><a href=\"http://library.duke.edu/data/files/esri/esridm/2013/world/data/rivers.html\">Metadata</a></td></tr><tr><td>Time Zones</td><td><a href=\"http://library.duke.edu/data/duke-only/gis/esri/esridm/2013/world/data/timezone.zip\">SDC</a></td><td><a href=\"http://library.duke.edu/data/files/esri/esridm/2013/world/data/timezone.html\">Metadata</a></td></tr><tr><td>UTM Zones</td><td><a href=\"http://library.duke.edu/data/duke-only/gis/esri/esridm/2013/world/data/utmzone.zip\">SDC</a></td><td><a href=\"http://library.duke.edu/data/files/esri/esridm/2013/world/data/utmzone.html\">Metadata</a></td></tr><tr><td>World Airports</td><td><a href=\"http://library.duke.edu/data/duke-only/gis/esri/esridm/2013/world/data/airports.zip\">SDC</a></td><td><a href=\"http://library.duke.edu/data/files/esri/esridm/2013/world/data/airports.html\">Metadata</a></td></tr><tr><td>Contours</td><td><a href=\"http://library.duke.edu/data/duke-only/gis/esri/esridm/2013/world/data/contours.zip\">SDC</a></td><td><a href=\"http://library.duke.edu/data/files/esri/esridm/2013/world/data/contours.html\">Metadata</a></td></tr><tr><td>World Linear Water</td><td><a href=\"http://library.duke.edu/data/duke-only/gis/esri/esridm/2013/world/data/hydrolines.zip\">SDC</a></td><td><a href=\"http://library.duke.edu/data/files/esri/esridm/2013/world/data/hydrolines.html\">Metadata</a></td></tr><tr><td>World Map Background</td><td><a href=\"http://library.duke.edu/data/duke-only/gis/esri/esridm/2013/world/data/world30.zip\">SDC</a></td><td><a href=\"http://library.duke.edu/data/files/esri/esridm/2013/world/data/world30.html\">Metadata</a></td></tr><tr><td>World Populated Places</td><td><a href=\"http://library.duke.edu/data/duke-only/gis/esri/esridm/2013/world/data/pop_places.zip\">SDC</a></td><td><a href=\"http://library.duke.edu/data/files/esri/esridm/2013/world/data/pop_places.html\">Metadata</a></td></tr><tr><td>World Railroads</td><td><a href=\"http://library.duke.edu/data/duke-only/gis/esri/esridm/2013/world/data/railroads.zip\">SDC</a></td><td><a href=\"http://library.duke.edu/data/files/esri/esridm/2013/world/data/railroads.html\">Metadata</a></td></tr><tr><td>World Roads</td><td><a href=\"http://library.duke.edu/data/duke-only/gis/esri/esridm/2013/world/data/roads.zip\">SDC</a></td><td><a href=\"http://library.duke.edu/data/files/esri/esridm/2013/world/data/roads.html\">Metadata</a></td></tr><tr><td>World Urban Areas</td><td><a href=\"http://library.duke.edu/data/duke-only/gis/esri/esridm/2013/world/data/urban_area.zip\">SDC</a></td><td><a href=\"http://library.duke.edu/data/files/esri/esridm/2013/world/data/urban_area.html\">Metadata</a></td></tr><tr><td>World Water Bodies</td><td><a href=\"http://library.duke.edu/data/duke-only/gis/esri/esridm/2013/world/data/hydropolys.zip\">SDC</a></td><td><a href=\"http://library.duke.edu/data/files/esri/esridm/2013/world/data/hydropolys.html\">Metadata</a></td></tr><tr><td>World Wildlife Fund Marine Ecoregions</td><td><a href=\"http://library.duke.edu/data/duke-only/gis/esri/esridm/2013/world/data/wwf_mar.zip\">SDC</a></td><td><a href=\"http://library.duke.edu/data/files/esri/esridm/2013/world/data/wwf_mar.html\">Metadata</a></td></tr><tr><td>World Wildlife Fund Terrestrial Ecoregions</td><td><a href=\"http://library.duke.edu/data/duke-only/gis/esri/esridm/2013/world/data/wwf_terr.zip\">SDC</a></td><td><a href=\"http://library.duke.edu/data/files/esri/esridm/2013/world/data/wwf_terr.html\">Metadata</a></td></tr></tbody></table>",
      "delta" : 0,
      "bundle" : "about_page",
      "body_summary" : "",
      "langcode" : "und"
   },
   "field_image" : null,
   "nid" : "108",
   "node_access" : null,
   "langcode" : "und",
   "revisions" : [
      {
         "comment" : 1,
         "sticky" : 0,
         "node_revision__field_tags" : [],
         "node_revision__body" : {
            "body_format" : "full_html",
            "deleted" : 0,
            "entity_id" : 108,
            "revision_id" : 2413,
            "body_value" : "<p><strong>ESRI Data and Maps 2013</strong> is a map collection included with a license to <a href=\"https://oit.duke.edu/comp-print/software/license/detail.php?id=30\">ArcGIS Software</a>.&nbsp; You can read more about the collection at <a href=\"http://resources.arcgis.com/en/help/main/10.1/#/A_quick_tour_of_what_s_new_in_ArcGIS_10_1/016w0000002r000000/\">esri.com</a>.</p><p>The Thematic Maps and Layers files contain style and display information and are optional downloads. &nbsp;They themselves do not contain data, but they do style data downloaded as shapefiles.</p><p>What's new in this edition of ESRI Data and Maps? &nbsp;Find out at <a href=\"http://resources.arcgis.com/en/help/main/10.1/#/A_quick_tour_of_what_s_new_in_ArcGIS_10_1/016w0000002r000000/\">esri.com</a>.</p><p>All layers are compressed in \".zip\" format and require <a href=\"https://oit.duke.edu/comp-print/software/license/detail.php?id=30\">GIS software</a> capable of reading <strong>Smart Data Compression (SDC)</strong> files.</p><p>Only current members of the Duke Community may access this collection.&nbsp; Redistribution is strictly prohibited.&nbsp; For more about redistribution rights, go to&nbsp; <a href=\"http://help.arcgis.com/en/arcgisdesktop/10.0/help/index.html#/License_agreement/00r90000002w000000/\">esri.com</a>.</p><h3>Europe - Background</h3><table class=\"table\"><thead><tr><th>Layer Name</th><th style=\"width: 15%;\" scope=\"col\">ArcGIS Layer</th><th style=\"width: 15%;\" scope=\"col\">Metadata</th></tr></thead><tbody><tr><td>Continents</td><td><a href=\"http://library.duke.edu/data/duke-only/gis/esri/esridm/2013/europe/background/continent.zip\">SDC</a></td><td><a href=\"http://library.duke.edu/data/files/esri/esridm/2013/europe/background/continent.html\">Metadata</a></td></tr><tr><td>Lakes</td><td><a href=\"http://library.duke.edu/data/duke-only/gis/esri/esridm/2013/europe/background/lakes.zip\">SDC</a></td><td><a href=\"http://library.duke.edu/data/files/esri/esridm/2013/europe/background/lakes.html\">Metadata</a></td></tr><tr><td>Rivers</td><td><a href=\"http://library.duke.edu/data/duke-only/gis/esri/esridm/2013/europe/background/rivers.zip\">SDC</a></td><td><a href=\"http://library.duke.edu/data/files/esri/esridm/2013/europe/background/rivers.html\">Metadata</a></td></tr><tr><td>World 30 Degree Grid</td><td><a href=\"http://library.duke.edu/data/duke-only/gis/esri/esridm/2013/europe/background/world30.zip\">SDC</a></td><td><a href=\"http://library.duke.edu/data/files/esri/esridm/2013/europe/background/world30.html\">Metadata</a></td></tr></tbody></table><p>&nbsp;</p><h3>Europe&nbsp;</h3><table class=\"table\"><thead><tr><th>Layer Name</th><th style=\"width: 15%;\" scope=\"col\">ArcGIS Layer</th><th style=\"width: 15%;\" scope=\"col\">Metadata</th></tr></thead><tbody><tr><td>Thematic Maps and Layers</td><td><a href=\"http://library.duke.edu/data/duke-only/gis/esri/esridm/2013/europe_layers.zip\">ZIP</a></td><td><a href=\"http://library.duke.edu/data/files/esri/esridm/2013/europe/data/nuts0.html\"></a></td></tr><tr><td>NUTS 0 Demographics</td><td><a href=\"http://library.duke.edu/data/duke-only/gis/esri/esridm/2013/europe/data/nuts0.zip\">SDC</a></td><td><a href=\"http://library.duke.edu/data/files/esri/esridm/2013/europe/data/nuts0.html\">Metadata</a></td></tr><tr><td>NUTS 1 Demographics</td><td><a href=\"http://library.duke.edu/data/duke-only/gis/esri/esridm/2013/europe/data/nuts1.zip\">SDC</a></td><td><a href=\"http://library.duke.edu/data/files/esri/esridm/2013/europe/data/nuts1.html\">Metadata</a></td></tr><tr><td>NUTS 2 Demographics</td><td><a href=\"http://library.duke.edu/data/duke-only/gis/esri/esridm/2013/europe/data/nuts2.zip\">SDC</a></td><td><a href=\"http://library.duke.edu/data/files/esri/esridm/2013/europe/data/nuts2.html\">Metadata</a></td></tr><tr><td>NUTS 3 Demographics</td><td><a href=\"http://library.duke.edu/data/duke-only/gis/esri/esridm/2013/europe/data/nuts3.zip\">SDC</a></td><td><a href=\"http://library.duke.edu/data/files/esri/esridm/2013/europe/data/nuts3.html\">Metadata</a></td></tr></tbody></table><p>&nbsp;</p><h3>Streetmap North America - Background</h3><table class=\"table\"><thead><tr><th>Layer Name</th><th style=\"width: 15%;\" scope=\"col\">ArcGIS Layer</th><th style=\"width: 15%;\" scope=\"col\">Metadata</th></tr></thead><tbody><tr><td>Major World Cities</td><td><a href=\"http://library.duke.edu/data/duke-only/gis/esri/esridm/2013/streetmap_na/data/background/landmark_cities.zip\">SDC</a></td><td><a href=\"http://library.duke.edu/data/files/esri/esridm/2013/streetmap_na/data/data/background/landmark_cities.html\">Metadata</a></td></tr><tr><td>North America Boundaries</td><td><a href=\"http://library.duke.edu/data/duke-only/gis/esri/esridm/2013/streetmap_na/data/background/na_bnd.zip\">SDC</a></td><td><a href=\"http://library.duke.edu/data/files/esri/esridm/2013/streetmap_na/data/data/background/na_bnd.html\">Metadata</a></td></tr><tr><td>United States County Boundaries</td><td><a href=\"http://library.duke.edu/data/duke-only/gis/esri/esridm/2013/streetmap_na/data/background/dtl_cnty_ln.zip\">SDC</a></td><td><a href=\"http://library.duke.edu/data/files/esri/esridm/2013/streetmap_nadata/background/dtl_cnty_ln.html\">Metadata</a></td></tr></tbody></table><p>&nbsp;</p><h3>Streetmap North America</h3><table class=\"table\"><thead><tr><th>Layer Name</th><th style=\"width: 15%;\" scope=\"col\">ArcGIS Layer</th><th style=\"width: 15%;\" scope=\"col\">Metadata</th></tr></thead><tbody><tr><td>Thematic Maps and Layers</td><td><a href=\"http://library.duke.edu/data/duke-only/gis/esri/esridm/2013/streetmap_na_layers.zip\">ZIP</a></td><td></td></tr><tr><td>Locator Files (2GB)</td><td><a href=\"http://library.duke.edu/data/duke-only/gis/esri/esridm/2013/streetmap_na/data/locator_files.zip\">Locator Files</a></td><td>&nbsp;</td></tr><tr><td>Census Feature Class Codes (table)</td><td><a href=\"http://library.duke.edu/data/duke-only/gis/esri/esridm/2013/streetmap_na/data/cfcc.zip\">SDC</a></td><td>&nbsp;</td></tr><tr><td>Latitude/Longitude Maximum Extent (polygon)</td><td><a href=\"http://library.duke.edu/data/duke-only/gis/esri/esridm/2013/streetmap_na/data/grid.zip\">SDC</a></td><td><a href=\"http://library.duke.edu/data/files/esri/esridm/2013/streetmap_na/data/grid.html\">Metadata</a></td></tr><tr><td>Nations</td><td><a href=\"http://library.duke.edu/data/duke-only/gis/esri/esridm/2013/streetmap_na/data/nation.zip\">SDC</a></td><td><a href=\"http://library.duke.edu/data/files/esri/esridm/2013/streetmap_na/data/nation.html\">Metadata</a></td></tr><tr><td>U.S. and Canada Airports</td><td><a href=\"http://library.duke.edu/data/duke-only/gis/esri/esridm/2013/streetmap_na/data/airports.zip\">SDC</a></td><td><a href=\"http://library.duke.edu/data/files/esri/esridm/2013/streetmap_na/data/airports.html\">Metadata</a></td></tr><tr><td>U.S. and Canada City Areas</td><td><a href=\"http://library.duke.edu/data/duke-only/gis/esri/esridm/2013/streetmap_na/data/citylim.zip\">SDC</a></td><td><a href=\"http://library.duke.edu/data/files/esri/esridm/2013/streetmap_na/data/citylim.html\">Metadata</a></td></tr><tr><td>U.S. and Canada City Points</td><td><a href=\"http://library.duke.edu/data/duke-only/gis/esri/esridm/2013/streetmap_na/data/cities.zip\">SDC</a></td><td><a href=\"http://library.duke.edu/data/files/esri/esridm/2013/streetmap_na/data/cities.html\">Metadata</a></td></tr><tr><td>U.S. and Canada Detailed Streets</td><td><a href=\"http://library.duke.edu/data/duke-only/gis/esri/esridm/2013/streetmap_na/data/streets.zip\">SDC</a></td><td><a href=\"http://library.duke.edu/data/files/esri/esridm/2013/streetmap_na/data/streets.html\">Metadata</a></td></tr><tr><td>U.S. and Canada Highway Exits</td><td><a href=\"http://library.duke.edu/data/duke-only/gis/esri/esridm/2013/streetmap_na/data/exits.zip\">SDC</a></td><td><a href=\"http://library.duke.edu/data/files/esri/esridm/2013/streetmap_na/data/exits.html\">Metadata</a></td></tr><tr><td>U.S. and Canada Highways</td><td><a href=\"http://library.duke.edu/data/duke-only/gis/esri/esridm/2013/streetmap_na/data/highways.zip\">SDC</a></td><td><a href=\"http://library.duke.edu/data/files/esri/esridm/2013/streetmap_na/data/highways.html\">Metadata</a></td></tr><tr><td>U.S. and Canada Interstate Highways</td><td><a href=\"http://library.duke.edu/data/duke-only/gis/esri/esridm/2013/streetmap_na/data/interstates.zip\">SDC</a></td><td><a href=\"http://library.duke.edu/data/files/esri/esridm/2013/streetmap_na/data/interstates.html\">Metadata</a></td></tr><tr><td>U.S. and Canada Lakes</td><td><a href=\"http://library.duke.edu/data/duke-only/gis/esri/esridm/2013/streetmap_na/data/Lakes_na.zip\">SDC</a></td><td><a href=\"http://library.duke.edu/data/files/esri/esridm/2013/streetmap_na/data/Lakes_na.html\">Metadata</a></td></tr><tr><td>U.S. and Canada Large-Area Landmarks</td><td><a href=\"http://library.duke.edu/data/duke-only/gis/esri/esridm/2013/streetmap_na/data/landmarks.zip\">SDC</a></td><td><a href=\"http://library.duke.edu/data/files/esri/esridm/2013/streetmap_na/data/landmarks.html\">Metadata</a></td></tr><tr><td>U.S. and Canada Major Cities</td><td><a href=\"http://library.duke.edu/data/duke-only/gis/esri/esridm/2013/streetmap_na/data/mcities.zip\">SDC</a></td><td><a href=\"http://library.duke.edu/data/files/esri/esridm/2013/streetmap_na/data/mcities.html\">Metadata</a></td></tr><tr><td>U.S. and Canada Major Roads</td><td><a href=\"http://library.duke.edu/data/duke-only/gis/esri/esridm/2013/streetmap_na/data/mroads.zip\">SDC</a></td><td><a href=\"http://library.duke.edu/data/files/esri/esridm/2013/streetmap_na/data/mroads.html\">Metadata</a></td></tr><tr><td>U.S. and Canada Parks</td><td><a href=\"http://library.duke.edu/data/duke-only/gis/esri/esridm/2013/streetmap_na/data/parks.zip\">SDC</a></td><td><a href=\"http://library.duke.edu/data/files/esri/esridm/2013/streetmap_na/data/parks.html\">Metadata</a></td></tr><tr><td>U.S. and Canada Railroads</td><td><a href=\"http://library.duke.edu/data/duke-only/gis/esri/esridm/2013/streetmap_na/data/railroads.zip\" class=\"arcgis\">SDC</a></td><td><a href=\"http://library.duke.edu/data/files/esri/esridm/2013/streetmap_na/data/railroads.html\" class=\"metadata\">Metadata</a></td></tr><tr><td>U.S. and Canada Rivers</td><td><a href=\"http://library.duke.edu/data/duke-only/gis/esri/esridm/2013/streetmap_na/data/rivers.zip\">SDC</a></td><td><a href=\"http://library.duke.edu/data/files/esri/esridm/2013/streetmap_na/data/rivers.html\">Metadata</a></td></tr><tr><td>U.S. and Canada Streets Cartographic</td><td><a href=\"http://library.duke.edu/data/duke-only/gis/esri/esridm/2013/streetmap_na/data/streetscarto.zip\">SDC</a></td><td><a href=\"http://library.duke.edu/data/files/esri/esridm/2013/streetmap_na/data/streetscarto.html\">Metadata</a></td></tr><tr><td>U.S. and Canada Water Polygons</td><td><a href=\"http://library.duke.edu/data/duke-only/gis/esri/esridm/2013/streetmap_na/data/waterp.zip\">SDC</a></td><td><a href=\"http://library.duke.edu/data/files/esri/esridm/2013/streetmap_na/data/waterp.html\">Metadata</a></td></tr><tr><td>U.S. Counties</td><td><a href=\"http://library.duke.edu/data/duke-only/gis/esri/esridm/2013/streetmap_na/data/counties.zip\">SDC</a></td><td><a href=\"http://library.duke.edu/data/files/esri/esridm/2013/streetmap_na/data/counties.html\">Metadata</a></td></tr><tr><td>U.S. States and Canada Provinces</td><td><a href=\"http://library.duke.edu/data/duke-only/gis/esri/esridm/2013/streetmap_na/data/states.zip\">SDC</a></td><td><a href=\"http://library.duke.edu/data/files/esri/esridm/2013/streetmap_na/data/states.html\">Metadata</a></td></tr></tbody></table><p>&nbsp;</p><h3>United States - Background</h3><table class=\"table\"><thead><tr><th>Layer Name</th><th style=\"width: 15%;\" scope=\"col\">ArcGIS Layer</th><th style=\"width: 15%;\" scope=\"col\">Metadata</th></tr></thead><tbody><tr><td>Coastal Wayer Polygons</td><td><a href=\"http://library.duke.edu/data/duke-only/gis/esri/esridm/2013/usa/background/coastal.zip\">SDC</a></td><td><a href=\"http://library.duke.edu/data/files/esri/esridm/2013/usa/background/coastal.html\">Metadata</a></td></tr><tr><td>Countries Proximate to U.S.</td><td><a href=\"http://library.duke.edu/data/duke-only/gis/esri/esridm/2013/usa/background/sm_cntry.zip\">SDC</a></td><td><a href=\"http://library.duke.edu/data/files/esri/esridm/2013/usa/background/sm_cntry.html\">Metadata</a></td></tr><tr><td>World Map Background</td><td><a href=\"http://library.duke.edu/data/duke-only/gis/esri/esridm/2013/usa/background/world30.zip\">SDC</a></td><td><a href=\"http://library.duke.edu/data/files/esri/esridm/2013/usa/background/world30.html\">Metadata</a></td></tr></tbody></table><p>&nbsp;</p><h3>United States - Census</h3><table class=\"table\"><thead><tr><th>Layer Name</th><th style=\"width: 15%;\" scope=\"col\">ArcGIS Layer</th><th style=\"width: 15%;\" scope=\"col\">Metadata</th></tr></thead><tbody><tr><td>Thematic Maps and Layers</td><td><a href=\"http://library.duke.edu/data/duke-only/gis/esri/esridm/2013/usa_layers.zip\">ZIP</a></td><td><a href=\"http://library.duke.edu/data/files/esri/esridm/2013/usa/census/cd113.html\"></a></td></tr><tr><td>113th Congressional Districts</td><td><a href=\"http://library.duke.edu/data/duke-only/gis/esri/esridm/2013/usa/census/cd113.zip\">SDC</a></td><td><a href=\"http://library.duke.edu/data/files/esri/esridm/2013/usa/census/cd113.html\">Metadata</a></td></tr><tr><td>Census Block Centroid Populations</td><td><a href=\"http://library.duke.edu/data/duke-only/gis/esri/esridm/2013/usa/census/blockpop.zip\">SDC</a></td><td><a href=\"http://library.duke.edu/data/files/esri/esridm/2013/usa/census/blockpop.html\">Metadata</a></td></tr><tr><td>Census Block Groups</td><td><a href=\"http://library.duke.edu/data/duke-only/gis/esri/esridm/2013/usa/census/blkgrp.zip\">SDC</a></td><td><a href=\"http://library.duke.edu/data/files/esri/esridm/2013/usa/census/blkgrp.html\">Metadata</a></td></tr><tr><td>Census Tracts</td><td><a href=\"http://library.duke.edu/data/duke-only/gis/esri/esridm/2013/usa/census/tracts.zip\">SDC</a></td><td><a href=\"http://library.duke.edu/data/files/esri/esridm/2013/usa/census/tracts.html\">Metadata</a></td></tr><tr><td>Cities</td><td><a href=\"http://library.duke.edu/data/duke-only/gis/esri/esridm/2013/usa/census/cities.zip\">SDC</a></td><td><a href=\"http://library.duke.edu/data/files/esri/esridm/2013/usa/census/cities.html\">Metadata</a></td></tr><tr><td>Core-Based Statistical Areas</td><td><a href=\"http://library.duke.edu/data/duke-only/gis/esri/esridm/2013/usa/census/cbsa.zip\">SDC</a></td><td><a href=\"http://library.duke.edu/data/files/esri/esridm/2013/usa/census/cbsa.html\">Metadata</a></td></tr><tr><td>Counties</td><td><a href=\"http://library.duke.edu/data/duke-only/gis/esri/esridm/2013/usa/census/dtl_cnty.zip\">SDC</a></td><td><a href=\"http://library.duke.edu/data/files/esri/esridm/2013/usa/census/dtl_cnty.html\">Metadata</a></td></tr><tr><td>Counties (generalized)</td><td><a href=\"http://library.duke.edu/data/duke-only/gis/esri/esridm/2013/usa/census/counties.zip\">SDC</a></td><td><a href=\"http://library.duke.edu/data/files/esri/esridm/2013/usa/census/counties.html\">Metadata</a></td></tr><tr><td>County Boundaries</td><td><a href=\"http://library.duke.edu/data/duke-only/gis/esri/esridm/2013/usa/census/dtl_cnty_ln.zip\">SDC</a></td><td><a href=\"http://library.duke.edu/data/files/esri/esridm/2013/usa/census/dtl_cnty_ln.html\">Metadata</a></td></tr><tr><td>National Atlas - Cities</td><td><a href=\"http://library.duke.edu/data/duke-only/gis/esri/esridm/2013/usa/census/cities_dtl.zip\">SDC</a></td><td><a href=\"http://library.duke.edu/data/files/esri/esridm/2013/usa/census/cities_dtl.html\">Metadata</a></td></tr><tr><td>National Atlas - Urbanized Areas</td><td><a href=\"http://library.duke.edu/data/duke-only/gis/esri/esridm/2013/usa/census/urban_dtl.zip\">SDC</a></td><td><a href=\"http://library.duke.edu/data/files/esri/esridm/2013/usa/census/urban_dtl.html\">Metadata</a></td></tr><tr><td>Populated Place Areas</td><td><a href=\"http://library.duke.edu/data/duke-only/gis/esri/esridm/2013/usa/census/placeply.zip\">SDC</a></td><td><a href=\"http://library.duke.edu/data/files/esri/esridm/2013/usa/census/placeply.html\">Metadata</a></td></tr><tr><td>Populated Place Points</td><td><a href=\"http://library.duke.edu/data/duke-only/gis/esri/esridm/2013/usa/census/places.zip\">SDC</a></td><td><a href=\"http://library.duke.edu/data/files/esri/esridm/2013/usa/census/places.html\">Metadata</a></td></tr><tr><td>State Boundaries</td><td><a href=\"http://library.duke.edu/data/duke-only/gis/esri/esridm/2013/usa/census/dtl_st_ln.zip\">SDC</a></td><td><a href=\"http://library.duke.edu/data/files/esri/esridm/2013/usa/census/dtl_st_ln.html\">Metadata</a></td></tr><tr><td>States</td><td><a href=\"http://library.duke.edu/data/duke-only/gis/esri/esridm/2013/usa/census/dtl_st.zip\">SDC</a></td><td><a href=\"http://library.duke.edu/data/files/esri/esridm/2013/usa/census/dtl_st.html\">Metadata</a></td></tr><tr><td>States (generalized)</td><td><a href=\"http://library.duke.edu/data/duke-only/gis/esri/esridm/2013/usa/census/states.zip\">SDC</a></td><td><a href=\"http://library.duke.edu/data/files/esri/esridm/2013/usa/census/states.html\">Metadata</a></td></tr><tr><td>Telephone Area Code Boundaries</td><td><a href=\"http://library.duke.edu/data/duke-only/gis/esri/esridm/2013/usa/census/areacode.zip\">SDC</a></td><td><a href=\"http://library.duke.edu/data/files/esri/esridm/2013/usa/census/areacode.html\">Metadata</a></td></tr><tr><td>Urbanized Areas</td><td><a href=\"http://library.duke.edu/data/duke-only/gis/esri/esridm/2013/usa/census/urban.zip\">SDC</a></td><td><a href=\"http://library.duke.edu/data/files/esri/esridm/2013/usa/census/urban.html\">Metadata</a></td></tr><tr><td>ZIP Code Areas (Five-Digit)</td><td><a href=\"http://library.duke.edu/data/duke-only/gis/esri/esridm/2013/usa/census/zip_poly.zip\">SDC</a></td><td><a href=\"http://library.duke.edu/data/files/esri/esridm/2013/usa/census/zip_poly.html\">Metadata</a></td></tr><tr><td>ZIP Code Areas (Three-Digit)</td><td><a href=\"http://library.duke.edu/data/duke-only/gis/esri/esridm/2013/usa/census/zip3.zip\">SDC</a></td><td><a href=\"http://library.duke.edu/data/files/esri/esridm/2013/usa/census/zip3.html\">Metadata</a></td></tr><tr><td>ZIP Code Points</td><td><a href=\"http://library.duke.edu/data/duke-only/gis/esri/esridm/2013/usa/census/zip_usa.zip\">SDC</a></td><td><a href=\"http://library.duke.edu/data/files/esri/esridm/2013/usa/census/zip_usa.html\">Metadata</a></td></tr></tbody></table><p>&nbsp;</p><h3>United States - Hydrography</h3><table class=\"table\"><thead><tr><th>Layer Name</th><th style=\"width: 15%;\" scope=\"col\">ArcGIS Layer</th><th style=\"width: 15%;\" scope=\"col\">Metadata</th></tr></thead><tbody><tr><td>Drainage Systems</td><td><a href=\"http://library.duke.edu/data/duke-only/gis/esri/esridm/2013/usa/hydro/drainage.zip\">SDC</a></td><td><a href=\"http://library.duke.edu/data/files/esri/esridm/2013/usa/hydro/drainage.html\">Metadata</a></td></tr><tr><td>Lakes (generalized)</td><td><a href=\"http://library.duke.edu/data/duke-only/gis/esri/esridm/2013/usa/hydro/lakes.zip\">SDC</a></td><td><a href=\"http://library.duke.edu/data/files/esri/esridm/2013/usa/hydro/lakes.html\">Metadata</a></td></tr><tr><td>National Atlas - Water Feature Areas</td><td><a href=\"http://library.duke.edu/data/duke-only/gis/esri/esridm/2013/usa/hydro/hydroply.zip\">SDC</a></td><td><a href=\"http://library.duke.edu/data/files/esri/esridm/2013/usa/hydro/hydroply.html\">Metadata</a></td></tr><tr><td>National Atlas - Water Feature Lines</td><td><a href=\"http://library.duke.edu/data/duke-only/gis/esri/esridm/2013/usa/hydro/hydroln.zip\">SDC</a></td><td><a href=\"http://library.duke.edu/data/files/esri/esridm/2013/usa/hydro/hydroln.html\">Metadata</a></td></tr><tr><td>Rivers and Streams</td><td><a href=\"http://library.duke.edu/data/duke-only/gis/esri/esridm/2013/usa/hydro/dtl_riv.zip\">SDC</a></td><td><a href=\"http://library.duke.edu/data/files/esri/esridm/2013/usa/hydro/dtl_riv.html\">Metadata</a></td></tr><tr><td>Rivers (generalized)</td><td><a href=\"http://library.duke.edu/data/duke-only/gis/esri/esridm/2013/usa/hydro/rivers.zip\">SDC</a></td><td><a href=\"http://library.duke.edu/data/files/esri/esridm/2013/usa/hydro/rivers.html\">Metadata</a></td></tr><tr><td>Water Bodies</td><td><a href=\"http://library.duke.edu/data/duke-only/gis/esri/esridm/2013/usa/hydro/dtl_wat.zip\">SDC</a></td><td><a href=\"http://library.duke.edu/data/files/esri/esridm/2013/usa/hydro/dtl_wat.html\">Metadata</a></td></tr></tbody></table><p>&nbsp;</p><h3>United States - Landmarks</h3><table class=\"table\"><thead><tr><th>Layer Name</th><th style=\"width: 15%;\" scope=\"col\">ArcGIS Layer</th><th style=\"width: 15%;\" scope=\"col\">Metadata</th></tr></thead><tbody><tr><td>Geographic Names Information System - Buildings</td><td><a href=\"http://library.duke.edu/data/duke-only/gis/esri/esridm/2013/usa/landmarks/gblding.zip\">SDC</a></td><td><a href=\"http://library.duke.edu/data/files/esri/esridm/2013/usa/landmarks/gblding.html\">Metadata</a></td></tr><tr><td>Geographic Names Information System - Cemeteries</td><td><a href=\"http://library.duke.edu/data/duke-only/gis/esri/esridm/2013/usa/landmarks/gcemetry.zip\">SDC</a></td><td><a href=\"http://library.duke.edu/data/files/esri/esridm/2013/usa/landmarks/gcemetry.html\">Metadata</a></td></tr><tr><td>Geographic Names Information System - Churches</td><td><a href=\"http://library.duke.edu/data/duke-only/gis/esri/esridm/2013/usa/landmarks/gchurch.zip\">SDC</a></td><td><a href=\"http://library.duke.edu/data/files/esri/esridm/2013/usa/landmarks/gchurch.html\">Metadata</a></td></tr><tr><td>Geographic Names Information System - Golf Locales</td><td><a href=\"http://library.duke.edu/data/duke-only/gis/esri/esridm/2013/usa/landmarks/ggolf.zip\">SDC</a></td><td><a href=\"http://library.duke.edu/data/files/esri/esridm/2013/usa/landmarks/ggolf.html\">Metadata</a></td></tr><tr><td>Geographic Names Information System - Hospitals</td><td><a href=\"http://library.duke.edu/data/duke-only/gis/esri/esridm/2013/usa/landmarks/ghospitl.zip\">SDC</a></td><td><a href=\"http://library.duke.edu/data/files/esri/esridm/2013/usa/landmarks/ghospitl.html\">Metadata</a></td></tr><tr><td>Geographic Names Information System - Locales</td><td><a href=\"http://library.duke.edu/data/duke-only/gis/esri/esridm/2013/usa/landmarks/glocale.zip\">SDC</a></td><td><a href=\"http://library.duke.edu/data/files/esri/esridm/2013/usa/landmarks/glocale.html\">Metadata</a></td></tr><tr><td>Geographic Names Information System - Populated Places</td><td><a href=\"http://library.duke.edu/data/duke-only/gis/esri/esridm/2013/usa/landmarks/gppl.zip\">SDC</a></td><td><a href=\"http://library.duke.edu/data/files/esri/esridm/2013/usa/landmarks/gppl.html\">Metadata</a></td></tr><tr><td>Geographic Names Information System - Schools</td><td><a href=\"http://library.duke.edu/data/duke-only/gis/esri/esridm/2013/usa/landmarks/gschools.zip\">SDC</a></td><td><a href=\"http://library.duke.edu/data/files/esri/esridm/2013/usa/landmarks/gschools.html\">Metadata</a></td></tr><tr><td>Geographic Names Information System - Summits</td><td><a href=\"http://library.duke.edu/data/duke-only/gis/esri/esridm/2013/usa/landmarks/gsummit.zip\">SDC</a></td><td><a href=\"http://library.duke.edu/data/files/esri/esridm/2013/usa/landmarks/gsummit.html\">Metadata</a></td></tr><tr><td>Institutions</td><td><a href=\"http://library.duke.edu/data/duke-only/gis/esri/esridm/2013/usa/landmarks/institut.zip\">SDC</a></td><td><a href=\"http://library.duke.edu/data/files/esri/esridm/2013/usa/landmarks/institut.html\">Metadata</a></td></tr><tr><td>Large Area Landmarks</td><td><a href=\"http://library.duke.edu/data/duke-only/gis/esri/esridm/2013/usa/landmarks/lalndmrk.zip\">SDC</a></td><td><a href=\"http://library.duke.edu/data/files/esri/esridm/2013/usa/landmarks/lalndmrk.html\">Metadata</a></td></tr><tr><td>Major Parks</td><td><a href=\"http://library.duke.edu/data/duke-only/gis/esri/esridm/2013/usa/landmarks/parks.zip\">SDC</a></td><td><a href=\"http://library.duke.edu/data/files/esri/esridm/2013/usa/landmarks/parks.html\">Metadata</a></td></tr><tr><td>National Atlas - Federal and Indian Land Areas</td><td><a href=\"http://library.duke.edu/data/duke-only/gis/esri/esridm/2013/usa/landmarks/fedlandp.zip\">SDC</a></td><td><a href=\"http://library.duke.edu/data/files/esri/esridm/2013/usa/landmarks/fedlandp.html\">Metadata</a></td></tr><tr><td>National Atlas - Federal Land Lines</td><td><a href=\"http://library.duke.edu/data/duke-only/gis/esri/esridm/2013/usa/landmarks/fedlandl.zip\">SDC</a></td><td><a href=\"http://library.duke.edu/data/files/esri/esridm/2013/usa/landmarks/fedlandl.html\">Metadata</a></td></tr><tr><td>Parks</td><td><a href=\"http://library.duke.edu/data/duke-only/gis/esri/esridm/2013/usa/landmarks/park_dtl.zip\">SDC</a></td><td><a href=\"http://library.duke.edu/data/files/esri/esridm/2013/usa/landmarks/park_dtl.html\">Metadata</a></td></tr><tr><td>Recreation Areas</td><td><a href=\"http://library.duke.edu/data/duke-only/gis/esri/esridm/2013/usa/landmarks/recareas.zip\">SDC</a></td><td><a href=\"http://library.duke.edu/data/files/esri/esridm/2013/usa/landmarks/recareas.html\">Metadata</a></td></tr></tbody></table><p>&nbsp;</p><h3>United States - Other</h3><table class=\"table\"><thead><tr><th>Layer Name</th><th style=\"width: 15%;\" scope=\"col\">ArcGIS Layer</th><th style=\"width: 15%;\" scope=\"col\">Metadata</th></tr></thead><tbody><tr><td>National Atlas - Public Land Survey</td><td><a href=\"http://library.duke.edu/data/duke-only/gis/esri/esridm/2013/usa/other/publdsur.zip\">SDC</a></td><td><a href=\"http://library.duke.edu/data/files/esri/esridm/2013/usa/other/publdsur.html\">Metadata</a></td></tr><tr><td>State Plane Zones NAD 1927</td><td><a href=\"http://library.duke.edu/data/duke-only/gis/esri/esridm/2013/usa/other/spcszn27.zip\">SDC</a></td><td><a href=\"http://library.duke.edu/data/files/esri/esridm/2013/usa/other/spcszn27.html\">Metadata</a></td></tr><tr><td>State Plane Zones NAD 1983</td><td><a href=\"http://library.duke.edu/data/duke-only/gis/esri/esridm/2013/usa/other/spcszn83.zip\">SDC</a></td><td><a href=\"http://library.duke.edu/data/files/esri/esridm/2013/usa/other/spcszn83.html\">Metadata</a></td></tr><tr><td>USGS Topographic Quadrangles 1:24,000</td><td><a href=\"http://library.duke.edu/data/duke-only/gis/esri/esridm/2013/usa/other/topoq24.zip\">SDC</a></td><td><a href=\"http://library.duke.edu/data/files/esri/esridm/2013/usa/other/topoq24.html\">Metadata</a></td></tr><tr><td>USGS Topographic Quadrangles 1:100,000</td><td><a href=\"http://library.duke.edu/data/duke-only/gis/esri/esridm/2013/usa/other/topoq100.zip\">SDC</a></td><td><a href=\"http://library.duke.edu/data/files/esri/esridm/2013/usa/other/topoq100.html\">Metadata</a></td></tr><tr><td>USGS Topographic Quadrangles 1:250,000</td><td><a href=\"http://library.duke.edu/data/duke-only/gis/esri/esridm/2013/usa/other/topoq250.zip\">SDC</a></td><td><a href=\"http://library.duke.edu/data/files/esri/esridm/2013/usa/other/topoq250.html\">Metadata</a></td></tr></tbody></table><p>&nbsp;</p><h3>United States - Transportation</h3><table class=\"table\"><thead><tr><th>Layer Name</th><th style=\"width: 15%;\" scope=\"col\">ArcGIS Layer</th><th style=\"width: 15%;\" scope=\"col\">Metadata</th></tr></thead><tbody><tr><td>Airports</td><td><a href=\"http://library.duke.edu/data/duke-only/gis/esri/esridm/2013/usa/trans/airportp.zip\">SDC</a></td><td><a href=\"http://library.duke.edu/data/files/esri/esridm/2013/usa/trans/airportp.html\">Metadata</a></td></tr><tr><td>Highways</td><td><a href=\"http://library.duke.edu/data/duke-only/gis/esri/esridm/2013/usa/trans/highways.zip\">SDC</a></td><td><a href=\"http://library.duke.edu/data/files/esri/esridm/2013/usa/trans/highways.html\">Metadata</a></td></tr><tr><td>Major Highways</td><td><a href=\"http://library.duke.edu/data/duke-only/gis/esri/esridm/2013/usa/trans/mjr_hwys.zip\">SDC</a></td><td><a href=\"http://library.duke.edu/data/files/esri/esridm/2013/usa/trans/mjr_hwys.html\">Metadata</a></td></tr><tr><td>National Atlas - Airports</td><td><a href=\"http://library.duke.edu/data/duke-only/gis/esri/esridm/2013/usa/trans/airports.zip\">SDC</a></td><td><a href=\"http://library.duke.edu/data/files/esri/esridm/2013/usa/trans/airports.html\">Metadata</a></td></tr><tr><td>National Transportation Atlas - Interstate Highways</td><td><a href=\"http://library.duke.edu/data/duke-only/gis/esri/esridm/2013/usa/trans/intrstat.zip\">SDC</a></td><td><a href=\"http://library.duke.edu/data/files/esri/esridm/2013/usa/trans/intrstat.html\">Metadata</a></td></tr><tr><td>National Transportation Atlas - Railroads</td><td><a href=\"http://library.duke.edu/data/duke-only/gis/esri/esridm/2013/usa/trans/rail100k.zip\">SDC</a></td><td><a href=\"http://library.duke.edu/data/files/esri/esridm/2013/usa/trans/rail100k.html\">Metadata</a></td></tr><tr><td>Transportation Terminals</td><td><a href=\"http://library.duke.edu/data/duke-only/gis/esri/esridm/2013/usa/trans/tranterm.zip\">SDC</a></td><td><a href=\"http://library.duke.edu/data/files/esri/esridm/2013/usa/trans/tranterm.html\">Metadata</a></td></tr></tbody></table><p>&nbsp;</p><h3>World - Background</h3><table class=\"table\"><thead><tr><th>Layer Name</th><th style=\"width: 15%;\" scope=\"col\">ArcGIS Layer</th><th style=\"width: 15%;\" scope=\"col\">Metadata</th></tr></thead><tbody><tr><td>Continents</td><td><a href=\"http://library.duke.edu/data/duke-only/gis/esri/esridm/2013/world/background/continent_ln.zip\">SDC</a></td><td><a href=\"http://library.duke.edu/data/files/esri/esridm/2013/world/background/continent_ln.html\">Metadata</a></td></tr><tr><td>Regions</td><td><a href=\"http://library.duke.edu/data/duke-only/gis/esri/esridm/2013/world/background/region_ln.zip\">SDC</a></td><td><a href=\"http://library.duke.edu/data/files/esri/esridm/2013/world/background/region_ln.html\">Metadata</a></td></tr></tbody></table><p>&nbsp;</p><h3>World</h3><p></p><table class=\"table\"><thead><tr><th>Layer Name</th><th style=\"width: 15%;\" scope=\"row\">ArcGIS Layer</th><th style=\"width: 15%;\" scope=\"col\">Metadata</th></tr></thead><tbody><tr><td>Thematic Maps and Layers</td><td><a href=\"http://library.duke.edu/data/duke-only/gis/esri/esridm/2013/world_layers.zip\">ZIP</a></td><td><a href=\"http://library.duke.edu/data/files/esri/esridm/2013/world/data/admin.html\"></a></td></tr><tr><td>Administrative Units</td><td><a href=\"http://library.duke.edu/data/duke-only/gis/esri/esridm/2013/world/data/admin.zip\">SDC</a></td><td><a href=\"http://library.duke.edu/data/files/esri/esridm/2013/world/data/admin.html\">Metadata</a></td></tr><tr><td>Census IPC Demographics (table)</td><td><a href=\"http://library.duke.edu/data/duke-only/gis/esri/esridm/2013/world/data/cntry_ipc.zip\">SDC</a></td><td>&nbsp;</td></tr><tr><td>Cities</td><td><a href=\"http://library.duke.edu/data/duke-only/gis/esri/esridm/2013/world/data/cities.zip\">SDC</a></td><td><a href=\"http://library.duke.edu/data/files/esri/esridm/2013/world/data/cities.html\">Metadata</a></td></tr><tr><td>Continents</td><td><a href=\"http://library.duke.edu/data/duke-only/gis/esri/esridm/2013/world/data/continent.zip\">SDC</a></td><td><a href=\"http://library.duke.edu/data/files/esri/esridm/2013/world/data/continent.html\">Metadata</a></td></tr><tr><td>Countries (generalized)</td><td><a href=\"http://library.duke.edu/data/duke-only/gis/esri/esridm/2013/world/data/country.zip\">SDC</a></td><td><a href=\"http://library.duke.edu/data/files/esri/esridm/2013/world/data/country.html\">Metadata</a></td></tr><tr><td>Country Memberships of Political Organizations (table)</td><td><a href=\"http://library.duke.edu/data/duke-only/gis/esri/esridm/2013/world/data/pol_org.zip\">SDC</a></td><td>&nbsp;</td></tr><tr><td>Drainage Systems</td><td><a href=\"http://library.duke.edu/data/duke-only/gis/esri/esridm/2013/world/data/drainage.zip\">SDC</a></td><td><a href=\"http://library.duke.edu/data/files/esri/esridm/2013/world/data/drainage.html\">Metadata</a></td></tr><tr><td>Gazetteer</td><td><a href=\"http://library.duke.edu/data/duke-only/gis/esri/esridm/2013/world/data/gaz.zip\">SDC</a></td><td><a href=\"http://library.duke.edu/data/files/esri/esridm/2013/world/data/gaz.html\">Metadata</a></td></tr><tr><td>Lakes</td><td><a href=\"http://library.duke.edu/data/duke-only/gis/esri/esridm/2013/world/data/lakes.zip\">SDC</a></td><td><a href=\"http://library.duke.edu/data/files/esri/esridm/2013/world/data/lakes.html\">Metadata</a></td></tr><tr><td>Latitude and Longitude Grids</td><td><a href=\"http://library.duke.edu/data/duke-only/gis/esri/esridm/2013/world/data/latlong.zip\">SDC</a></td><td><a href=\"http://library.duke.edu/data/files/esri/esridm/2013/world/data/latlong.html\">Metadata</a></td></tr><tr><td>Named Latitudes and Longitudes</td><td><a href=\"http://library.duke.edu/data/duke-only/gis/esri/esridm/2013/world/data/geogrid.zip\">SDC</a></td><td><a href=\"http://library.duke.edu/data/files/esri/esridm/2013/world/data/geogrid.html\">Metadata</a></td></tr><tr><td>Regions</td><td><a href=\"http://library.duke.edu/data/duke-only/gis/esri/esridm/2013/world/data/region.zip\">SDC</a></td><td><a href=\"http://library.duke.edu/data/files/esri/esridm/2013/world/data/region.html\">Metadata</a></td></tr><tr><td>Rivers</td><td><a href=\"http://library.duke.edu/data/duke-only/gis/esri/esridm/2013/world/data/rivers.zip\">SDC</a></td><td><a href=\"http://library.duke.edu/data/files/esri/esridm/2013/world/data/rivers.html\">Metadata</a></td></tr><tr><td>Time Zones</td><td><a href=\"http://library.duke.edu/data/duke-only/gis/esri/esridm/2013/world/data/timezone.zip\">SDC</a></td><td><a href=\"http://library.duke.edu/data/files/esri/esridm/2013/world/data/timezone.html\">Metadata</a></td></tr><tr><td>UTM Zones</td><td><a href=\"http://library.duke.edu/data/duke-only/gis/esri/esridm/2013/world/data/utmzone.zip\">SDC</a></td><td><a href=\"http://library.duke.edu/data/files/esri/esridm/2013/world/data/utmzone.html\">Metadata</a></td></tr><tr><td>World Airports</td><td><a href=\"http://library.duke.edu/data/duke-only/gis/esri/esridm/2013/world/data/airports.zip\">SDC</a></td><td><a href=\"http://library.duke.edu/data/files/esri/esridm/2013/world/data/airports.html\">Metadata</a></td></tr><tr><td>Contours</td><td><a href=\"http://library.duke.edu/data/duke-only/gis/esri/esridm/2013/world/data/contours.zip\">SDC</a></td><td><a href=\"http://library.duke.edu/data/files/esri/esridm/2013/world/data/contours.html\">Metadata</a></td></tr><tr><td>World Linear Water</td><td><a href=\"http://library.duke.edu/data/duke-only/gis/esri/esridm/2013/world/data/hydrolines.zip\">SDC</a></td><td><a href=\"http://library.duke.edu/data/files/esri/esridm/2013/world/data/hydrolines.html\">Metadata</a></td></tr><tr><td>World Map Background</td><td><a href=\"http://library.duke.edu/data/duke-only/gis/esri/esridm/2013/world/data/world30.zip\">SDC</a></td><td><a href=\"http://library.duke.edu/data/files/esri/esridm/2013/world/data/world30.html\">Metadata</a></td></tr><tr><td>World Populated Places</td><td><a href=\"http://library.duke.edu/data/duke-only/gis/esri/esridm/2013/world/data/pop_places.zip\">SDC</a></td><td><a href=\"http://library.duke.edu/data/files/esri/esridm/2013/world/data/pop_places.html\">Metadata</a></td></tr><tr><td>World Railroads</td><td><a href=\"http://library.duke.edu/data/duke-only/gis/esri/esridm/2013/world/data/railroads.zip\">SDC</a></td><td><a href=\"http://library.duke.edu/data/files/esri/esridm/2013/world/data/railroads.html\">Metadata</a></td></tr><tr><td>World Roads</td><td><a href=\"http://library.duke.edu/data/duke-only/gis/esri/esridm/2013/world/data/roads.zip\">SDC</a></td><td><a href=\"http://library.duke.edu/data/files/esri/esridm/2013/world/data/roads.html\">Metadata</a></td></tr><tr><td>World Urban Areas</td><td><a href=\"http://library.duke.edu/data/duke-only/gis/esri/esridm/2013/world/data/urban_area.zip\">SDC</a></td><td><a href=\"http://library.duke.edu/data/files/esri/esridm/2013/world/data/urban_area.html\">Metadata</a></td></tr><tr><td>World Water Bodies</td><td><a href=\"http://library.duke.edu/data/duke-only/gis/esri/esridm/2013/world/data/hydropolys.zip\">SDC</a></td><td><a href=\"http://library.duke.edu/data/files/esri/esridm/2013/world/data/hydropolys.html\">Metadata</a></td></tr><tr><td>World Wildlife Fund Marine Ecoregions</td><td><a href=\"http://library.duke.edu/data/duke-only/gis/esri/esridm/2013/world/data/wwf_mar.zip\">SDC</a></td><td><a href=\"http://library.duke.edu/data/files/esri/esridm/2013/world/data/wwf_mar.html\">Metadata</a></td></tr><tr><td>World Wildlife Fund Terrestrial Ecoregions</td><td><a href=\"http://library.duke.edu/data/duke-only/gis/esri/esridm/2013/world/data/wwf_terr.zip\">SDC</a></td><td><a href=\"http://library.duke.edu/data/files/esri/esridm/2013/world/data/wwf_terr.html\">Metadata</a></td></tr></tbody></table>",
            "delta" : 0,
            "bundle" : "about_page",
            "body_summary" : "",
            "langcode" : "und"
         },
         "vuuid" : "af3dbf1a-ae32-4b35-a292-0d6b0e3ac3e8",
         "log" : "",
         "status" : 1,
         "uid" : 55,
         "title" : "ESRI Data and Maps 2013",
         "promote" : 0,
         "timestamp" : 1524763213,
         "field_revision" : {
            "status" : 1,
            "langcode" : null,
            "uid" : 1,
            "title" : "ESRI Data and Maps 2013",
            "default_langcode" : 1,
            "created" : null,
            "sticky" : 0,
            "revision_translation_affected" : 1,
            "changed" : null
         }
      }
   ],
   "uuid" : "b903721b-4fef-479e-ab44-efc0471285cd",
   "type" : "about_page",
   "node_field_data" : {
      "revision_translation_affected" : 1,
      "changed" : null,
      "langcode" : "und",
      "created" : 1382640673,
      "sticky" : 0,
      "type" : "about_page",
      "status" : 1,
      "title" : "ESRI Data and Maps 2013",
      "default_langcode" : 1,
      "uid" : 1,
      "promote" : 0
   },
   "vid" : 2413,
   "field_tags" : [],
   "asidebox" : {
      "block_delta" : null,
      "vid" : 2413,
      "body_format" : null,
      "bid" : null,
      "body_title" : "",
      "status" : "disabled",
      "nid" : 108,
      "body_value" : null,
      "block_module" : null
   }
}

