{
   "term" : {
      "name" : "general public",
      "weight" : 0,
      "description" : "",
      "uuid" : "21803210-e92e-4b56-b11a-e80cca34975a",
      "tid" : 5,
      "vocab_machine_name" : "audience_tags",
      "format" : "full_html_no_wysiwyg",
      "vid" : 2
   }
}
