{
   "term" : {
      "uuid" : "22b0eba2-7121-4173-b76a-ee72e05bd967",
      "tid" : 35,
      "format" : null,
      "vocab_machine_name" : "tags",
      "vid" : 1,
      "name" : "research-support undergraduate",
      "weight" : 0,
      "description" : null
   }
}
