{
   "term" : {
      "tid" : 103,
      "uuid" : "22e2584b-77fb-46fa-90ba-7015d2953704",
      "vid" : 1,
      "format" : null,
      "vocab_machine_name" : "tags",
      "description" : null,
      "weight" : 0,
      "name" : "-"
   }
}
