{
   "term" : {
      "vocab_machine_name" : "tags",
      "format" : null,
      "vid" : 1,
      "uuid" : "248dd483-b8f5-4390-846f-bf7309371718",
      "tid" : 69,
      "name" : "Hartman Center",
      "description" : null,
      "weight" : 0
   }
}
