{
   "term" : {
      "name" : "electronic resources",
      "description" : null,
      "weight" : 0,
      "uuid" : "2e7ceae5-325d-42de-b543-109a5a6a28e9",
      "tid" : 73,
      "format" : null,
      "vocab_machine_name" : "tags",
      "vid" : 1
   }
}
