{
   "term" : {
      "tid" : 6,
      "uuid" : "3884abcb-eadb-48ce-996a-5fc52cbdb02d",
      "vid" : 1,
      "vocab_machine_name" : "tags",
      "format" : null,
      "weight" : 0,
      "description" : null,
      "name" : "Training"
   }
}
