{
   "term" : {
      "description" : null,
      "weight" : 0,
      "name" : "VPN",
      "vid" : 1,
      "vocab_machine_name" : "tags",
      "format" : null,
      "tid" : 70,
      "uuid" : "3ef9375d-45ca-4442-8e10-9bc38a4c32a3"
   }
}
