{
   "term" : {
      "name" : "graduate students",
      "description" : "",
      "weight" : 0,
      "format" : "full_html_no_wysiwyg",
      "vocab_machine_name" : "audience_tags",
      "vid" : 2,
      "uuid" : "458abdea-a010-447b-a110-90cd7afc6b87",
      "tid" : 2
   }
}
