{
   "term" : {
      "vocab_machine_name" : "tags",
      "format" : null,
      "vid" : 1,
      "uuid" : "63128a8e-0fc2-4d9c-a8b8-5b75170920f7",
      "tid" : 39,
      "name" : "France",
      "weight" : 0,
      "description" : null
   }
}
