{
   "term" : {
      "vocab_machine_name" : "tags",
      "format" : null,
      "vid" : 1,
      "uuid" : "6898d5aa-592d-436a-b2f3-42c244909821",
      "tid" : 121,
      "name" : "citation",
      "description" : null,
      "weight" : 0
   }
}
