{
   "term" : {
      "format" : null,
      "vocab_machine_name" : "tags",
      "vid" : 1,
      "uuid" : "6b5bea29-9b60-40d8-93fc-f196839846b6",
      "tid" : 44,
      "name" : "area studies",
      "description" : null,
      "weight" : 0
   }
}
