{
   "term" : {
      "vocab_machine_name" : "tags",
      "format" : null,
      "vid" : 1,
      "uuid" : "80f0249d-2577-49c9-acca-748342689bb3",
      "tid" : 7,
      "name" : "Test",
      "weight" : 0,
      "description" : null
   }
}
