{
   "term" : {
      "format" : null,
      "vocab_machine_name" : "tags",
      "vid" : 1,
      "uuid" : "9100ebb0-e105-43d9-9f43-5b2d5a8e13ff",
      "tid" : 117,
      "name" : "entrances",
      "description" : null,
      "weight" : 0
   }
}
