{
   "term" : {
      "name" : "undergraduate",
      "weight" : 0,
      "description" : "",
      "vocab_machine_name" : "audience_tags",
      "format" : "full_html_no_wysiwyg",
      "vid" : 2,
      "uuid" : "92936904-af63-480f-b04c-bb93cfd753a4",
      "tid" : 3
   }
}
