{
   "term" : {
      "uuid" : "972559b6-ab7f-4e61-9e69-f2ff980a6528",
      "tid" : 43,
      "vocab_machine_name" : "tags",
      "format" : null,
      "vid" : 1,
      "name" : "department",
      "description" : null,
      "weight" : 0
   }
}
