{
   "term" : {
      "vocab_machine_name" : "tags",
      "format" : null,
      "vid" : 1,
      "uuid" : "a8d828e2-422c-4d14-8151-bf28989123f7",
      "tid" : 88,
      "name" : "adopt a book",
      "weight" : 0,
      "description" : null
   }
}
