{
   "term" : {
      "name" : "resources",
      "description" : null,
      "weight" : 0,
      "format" : null,
      "vocab_machine_name" : "tags",
      "vid" : 1,
      "uuid" : "b6c89da3-4e70-492f-8d5b-ec7c19db250f",
      "tid" : 23
   }
}
