{
   "term" : {
      "name" : "danette",
      "weight" : 0,
      "description" : null,
      "uuid" : "c5c16a5b-f94c-462a-ac4b-f64e704755bf",
      "tid" : 24,
      "format" : null,
      "vocab_machine_name" : "tags",
      "vid" : 1
   }
}
