{
   "term" : {
      "weight" : 0,
      "description" : null,
      "name" : "Duke Family",
      "vid" : 1,
      "vocab_machine_name" : "tags",
      "format" : null,
      "tid" : 27,
      "uuid" : "d03eec41-4be1-405c-8904-f478c768f3dc"
   }
}
