{
   "term" : {
      "description" : null,
      "weight" : 0,
      "name" : "RefWorks",
      "vid" : 1,
      "format" : null,
      "vocab_machine_name" : "tags",
      "tid" : 127,
      "uuid" : "d54eda27-455c-4147-8b50-b8f19d8ae3de"
   }
}
