{
   "term" : {
      "weight" : 0,
      "description" : null,
      "name" : "accesibility",
      "vid" : 1,
      "vocab_machine_name" : "tags",
      "format" : null,
      "tid" : 108,
      "uuid" : "fd68fc79-e9b3-409e-bb60-24247cbb5b4c"
   }
}
