{
   "term" : {
      "name" : "Course Support",
      "description" : "",
      "weight" : 0,
      "uuid" : "ff5409fd-6535-4a2e-9c2b-5a1284d483fb",
      "tid" : 76,
      "vocab_machine_name" : "site_sections",
      "format" : "full_html",
      "vid" : 3
   }
}
