{
   "uri" : "public://users/joshlarkinrowley/MMA_Crop_1.jpg",
   "uid" : 40,
   "filename" : "MMA_Crop_1.jpg",
   "timestamp" : 1587655051,
   "status" : 1,
   "filemime" : "image/jpeg",
   "filesize" : 246108,
   "fid" : 2517,
   "uuid" : "00f694dd-c6f6-476b-a242-89a0891aeb9f"
}
