{
   "uuid" : "01fb2989-340d-4645-85ef-44a3595d69d1",
   "fid" : 2580,
   "filesize" : 210988,
   "filemime" : "application/pdf",
   "status" : 1,
   "filename" : "TheChanticleer.pdf",
   "timestamp" : 1600106280,
   "uri" : "public://pdf/TheChanticleer.pdf",
   "uid" : 11
}
