{
   "status" : 1,
   "timestamp" : 1551126532,
   "filename" : "WendelWhite.jpg",
   "uid" : 81,
   "uri" : "public://carousel_images/WendelWhite.jpg",
   "filemime" : "image/jpeg",
   "fid" : 2129,
   "uuid" : "02786cff-98fc-4597-9032-0738836e24f5",
   "filesize" : 125379
}
