{
   "filemime" : "image/jpeg",
   "uri" : "public://users/john.gartrell/Varela_HandSigningBallot_IMG_9043(1).jpg",
   "uid" : 17,
   "status" : 1,
   "filename" : "Varela_HandSigningBallot_IMG_9043(1).jpg",
   "timestamp" : 1474902075,
   "filesize" : 212497,
   "fid" : 1635,
   "uuid" : "04632170-3117-402b-82e1-7da8b8cad8a3"
}
