{
   "filesize" : 2843,
   "uuid" : "0535202f-4e8d-4a48-8fb3-f9d6093f9dda",
   "fid" : 1623,
   "uid" : 13,
   "uri" : "public://uarchives/age-youth.jpg",
   "timestamp" : 1472324060,
   "filename" : "age-youth.jpg",
   "status" : 1,
   "filemime" : "image/jpeg"
}
