{
   "uri" : "public://users/patrick.stawski/header-wtg-logo.png",
   "uid" : 22,
   "filename" : "header-wtg-logo.png",
   "timestamp" : 1449591669,
   "status" : 1,
   "filemime" : "image/png",
   "filesize" : 8354,
   "uuid" : "066c1bae-f85b-445b-a59c-9ecb87381005",
   "fid" : 1455
}
