{
   "uri" : "public://users/kate.collins/34567789304_604f776240_o.jpg",
   "uid" : 11,
   "status" : 1,
   "timestamp" : 1527107797,
   "filename" : "34567789304_604f776240_o.jpg",
   "filemime" : "image/jpeg",
   "filesize" : 149601,
   "uuid" : "073d1888-6e01-4df7-9245-768221df615d",
   "fid" : 2009
}
