{
   "uuid" : "07f1bd1d-7161-42f6-ad5f-d49e61411a28",
   "fid" : 1589,
   "filesize" : 53034,
   "filemime" : "image/png",
   "timestamp" : 1467997438,
   "filename" : "save path.png",
   "status" : 1,
   "uri" : "public://users/kate.collins/save path.png",
   "uid" : 11
}
