{
   "fid" : 343,
   "uuid" : "08d2c3bb-5f26-43ff-bc3e-c5de838fd2cd",
   "filesize" : 8471,
   "timestamp" : 1378918525,
   "filename" : "duke_w-250px.jpg",
   "status" : 1,
   "uid" : 13,
   "uri" : "public://archives-other/duke_w-250px.jpg",
   "filemime" : "image/jpeg"
}
