{
   "uri" : "public://users/kate.collins/frontpage-circle-cropped.png",
   "uid" : 11,
   "timestamp" : 1585760210,
   "filename" : "frontpage-circle-cropped.png",
   "status" : 1,
   "filemime" : "image/png",
   "filesize" : 915481,
   "fid" : 2409,
   "uuid" : "09e90e14-7436-4362-9ce0-930023399c71"
}
