{
   "uid" : 7,
   "uri" : "public://instruction/reading_room_appt_11.png",
   "status" : 1,
   "filename" : "reading_room_appt_11.png",
   "timestamp" : 1609771315,
   "filemime" : "image/png",
   "filesize" : 95591,
   "fid" : 2622,
   "uuid" : "0a80331a-2fe5-46ff-ade2-d242edfe1ab2"
}
