{
   "filemime" : "image/jpeg",
   "status" : 1,
   "filename" : "request_page_annotated_0.jpg",
   "timestamp" : 1564688171,
   "uid" : 11,
   "uri" : "public://users/kate.collins/request_page_annotated_0.jpg",
   "fid" : 2193,
   "uuid" : "0b4675e9-ea39-42da-a2e9-7bedcc00b999",
   "filesize" : 104722
}
