{
   "uuid" : "0ba1a993-34f4-426c-a739-5ea204c060a3",
   "fid" : 1387,
   "filesize" : 2947,
   "filename" : "library-tower-100px.jpg",
   "timestamp" : 1444152778,
   "status" : 1,
   "uid" : 13,
   "uri" : "public://uarchives/library-tower-100px.jpg",
   "filemime" : "image/jpeg"
}
