{
   "uid" : 11,
   "uri" : "public://users/kate.collins/request_FA.JPG",
   "filename" : "request_FA.JPG",
   "timestamp" : 1614795758,
   "status" : 1,
   "filemime" : "image/jpeg",
   "filesize" : 10931,
   "uuid" : "0ba22ded-7bbf-451a-9759-692e0e22fabb",
   "fid" : 2648
}
