{
   "filemime" : "application/pdf",
   "uid" : 15,
   "uri" : "public://pdf/womenatthecenter/wc-25.pdf",
   "timestamp" : 1409774742,
   "filename" : "wc-25.pdf",
   "status" : 1,
   "filesize" : 611244,
   "fid" : 1037,
   "uuid" : "0bafed55-4c8b-4f56-950a-a387cb76c918"
}
