{
   "filemime" : "image/jpeg",
   "uri" : "public://users/MatthewSchaefer/wannamaker_w-300px.jpg",
   "uid" : 30,
   "timestamp" : 1378232355,
   "filename" : "wannamaker_w-300px.jpg",
   "status" : 1,
   "filesize" : 34369,
   "uuid" : "0db5c3dc-814c-46f9-9353-6e6aada68068",
   "fid" : 256
}
