{
   "filemime" : "image/jpeg",
   "filename" : "find_us_on_facebook_0.jpg",
   "timestamp" : 1380743037,
   "status" : 1,
   "uid" : 3,
   "uri" : "public://find_us_on_facebook_0.jpg",
   "uuid" : "0e8d9737-16cd-4a9a-8910-39201acf95db",
   "fid" : 366,
   "filesize" : 4061
}
