{
   "filesize" : 8618,
   "uuid" : "100364fb-ce89-47aa-be21-53264694d0e6",
   "fid" : 521,
   "filemime" : "image/jpeg",
   "uri" : "public://users/patrick.stawski/large_enemiesofthepeople_0.jpg",
   "uid" : 22,
   "timestamp" : 1389110349,
   "filename" : "large_enemiesofthepeople_0.jpg",
   "status" : 1
}
