{
   "filemime" : "image/jpeg",
   "status" : 1,
   "timestamp" : 1467229240,
   "filename" : "Seawell.jpg",
   "uid" : 81,
   "uri" : "public://users/lisa.mccarty/Seawell.jpg",
   "uuid" : "10f65456-06a1-4209-a66c-e626440eb219",
   "fid" : 1573,
   "filesize" : 53828
}
