{
   "fid" : 987,
   "uuid" : "1323a2db-2b2b-4715-a74d-0f9b4cfbd54a",
   "filesize" : 73438,
   "filemime" : "image/jpeg",
   "filename" : "franklin crop.jpg",
   "timestamp" : 1405022328,
   "status" : 1,
   "uri" : "public://users/john.gartrell/franklin crop.jpg",
   "uid" : 17
}
