{
   "uri" : "public://uarchives/qdh-logo.jpg",
   "uid" : 13,
   "timestamp" : 1415233456,
   "filename" : "qdh-logo.jpg",
   "status" : 1,
   "filemime" : "image/jpeg",
   "filesize" : 2664,
   "fid" : 1081,
   "uuid" : "13559ebe-7ae1-4056-b881-ee9bf0c60925"
}
