{
   "status" : 1,
   "timestamp" : 1462553720,
   "filename" : "capsule-thumbnail.jpg",
   "uid" : 13,
   "uri" : "public://uarchives/capsule-thumbnail.jpg",
   "filemime" : "image/jpeg",
   "uuid" : "1369d590-cc22-4edd-b535-7720bb01a7f7",
   "fid" : 1557,
   "filesize" : 20928
}
