{
   "filemime" : "image/jpeg",
   "uri" : "public://users/lisa.mccarty/Hoskins.jpg",
   "uid" : 81,
   "timestamp" : 1435240454,
   "filename" : "Hoskins.jpg",
   "status" : 1,
   "filesize" : 146426,
   "uuid" : "1436a37c-3c96-4c44-9f76-0a8e54685619",
   "fid" : 1259
}
