{
   "filesize" : 134426,
   "uuid" : "152d247b-3e10-4a2b-9d2a-17f29383e75b",
   "fid" : 2047,
   "filemime" : "image/jpeg",
   "uri" : "public://uarchives/BOT-1890-p4.jpg",
   "uid" : 13,
   "filename" : "BOT-1890-p4.jpg",
   "timestamp" : 1536072258,
   "status" : 1
}
