{
   "filesize" : 282504,
   "fid" : 1677,
   "uuid" : "15f8d965-2892-4360-a0f1-8cc4a4983212",
   "uid" : 3,
   "uri" : "public://hartman/helayne-spivak-cropped.jpg",
   "status" : 1,
   "filename" : "helayne-spivak-cropped.jpg",
   "timestamp" : 1477013079,
   "filemime" : "image/jpeg"
}
