{
   "filemime" : "image/jpeg",
   "filename" : "vigil-275px.jpg",
   "timestamp" : 1376510096,
   "status" : 1,
   "uri" : "public://users/maureen.mccormick/vigil-275px.jpg",
   "uid" : 19,
   "fid" : 125,
   "uuid" : "17541cd3-20af-4689-8155-92d6051ac94a",
   "filesize" : 50893
}
