{
   "filemime" : "image/jpeg",
   "uid" : 30,
   "uri" : "public://users/MatthewSchaefer/herring_h-300px.jpg",
   "status" : 1,
   "filename" : "herring_h-300px.jpg",
   "timestamp" : 1378238631,
   "filesize" : 28343,
   "uuid" : "17a96020-55b0-48e4-991c-355cbbdacd17",
   "fid" : 285
}
