{
   "filemime" : "image/jpeg",
   "uid" : 10,
   "uri" : "public://history-of-medicine/greene5.jpg",
   "timestamp" : 1378241000,
   "filename" : "greene5.jpg",
   "status" : 1,
   "filesize" : 96544,
   "uuid" : "1975aa7d-9cca-40aa-ad23-f11399996499",
   "fid" : 286
}
