{
   "filename" : "scan settings.png",
   "timestamp" : 1467998273,
   "status" : 1,
   "uri" : "public://users/kate.collins/scan settings.png",
   "uid" : 11,
   "filemime" : "image/png",
   "uuid" : "19baac7c-9f9f-4ad4-83f9-5f889e72ad01",
   "fid" : 1591,
   "filesize" : 49159
}
