{
   "filesize" : 76304,
   "uuid" : "1b18dc96-c0ef-4b94-9417-e181ac5cc46d",
   "fid" : 795,
   "filemime" : "image/jpeg",
   "uri" : "public://users/MatthewSchaefer/Bishop_B1_500px.jpg",
   "uid" : 30,
   "filename" : "Bishop_B1_500px.jpg",
   "timestamp" : 1395155238,
   "status" : 1
}
