{
   "uuid" : "1eb97b74-7669-427b-9957-980ee35e14c3",
   "fid" : 1989,
   "filesize" : 218579,
   "filemime" : "application/pdf",
   "filename" : "RMBrochureMay2018_0.pdf",
   "timestamp" : 1525701259,
   "status" : 1,
   "uid" : 137,
   "uri" : "public://uarchives/RMBrochureMay2018_0.pdf"
}
