{
   "filesize" : 94412,
   "uuid" : "1effd4df-3f81-4bde-9353-e715ca01b9d7",
   "fid" : 1599,
   "filemime" : "image/png",
   "uri" : "public://users/kate.collins/thumbnails.png",
   "uid" : 11,
   "timestamp" : 1468248858,
   "filename" : "thumbnails.png",
   "status" : 1
}
