{
   "filemime" : "application/vnd.openxmlformats-officedocument.wordprocessingml.document",
   "status" : 1,
   "timestamp" : 1573137952,
   "filename" : "2020-Grant-Application.docx",
   "uid" : 15,
   "uri" : "public://pdf/2020-Grant-Application.docx",
   "uuid" : "20f05262-a3e9-4b6a-a1c7-03f0e52efaaa",
   "fid" : 2251,
   "filesize" : 20748
}
