{
   "fid" : 765,
   "uuid" : "220118cf-f837-4b7b-bdd3-e8c92aa458fd",
   "filesize" : 349698,
   "filemime" : "application/pdf",
   "status" : 1,
   "timestamp" : 1394641812,
   "filename" : "DukePress_Final.pdf",
   "uri" : "public://archives-other/DukePress_Final.pdf",
   "uid" : 13
}
