{
   "filesize" : 5180,
   "fid" : 2459,
   "uuid" : "23cb7742-45b1-4117-9e51-a02ccaa507d9",
   "uri" : "public://users/joshlarkinrowley/medium_Direct Marketing.jpg",
   "uid" : 40,
   "status" : 1,
   "filename" : "medium_Direct Marketing.jpg",
   "timestamp" : 1586964033,
   "filemime" : "image/jpeg"
}
