{
   "filemime" : "application/pdf",
   "uid" : 11,
   "uri" : "public://pdf/FeminineMystique_0.pdf",
   "timestamp" : 1600201549,
   "filename" : "FeminineMystique_0.pdf",
   "status" : 1,
   "filesize" : 445412,
   "fid" : 2582,
   "uuid" : "254ae55f-93b6-41fb-9548-6bc0215d2ca8"
}
