{
   "fid" : 241,
   "uuid" : "255a6130-9a61-42f1-b41c-21e19f620f78",
   "filesize" : 7216,
   "status" : 1,
   "timestamp" : 1377701580,
   "filename" : "2016-Campus-Drive-200px.jpg",
   "uri" : "public://archives-other/2016-Campus-Drive-200px.jpg",
   "uid" : 13,
   "filemime" : "image/jpeg"
}
