{
   "fid" : 14,
   "uuid" : "25e30a89-d9c9-4fb6-90d6-b2c99c3066a9",
   "filesize" : 185025,
   "timestamp" : 1372174759,
   "filename" : "ignatius sancho inside cover.jpg",
   "status" : 1,
   "uri" : "public://users/john.gartrell/ignatius sancho inside cover.jpg",
   "uid" : 17,
   "filemime" : "image/jpeg"
}
