{
   "filemime" : "image/jpeg",
   "uid" : 10,
   "uri" : "public://users/rachel.ingold/5975623216_f932695e81.jpg",
   "filename" : "5975623216_f932695e81.jpg",
   "timestamp" : 1381521932,
   "status" : 1,
   "filesize" : 125396,
   "uuid" : "26288f98-f088-40b4-870b-eee715d39786",
   "fid" : 418
}
