{
   "fid" : 1293,
   "uuid" : "26523273-2d68-41a5-8457-043aaa9c3be9",
   "filesize" : 9272,
   "filemime" : "image/jpeg",
   "timestamp" : 1437075855,
   "filename" : "edens.jpg",
   "status" : 1,
   "uri" : "public://uarchives/edens.jpg",
   "uid" : 13
}
