{
   "status" : 1,
   "filename" : "commencement1910-400px.jpg",
   "timestamp" : 1376415837,
   "uri" : "public://users/MatthewSchaefer/commencement1910-400px.jpg",
   "uid" : 30,
   "filemime" : "image/jpeg",
   "fid" : 118,
   "uuid" : "2758f2e8-5c88-4aad-8cff-0f727433a82f",
   "filesize" : 26727
}
