{
   "uid" : 22,
   "uri" : "public://users/patrick.stawski/large_the_devil_came_on_horseback.jpg",
   "status" : 1,
   "filename" : "large_the_devil_came_on_horseback.jpg",
   "timestamp" : 1391527920,
   "filemime" : "image/jpeg",
   "filesize" : 5332,
   "uuid" : "27fae77f-3b91-4bb8-b176-92652fbd2ec3",
   "fid" : 653
}
