{
   "filesize" : 81897,
   "uuid" : "2a147065-db9d-4a1a-a51d-b71d0fe12f5e",
   "fid" : 265,
   "filemime" : "image/jpeg",
   "uri" : "public://users/MatthewSchaefer/2022-Campus-Drive-500px.jpg",
   "uid" : 30,
   "timestamp" : 1378234872,
   "filename" : "2022-Campus-Drive-500px.jpg",
   "status" : 1
}
