{
   "uuid" : "2a293f20-5042-40b4-8b41-fc39be2cc14a",
   "fid" : 1295,
   "filesize" : 23168,
   "status" : 1,
   "filename" : "edens-quad.jpg",
   "timestamp" : 1437075894,
   "uri" : "public://uarchives/edens-quad.jpg",
   "uid" : 13,
   "filemime" : "image/jpeg"
}
