{
   "filesize" : 135082,
   "fid" : 1241,
   "uuid" : "2a58b386-ff87-4965-8add-298b166076a5",
   "filemime" : "image/jpeg",
   "uid" : 3,
   "uri" : "public://carousel_images/wspu-banner-1909.jpg",
   "timestamp" : 1481745951,
   "filename" : "wspu-banner-1909.jpg",
   "status" : 1
}
