{
   "filesize" : 374620,
   "uuid" : "2afc9a72-a902-4076-bd1a-2e2b4900cce4",
   "fid" : 2521,
   "filemime" : "image/jpeg",
   "uid" : 40,
   "uri" : "public://users/joshlarkinrowley/JWT_Crop.jpg",
   "filename" : "JWT_Crop.jpg",
   "timestamp" : 1587657501,
   "status" : 1
}
