{
   "uuid" : "2bb3e869-6118-4826-82d9-0f1a92ce1d27",
   "fid" : 2117,
   "filesize" : 2951,
   "filemime" : "image/jpeg",
   "filename" : "medium_Biggs Photo.jpg",
   "timestamp" : 1549987516,
   "status" : 1,
   "uid" : 10,
   "uri" : "public://users/rachel.ingold/medium_Biggs Photo.jpg"
}
