{
   "filemime" : "image/jpeg",
   "uid" : 13,
   "uri" : "public://archives-other/bassett-300px.jpg",
   "timestamp" : 1378838229,
   "filename" : "bassett-300px.jpg",
   "status" : 1,
   "filesize" : 13136,
   "uuid" : "2c9baa1a-9d08-460f-b008-aafbd0170de3",
   "fid" : 331
}
