{
   "uid" : 17,
   "uri" : "public://users/john.gartrell/medium_black_against_empire.jpg",
   "status" : 1,
   "filename" : "medium_black_against_empire.jpg",
   "timestamp" : 1389803131,
   "filemime" : "image/jpeg",
   "filesize" : 4209,
   "fid" : 537,
   "uuid" : "2e3502d7-3acc-4294-a276-3f66b97b08f4"
}
