{
   "fid" : 2613,
   "uuid" : "329d5c9a-f017-4bb8-bb62-9d7decb2b436",
   "filesize" : 335394,
   "status" : 1,
   "timestamp" : 1607539521,
   "filename" : "QueeringDuke.pdf",
   "uri" : "public://pdf/QueeringDuke.pdf",
   "uid" : 13,
   "filemime" : "application/pdf"
}
