{
   "uri" : "public://pdf/WomensSuffrage.pdf",
   "uid" : 11,
   "status" : 1,
   "filename" : "WomensSuffrage.pdf",
   "timestamp" : 1601316805,
   "filemime" : "application/pdf",
   "filesize" : 315470,
   "uuid" : "3306fdc0-41f8-44f3-9e42-f0c774017d5a",
   "fid" : 2592
}
