{
   "status" : 1,
   "timestamp" : 1437740329,
   "filename" : "perkins.jpg",
   "uid" : 13,
   "uri" : "public://uarchives/perkins.jpg",
   "filemime" : "image/jpeg",
   "fid" : 1331,
   "uuid" : "348e6460-1ddd-4d62-a380-79f47a41611c",
   "filesize" : 4050
}
