{
   "filemime" : "image/jpeg",
   "uri" : "public://users/patrick.stawski/wamp-cover-large_0.jpg",
   "uid" : 22,
   "filename" : "wamp-cover-large_0.jpg",
   "timestamp" : 1378758717,
   "status" : 1,
   "filesize" : 45565,
   "fid" : 322,
   "uuid" : "34929b94-1df3-4a45-99cf-60811845e292"
}
