{
   "filesize" : 72102,
   "uuid" : "36f69378-add2-4eb6-a97b-4cbb691b1d13",
   "fid" : 263,
   "filemime" : "image/jpeg",
   "uri" : "public://users/MatthewSchaefer/2122-Campus-Drive-500px.jpg",
   "uid" : 30,
   "timestamp" : 1378234304,
   "filename" : "2122-Campus-Drive-500px.jpg",
   "status" : 1
}
