{
   "filemime" : "image/jpeg",
   "uid" : 40,
   "uri" : "public://users/joshlarkinrowley/Wheaton_430.jpg",
   "filename" : "Wheaton_430.jpg",
   "timestamp" : 1392921189,
   "status" : 1,
   "filesize" : 99405,
   "fid" : 681,
   "uuid" : "37ea797e-b2a6-493e-8a0d-9749f16e9165"
}
