{
   "filesize" : 160342,
   "fid" : 1821,
   "uuid" : "3876ddd2-1b21-404e-9b65-7635d3d9a83b",
   "filemime" : "image/jpeg",
   "uid" : 11,
   "uri" : "public://pdf/rl-magazine/RLWinter2017Cover.jpg",
   "filename" : "RLWinter2017Cover.jpg",
   "timestamp" : 1495047460,
   "status" : 1
}
