{
   "filesize" : 7058,
   "fid" : 1049,
   "uuid" : "38b98074-db52-42a5-8248-9d95e9f4c32e",
   "filemime" : "image/jpeg",
   "uri" : "public://users/john.gartrell/large_jonestown2_crop2.jpg",
   "uid" : 17,
   "status" : 1,
   "timestamp" : 1410208561,
   "filename" : "large_jonestown2_crop2.jpg"
}
