{
   "uid" : 3,
   "uri" : "public://carousel_images/marlboro-billboard.jpg",
   "timestamp" : 1378480495,
   "filename" : "marlboro-billboard.jpg",
   "status" : 1,
   "filemime" : "image/jpeg",
   "filesize" : 81166,
   "uuid" : "39513d54-3f2d-492b-8d36-6a69588c26f4",
   "fid" : 299
}
