{
   "filesize" : 9994,
   "fid" : 2393,
   "uuid" : "397dddee-869d-407d-8136-354e9596646e",
   "uri" : "public://users/joshlarkinrowley/large_fc_v26_n1_1.jpg",
   "uid" : 40,
   "timestamp" : 1585683583,
   "filename" : "large_fc_v26_n1_1.jpg",
   "status" : 1,
   "filemime" : "image/jpeg"
}
