{
   "filesize" : 134557,
   "fid" : 2556,
   "uuid" : "39c2489a-bf28-4dde-8baf-addea4af4b20",
   "filemime" : "image/jpeg",
   "uid" : 25,
   "uri" : "public://users/kelly.wooten/SB Reads-FB-Event (003).jpg",
   "timestamp" : 1599166301,
   "filename" : "SB Reads-FB-Event (003).jpg",
   "status" : 1
}
