{
   "filename" : "large_baskin-suffrage-pins.JPG",
   "timestamp" : 1427824925,
   "status" : 1,
   "uid" : 3,
   "uri" : "public://bingham/large_baskin-suffrage-pins.JPG",
   "filemime" : "image/jpeg",
   "uuid" : "3adda831-c699-4c65-9c53-9d5e8e0293e9",
   "fid" : 1191,
   "filesize" : 8148
}
