{
   "filesize" : 28737,
   "fid" : 829,
   "uuid" : "3b8aa3ce-7bf2-489f-a797-b088e042caa0",
   "uri" : "public://users/MatthewSchaefer/Branson_P1_300px.jpg",
   "uid" : 30,
   "filename" : "Branson_P1_300px.jpg",
   "timestamp" : 1396536962,
   "status" : 1,
   "filemime" : "image/jpeg"
}
