{
   "filemime" : "image/jpeg",
   "timestamp" : 1378236552,
   "filename" : "2106-Campus-Drive-500px.jpg",
   "status" : 1,
   "uid" : 30,
   "uri" : "public://users/MatthewSchaefer/2106-Campus-Drive-500px.jpg",
   "uuid" : "3ba98af6-7842-46a9-bb9d-67f5c7907342",
   "fid" : 275,
   "filesize" : 91223
}
