{
   "filemime" : "image/jpeg",
   "status" : 1,
   "timestamp" : 1484082790,
   "filename" : "mustang.jpg",
   "uid" : 40,
   "uri" : "public://users/joshlarkinrowley/mustang.jpg",
   "uuid" : "3bc6bb6c-30fb-4781-ad01-51d23a224298",
   "fid" : 1687,
   "filesize" : 39091
}
