{
   "filemime" : "image/jpeg",
   "uid" : 13,
   "uri" : "public://archives-other/duke_decal-1920s-207px.jpg",
   "filename" : "duke_decal-1920s-207px.jpg",
   "timestamp" : 1381191148,
   "status" : 1,
   "filesize" : 9033,
   "fid" : 369,
   "uuid" : "3dfd4457-7a6a-4784-b7c3-9d8d7caa4e4c"
}
