{
   "uuid" : "3e62b06b-e1f9-4101-876f-f423cfe970fa",
   "fid" : 775,
   "filesize" : 57598,
   "status" : 1,
   "filename" : "Southgate_B1_500px.jpg",
   "timestamp" : 1394732149,
   "uri" : "public://users/MatthewSchaefer/Southgate_B1_500px.jpg",
   "uid" : 30,
   "filemime" : "image/jpeg"
}
