{
   "filesize" : 319133,
   "fid" : 559,
   "uuid" : "3f15973e-725d-489a-9f37-724dbc245619",
   "uid" : 13,
   "uri" : "public://archives-other/dukepremis_0_3.zip",
   "status" : 1,
   "filename" : "dukepremis_0_3.zip",
   "timestamp" : 1389830635,
   "filemime" : "application/zip"
}
