{
   "fid" : 2483,
   "uuid" : "427bf9db-5c57-4ef6-8e3a-c7674fd31fab",
   "filesize" : 62862,
   "filename" : "ROAD BUTTON 2 (Hi-Res).jpg",
   "timestamp" : 1587409238,
   "status" : 1,
   "uri" : "public://users/joshlarkinrowley/ROAD BUTTON 2 (Hi-Res).jpg",
   "uid" : 40,
   "filemime" : "image/jpeg"
}
