{
   "filemime" : "image/jpeg",
   "status" : 1,
   "timestamp" : 1518107312,
   "filename" : "Stacks.jpg",
   "uid" : 137,
   "uri" : "public://uarchives/Stacks.jpg",
   "fid" : 1929,
   "uuid" : "42ba1b41-c580-4c24-9526-a0765a7f5dfd",
   "filesize" : 24135
}
