{
   "filemime" : "image/png",
   "filename" : "covid-carousel.png",
   "timestamp" : 1589485233,
   "status" : 1,
   "uid" : 13,
   "uri" : "public://carousel_images/covid-carousel.png",
   "fid" : 2541,
   "uuid" : "445bf50d-1ff8-4cfb-a11b-861c070198d4",
   "filesize" : 574778
}
