{
   "status" : 1,
   "filename" : "ncmutual.jpg",
   "timestamp" : 1525984015,
   "uid" : 3,
   "uri" : "public://carousel_images/ncmutual.jpg",
   "filemime" : "image/jpeg",
   "uuid" : "45077600-e01b-44bb-a4e1-52adca9cd8e7",
   "fid" : 225,
   "filesize" : 115887
}
