{
   "filemime" : "application/pdf",
   "filename" : "2020-Grant-Application.pdf",
   "timestamp" : 1573138239,
   "status" : 1,
   "uid" : 15,
   "uri" : "public://pdf/2020-Grant-Application.pdf",
   "uuid" : "45f4b84b-a6b3-411f-8a28-1db57e6f46d5",
   "fid" : 2253,
   "filesize" : 524919
}
