{
   "filemime" : "image/jpeg",
   "filename" : "waste_land_ver21.jpg",
   "timestamp" : 1414002263,
   "status" : 1,
   "uid" : 22,
   "uri" : "public://users/patrick.stawski/waste_land_ver21.jpg",
   "fid" : 1075,
   "uuid" : "46531e7b-d4e0-4002-8e21-1b8176615d18",
   "filesize" : 80760
}
