{
   "uid" : 3,
   "uri" : "public://carousel_images/ID-card-1-crop.jpg",
   "filename" : "ID-card-1-crop.jpg",
   "timestamp" : 1481746511,
   "status" : 1,
   "filemime" : "image/jpeg",
   "filesize" : 116349,
   "uuid" : "472aee24-bc63-48f9-af70-b54c378a7891",
   "fid" : 216
}
