{
   "filesize" : 122947,
   "fid" : 1793,
   "uuid" : "47d97400-1107-4aa3-83ce-82531b268d7a",
   "uri" : "public://pictures/Smith.jpg",
   "uid" : 93,
   "status" : 1,
   "timestamp" : 1489520394,
   "filename" : "Smith.jpg",
   "filemime" : "image/jpeg"
}
