{
   "fid" : 1043,
   "uuid" : "4975bebd-cbc7-4cfa-93cc-73704b3c3087",
   "filesize" : 61177,
   "status" : 1,
   "timestamp" : 1410208547,
   "filename" : "Emmett Till_crop2.jpg",
   "uri" : "public://users/john.gartrell/Emmett Till_crop2.jpg",
   "uid" : 17,
   "filemime" : "image/jpeg"
}
