{
   "status" : 1,
   "filename" : "AE Application SUMMER.docx",
   "timestamp" : 1588872533,
   "uid" : 11,
   "uri" : "public://users/kate.collins/AE Application SUMMER.docx",
   "filemime" : "application/vnd.openxmlformats-officedocument.wordprocessingml.document",
   "fid" : 2537,
   "uuid" : "4a0cec22-0af0-47af-89c6-58490413f1c5",
   "filesize" : 18027
}
