{
   "filesize" : 8411,
   "uuid" : "4a3a64f5-db34-4614-b222-523c1c668706",
   "fid" : 230,
   "uid" : 13,
   "uri" : "public://archives-other/2127-Campus-Drive-200px.jpg",
   "status" : 1,
   "filename" : "2127-Campus-Drive-200px.jpg",
   "timestamp" : 1377652708,
   "filemime" : "image/jpeg"
}
