{
   "filesize" : 21435,
   "uuid" : "4a6a6f5b-b2c6-4ae3-9711-c1e595520b79",
   "fid" : 473,
   "filemime" : "image/png",
   "uri" : "public://users/kate.collins/search catalog.png",
   "uid" : 11,
   "status" : 1,
   "timestamp" : 1385061851,
   "filename" : "search catalog.png"
}
