{
   "filemime" : "image/jpeg",
   "timestamp" : 1444940288,
   "filename" : "LarsonShindelman-WorthTheWait_1000.jpg",
   "status" : 1,
   "uid" : 81,
   "uri" : "public://users/lisa.mccarty/LarsonShindelman-WorthTheWait_1000.jpg",
   "uuid" : "4af11550-0ba6-4035-a318-73cdc26ff0a3",
   "fid" : 1415,
   "filesize" : 364095
}
