{
   "status" : 1,
   "filename" : "5-Tully.png",
   "timestamp" : 1545165655,
   "uid" : 81,
   "uri" : "public://users/lisa.mccarty/5-Tully.png",
   "filemime" : "image/png",
   "fid" : 2109,
   "uuid" : "5002bd8a-31bf-4063-b6ad-82cbfc7d3378",
   "filesize" : 186343
}
