{
   "fid" : 333,
   "uuid" : "515f9937-e674-4cde-b77a-4fbce4923a27",
   "filesize" : 1178,
   "filename" : "questionmark.png",
   "timestamp" : 1378846768,
   "status" : 1,
   "uri" : "public://users/kate.collins/questionmark.png",
   "uid" : 11,
   "filemime" : "image/png"
}
