{
   "uri" : "public://users/kimberly.sims/rigsbee-cemetery-250px_0.jpg",
   "uid" : 29,
   "timestamp" : 1377622619,
   "filename" : "rigsbee-cemetery-250px_0.jpg",
   "status" : 1,
   "filemime" : "image/jpeg",
   "filesize" : 159239,
   "uuid" : "51790ac3-13d6-41b8-aff7-7a3652d9e947",
   "fid" : 207
}
