{
   "filesize" : 2089,
   "uuid" : "528a16aa-f1ec-48e4-ae48-46da1b464d7e",
   "fid" : 410,
   "filemime" : "image/png",
   "uri" : "public://users/john.gartrell/t_logo-c.png",
   "uid" : 17,
   "status" : 1,
   "timestamp" : 1381512441,
   "filename" : "t_logo-c.png"
}
