{
   "uuid" : "5392c0fa-1d01-4864-82ce-c42dcb98454e",
   "fid" : 237,
   "filesize" : 6621,
   "filemime" : "image/jpeg",
   "filename" : "2114-Campus-Drive-200px.jpg",
   "timestamp" : 1377701376,
   "status" : 1,
   "uri" : "public://archives-other/2114-Campus-Drive-200px.jpg",
   "uid" : 13
}
