{
   "filemime" : "image/jpeg",
   "filename" : "rcmax2.jpg",
   "timestamp" : 1488390038,
   "status" : 1,
   "uri" : "public://hartman/rcmax2.jpg",
   "uid" : 7,
   "uuid" : "53a42874-32d8-45c0-9591-6042ad446084",
   "fid" : 1749,
   "filesize" : 22662
}
