{
   "uid" : 13,
   "uri" : "public://archives-other/few-250px.jpg",
   "status" : 1,
   "filename" : "few-250px.jpg",
   "timestamp" : 1375745167,
   "filemime" : "image/jpeg",
   "filesize" : 29213,
   "fid" : 57,
   "uuid" : "5424066d-7678-4d6d-94c2-21ae7c5ae1a9"
}
