{
   "uid" : 17,
   "uri" : "public://users/john.gartrell/2016 03 09_SNCCEventFlyer-page-001.jpg",
   "status" : 1,
   "filename" : "2016 03 09_SNCCEventFlyer-page-001.jpg",
   "timestamp" : 1457033395,
   "filemime" : "image/jpeg",
   "filesize" : 175612,
   "uuid" : "547d1461-5bab-4328-9e64-fe5759ebb3a5",
   "fid" : 1511
}
