{
   "uid" : 13,
   "uri" : "public://uarchives/central-construction.jpg",
   "status" : 1,
   "timestamp" : 1576077015,
   "filename" : "central-construction.jpg",
   "filemime" : "image/jpeg",
   "filesize" : 780366,
   "uuid" : "54ccbd98-e6dc-4db4-aaa1-a5a552a753db",
   "fid" : 2275
}
