{
   "filesize" : 399839,
   "fid" : 2133,
   "uuid" : "566580a0-0d58-4462-a98b-b0024af6083b",
   "uri" : "public://carousel_images/Dugan.jpg",
   "uid" : 81,
   "timestamp" : 1551126532,
   "filename" : "Dugan.jpg",
   "status" : 1,
   "filemime" : "image/jpeg"
}
