{
   "filemime" : "image/jpeg",
   "status" : 1,
   "filename" : "large_baskin-bookshelves-schlechter.jpg",
   "timestamp" : 1427825054,
   "uid" : 3,
   "uri" : "public://bingham/large_baskin-bookshelves-schlechter.jpg",
   "uuid" : "5940d736-f21c-4242-817e-b38b007faf3f",
   "fid" : 1203,
   "filesize" : 9524
}
