{
   "filesize" : 3159,
   "uuid" : "595df360-e2c8-496a-9232-03209febbf54",
   "fid" : 2550,
   "uri" : "public://bingham/images/small_Looking Back, Moving Forward-square.jpg",
   "uid" : 15,
   "filename" : "small_Looking Back, Moving Forward-square.jpg",
   "timestamp" : 1596636024,
   "status" : 1,
   "filemime" : "image/jpeg"
}
