{
   "uri" : "public://archives-other/stone-thinker.JPG",
   "uid" : 13,
   "status" : 1,
   "timestamp" : 1389646366,
   "filename" : "stone-thinker.JPG",
   "filemime" : "image/jpeg",
   "filesize" : 10104,
   "uuid" : "5a070e42-8dfc-4e3b-ac01-c3a32da1bcb7",
   "fid" : 533
}
