{
   "filesize" : 124615,
   "fid" : 1645,
   "uuid" : "5a43d783-5837-4c44-b9dd-f6be328a2804",
   "uid" : 10,
   "uri" : "public://users/rachel.ingold/IMG_2575.jpg",
   "status" : 1,
   "timestamp" : 1475245697,
   "filename" : "IMG_2575.jpg",
   "filemime" : "image/jpeg"
}
