{
   "filemime" : "image/jpeg",
   "uid" : 11,
   "uri" : "public://users/kate.collins/small_papyrus1.jpg",
   "timestamp" : 1378847195,
   "filename" : "small_papyrus1.jpg",
   "status" : 1,
   "filesize" : 3547,
   "uuid" : "5a4c1706-4689-4b50-b89b-da1e7f95d051",
   "fid" : 336
}
