{
   "uuid" : "5b4972a2-f088-4b7b-b552-0d8166571c77",
   "fid" : 1359,
   "filesize" : 602483,
   "filename" : "JHFpapers_e3_79china001_crop.jpg",
   "timestamp" : 1440169853,
   "status" : 1,
   "uri" : "public://users/john.gartrell/JHFpapers_e3_79china001_crop.jpg",
   "uid" : 17,
   "filemime" : "image/jpeg"
}
