{
   "status" : 1,
   "filename" : "harris-75.gif",
   "timestamp" : 1393949833,
   "uid" : 11,
   "uri" : "public://users/kate.collins/harris-75.gif",
   "filemime" : "image/gif",
   "fid" : 737,
   "uuid" : "5c1a1e5f-d281-48fb-982d-70b964f97930",
   "filesize" : 6624
}
