{
   "uuid" : "5c47aaa7-3caf-41ab-83f9-f6be61269035",
   "fid" : 406,
   "filesize" : 67136,
   "filemime" : "image/png",
   "status" : 1,
   "filename" : "large_Big Truck.png",
   "timestamp" : 1381497179,
   "uri" : "public://users/patrick.stawski/large_Big Truck.png",
   "uid" : 22
}
