{
   "filesize" : 14491,
   "fid" : 19,
   "uuid" : "5e049ca6-10ad-47b2-9de5-3f850cfdfb30",
   "uri" : "public://users/john.gartrell/franklin_commencement.jpg",
   "uid" : 17,
   "status" : 1,
   "timestamp" : 1372535405,
   "filename" : "franklin_commencement.jpg",
   "filemime" : "image/jpeg"
}
