{
   "uuid" : "5e594b0b-df9a-499f-98b1-a0308fefa642",
   "fid" : 1253,
   "filesize" : 1266837,
   "status" : 1,
   "filename" : "wc-27.pdf",
   "timestamp" : 1433338114,
   "uri" : "public://pdf/womenatthecenter/wc-27.pdf",
   "uid" : 15,
   "filemime" : "application/pdf"
}
