{
   "uri" : "public://bingham/5womenatduke.jpg",
   "uid" : 15,
   "timestamp" : 1472157932,
   "filename" : "5womenatduke.jpg",
   "status" : 1,
   "filemime" : "image/jpeg",
   "filesize" : 19177,
   "fid" : 1621,
   "uuid" : "5f8fd536-763f-4352-ae5f-b84e70c08334"
}
