{
   "filesize" : 165403,
   "uuid" : "621935fe-62b8-4609-9e0a-8f034ab5976c",
   "fid" : 1437,
   "filemime" : "image/jpeg",
   "uri" : "public://users/john.gartrell/JHF Traveling Collage.jpg",
   "uid" : 17,
   "status" : 1,
   "filename" : "JHF Traveling Collage.jpg",
   "timestamp" : 1448293925
}
