{
   "filesize" : 546709,
   "uuid" : "639b9ada-57ad-4bdc-ba0e-fefc3e3d9966",
   "fid" : 62,
   "uri" : "public://hartman/pdf/madmenexh.pdf",
   "uid" : 8,
   "status" : 1,
   "timestamp" : 1375907564,
   "filename" : "madmenexh.pdf",
   "filemime" : "application/pdf"
}
