{
   "filemime" : "image/jpeg",
   "uri" : "public://carousel_images/1-Schwarm_1-Crop.jpg",
   "uid" : 81,
   "status" : 1,
   "timestamp" : 1481746423,
   "filename" : "1-Schwarm_1-Crop.jpg",
   "filesize" : 426407,
   "uuid" : "63e3a746-b2d2-4a6a-b9d1-c52d9d6b7614",
   "fid" : 1137
}
