{
   "fid" : 1167,
   "uuid" : "64ccbe84-623a-48f0-9dbc-15bf38e8bfbc",
   "filesize" : 150318,
   "status" : 1,
   "filename" : "Promote Dialogue, 2003_OlivePierce2.jpg",
   "timestamp" : 1423171145,
   "uri" : "public://users/lisa.mccarty/Promote Dialogue, 2003_OlivePierce2.jpg",
   "uid" : 81,
   "filemime" : "image/jpeg"
}
