{
   "filesize" : 145999,
   "fid" : 1695,
   "uuid" : "65b70b41-416b-4fd6-8199-6623339cf03a",
   "filemime" : "image/jpeg",
   "uri" : "public://users/john.gartrell/Flier_StrongPeopleEvent.jpg",
   "uid" : 17,
   "timestamp" : 1485399505,
   "filename" : "Flier_StrongPeopleEvent.jpg",
   "status" : 1
}
