{
   "fid" : 2451,
   "uuid" : "65c3327b-eb9f-48ed-b2a1-109a4f5424de",
   "filesize" : 4600,
   "filemime" : "image/jpeg",
   "filename" : "medium_JWT_Radio.jpg",
   "timestamp" : 1586963090,
   "status" : 1,
   "uri" : "public://users/joshlarkinrowley/medium_JWT_Radio.jpg",
   "uid" : 40
}
