{
   "uuid" : "66a7f4c5-78c3-4556-8f4a-8bcccd875962",
   "fid" : 2651,
   "filesize" : 8548,
   "status" : 1,
   "timestamp" : 1616003988,
   "filename" : "large_ICTJ0119.jpg",
   "uri" : "public://users/patrick.stawski/large_ICTJ0119.jpg",
   "uid" : 22,
   "filemime" : "image/jpeg"
}
