{
   "uuid" : "66b68ca4-b226-419e-b7c8-97862a6a6a4a",
   "fid" : 1799,
   "filesize" : 16174,
   "filemime" : "image/jpeg",
   "filename" : "wicker.jpg",
   "timestamp" : 1491091806,
   "status" : 1,
   "uri" : "public://uarchives/wicker.jpg",
   "uid" : 13
}
