{
   "filemime" : "image/png",
   "filename" : "appointment_booking_4.png",
   "timestamp" : 1611170590,
   "status" : 1,
   "uid" : 11,
   "uri" : "public://pictures/appointment_booking_4.png",
   "uuid" : "68452a13-b540-45fd-a373-27beb0796b43",
   "fid" : 2627,
   "filesize" : 258719
}
