{
   "uri" : "public://users/kimberly.sims/mace-chain-250px.jpg",
   "uid" : 29,
   "status" : 1,
   "filename" : "mace-chain-250px.jpg",
   "timestamp" : 1377527961,
   "filemime" : "image/jpeg",
   "filesize" : 53680,
   "fid" : 181,
   "uuid" : "687a07e9-de7f-43de-852c-6f8e6756d04f"
}
