{
   "status" : 1,
   "filename" : "medium_SB Reads-FB-Event (004).jpg",
   "timestamp" : 1599166235,
   "uid" : 25,
   "uri" : "public://users/kelly.wooten/medium_SB Reads-FB-Event (004).jpg",
   "filemime" : "image/jpeg",
   "fid" : 2555,
   "uuid" : "68e59d8e-2210-44af-a9bc-5c316e7bb93b",
   "filesize" : 3265
}
