{
   "filesize" : 84983,
   "uuid" : "698b5b71-400d-49d5-aa98-d7756758d77c",
   "fid" : 317,
   "uri" : "public://carousel_images/roder-ad.jpg",
   "uid" : 3,
   "status" : 1,
   "timestamp" : 1512489013,
   "filename" : "roder-ad.jpg",
   "filemime" : "image/jpeg"
}
