{
   "uid" : 11,
   "uri" : "public://users/kirstonjohnson/gedney_1972.jpg",
   "status" : 1,
   "timestamp" : 1381416824,
   "filename" : "gedney_1972.jpg",
   "filemime" : "image/jpeg",
   "filesize" : 125900,
   "uuid" : "6ac09168-d4c0-47cf-b939-063fffd8c8c9",
   "fid" : 399
}
