{
   "fid" : 1789,
   "uuid" : "6b835753-e459-4753-a0ca-883026d6e435",
   "filesize" : 75065,
   "filemime" : "image/jpeg",
   "filename" : "Smith.jpg",
   "timestamp" : 1489410952,
   "status" : 1,
   "uid" : 93,
   "uri" : "public://users/Meghan Lyon/Smith.jpg"
}
