{
   "filesize" : 213469,
   "fid" : 151,
   "uuid" : "6c65c09a-7dad-4c01-ac4b-3b301bebe5d6",
   "uid" : 15,
   "uri" : "public://bingham/Spring2013.jpg",
   "status" : 1,
   "filename" : "Spring2013.jpg",
   "timestamp" : 1377094111,
   "filemime" : "image/jpeg"
}
