{
   "uri" : "public://uarchives/chapel-exhibit.jpg",
   "uid" : 13,
   "status" : 1,
   "filename" : "chapel-exhibit.jpg",
   "timestamp" : 1510608994,
   "filemime" : "image/jpeg",
   "filesize" : 1851,
   "uuid" : "6d93f313-fdca-43bc-b548-7ed08116eedd",
   "fid" : 1903
}
