{
   "filemime" : "image/jpeg",
   "status" : 1,
   "timestamp" : 1375917967,
   "filename" : "general-library-postcard-400px.jpg",
   "uid" : 13,
   "uri" : "public://archives-other/general-library-postcard-400px.jpg",
   "fid" : 64,
   "uuid" : "6ea07db4-3922-404b-8034-103af456ee24",
   "filesize" : 41678
}
