{
   "filesize" : 34492,
   "fid" : 39,
   "uuid" : "7042a962-2765-4e87-8b23-200f7f7de356",
   "uid" : 13,
   "uri" : "public://users/amy.mcdonald/york-1885-250px.jpg",
   "filename" : "york-1885-250px.jpg",
   "timestamp" : 1374162365,
   "status" : 1,
   "filemime" : "image/jpeg"
}
