{
   "status" : 1,
   "timestamp" : 1616004088,
   "filename" : "large_ICTJ0123.jpg",
   "uri" : "public://users/patrick.stawski/large_ICTJ0123.jpg",
   "uid" : 22,
   "filemime" : "image/jpeg",
   "uuid" : "704d061c-7cb1-44f9-b02c-239d625644e0",
   "fid" : 2653,
   "filesize" : 8111
}
