{
   "filemime" : "image/jpeg",
   "status" : 1,
   "timestamp" : 1506956044,
   "filename" : "AAA7555.jpg",
   "uid" : 3,
   "uri" : "public://carousel_images/AAA7555.jpg",
   "fid" : 1877,
   "uuid" : "71193cc0-1608-496d-9551-567a61976106",
   "filesize" : 197720
}
