{
   "timestamp" : 1506956044,
   "filename" : "BBB5007.jpg",
   "status" : 1,
   "uri" : "public://carousel_images/BBB5007.jpg",
   "uid" : 3,
   "filemime" : "image/jpeg",
   "uuid" : "72061c2a-c46c-4c46-bbd2-0b87e19585e1",
   "fid" : 1867,
   "filesize" : 106472
}
