{
   "filesize" : 7136,
   "uuid" : "72e458c4-a0f4-4aeb-a869-0646c79b9caf",
   "fid" : 691,
   "uid" : 11,
   "uri" : "public://users/kate.collins/renovation.jpg",
   "status" : 1,
   "filename" : "renovation.jpg",
   "timestamp" : 1392948808,
   "filemime" : "image/jpeg"
}
