{
   "filesize" : 15706,
   "fid" : 24,
   "uuid" : "7323cfd4-15ea-4191-a84c-4c5d6f4ddc3e",
   "uid" : 13,
   "uri" : "public://users/amy.mcdonald/TCHS_thumbnail.jpg",
   "status" : 1,
   "filename" : "TCHS_thumbnail.jpg",
   "timestamp" : 1373645524,
   "filemime" : "image/jpeg"
}
