{
   "fid" : 2385,
   "uuid" : "73f45342-2022-4926-8456-4a0b3f42f124",
   "filesize" : 10047,
   "timestamp" : 1585677935,
   "filename" : "large_fc_v26_n1_0.jpg",
   "status" : 1,
   "uri" : "public://users/joshlarkinrowley/large_fc_v26_n1_0.jpg",
   "uid" : 40,
   "filemime" : "image/jpeg"
}
