{
   "filesize" : 124124,
   "fid" : 1409,
   "uuid" : "7574d6fd-8fe7-4001-bf8f-2a6286b9e48c",
   "filemime" : "image/jpeg",
   "uid" : 17,
   "uri" : "public://users/john.gartrell/jhfbc010010130-lrg.jpg",
   "timestamp" : 1444762057,
   "filename" : "jhfbc010010130-lrg.jpg",
   "status" : 1
}
