{
   "status" : 1,
   "filename" : "2106-Campus-Drive-200px.jpg",
   "timestamp" : 1377701426,
   "uri" : "public://archives-other/2106-Campus-Drive-200px.jpg",
   "uid" : 13,
   "filemime" : "image/jpeg",
   "uuid" : "77e28fd4-229e-4575-b64e-2d7950cc73d6",
   "fid" : 238,
   "filesize" : 8120
}
