{
   "uuid" : "7aaee9bd-67be-43cf-9803-f6ac3d4db9cf",
   "fid" : 2519,
   "filesize" : 5039,
   "status" : 1,
   "filename" : "medium_MMA_Crop_1.jpg",
   "timestamp" : 1587655051,
   "uri" : "public://users/joshlarkinrowley/medium_MMA_Crop_1.jpg",
   "uid" : 40,
   "filemime" : "image/jpeg"
}
