{
   "filename" : "Fetter-Soviet market.jpg",
   "timestamp" : 1587502211,
   "status" : 1,
   "uri" : "public://carousel_images/Fetter-Soviet market.jpg",
   "uid" : 89,
   "filemime" : "image/jpeg",
   "uuid" : "7b157413-d1de-4bc0-8dbd-d65d31caab95",
   "fid" : 2487,
   "filesize" : 232228
}
