{
   "uuid" : "7d6e90e0-a0c4-4e92-ae38-c7ef2ebbc827",
   "fid" : 324,
   "filesize" : 19451,
   "filemime" : "image/jpeg",
   "status" : 1,
   "filename" : "peewee.jpg",
   "timestamp" : 1378775829,
   "uri" : "public://users/kate.collins/peewee.jpg",
   "uid" : 11
}
