{
   "filesize" : 4557,
   "uuid" : "7f775f11-17a1-4fea-a8f3-aa706f3b8741",
   "fid" : 292,
   "filemime" : "image/jpeg",
   "uri" : "public://users/kate.collins/medium_hartman2.jpg",
   "uid" : 11,
   "timestamp" : 1378313224,
   "filename" : "medium_hartman2.jpg",
   "status" : 1
}
