{
   "filesize" : 431810,
   "uuid" : "800b8112-18f6-46ac-872d-dcd0ea7d7845",
   "fid" : 2542,
   "filemime" : "application/pdf",
   "uri" : "public://uarchives/ManagingElectronicRecords6-2-2020.pdf",
   "uid" : 137,
   "timestamp" : 1592336787,
   "filename" : "ManagingElectronicRecords6-2-2020.pdf",
   "status" : 1
}
