{
   "uri" : "public://carousel_images/175th.jpg",
   "uid" : 3,
   "filename" : "175th.jpg",
   "timestamp" : 1589485233,
   "status" : 1,
   "filemime" : "image/jpeg",
   "filesize" : 133320,
   "fid" : 222,
   "uuid" : "825bd72f-89c7-4ad0-bfea-7dc6951610a1"
}
