{
   "filemime" : "image/png",
   "uid" : 81,
   "uri" : "public://users/lisa.mccarty/2-Murff.png",
   "status" : 1,
   "filename" : "2-Murff.png",
   "timestamp" : 1545165642,
   "filesize" : 168642,
   "fid" : 2103,
   "uuid" : "82d9934e-cd1a-4865-8c36-56f3ca03d2e4"
}
