{
   "filename" : "K0028.jpg",
   "timestamp" : 1585745789,
   "status" : 1,
   "uri" : "public://users/joshlarkinrowley/K0028.jpg",
   "uid" : 40,
   "filemime" : "image/jpeg",
   "uuid" : "83d3d0db-28ff-43cd-898b-587dd3697100",
   "fid" : 2401,
   "filesize" : 60786
}
