{
   "status" : 1,
   "filename" : "guide.pdf",
   "timestamp" : 1389823240,
   "uri" : "public://archives-other/guide.pdf",
   "uid" : 13,
   "filemime" : "application/pdf",
   "fid" : 547,
   "uuid" : "843769fc-5ce1-42dd-9b57-702624f7e40b",
   "filesize" : 2104
}
