{
   "fid" : 1553,
   "uuid" : "85d489c3-74d6-4075-825f-b9df744ab2aa",
   "filesize" : 116848,
   "filemime" : "image/jpeg",
   "filename" : "FullSizeRender.jpg",
   "timestamp" : 1461078736,
   "status" : 1,
   "uid" : 10,
   "uri" : "public://users/rachel.ingold/FullSizeRender.jpg"
}
