{
   "filesize" : 20929,
   "uuid" : "86e889c6-da57-4a4e-ad2d-a546e9113c38",
   "fid" : 1755,
   "uid" : 7,
   "uri" : "public://hartman/commodore.gif",
   "status" : 1,
   "timestamp" : 1488390785,
   "filename" : "commodore.gif",
   "filemime" : "image/gif"
}
