{
   "filesize" : 75993,
   "fid" : 2660,
   "uuid" : "877fc147-50d0-4961-93c1-637ffda09fde",
   "filemime" : "image/png",
   "uri" : "public://users/patrick.stawski/large_Attica, it is a right to rebel.png",
   "uid" : 22,
   "timestamp" : 1616014651,
   "filename" : "large_Attica, it is a right to rebel.png",
   "status" : 1
}
