{
   "filesize" : 48647,
   "uuid" : "87b75738-df83-4708-9129-1b19e56336c1",
   "fid" : 303,
   "filemime" : "image/png",
   "uri" : "public://hartman/print.png",
   "uid" : 3,
   "status" : 1,
   "timestamp" : 1378481898,
   "filename" : "print.png"
}
