{
   "filesize" : 91027,
   "uuid" : "88786d98-5d75-4f63-986a-36399180ae7c",
   "fid" : 1273,
   "uid" : 11,
   "uri" : "public://pdf/rl-magazine/RL2015Winter_Cover.jpg",
   "status" : 1,
   "filename" : "RL2015Winter_Cover.jpg",
   "timestamp" : 1436456318,
   "filemime" : "image/jpeg"
}
