{
   "filesize" : 33188,
   "fid" : 2219,
   "uuid" : "8a2b26a0-e716-42fa-8ccb-be7cc7c25f8d",
   "uri" : "public://users/kate.collins/request-reproduction.jpg",
   "uid" : 11,
   "status" : 1,
   "filename" : "request-reproduction.jpg",
   "timestamp" : 1568213090,
   "filemime" : "image/jpeg"
}
