{
   "uri" : "public://users/lisa.mccarty/GiveButton3.jpg",
   "uid" : 81,
   "status" : 1,
   "timestamp" : 1428338457,
   "filename" : "GiveButton3.jpg",
   "filemime" : "image/jpeg",
   "filesize" : 39369,
   "fid" : 1229,
   "uuid" : "8a413c58-7dc0-42da-8d6d-d8f8b014a2c6"
}
