{
   "filemime" : "image/jpeg",
   "status" : 1,
   "filename" : "cameron-250px.jpg",
   "timestamp" : 1374166581,
   "uid" : 13,
   "uri" : "public://users/amy.mcdonald/cameron-250px.jpg",
   "uuid" : "8ae5f21d-5a79-4776-85af-5cb965c4bf14",
   "fid" : 41,
   "filesize" : 38215
}
