{
   "filemime" : "application/pdf",
   "uri" : "public://pdf/FeminineMystique.pdf",
   "uid" : 11,
   "status" : 1,
   "timestamp" : 1600106019,
   "filename" : "FeminineMystique.pdf",
   "filesize" : 445412,
   "uuid" : "8d013a0d-fd7f-47ed-8090-9b274730ea54",
   "fid" : 2579
}
