{
   "timestamp" : 1612288606,
   "filename" : "9693772d-e3d3-478b-8fb9-38b804f59115.jpg",
   "status" : 1,
   "uri" : "public://bingham/images/9693772d-e3d3-478b-8fb9-38b804f59115.jpg",
   "uid" : 15,
   "filemime" : "image/jpeg",
   "fid" : 2637,
   "uuid" : "8f45fbd6-7978-4380-8139-4ed83588a9fb",
   "filesize" : 41900
}
