{
   "filesize" : 26778,
   "uuid" : "9041b297-dff8-46c8-85d6-4dbb1e75a4a3",
   "fid" : 153,
   "uid" : 13,
   "uri" : "public://archives-other/research-guides-172px.jpg",
   "status" : 1,
   "timestamp" : 1377202294,
   "filename" : "research-guides-172px.jpg",
   "filemime" : "image/jpeg"
}
