{
   "uri" : "public://uarchives/release-form-v2021.pdf",
   "uid" : 13,
   "filename" : "release-form-v2021.pdf",
   "timestamp" : 1617058542,
   "status" : 1,
   "filemime" : "application/pdf",
   "filesize" : 134258,
   "uuid" : "9158d00b-cd5c-48bb-8b6c-3a86d9ebc0d9",
   "fid" : 2662
}
