{
   "uri" : "public://confirmation.html",
   "uid" : 8,
   "status" : 1,
   "filename" : "confirmation.html",
   "timestamp" : 1537199107,
   "filemime" : "text/html",
   "filesize" : 1148,
   "fid" : 2053,
   "uuid" : "925ed531-7f43-4fee-87de-78156757ef66"
}
