{
   "uuid" : "927283e7-e5ae-4ffe-b09c-805b08026a70",
   "fid" : 1747,
   "filesize" : 21762,
   "filemime" : "image/jpeg",
   "status" : 1,
   "timestamp" : 1488389994,
   "filename" : "rcmax1.jpg",
   "uid" : 7,
   "uri" : "public://hartman/rcmax1.jpg"
}
