{
   "filesize" : 167,
   "uuid" : "939da5e0-8141-4bdb-9375-54ea78ec6f51",
   "fid" : 623,
   "uid" : 36,
   "uri" : "public://users/stephanie.matthiesen/spacer.gif",
   "status" : 1,
   "filename" : "spacer.gif",
   "timestamp" : 1390409723,
   "filemime" : "image/gif"
}
