{
   "filesize" : 73760,
   "uuid" : "94cf4bf9-862b-4143-8cc3-84386ebddb26",
   "fid" : 2119,
   "filemime" : "image/jpeg",
   "uid" : 10,
   "uri" : "public://users/rachel.ingold/Biggs Photo_0.jpg",
   "status" : 1,
   "filename" : "Biggs Photo_0.jpg",
   "timestamp" : 1549987676
}
