{
   "uuid" : "966c931d-f876-4c8f-bcec-b401d0edfea2",
   "fid" : 869,
   "filesize" : 1195966,
   "timestamp" : 1397225912,
   "filename" : "TransCuba_Allen.png",
   "status" : 1,
   "uri" : "public://users/kelly.wooten/TransCuba_Allen.png",
   "uid" : 15,
   "filemime" : "image/png"
}
