{
   "filesize" : 4723,
   "fid" : 133,
   "uuid" : "96e24cbf-3da5-4e90-a409-f5ef25acccfc",
   "filemime" : "image/jpeg",
   "uid" : 17,
   "uri" : "public://users/john.gartrell/large_franklin_1963.jpg",
   "status" : 1,
   "filename" : "large_franklin_1963.jpg",
   "timestamp" : 1376591880
}
