{
   "uuid" : "98da180d-c3aa-4851-8590-93c2651c2010",
   "fid" : 1287,
   "filesize" : 10266,
   "status" : 1,
   "filename" : "crowell-quad.jpg",
   "timestamp" : 1437073620,
   "uid" : 13,
   "uri" : "public://uarchives/crowell-quad.jpg",
   "filemime" : "image/jpeg"
}
