{
   "filemime" : "image/jpeg",
   "uri" : "public://carousel_images/behindtheveilphoto.jpg",
   "uid" : 3,
   "status" : 1,
   "timestamp" : 1525984015,
   "filename" : "behindtheveilphoto.jpg",
   "filesize" : 77785,
   "uuid" : "9b192348-2b69-47be-bccb-c361c9b7fbf0",
   "fid" : 227
}
