{
   "uuid" : "9bdb5128-aea1-4ac4-adee-cc01c3e94fe9",
   "fid" : 571,
   "filesize" : 31004,
   "filemime" : "image/jpeg",
   "timestamp" : 1389902159,
   "filename" : "carillon-275px.jpg",
   "status" : 1,
   "uid" : 13,
   "uri" : "public://archives-other/carillon-275px.jpg"
}
