{
   "filemime" : "application/vnd.openxmlformats-officedocument.spreadsheetml.sheet",
   "timestamp" : 1440012476,
   "filename" : "murray_comics_index.xlsx",
   "status" : 1,
   "uri" : "public://pdf/murray_comics_index.xlsx",
   "uid" : 11,
   "uuid" : "9c8ca331-402d-42a9-b773-9f47916351ed",
   "fid" : 1357,
   "filesize" : 114473
}
