{
   "filemime" : "image/jpeg",
   "uri" : "public://carousel_images/SLE0013.jpg",
   "uid" : 3,
   "status" : 1,
   "timestamp" : 1506956044,
   "filename" : "SLE0013.jpg",
   "filesize" : 179101,
   "uuid" : "9cad2706-b705-448c-9219-9064daf6c5b2",
   "fid" : 1863
}
