{
   "filemime" : "image/jpeg",
   "status" : 1,
   "timestamp" : 1486595349,
   "filename" : "judy_davis.jpg",
   "uid" : 40,
   "uri" : "public://users/joshlarkinrowley/judy_davis.jpg",
   "uuid" : "9d7bed3e-33a2-461e-adf4-4dff75c5f583",
   "fid" : 1715,
   "filesize" : 9232
}
