{
   "filesize" : 86480,
   "fid" : 1781,
   "uuid" : "9ec594e7-ab4a-40fb-a851-661dc5a6107b",
   "filemime" : "image/jpeg",
   "uid" : 93,
   "uri" : "public://users/Meghan Lyon/TS2017.jpg",
   "status" : 1,
   "filename" : "TS2017.jpg",
   "timestamp" : 1489079392
}
