{
   "filemime" : "image/jpeg",
   "uri" : "public://pictures/research-register.jpg",
   "uid" : 36,
   "status" : 1,
   "filename" : "research-register.jpg",
   "timestamp" : 1381858582,
   "filesize" : 107794,
   "fid" : 461,
   "uuid" : "9ed29606-fd96-4d91-b704-85cf4a59a9c2"
}
