{
   "filemime" : "image/jpeg",
   "status" : 1,
   "filename" : "medium_segrest-portrait.jpg",
   "timestamp" : 1519069396,
   "uri" : "public://bingham/medium_segrest-portrait.jpg",
   "uid" : 15,
   "uuid" : "9fba93a1-e4c8-4e0b-a0f1-a09b1cc25b6c",
   "fid" : 1943,
   "filesize" : 3679
}
