{
   "uri" : "public://users/kate.collins/utriusque-circle-cropped.png",
   "uid" : 11,
   "status" : 1,
   "timestamp" : 1585758274,
   "filename" : "utriusque-circle-cropped.png",
   "filemime" : "image/png",
   "filesize" : 2066097,
   "uuid" : "9fdfc968-da5a-4b6c-9e8e-f8971dda9652",
   "fid" : 2407
}
