{
   "filemime" : "image/jpeg",
   "status" : 1,
   "timestamp" : 1599744596,
   "filename" : "medium_Hannah_O.jpg",
   "uri" : "public://users/patrick.stawski/medium_Hannah_O.jpg",
   "uid" : 22,
   "fid" : 2567,
   "uuid" : "a011b01d-1388-4901-aacc-1d266a750ea9",
   "filesize" : 4098
}
