{
   "uri" : "public://users/maureen.mccormick/duke_w-kilgo1-250px.tif",
   "uid" : 19,
   "status" : 1,
   "timestamp" : 1376323621,
   "filename" : "duke_w-kilgo1-250px.tif",
   "filemime" : "image/tiff",
   "filesize" : 39580,
   "uuid" : "a0c5f749-b526-4b59-9e93-2d1546c73114",
   "fid" : 94
}
