{
   "fid" : 329,
   "uuid" : "a16d932a-4b5b-4223-97b7-14c01a597c5c",
   "filesize" : 38073,
   "filemime" : "image/jpeg",
   "status" : 1,
   "timestamp" : 1378836761,
   "filename" : "meyerpanel_0.jpg",
   "uid" : 22,
   "uri" : "public://users/patrick.stawski/meyerpanel_0.jpg"
}
