{
   "uuid" : "a3c04d6c-295b-4300-a9ad-54fbdba0af6f",
   "fid" : 1283,
   "filesize" : 21138,
   "filemime" : "image/jpeg",
   "timestamp" : 1436898697,
   "filename" : "craven-quad.jpg",
   "status" : 1,
   "uri" : "public://uarchives/craven-quad.jpg",
   "uid" : 13
}
