{
   "filesize" : 165711,
   "fid" : 1615,
   "uuid" : "a3d80e36-75bb-4805-99e2-0fc664715b1c",
   "uri" : "public://bingham/JeanKilbourne_8x8.jpg",
   "uid" : 15,
   "status" : 1,
   "filename" : "JeanKilbourne_8x8.jpg",
   "timestamp" : 1472157278,
   "filemime" : "image/jpeg"
}
