{
   "filesize" : 11411,
   "fid" : 3,
   "uuid" : "a4ff2008-cded-418e-8fb1-bf1e16fe1987",
   "uri" : "public://pictures/creative-library-woman.jpg",
   "uid" : 12,
   "status" : 1,
   "timestamp" : 1371651858,
   "filename" : "creative-library-woman.jpg",
   "filemime" : "image/jpeg"
}
