{
   "fid" : 1245,
   "uuid" : "a53ac408-88a0-49a3-8196-abb3ad03b824",
   "filesize" : 164159,
   "filemime" : "image/jpeg",
   "status" : 1,
   "timestamp" : 1430961534,
   "filename" : "chapel-museum.jpeg",
   "uid" : 13,
   "uri" : "public://uarchives/chapel-museum.jpeg"
}
