{
   "filemime" : "image/jpeg",
   "status" : 1,
   "timestamp" : 1378994370,
   "filename" : "women_unite.jpg",
   "uri" : "public://users/kate.collins/women_unite.jpg",
   "uid" : 11,
   "fid" : 349,
   "uuid" : "a6da83e1-d101-41ee-9194-e604a00e7577",
   "filesize" : 17938
}
