{
   "filesize" : 6398,
   "uuid" : "a7638d03-f549-4eeb-bcb7-4df3532e919c",
   "fid" : 359,
   "filemime" : "image/jpeg",
   "uid" : 13,
   "uri" : "public://archives-other/digitized-collections-175px.jpg",
   "filename" : "digitized-collections-175px.jpg",
   "timestamp" : 1379029572,
   "status" : 1
}
