{
   "filesize" : 3366,
   "fid" : 427,
   "uuid" : "a793782e-3bf4-451f-9e85-5129e735e124",
   "filemime" : "image/jpeg",
   "uid" : 13,
   "uri" : "public://archives-other/unioninst-constitution4-sma.jpg",
   "status" : 1,
   "timestamp" : 1381621292,
   "filename" : "unioninst-constitution4-sma.jpg"
}
