{
   "status" : 1,
   "timestamp" : 1392921340,
   "filename" : "ponds_029.jpg",
   "uri" : "public://users/joshlarkinrowley/ponds_029.jpg",
   "uid" : 40,
   "filemime" : "image/jpeg",
   "uuid" : "a9f54168-7bc5-4feb-aaee-9853a68286d8",
   "fid" : 683,
   "filesize" : 2391
}
