{
   "filemime" : "image/gif",
   "status" : 1,
   "filename" : "belltower-long.gif",
   "timestamp" : 1399569766,
   "uri" : "public://users/MatthewSchaefer/belltower-long.gif",
   "uid" : 30,
   "uuid" : "ab332c6a-529f-42ae-b31e-871a45bb1000",
   "fid" : 923,
   "filesize" : 86157
}
