{
   "filesize" : 24393,
   "fid" : 679,
   "uuid" : "ac1de520-32b3-4b8d-8265-8a998ac81e54",
   "filemime" : "image/jpeg",
   "uid" : 11,
   "uri" : "public://users/kate.collins/Come and Join us Brothers_crop.jpg",
   "status" : 1,
   "timestamp" : 1392755541,
   "filename" : "Come and Join us Brothers_crop.jpg"
}
