{
   "uuid" : "ad3e6fbb-d12d-4d59-893e-058211b35f46",
   "fid" : 969,
   "filesize" : 17062,
   "filemime" : "image/jpeg",
   "filename" : "chanticleer-1912.jpg",
   "timestamp" : 1404350009,
   "status" : 1,
   "uri" : "public://archives-other/chanticleer-1912.jpg",
   "uid" : 13
}
