{
   "fid" : 245,
   "uuid" : "ae95e914-c871-4da7-a357-9621115103a5",
   "filesize" : 17282,
   "filemime" : "image/jpeg",
   "timestamp" : 1378068909,
   "filename" : "chronicle-staff-1910-300px.jpg",
   "status" : 1,
   "uid" : 13,
   "uri" : "public://archives-other/chronicle-staff-1910-300px.jpg"
}
