{
   "filemime" : "application/pdf",
   "uid" : 15,
   "uri" : "public://pdf/womenatthecenter/wc-35.pdf",
   "timestamp" : 1559652665,
   "filename" : "wc-35.pdf",
   "status" : 1,
   "filesize" : 857734,
   "fid" : 2177,
   "uuid" : "aed96154-daee-4c57-8fcd-0ed9aef17d42"
}
