{
   "fid" : 1,
   "uuid" : "b0e19c88-b9a2-491a-b401-80a57f4a5d6e",
   "filesize" : 156016,
   "filename" : "west duke building001.jpg",
   "timestamp" : 1371651722,
   "status" : 1,
   "uid" : 11,
   "uri" : "public://west duke building001.jpg",
   "filemime" : "image/jpeg"
}
