{
   "uid" : 30,
   "uri" : "public://users/MatthewSchaefer/greene_wk-300px.jpg",
   "status" : 1,
   "filename" : "greene_wk-300px.jpg",
   "timestamp" : 1378235401,
   "filemime" : "image/jpeg",
   "filesize" : 31131,
   "fid" : 268,
   "uuid" : "b0fe72b6-3ba0-4cd1-8554-dbf36cbac6b8"
}
