{
   "filemime" : "image/jpeg",
   "uri" : "public://bingham/woodruffjackson.jpg",
   "uid" : 15,
   "status" : 1,
   "filename" : "woodruffjackson.jpg",
   "timestamp" : 1416256022,
   "filesize" : 42906,
   "uuid" : "b1cad5f2-df26-4098-a9b9-318eaa092200",
   "fid" : 1093
}
