{
   "fid" : 2602,
   "uuid" : "b1fbda0b-973a-4971-9b1b-5db426b590eb",
   "filesize" : 15295,
   "filemime" : "image/jpeg",
   "status" : 1,
   "timestamp" : 1602698633,
   "filename" : "votes for women banner thumb.jpg",
   "uid" : 25,
   "uri" : "public://users/laura.micham/votes for women banner thumb.jpg"
}
