{
   "timestamp" : 1440172133,
   "filename" : "Travel Grant Awards Master List Revised_0.pdf",
   "status" : 1,
   "uid" : 17,
   "uri" : "public://users/john.gartrell/Travel Grant Awards Master List Revised_0.pdf",
   "filemime" : "application/pdf",
   "fid" : 1367,
   "uuid" : "b22eae33-65fd-4adc-8566-7d9e03acdc07",
   "filesize" : 192862
}
