{
   "filesize" : 186376,
   "fid" : 1783,
   "uuid" : "b2bf4116-b4e9-473a-96ad-d115d2c8f1ca",
   "filemime" : "image/jpeg",
   "uid" : 93,
   "uri" : "public://users/Meghan Lyon/DSC_3114.jpg",
   "status" : 1,
   "filename" : "DSC_3114.jpg",
   "timestamp" : 1489083390
}
