{
   "uuid" : "b2d8a946-b1c5-452c-b35f-964935e25dd6",
   "fid" : 2523,
   "filesize" : 4206,
   "filemime" : "image/jpeg",
   "timestamp" : 1587657501,
   "filename" : "medium_JWT_Crop.jpg",
   "status" : 1,
   "uri" : "public://users/joshlarkinrowley/medium_JWT_Crop.jpg",
   "uid" : 40
}
