{
   "filemime" : "image/png",
   "status" : 1,
   "timestamp" : 1378846768,
   "filename" : "small_questionmark.png",
   "uid" : 11,
   "uri" : "public://users/kate.collins/small_questionmark.png",
   "fid" : 334,
   "uuid" : "b4d85352-87d6-4880-ad22-d889788bf676",
   "filesize" : 3689
}
