{
   "filemime" : "image/png",
   "timestamp" : 1378481887,
   "filename" : "tv.png",
   "status" : 1,
   "uid" : 3,
   "uri" : "public://hartman/tv.png",
   "uuid" : "b4fccd68-9c95-4157-ae8a-6aaa8fa7bf22",
   "fid" : 301,
   "filesize" : 13214
}
