{
   "fid" : 1315,
   "uuid" : "b5c8bf26-9d86-442a-8268-bf736890008b",
   "filesize" : 20347,
   "filemime" : "image/jpeg",
   "timestamp" : 1437595706,
   "filename" : "gross-hall.jpg",
   "status" : 1,
   "uri" : "public://uarchives/gross-hall.jpg",
   "uid" : 13
}
