{
   "uid" : 11,
   "uri" : "public://users/kate.collins/equation.jpg",
   "filename" : "equation.jpg",
   "timestamp" : 1381358923,
   "status" : 1,
   "filemime" : "image/jpeg",
   "filesize" : 12946,
   "uuid" : "b72588ec-8668-413c-be82-cb14fe02cd41",
   "fid" : 391
}
