{
   "uuid" : "b9b76ae9-622c-4b72-964a-05aa87a9ca8d",
   "fid" : 253,
   "filesize" : 94246,
   "status" : 1,
   "filename" : "2127-Campus-Drive-500px.jpg",
   "timestamp" : 1378231358,
   "uri" : "public://users/MatthewSchaefer/2127-Campus-Drive-500px.jpg",
   "uid" : 30,
   "filemime" : "image/jpeg"
}
