{
   "fid" : 191,
   "uuid" : "b9f772ba-0ed6-422b-87ce-974e1335f183",
   "filesize" : 13174,
   "filename" : "large_burma.jpg_0.JPG",
   "timestamp" : 1377547117,
   "status" : 1,
   "uid" : 22,
   "uri" : "public://users/patrick.stawski/large_burma.jpg_0.JPG",
   "filemime" : "image/jpeg"
}
