{
   "filesize" : 532674,
   "fid" : 1249,
   "uuid" : "bc7d7a1d-feb9-4f48-a018-85c784767b6b",
   "uid" : 15,
   "uri" : "public://pictures/blueprint-banner.jpg",
   "filename" : "blueprint-banner.jpg",
   "timestamp" : 1432756471,
   "status" : 1,
   "filemime" : "image/jpeg"
}
