{
   "filesize" : 8641,
   "fid" : 977,
   "uuid" : "bd1469de-0a90-445f-a9cc-af37f510999e",
   "filemime" : "image/jpeg",
   "uri" : "public://users/john.gartrell/large_nnaji event 1.jpg",
   "uid" : 17,
   "status" : 1,
   "timestamp" : 1405020092,
   "filename" : "large_nnaji event 1.jpg"
}
