{
   "filesize" : 35303,
   "fid" : 1651,
   "uuid" : "bf23b14d-e9b0-48f8-8637-696c9e7ab240",
   "uri" : "public://uarchives/5women.jpg",
   "uid" : 13,
   "status" : 1,
   "timestamp" : 1475451586,
   "filename" : "5women.jpg",
   "filemime" : "image/jpeg"
}
