{
   "filesize" : 23133,
   "fid" : 305,
   "uuid" : "bfbe476e-0beb-4794-9230-b806a9faf9a5",
   "filemime" : "image/png",
   "uri" : "public://hartman/direct.png",
   "uid" : 3,
   "status" : 1,
   "timestamp" : 1378481907,
   "filename" : "direct.png"
}
