{
   "filemime" : "application/vnd.openxmlformats-officedocument.wordprocessingml.document",
   "uid" : 137,
   "uri" : "public://uarchives/Exporting Email from Outlook 2016 for Windows.docx",
   "status" : 1,
   "timestamp" : 1556822387,
   "filename" : "Exporting Email from Outlook 2016 for Windows.docx",
   "filesize" : 429886,
   "uuid" : "c1eef199-41fa-485e-9935-2cf5789c8484",
   "fid" : 2175
}
