{
   "filesize" : 12715,
   "fid" : 1951,
   "uuid" : "c3bb453b-d280-418b-855a-d57387a1d803",
   "uri" : "public://uarchives/MailingCatalogs_0_0.jpg",
   "uid" : 137,
   "status" : 1,
   "filename" : "MailingCatalogs_0_0.jpg",
   "timestamp" : 1519227308,
   "filemime" : "image/jpeg"
}
