{
   "filemime" : "image/jpeg",
   "timestamp" : 1396534068,
   "filename" : "Baldwin_P1_300px.jpg",
   "status" : 1,
   "uid" : 30,
   "uri" : "public://users/MatthewSchaefer/Baldwin_P1_300px.jpg",
   "fid" : 825,
   "uuid" : "c4ef6e4c-ffcc-44b3-bebf-6faeee1408a9",
   "filesize" : 35826
}
