{
   "filesize" : 232213,
   "uuid" : "c5c8aeb5-54f0-482c-b841-03d53cbbcfa4",
   "fid" : 1451,
   "uri" : "public://users/lisa.mccarty/Juke Joint, Camden NC, June 1972 - Alex Harris-web.jpg",
   "uid" : 81,
   "filename" : "Juke Joint, Camden NC, June 1972 - Alex Harris-web.jpg",
   "timestamp" : 1449088790,
   "status" : 1,
   "filemime" : "image/jpeg"
}
