{
   "uuid" : "c682f0c1-79bc-4490-88b7-bd67f2d4a931",
   "fid" : 178,
   "filesize" : 38290,
   "filemime" : "image/jpeg",
   "filename" : "Pres-Few-1910-250px.jpg",
   "timestamp" : 1377527254,
   "status" : 1,
   "uri" : "public://users/kimberly.sims/Pres-Few-1910-250px.jpg",
   "uid" : 29
}
