{
   "filesize" : 37925,
   "fid" : 1967,
   "uuid" : "c6dc1ec1-f3a8-40ba-8748-3797946dbc1c",
   "uri" : "public://uarchives/duke-post-office.jpg",
   "uid" : 13,
   "timestamp" : 1523563709,
   "filename" : "duke-post-office.jpg",
   "status" : 1,
   "filemime" : "image/jpeg"
}
