{
   "filemime" : "image/jpeg",
   "uri" : "public://uarchives/few-list.jpg",
   "uid" : 13,
   "filename" : "few-list.jpg",
   "timestamp" : 1536022432,
   "status" : 1,
   "filesize" : 96036,
   "fid" : 2037,
   "uuid" : "c717d587-e36b-4be7-aef9-8c9410df8788"
}
