{
   "filesize" : 110452,
   "fid" : 1859,
   "uuid" : "c71fe5e9-6580-4790-8262-ed693ee0f1c9",
   "filemime" : "image/jpeg",
   "uid" : 15,
   "uri" : "public://bingham/katemillett-portrait-small.jpg",
   "timestamp" : 1506529440,
   "filename" : "katemillett-portrait-small.jpg",
   "status" : 1
}
