{
   "filesize" : 2839,
   "uuid" : "c7ffa5c3-589d-4bc1-862c-ed4bcf24aa19",
   "fid" : 937,
   "uri" : "public://users/kate.collins/green request button.jpg",
   "uid" : 11,
   "status" : 1,
   "filename" : "green request button.jpg",
   "timestamp" : 1400258685,
   "filemime" : "image/jpeg"
}
