{
   "fid" : 234,
   "uuid" : "c8e02166-a046-4aa6-b1b4-2dbdf6f03c19",
   "filesize" : 7098,
   "filemime" : "image/jpeg",
   "status" : 1,
   "timestamp" : 1377654880,
   "filename" : "2122-Campus-Drive-200px.jpg",
   "uid" : 13,
   "uri" : "public://archives-other/2122-Campus-Drive-200px.jpg"
}
