{
   "filemime" : "image/jpeg",
   "uid" : 15,
   "uri" : "public://users/kelly.wooten/art_awkward6.jpg",
   "status" : 1,
   "filename" : "art_awkward6.jpg",
   "timestamp" : 1375978443,
   "filesize" : 11232,
   "fid" : 76,
   "uuid" : "cd7125ec-d389-4e0f-a477-86bfa82ab90c"
}
