{
   "filemime" : "image/jpeg",
   "uid" : 30,
   "uri" : "public://users/MatthewSchaefer/Brodies_P1_300px.jpg",
   "filename" : "Brodies_P1_300px.jpg",
   "timestamp" : 1396534443,
   "status" : 1,
   "filesize" : 40078,
   "uuid" : "ce26d176-0312-45f9-bd80-57e36e00fa46",
   "fid" : 827
}
