{
   "fid" : 306,
   "uuid" : "ce4ef6a4-9dfa-433c-9d40-d143b13b70a6",
   "filesize" : 23419,
   "filename" : "digital.png",
   "timestamp" : 1378481912,
   "status" : 1,
   "uri" : "public://hartman/digital.png",
   "uid" : 3,
   "filemime" : "image/png"
}
