{
   "filemime" : "image/jpeg",
   "status" : 1,
   "timestamp" : 1377292126,
   "filename" : "AfAm in films_0.jpg",
   "uid" : 17,
   "uri" : "public://users/john.gartrell/AfAm in films_0.jpg",
   "uuid" : "ceff71de-86e7-4028-8f65-9fcd28bdccff",
   "fid" : 166,
   "filesize" : 12491
}
