{
   "fid" : 2615,
   "uuid" : "cfc6c942-8dc5-44b0-a51d-05cce677ccdc",
   "filesize" : 149670,
   "status" : 1,
   "filename" : "WC-38-Cover.jpg",
   "timestamp" : 1608056131,
   "uid" : 15,
   "uri" : "public://pdf/womenatthecenter/WC-38-Cover.jpg",
   "filemime" : "image/jpeg"
}
