{
   "uuid" : "d08bd486-d877-4d5d-87b6-2addc7b8b0bc",
   "fid" : 2113,
   "filesize" : 53248,
   "status" : 1,
   "filename" : "application2019-JS.doc",
   "timestamp" : 1545332547,
   "uid" : 11,
   "uri" : "public://users/kate.collins/application2019-JS.doc",
   "filemime" : "application/msword"
}
