{
   "filesize" : 29946,
   "fid" : 2551,
   "uuid" : "d298dd1a-a17d-4b7c-a674-bc11d78e2520",
   "filemime" : "image/jpeg",
   "uri" : "public://uarchives/chronicle-masthead.jpg",
   "uid" : 13,
   "filename" : "chronicle-masthead.jpg",
   "timestamp" : 1597156048,
   "status" : 1
}
