{
   "fid" : 541,
   "uuid" : "d40a8a6b-314b-4fc6-be94-daae8789fdee",
   "filesize" : 4224,
   "timestamp" : 1389803166,
   "filename" : "medium_nev_nnaji_crop.jpg",
   "status" : 1,
   "uri" : "public://users/john.gartrell/medium_nev_nnaji_crop.jpg",
   "uid" : 17,
   "filemime" : "image/jpeg"
}
