{
   "timestamp" : 1412883345,
   "filename" : "phelpsfund.jpg",
   "status" : 1,
   "uri" : "public://users/kate.collins/phelpsfund.jpg",
   "uid" : 11,
   "filemime" : "image/jpeg",
   "fid" : 1073,
   "uuid" : "d470240c-8a0b-46a6-8d4d-a86f0c763c22",
   "filesize" : 31641
}
