{
   "uid" : 81,
   "uri" : "public://carousel_images/Jeanine Michna-Bales_Horizontal.jpg",
   "timestamp" : 1551126245,
   "filename" : "Jeanine Michna-Bales_Horizontal.jpg",
   "status" : 1,
   "filemime" : "image/jpeg",
   "filesize" : 1036209,
   "fid" : 2137,
   "uuid" : "d495e601-b4b2-449e-be3b-25a7de0574c7"
}
