{
   "filemime" : "image/jpeg",
   "timestamp" : 1410208570,
   "filename" : "large_A Place of our Own2_crop2.jpg",
   "status" : 1,
   "uri" : "public://users/john.gartrell/large_A Place of our Own2_crop2.jpg",
   "uid" : 17,
   "fid" : 1053,
   "uuid" : "d563f801-50bc-4b0f-9d1c-cf52b1e15c7c",
   "filesize" : 10544
}
