{
   "filesize" : 34439,
   "uuid" : "d5be88e9-d489-455c-8ac7-d6f8cf179c83",
   "fid" : 131,
   "filemime" : "image/jpeg",
   "uid" : 19,
   "uri" : "public://users/maureen.mccormick/epworth_inn250px.jpg",
   "filename" : "epworth_inn250px.jpg",
   "timestamp" : 1376511248,
   "status" : 1
}
