{
   "filesize" : 5024,
   "uuid" : "d5ed984f-0016-447b-9fbb-e0ff63166190",
   "fid" : 2403,
   "uri" : "public://users/joshlarkinrowley/medium_K0028.jpg",
   "uid" : 40,
   "filename" : "medium_K0028.jpg",
   "timestamp" : 1585745789,
   "status" : 1,
   "filemime" : "image/jpeg"
}
