{
   "filesize" : 170059,
   "fid" : 1887,
   "uuid" : "d7091360-b00a-4536-9cf5-b297cd7e1c6e",
   "uri" : "public://users/john.gartrell/JHFranklin-10.17.jpg",
   "uid" : 17,
   "timestamp" : 1507649957,
   "filename" : "JHFranklin-10.17.jpg",
   "status" : 1,
   "filemime" : "image/jpeg"
}
