{
   "fid" : 647,
   "uuid" : "d84e0191-f5ea-41be-93d4-882d61d11e7d",
   "filesize" : 20984,
   "status" : 1,
   "filename" : "Dr_E_Halperin.jpg",
   "timestamp" : 1391200525,
   "uri" : "public://users/rachel.ingold/Dr_E_Halperin.jpg",
   "uid" : 10,
   "filemime" : "image/jpeg"
}
