{
   "uuid" : "d8699f95-1ed9-4563-97ef-7fdd42b9bdaa",
   "fid" : 1441,
   "filesize" : 165403,
   "filemime" : "image/jpeg",
   "status" : 1,
   "timestamp" : 1448982303,
   "filename" : "JHF Traveling Collage_0.jpg",
   "uri" : "public://users/john.gartrell/JHF Traveling Collage_0.jpg",
   "uid" : 17
}
