{
   "uuid" : "d93defb0-3cbc-4b6d-9e36-cca4ea227d7a",
   "fid" : 1225,
   "filesize" : 36833,
   "filemime" : "image/jpeg",
   "timestamp" : 1428338114,
   "filename" : "GiveButton.jpg",
   "status" : 1,
   "uri" : "public://users/lisa.mccarty/GiveButton.jpg",
   "uid" : 81
}
