{
   "filesize" : 64931,
   "uuid" : "dbc1c704-8ed0-4958-9c7e-d6db7a2b6b26",
   "fid" : 1565,
   "uri" : "public://users/lisa.mccarty/wendel_white_1024x1024.jpg",
   "uid" : 81,
   "filename" : "wendel_white_1024x1024.jpg",
   "timestamp" : 1466002393,
   "status" : 1,
   "filemime" : "image/jpeg"
}
