{
   "filemime" : "image/jpeg",
   "filename" : "kodak.jpg",
   "timestamp" : 1586958639,
   "status" : 1,
   "uri" : "public://users/joshlarkinrowley/kodak.jpg",
   "uid" : 40,
   "uuid" : "dcc964e2-a5bb-48bc-91ce-b6502c409104",
   "fid" : 2445,
   "filesize" : 316254
}
