{
   "uid" : 81,
   "uri" : "public://carousel_images/Kambli_Me_Orange.jpg",
   "status" : 1,
   "timestamp" : 1551126532,
   "filename" : "Kambli_Me_Orange.jpg",
   "filemime" : "image/jpeg",
   "filesize" : 364189,
   "uuid" : "dcedf67b-a63a-4b32-8507-5656977ce8d1",
   "fid" : 2127
}
