{
   "status" : 1,
   "filename" : "medium_AdViews_2.jpg",
   "timestamp" : 1587652955,
   "uid" : 40,
   "uri" : "public://users/joshlarkinrowley/medium_AdViews_2.jpg",
   "filemime" : "image/jpeg",
   "uuid" : "dd3bb973-af84-46fb-9044-508f9a9567a0",
   "fid" : 2499,
   "filesize" : 4740
}
