{
   "status" : 1,
   "timestamp" : 1377626160,
   "filename" : "2-ivory-crop.jpg",
   "uid" : 3,
   "uri" : "public://carousel_images/2-ivory-crop.jpg",
   "filemime" : "image/jpeg",
   "uuid" : "de9a69f2-ab0c-4247-b6d0-de20719adc68",
   "fid" : 212,
   "filesize" : 89183
}
