{
   "filesize" : 13046,
   "fid" : 10,
   "uuid" : "de9fa557-c2e5-4f08-ae91-9b366282bb8e",
   "uri" : "public://users/kelly.wooten/LoveMyLibrary2.jpg",
   "uid" : 15,
   "timestamp" : 1372172261,
   "filename" : "LoveMyLibrary2.jpg",
   "status" : 1,
   "filemime" : "image/jpeg"
}
