{
   "filesize" : 26964,
   "uuid" : "dea6a705-de0e-4b37-a76e-a542f984427d",
   "fid" : 2201,
   "filemime" : "image/jpeg",
   "uri" : "public://bingham/memoir_of_a_race_traitor_final.jpg",
   "uid" : 15,
   "filename" : "memoir_of_a_race_traitor_final.jpg",
   "timestamp" : 1567708723,
   "status" : 1
}
