{
   "filemime" : "image/jpeg",
   "status" : 1,
   "timestamp" : 1502894230,
   "filename" : "DEBldgCmmte.jpg",
   "uri" : "public://uarchives/DEBldgCmmte.jpg",
   "uid" : 13,
   "fid" : 1847,
   "uuid" : "deb84d44-d39a-40f3-b1a4-72ef63a1d66a",
   "filesize" : 152670
}
