{
   "filesize" : 101399,
   "fid" : 1779,
   "uuid" : "e039da95-5210-4aa3-97a0-e52dd7a5be07",
   "uri" : "public://users/lisa.mccarty/JAMES_LONGLEY_010.JPG",
   "uid" : 81,
   "timestamp" : 1488574384,
   "filename" : "JAMES_LONGLEY_010.JPG",
   "status" : 1,
   "filemime" : "image/jpeg"
}
