{
   "filesize" : 50954,
   "fid" : 715,
   "uuid" : "e103aaac-f92f-4870-8c35-0370fc5f050e",
   "filemime" : "image/jpeg",
   "uid" : 30,
   "uri" : "public://users/MatthewSchaefer/Gilbert_P1_300px.jpg",
   "timestamp" : 1393531441,
   "filename" : "Gilbert_P1_300px.jpg",
   "status" : 1
}
