{
   "filesize" : 3940,
   "fid" : 1543,
   "uuid" : "e2159e33-c627-4866-afe8-c4f9de69f8e6",
   "filemime" : "image/jpeg",
   "uid" : 10,
   "uri" : "public://users/rachel.ingold/medium_nkisinkondi2-1038x576.jpg",
   "status" : 1,
   "timestamp" : 1461002558,
   "filename" : "medium_nkisinkondi2-1038x576.jpg"
}
