{
   "timestamp" : 1394734239,
   "filename" : "Randolph_B1_500px.jpg",
   "status" : 1,
   "uid" : 30,
   "uri" : "public://users/MatthewSchaefer/Randolph_B1_500px.jpg",
   "filemime" : "image/jpeg",
   "uuid" : "e39dc753-cd98-427c-abd6-71388085af3e",
   "fid" : 779,
   "filesize" : 57683
}
