{
   "filemime" : "image/jpeg",
   "uri" : "public://users/maureen.mccormick/wwstadium-aerial.jpg",
   "uid" : 19,
   "filename" : "wwstadium-aerial.jpg",
   "timestamp" : 1376510741,
   "status" : 1,
   "filesize" : 37913,
   "fid" : 127,
   "uuid" : "e49e14a6-e61f-4a8f-ae48-5018cc439a30"
}
