{
   "filesize" : 3594,
   "fid" : 2507,
   "uuid" : "e52016f3-582d-4f8b-b52b-553e07099801",
   "uri" : "public://users/joshlarkinrowley/medium_EAA.jpg",
   "uid" : 40,
   "timestamp" : 1587653379,
   "filename" : "medium_EAA.jpg",
   "status" : 1,
   "filemime" : "image/jpeg"
}
