{
   "filename" : "Dudik.jpg",
   "timestamp" : 1437770598,
   "status" : 1,
   "uid" : 81,
   "uri" : "public://users/lisa.mccarty/Dudik.jpg",
   "filemime" : "image/jpeg",
   "fid" : 1343,
   "uuid" : "e52e723c-43c8-41eb-bf06-acbf9d865c8c",
   "filesize" : 152653
}
