{
   "filesize" : 4165,
   "uuid" : "e6052a28-8ab3-433e-bdd3-42bda4808fbc",
   "fid" : 2447,
   "uid" : 40,
   "uri" : "public://users/joshlarkinrowley/medium_kodak.jpg",
   "status" : 1,
   "filename" : "medium_kodak.jpg",
   "timestamp" : 1586958639,
   "filemime" : "image/jpeg"
}
