{
   "fid" : 891,
   "uuid" : "e65d8fed-80be-4945-8d55-a4699a80a27e",
   "filesize" : 2800,
   "filemime" : "image/jpeg",
   "filename" : "stone-scholar-thumbnail.jpg",
   "timestamp" : 1398873327,
   "status" : 1,
   "uid" : 13,
   "uri" : "public://archives-other/stone-scholar-thumbnail.jpg"
}
