{
   "uid" : 13,
   "uri" : "public://archives-other/cameron-250px.jpg",
   "filename" : "cameron-250px.jpg",
   "timestamp" : 1375743781,
   "status" : 1,
   "filemime" : "image/jpeg",
   "filesize" : 38215,
   "fid" : 54,
   "uuid" : "e769b011-81d0-4741-ab34-37ed13e0624e"
}
