{
   "filesize" : 61625,
   "uuid" : "e85ab0bd-fe3d-4bf6-b2bc-8eb82430eb12",
   "fid" : 863,
   "uri" : "public://users/MatthewSchaefer/Bell_Tower_500px.jpg",
   "uid" : 30,
   "filename" : "Bell_Tower_500px.jpg",
   "timestamp" : 1397140262,
   "status" : 1,
   "filemime" : "image/jpeg"
}
