{
   "uuid" : "e85d5fe6-99ba-4aa6-a727-a835204edc42",
   "fid" : 2594,
   "filesize" : 501305,
   "filename" : "Coming Out Day 2020 flyer.png",
   "timestamp" : 1601325384,
   "status" : 1,
   "uid" : 25,
   "uri" : "public://users/laura.micham/Coming Out Day 2020 flyer.png",
   "filemime" : "image/png"
}
