{
   "status" : 1,
   "filename" : "dforad-icon.jpg",
   "timestamp" : 1576078037,
   "uid" : 13,
   "uri" : "public://uarchives/dforad-icon.jpg",
   "filemime" : "image/jpeg",
   "uuid" : "ecdd5d4b-ba1b-4f02-80d9-6c06d28319dd",
   "fid" : 2277,
   "filesize" : 13008
}
