{
   "status" : 1,
   "filename" : "physanatcrop_4f256e7ff8.jpg",
   "timestamp" : 1381716100,
   "uri" : "public://users/rachel.ingold/physanatcrop_4f256e7ff8.jpg",
   "uid" : 10,
   "filemime" : "image/jpeg",
   "fid" : 443,
   "uuid" : "ed43c751-7bc8-4766-bee1-0dba15d15ea3",
   "filesize" : 455163
}
