{
   "fid" : 491,
   "uuid" : "edc578b8-7d4f-4081-a47e-661c9fc52e31",
   "filesize" : 9489,
   "status" : 1,
   "timestamp" : 1385071044,
   "filename" : "Video Preview - Registering.jpg",
   "uri" : "public://users/kate.collins/Video Preview - Registering.jpg",
   "uid" : 11,
   "filemime" : "image/jpeg"
}
