{
   "filesize" : 5891,
   "uuid" : "ef01ba31-3853-4886-be65-a1129c861c04",
   "fid" : 1305,
   "uid" : 13,
   "uri" : "public://uarchives/flowers.jpg",
   "timestamp" : 1437593905,
   "filename" : "flowers.jpg",
   "status" : 1,
   "filemime" : "image/jpeg"
}
