{
   "fid" : 240,
   "uuid" : "efdf0ddb-48b3-4e8c-89b6-cbc9f756d9d0",
   "filesize" : 6454,
   "filemime" : "image/jpeg",
   "status" : 1,
   "timestamp" : 1377701546,
   "filename" : "2021-Campus-Drive-200px.jpg",
   "uid" : 13,
   "uri" : "public://archives-other/2021-Campus-Drive-200px.jpg"
}
