{
   "uid" : 15,
   "uri" : "public://users/kelly.wooten/bingham18_sisterpowerful.jpg",
   "status" : 1,
   "timestamp" : 1375976191,
   "filename" : "bingham18_sisterpowerful.jpg",
   "filemime" : "image/jpeg",
   "filesize" : 13018,
   "fid" : 71,
   "uuid" : "f0a0216d-2dbf-4aaa-be13-639fc83f2c3e"
}
