{
   "uuid" : "f1f9d8d7-3d93-4c18-a3a3-1286ece8b4ad",
   "fid" : 338,
   "filesize" : 3618,
   "filemime" : "image/jpeg",
   "status" : 1,
   "filename" : "small_german.jpg",
   "timestamp" : 1378847393,
   "uid" : 11,
   "uri" : "public://users/kate.collins/small_german.jpg"
}
