{
   "uuid" : "f3884eba-c2e1-42fd-9e41-9b5200ccf967",
   "fid" : 186,
   "filesize" : 118316,
   "filemime" : "image/jpeg",
   "status" : 1,
   "timestamp" : 1481745951,
   "filename" : "zine-ActionGirl043.jpg",
   "uri" : "public://carousel_images/zine-ActionGirl043.jpg",
   "uid" : 3
}
