{
   "filemime" : "image/jpeg",
   "uri" : "public://users/joshlarkinrowley/fc_v26_n1_1.jpg",
   "uid" : 40,
   "filename" : "fc_v26_n1_1.jpg",
   "timestamp" : 1585683583,
   "status" : 1,
   "filesize" : 239699,
   "fid" : 2391,
   "uuid" : "f5b5dfd2-cfba-43f4-a451-dd419956e2c6"
}
