{
   "filesize" : 20840,
   "fid" : 97,
   "uuid" : "f5e8695c-de6b-4541-80a8-275a98e3abb7",
   "filemime" : "image/jpeg",
   "uri" : "public://users/maureen.mccormick/logo-chanticleer1912-250px.jpg",
   "uid" : 19,
   "status" : 1,
   "timestamp" : 1376329086,
   "filename" : "logo-chanticleer1912-250px.jpg"
}
