{
   "uid" : 13,
   "uri" : "public://archives-other/crowell_1897-250px.jpg",
   "filename" : "crowell_1897-250px.jpg",
   "timestamp" : 1375744940,
   "status" : 1,
   "filemime" : "image/jpeg",
   "filesize" : 29033,
   "uuid" : "f630a828-1af7-4969-980a-961cb5a95c2c",
   "fid" : 56
}
