{
   "filesize" : 147812,
   "uuid" : "f86b51a5-9f1b-443c-aa86-05efadb8aee9",
   "fid" : 979,
   "filemime" : "image/jpeg",
   "uid" : 17,
   "uri" : "public://users/john.gartrell/martin event 4.jpg",
   "filename" : "martin event 4.jpg",
   "timestamp" : 1405020475,
   "status" : 1
}
