{
   "filesize" : 503277,
   "uuid" : "f923441b-5079-47ea-8eaa-38ea5db26076",
   "fid" : 2641,
   "uid" : 10,
   "uri" : "public://users/rachel.ingold/Mental Health Event Poster.png",
   "status" : 1,
   "filename" : "Mental Health Event Poster.png",
   "timestamp" : 1613072809,
   "filemime" : "image/png"
}
