{
   "filemime" : "image/jpeg",
   "uri" : "public://users/MatthewSchaefer/Alspaugh_B2_500px.jpg",
   "uid" : 30,
   "status" : 1,
   "timestamp" : 1393527696,
   "filename" : "Alspaugh_B2_500px.jpg",
   "filesize" : 54847,
   "fid" : 701,
   "uuid" : "fa48f1a6-0fad-4203-88ea-4c4a50770adf"
}
