{
   "filesize" : 128406,
   "fid" : 364,
   "uuid" : "fa60a91e-a5ea-4e84-8b10-408c4be3cfdf",
   "filemime" : "image/jpeg",
   "uid" : 17,
   "uri" : "public://users/john.gartrell/the mutual 1923 1929_2_p1.jpg",
   "status" : 1,
   "filename" : "the mutual 1923 1929_2_p1.jpg",
   "timestamp" : 1379084964
}
