{
   "filemime" : "image/jpeg",
   "uid" : 10,
   "uri" : "public://users/rachel.ingold/'17 (July) portrait TLS.JPG",
   "status" : 1,
   "timestamp" : 1505418952,
   "filename" : "'17 (July) portrait TLS.JPG",
   "filesize" : 113659,
   "uuid" : "fe3f517f-94ee-4f31-bbc5-039e585830ee",
   "fid" : 1853
}
