{
   "filesize" : 5012,
   "fid" : 1185,
   "uuid" : "ff1f7aa6-1f7b-4602-8e76-330f150d5fef",
   "filemime" : "image/jpeg",
   "uri" : "public://users/patrick.stawski/large_davidtolbert.jpg",
   "uid" : 22,
   "timestamp" : 1426255937,
   "filename" : "large_davidtolbert.jpg",
   "status" : 1
}
