{
   "langcode" : "und",
   "type" : "about_lilly_library_page",
   "revisions" : [
      {
         "field_revision" : {
            "created" : null,
            "sticky" : 0,
            "title" : "Rock 'n Roll Movies",
            "revision_translation_affected" : 1,
            "default_langcode" : 1,
            "status" : 1,
            "uid" : 1,
            "changed" : null,
            "langcode" : null
         },
         "uid" : 3,
         "timestamp" : 1507576498,
         "log" : "",
         "status" : 1,
         "comment" : 1,
         "node_revision__body" : {
            "langcode" : "und",
            "body_value" : "<p align=\"justify\"><strong><a href=\"https://search.library.duke.edu/search?id=DUKE003906157\">A Hard Days Night</a> -</strong> A lively, good-natured spoof of \"Beatlemania\" portraying a frantic 36 hours in the lives of the rock group. <strong>(DVD 9370)</strong></p><p align=\"justify\"><strong><a href=\"https://search.library.duke.edu/search?id=DUKE003973681\">American Pop</a> -</strong> The story of four generations whose lives revolve around the beat of American popular music. The story is told in animation with songs by The Doors, Janis Joplin, Jimi Hendrix, Pat Benatar and Lou Reed among others. Directed by Ralph Bakshi.&nbsp;<strong>(DVD 11326)</strong></p><p align=\"justify\"><strong><a href=\"https://search.library.duke.edu/search?id=DUKE003851536\">Why Should the Devil Have All the Good Music?</a> -</strong> Filmmakers Vickie Hunter and Heather Whinna explore the artistic, religious and cultural impact of the growing Christian rock movement. They speak to musicians, critics and fans from both the Christian and secular music scenes. <strong>(DVD 8179)</strong></p><p align=\"justify\"><strong><a href=\"https://search.library.duke.edu/search?id=DUKE003483704\">Stop Making Sense</a> -</strong> This Talking Heads&nbsp;documentary was filmed&nbsp;during a three-day concert gig at the Pantages Theater in Hollywood. One never gets the feeling of by-the-numbers repetition; the group's energy is such that it virtually explodes from the screen. <strong>(DVD 4787)</strong></p><p align=\"justify\"><strong><a href=\"https://search.library.duke.edu/search?id=DUKE003068773\">Gimme Shelter</a> -</strong> Film of the Rolling Stones' infamous concert at Altamont Speedway in California, in which the Hell's Angels biker gang acted as security and proceeded to brutalize the spectators, leading to many injuries and one death. <strong>(DVD 614)</strong></p><p align=\"justify\"><strong><a href=\"https://search.library.duke.edu/search?id=DUKE003243601\">24 Hour Party People</a>&nbsp;-</strong> Follow the rise, fall and rise again of promoter Tony Wilson and the wild rave culture he brought to England and the rest of the world. Pulsates with the rhythmic energy from the post punk movement through the evolution of rave music. <strong>(DVD 2337)</strong></p><p align=\"justify\"><strong><a href=\"https://search.library.duke.edu/search?id=DUKE003039471\">Woodstock</a> -</strong> This documentary film captures the unique communal experience and many of the performances of the most famous of outdoor rock concerts. <strong>(DVD 433)</strong></p><p align=\"justify\"><strong><a href=\"https://search.library.duke.edu/search?id=DUKE003851379\">New York Doll</a> -</strong> Documents the reunion of Arthur \"Killer\" Kane and other members of the 70s glam rock band The New York Dolls for a performance at the 2004 Meltown Festival. <strong>(DVD 8160)</strong></p><p align=\"justify\"><strong><a href=\"https://search.library.duke.edu/search?id=DUKE003818139\">The Rocky Horror Picture Show</a> -</strong> A mixture of fantastical rock opera and horror movie spoof. A couple of ordinary kids have car trouble one dark and rainy night and knock on the door of a looming gothic mansion. <strong>(DVD 7299)</strong></p><p align=\"justify\"><strong><a href=\"https://search.library.duke.edu/search?id=DUKE003956600\">The Rose</a> -</strong> Presents the life of a hard-living, burned-out rock performer who badly needs a rest. When her ruthless manager won't give her one, she sets off on a self-destructive binge. Starring Bette Midler.&nbsp;<strong>(DVD 11090)</strong></p><p align=\"justify\"><strong><a href=\"https://search.library.duke.edu/search?id=DUKE003260006\">Almost Famous</a> -</strong> It's the opportunity of a lifetime when teenage reporter William Miller lands an assignment from Rolling Stone magazine. Despite the objections of his protective mother, William hits the road with an up-and-coming rock band and finds there's a lot more to write home about than the music. <strong>(DVD 2548)</strong></p><p align=\"justify\"><strong><a href=\"https://search.library.duke.edu/search?id=DUKE004092177\">Jailhouse Rock</a> -</strong> An inmate learns guitar from his cellmate, then gets an agent and turns rock 'n' roll star. Starring Elvis Presley. <strong>(DVD 13033)</strong></p><p align=\"justify\"><strong><a href=\"https://search.library.duke.edu/search?id=DUKE003199202\">The Doors</a> -</strong> Biographical film about one of the most exciting and controversial figures of the '60s, Jim Morrison. With his rock and roll band, The Doors, he influenced the rock music scene as no other group had. <strong>(DVD 1808)</strong></p><p align=\"justify\"><strong><a href=\"https://search.library.duke.edu/search?id=DUKE003846831\">The Devil and Daniel Johnson</a> -</strong> The turbulent life of a genius musician battling manic depression. A favorite with artists such as Sonic Youth, Nirvana, Beck, and many others, view the singer-songwriter-artist through his art and interviews, and in the eyes of his fans. <strong>(DVD 7874)</strong></p>",
            "deleted" : 0,
            "delta" : 0,
            "bundle" : "about_lilly_library_page",
            "body_format" : "full_html",
            "entity_id" : 80,
            "revision_id" : 2709,
            "body_summary" : ""
         },
         "vuuid" : "e23a04fd-c0c7-4ffc-836d-89a5c08535da",
         "promote" : 0,
         "node_revision__field_tags" : [],
         "sticky" : 0,
         "title" : "Rock 'n Roll Movies"
      }
   ],
   "path_alias" : {
      "language" : "und",
      "pid" : 97,
      "langcode" : "und",
      "status" : 0,
      "alias" : "/lilly/film-video/spotlight/archives/rock-and-roll"
   },
   "vid" : 2709,
   "asidebox" : {
      "bid" : null,
      "block_delta" : null,
      "body_title" : "",
      "vid" : 2709,
      "nid" : 80,
      "block_module" : null,
      "body_format" : "full_html",
      "body_value" : "<p style=\"text-align: center;\"><em><img src=\"/east/sites/default/files/east/lilly-video-images/american-pop1_0.jpg\" alt=\"american-pop\" width=\"200\" height=\"153\"></em><br><em>American Pop</em></p><p style=\"text-align: center;\"><em><img src=\"/east/sites/default/files/east/lilly-video-images/why_should_the_devil_0.jpg\" alt=\"why-should-the-devil\" width=\"200\" height=\"150\"></em><br><em>Why Should the Devil Have All the Good Music?</em></p><p style=\"text-align: center;\"><em><img src=\"/east/sites/default/files/east/lilly-video-images/woodstock1_0.jpg\" alt=\"woodstock\" width=\"200\" height=\"138\"></em><br><em>Woodstock</em></p><p style=\"text-align: center;\"><em><img src=\"/east/sites/default/files/east/lilly-video-images/rocky_horror_0.png\" alt=\"rocky-horrror-picture-show\" width=\"200\" height=\"136\"></em><br><em>The Rocky Horror Picture Show</em></p><p style=\"text-align: center;\"><em><img src=\"/east/sites/default/files/east/lilly-video-images/almost_famous_0.jpg\" alt=\"almost-famous\" width=\"200\" height=\"155\"></em><br><em>Almost Famous</em></p>",
      "status" : "html"
   },
   "node_field_data" : {
      "changed" : null,
      "langcode" : "und",
      "status" : 1,
      "type" : "about_lilly_library_page",
      "created" : 1374495068,
      "promote" : 0,
      "sticky" : 0,
      "title" : "Rock 'n Roll Movies",
      "uid" : 1,
      "default_langcode" : 1,
      "revision_translation_affected" : 1
   },
   "node__body" : {
      "body_summary" : "",
      "revision_id" : 2709,
      "entity_id" : 80,
      "body_format" : "full_html",
      "bundle" : "about_lilly_library_page",
      "delta" : 0,
      "deleted" : 0,
      "langcode" : "und",
      "body_value" : "<p align=\"justify\"><strong><a href=\"https://search.library.duke.edu/search?id=DUKE003906157\">A Hard Days Night</a> -</strong> A lively, good-natured spoof of \"Beatlemania\" portraying a frantic 36 hours in the lives of the rock group. <strong>(DVD 9370)</strong></p><p align=\"justify\"><strong><a href=\"https://search.library.duke.edu/search?id=DUKE003973681\">American Pop</a> -</strong> The story of four generations whose lives revolve around the beat of American popular music. The story is told in animation with songs by The Doors, Janis Joplin, Jimi Hendrix, Pat Benatar and Lou Reed among others. Directed by Ralph Bakshi.&nbsp;<strong>(DVD 11326)</strong></p><p align=\"justify\"><strong><a href=\"https://search.library.duke.edu/search?id=DUKE003851536\">Why Should the Devil Have All the Good Music?</a> -</strong> Filmmakers Vickie Hunter and Heather Whinna explore the artistic, religious and cultural impact of the growing Christian rock movement. They speak to musicians, critics and fans from both the Christian and secular music scenes. <strong>(DVD 8179)</strong></p><p align=\"justify\"><strong><a href=\"https://search.library.duke.edu/search?id=DUKE003483704\">Stop Making Sense</a> -</strong> This Talking Heads&nbsp;documentary was filmed&nbsp;during a three-day concert gig at the Pantages Theater in Hollywood. One never gets the feeling of by-the-numbers repetition; the group's energy is such that it virtually explodes from the screen. <strong>(DVD 4787)</strong></p><p align=\"justify\"><strong><a href=\"https://search.library.duke.edu/search?id=DUKE003068773\">Gimme Shelter</a> -</strong> Film of the Rolling Stones' infamous concert at Altamont Speedway in California, in which the Hell's Angels biker gang acted as security and proceeded to brutalize the spectators, leading to many injuries and one death. <strong>(DVD 614)</strong></p><p align=\"justify\"><strong><a href=\"https://search.library.duke.edu/search?id=DUKE003243601\">24 Hour Party People</a>&nbsp;-</strong> Follow the rise, fall and rise again of promoter Tony Wilson and the wild rave culture he brought to England and the rest of the world. Pulsates with the rhythmic energy from the post punk movement through the evolution of rave music. <strong>(DVD 2337)</strong></p><p align=\"justify\"><strong><a href=\"https://search.library.duke.edu/search?id=DUKE003039471\">Woodstock</a> -</strong> This documentary film captures the unique communal experience and many of the performances of the most famous of outdoor rock concerts. <strong>(DVD 433)</strong></p><p align=\"justify\"><strong><a href=\"https://search.library.duke.edu/search?id=DUKE003851379\">New York Doll</a> -</strong> Documents the reunion of Arthur \"Killer\" Kane and other members of the 70s glam rock band The New York Dolls for a performance at the 2004 Meltown Festival. <strong>(DVD 8160)</strong></p><p align=\"justify\"><strong><a href=\"https://search.library.duke.edu/search?id=DUKE003818139\">The Rocky Horror Picture Show</a> -</strong> A mixture of fantastical rock opera and horror movie spoof. A couple of ordinary kids have car trouble one dark and rainy night and knock on the door of a looming gothic mansion. <strong>(DVD 7299)</strong></p><p align=\"justify\"><strong><a href=\"https://search.library.duke.edu/search?id=DUKE003956600\">The Rose</a> -</strong> Presents the life of a hard-living, burned-out rock performer who badly needs a rest. When her ruthless manager won't give her one, she sets off on a self-destructive binge. Starring Bette Midler.&nbsp;<strong>(DVD 11090)</strong></p><p align=\"justify\"><strong><a href=\"https://search.library.duke.edu/search?id=DUKE003260006\">Almost Famous</a> -</strong> It's the opportunity of a lifetime when teenage reporter William Miller lands an assignment from Rolling Stone magazine. Despite the objections of his protective mother, William hits the road with an up-and-coming rock band and finds there's a lot more to write home about than the music. <strong>(DVD 2548)</strong></p><p align=\"justify\"><strong><a href=\"https://search.library.duke.edu/search?id=DUKE004092177\">Jailhouse Rock</a> -</strong> An inmate learns guitar from his cellmate, then gets an agent and turns rock 'n' roll star. Starring Elvis Presley. <strong>(DVD 13033)</strong></p><p align=\"justify\"><strong><a href=\"https://search.library.duke.edu/search?id=DUKE003199202\">The Doors</a> -</strong> Biographical film about one of the most exciting and controversial figures of the '60s, Jim Morrison. With his rock and roll band, The Doors, he influenced the rock music scene as no other group had. <strong>(DVD 1808)</strong></p><p align=\"justify\"><strong><a href=\"https://search.library.duke.edu/search?id=DUKE003846831\">The Devil and Daniel Johnson</a> -</strong> The turbulent life of a genius musician battling manic depression. A favorite with artists such as Sonic Youth, Nirvana, Beck, and many others, view the singer-songwriter-artist through his art and interviews, and in the eyes of his fans. <strong>(DVD 7874)</strong></p>"
   },
   "field_image" : null,
   "node_access" : null,
   "field_tags" : [],
   "uuid" : "020e6f4f-ca47-431a-8806-6c634503c7e7",
   "nid" : "80"
}

