{
   "nid" : "99",
   "uuid" : "14cc57eb-9ef1-4a54-bcb1-f5a3f791ef99",
   "field_tags" : [],
   "node_access" : null,
   "field_image" : null,
   "node__body" : {
      "langcode" : "und",
      "body_value" : "<table style=\"width: 1282px; height: 444px;\" border=\"0\"><tbody><tr><td>&nbsp;</td><td><strong>Duke Faculty</strong></td><td><strong>Duke Staff</strong></td><td><strong>Duke Graduate Students</strong></td><td><strong>Duke Undergraduates</strong></td><td><strong>Duke Alumni / Employees' Family / Visitors</strong>+</td><td><strong>TRLN</strong>^</td><td><strong>UNC Faculty / Staff / Graduate Students</strong></td></tr><tr><td><strong>Reserves</strong></td><td>&nbsp;3 hours**</td><td>&nbsp;3 hours</td><td>&nbsp;3 hours</td><td>&nbsp;3 hours</td><td>&nbsp;in -library use</td><td>&nbsp;in -library use</td><td>&nbsp;in -library use</td></tr><tr><td><strong>Books &amp; Scores</strong></td><td>&nbsp;Annual loan, due end of May</td><td>&nbsp;4 weeks</td><td>&nbsp; Annual loan, due end of May</td><td>&nbsp;4 weeks</td><td>&nbsp;4 weeks</td><td>&nbsp;4 weeks</td><td>&nbsp;Semester loan, due at end of semester</td></tr><tr><td><strong>Reference Books</strong></td><td>&nbsp;in -library use**</td><td>&nbsp; in -library use</td><td>&nbsp;in -library use**</td><td>&nbsp; in -library use</td><td>&nbsp; in -library use</td><td>&nbsp; in -library use</td><td>&nbsp; in -library use</td></tr><tr><td><strong>Vault Items</strong></td><td>in -library use**</td><td>&nbsp; in -library use</td><td>&nbsp;in -library use**</td><td>&nbsp; in -library use</td><td>&nbsp; in -library use</td><td>&nbsp; in -library use</td><td>&nbsp; in -library use</td></tr><tr><td><strong>Scholarly Editions</strong></td><td>&nbsp;3 days**</td><td>&nbsp; 3 days</td><td>&nbsp; 3 days**</td><td>&nbsp; 3 days</td><td>&nbsp; in -library use</td><td>&nbsp; in -library use</td><td>&nbsp; in -library use</td></tr><tr><td><strong>Journals</strong></td><td>&nbsp;in -library use**</td><td>&nbsp; in -library use</td><td>&nbsp;in -library use**</td><td>&nbsp; in -library use</td><td>&nbsp; in -library use</td><td>&nbsp; in -library use</td><td>&nbsp; in -library use</td></tr><tr><td><strong>CDs &amp; DVDs</strong></td><td>&nbsp; Annual loan, due end of May</td><td><p>&nbsp;4 weeks (CD)</p><p>1 week (DVD)</p></td><td>&nbsp; Annual loan, due end of May</td><td><p>&nbsp;4 weeks (CD)</p><p>1 week (DVD)</p></td><td>&nbsp; in -library use*</td><td>&nbsp; in -library use*</td><td>&nbsp; in -library use*</td></tr><tr><td><strong>LPs &amp; Laserdiscs</strong></td><td>&nbsp;4 weeks</td><td>&nbsp;4 weeks</td><td>&nbsp;4 weeks</td><td>&nbsp;4 weeks</td><td>&nbsp;4 weeks</td><td>&nbsp;4 weeks</td><td>&nbsp;4 weeks</td></tr><tr><td><strong>Microforms</strong></td><td>&nbsp;Annual loan, due end of May</td><td>&nbsp;1 week</td><td>&nbsp;Annual loan, due end of May</td><td>&nbsp;1 week</td><td>&nbsp;1 day</td><td>&nbsp;in -library use</td><td>&nbsp;in -library use</td></tr><tr><td><strong>CD-ROMs</strong></td><td>&nbsp;Annual loan, due end of May</td><td>&nbsp;1 week</td><td>&nbsp;Annual loan, due end of May</td><td>&nbsp;1 week</td><td>&nbsp;in -library use*</td><td>&nbsp;in -library use*</td><td>&nbsp;in -library use</td></tr></tbody></table><p>* 3 item, 3 hour limit</p><p>** Need this longer for classroom use, preparation for teaching, or research?&nbsp; Contact <a href=\"mailto:laura.williams@duke.edu\">Laura Williams</a>, <a href=\"mailto:sarah.griffin@duke.edu\">Sarah Griffin</a>, or <a href=\"mailto:nathaniel.brown@duke.edu\">Nathaniel Brown</a>.&nbsp; Reserve materials borrowed less than 3 hours prior to closing are due back 1 hour after opening the next business day.</p><p>+Duke University alumni, Employees' immediate family members, and visitors to campus are welcome to use the Music Library.&nbsp; If you wish to borrow books and/or scores, you must <a href=\"using/borrow-renew-request\">register for a library account</a> (fees may apply) at the Perkins Library Service Desk or the Lilly Library Service Desk.&nbsp; Media items (and some other collections) must be used in-house.</p><p>^TRLN comprises the complete student bodies, faculty, and staff of North Carolina Central University and North Carolina State University, as well as the undergraduates of the University of North Carolina at Chapel Hill.</p>",
      "deleted" : 0,
      "delta" : 0,
      "bundle" : "music_library_page",
      "body_format" : "full_html",
      "entity_id" : 99,
      "revision_id" : 661,
      "body_summary" : ""
   },
   "node_field_data" : {
      "created" : 1376332107,
      "promote" : 0,
      "title" : "Music Library Loan Periods",
      "sticky" : 0,
      "changed" : null,
      "langcode" : "und",
      "status" : 1,
      "type" : "music_library_page",
      "revision_translation_affected" : 1,
      "uid" : 1,
      "default_langcode" : 1
   },
   "asidebox" : {
      "body_value" : null,
      "body_format" : null,
      "status" : "disabled",
      "block_module" : null,
      "bid" : null,
      "block_delta" : null,
      "nid" : 99,
      "vid" : 661,
      "body_title" : ""
   },
   "vid" : 661,
   "path_alias" : {
      "alias" : "/music/loan-periods",
      "langcode" : "und",
      "status" : 0,
      "language" : "und",
      "pid" : 119
   },
   "revisions" : [
      {
         "comment" : 1,
         "status" : 1,
         "node_revision__body" : {
            "body_format" : "full_html",
            "revision_id" : 661,
            "entity_id" : 99,
            "body_summary" : "",
            "langcode" : "und",
            "body_value" : "<table style=\"width: 1282px; height: 444px;\" border=\"0\"><tbody><tr><td>&nbsp;</td><td><strong>Duke Faculty</strong></td><td><strong>Duke Staff</strong></td><td><strong>Duke Graduate Students</strong></td><td><strong>Duke Undergraduates</strong></td><td><strong>Duke Alumni / Employees' Family / Visitors</strong>+</td><td><strong>TRLN</strong>^</td><td><strong>UNC Faculty / Staff / Graduate Students</strong></td></tr><tr><td><strong>Reserves</strong></td><td>&nbsp;3 hours**</td><td>&nbsp;3 hours</td><td>&nbsp;3 hours</td><td>&nbsp;3 hours</td><td>&nbsp;in -library use</td><td>&nbsp;in -library use</td><td>&nbsp;in -library use</td></tr><tr><td><strong>Books &amp; Scores</strong></td><td>&nbsp;Annual loan, due end of May</td><td>&nbsp;4 weeks</td><td>&nbsp; Annual loan, due end of May</td><td>&nbsp;4 weeks</td><td>&nbsp;4 weeks</td><td>&nbsp;4 weeks</td><td>&nbsp;Semester loan, due at end of semester</td></tr><tr><td><strong>Reference Books</strong></td><td>&nbsp;in -library use**</td><td>&nbsp; in -library use</td><td>&nbsp;in -library use**</td><td>&nbsp; in -library use</td><td>&nbsp; in -library use</td><td>&nbsp; in -library use</td><td>&nbsp; in -library use</td></tr><tr><td><strong>Vault Items</strong></td><td>in -library use**</td><td>&nbsp; in -library use</td><td>&nbsp;in -library use**</td><td>&nbsp; in -library use</td><td>&nbsp; in -library use</td><td>&nbsp; in -library use</td><td>&nbsp; in -library use</td></tr><tr><td><strong>Scholarly Editions</strong></td><td>&nbsp;3 days**</td><td>&nbsp; 3 days</td><td>&nbsp; 3 days**</td><td>&nbsp; 3 days</td><td>&nbsp; in -library use</td><td>&nbsp; in -library use</td><td>&nbsp; in -library use</td></tr><tr><td><strong>Journals</strong></td><td>&nbsp;in -library use**</td><td>&nbsp; in -library use</td><td>&nbsp;in -library use**</td><td>&nbsp; in -library use</td><td>&nbsp; in -library use</td><td>&nbsp; in -library use</td><td>&nbsp; in -library use</td></tr><tr><td><strong>CDs &amp; DVDs</strong></td><td>&nbsp; Annual loan, due end of May</td><td><p>&nbsp;4 weeks (CD)</p><p>1 week (DVD)</p></td><td>&nbsp; Annual loan, due end of May</td><td><p>&nbsp;4 weeks (CD)</p><p>1 week (DVD)</p></td><td>&nbsp; in -library use*</td><td>&nbsp; in -library use*</td><td>&nbsp; in -library use*</td></tr><tr><td><strong>LPs &amp; Laserdiscs</strong></td><td>&nbsp;4 weeks</td><td>&nbsp;4 weeks</td><td>&nbsp;4 weeks</td><td>&nbsp;4 weeks</td><td>&nbsp;4 weeks</td><td>&nbsp;4 weeks</td><td>&nbsp;4 weeks</td></tr><tr><td><strong>Microforms</strong></td><td>&nbsp;Annual loan, due end of May</td><td>&nbsp;1 week</td><td>&nbsp;Annual loan, due end of May</td><td>&nbsp;1 week</td><td>&nbsp;1 day</td><td>&nbsp;in -library use</td><td>&nbsp;in -library use</td></tr><tr><td><strong>CD-ROMs</strong></td><td>&nbsp;Annual loan, due end of May</td><td>&nbsp;1 week</td><td>&nbsp;Annual loan, due end of May</td><td>&nbsp;1 week</td><td>&nbsp;in -library use*</td><td>&nbsp;in -library use*</td><td>&nbsp;in -library use</td></tr></tbody></table><p>* 3 item, 3 hour limit</p><p>** Need this longer for classroom use, preparation for teaching, or research?&nbsp; Contact <a href=\"mailto:laura.williams@duke.edu\">Laura Williams</a>, <a href=\"mailto:sarah.griffin@duke.edu\">Sarah Griffin</a>, or <a href=\"mailto:nathaniel.brown@duke.edu\">Nathaniel Brown</a>.&nbsp; Reserve materials borrowed less than 3 hours prior to closing are due back 1 hour after opening the next business day.</p><p>+Duke University alumni, Employees' immediate family members, and visitors to campus are welcome to use the Music Library.&nbsp; If you wish to borrow books and/or scores, you must <a href=\"using/borrow-renew-request\">register for a library account</a> (fees may apply) at the Perkins Library Service Desk or the Lilly Library Service Desk.&nbsp; Media items (and some other collections) must be used in-house.</p><p>^TRLN comprises the complete student bodies, faculty, and staff of North Carolina Central University and North Carolina State University, as well as the undergraduates of the University of North Carolina at Chapel Hill.</p>",
            "deleted" : 0,
            "delta" : 0,
            "bundle" : "music_library_page"
         },
         "node_revision__field_tags" : [],
         "promote" : 0,
         "vuuid" : "fc612378-bad6-4182-802b-d1f6e5b67e07",
         "title" : "Music Library Loan Periods",
         "sticky" : 0,
         "log" : "",
         "timestamp" : 1380226477,
         "uid" : 9,
         "field_revision" : {
            "default_langcode" : 1,
            "status" : 1,
            "uid" : 1,
            "changed" : null,
            "langcode" : null,
            "created" : null,
            "title" : "Music Library Loan Periods",
            "sticky" : 0,
            "revision_translation_affected" : 1
         }
      }
   ],
   "type" : "music_library_page",
   "langcode" : "und"
}

