{
   "node__body" : {
      "delta" : 0,
      "deleted" : 0,
      "body_value" : "<h2 align=\"center\"><strong>March&nbsp;2013</strong></h2><p><strong>Documentaries</strong></p><ul><li><a href=\"https://search.library.duke.edu/search?id=DUKE005776565\">Being Elmo: A Puppeteer's Journey</a> - DVD 23612</li><li><a href=\"https://search.library.duke.edu/search?id=DUKE005768534\">Neuromarketing: Consumers Under the Influence</a> - DVD 23478</li><li><a href=\"https://search.library.duke.edu/search?id=DUKE005771846\">The Untouchables: Mony, Power and Wall Street</a> - DVD 23739</li><li><a href=\"https://search.library.duke.edu/search?id=DUKE005817209\">Gang Wars</a> - DVD 23702</li><li><a href=\"https://search.library.duke.edu/search?id=DUKE005764741\">Into the Abyss</a> (death penalty) - DVD 23498</li><li><a href=\"https://search.library.duke.edu/search?id=DUKE005743720\">Bitter Seeds</a> (industrial agriculture) - DVD 23282</li><li><a href=\"https://search.library.duke.edu/search?id=DUKE005752602\">Water Children</a> (fertility) - DVD 23294</li><li><a href=\"https://search.library.duke.edu/search?id=DUKE005752595\">Jasad &amp; the Queen of Contradictions</a> (sexuality) - DVD 23391</li><li><a href=\"https://search.library.duke.edu/search?id=DUKE005772424\">Robert Frost: A Lover's Quarrel with the World</a> - DVD 23557</li><li><a href=\"https://search.library.duke.edu/search?id=DUKE005752516\">Going Up the Stairs</a> (art) - DVD 23292</li><li><a href=\"https://search.library.duke.edu/search?id=DUKE005775471\">Boardwalk Ballyhoo</a> (Atlantic City) - DVD 23480</li><li><a href=\"https://search.library.duke.edu/search?id=DUKE005779789\">Klitschko</a> (boxing) - DVD 23655</li><li><a href=\"https://search.library.duke.edu/search?id=DUKE005746726\">Soka Afrika</a> (soccer) - DVD 23390</li><li><a href=\"https://search.library.duke.edu/search?id=DUKE005768872\">After Kony</a> (Uganda) - DVD 23509</li><li><a href=\"https://search.library.duke.edu/search?id=DUKE005817450\">Bombay, Our City </a>- DVD 23709</li><li><a href=\"https://search.library.duke.edu/search?id=DUKE005752051\">Unfinished Spaces</a> (Cuban architecture) - DVD 23280</li></ul><p><strong>Documentaries About Women</strong></p><ul><li><a href=\"https://search.library.duke.edu/search?id=DUKE005746699\">It's a Girl</a> (gender selection) - DVD 23319</li><li><a href=\"https://search.library.duke.edu/search?id=DUKE005752514\">Quest for Honor</a> (honor killings) - DVD 23285</li><li><a href=\"https://search.library.duke.edu/search?id=DUKE005752517\">Rights &amp; Wrongs: The Story of Women in Islam</a> - DVD 23286</li><li><a href=\"https://search.library.duke.edu/search?id=DUKE005727259\">The Light in Her Eyes</a> (women and Islam) - DVD 23134</li><li><a href=\"https://search.library.duke.edu/search?id=DUKE005752522\">Saving Face</a> (women in Pakistan) - DVD 23290</li><li><a href=\"https://search.library.duke.edu/search?id=DUKE005752532\">Girl Power: All Dolled Up</a> - DVD 23291</li><li><a href=\"https://search.library.duke.edu/search?id=DUKE005743322\">Wonder Women!: The Untold Story of American Superheroines</a> - DVD 23687</li><li><a href=\"https://search.library.duke.edu/search?id=DUKE005805289\">Girl Model</a> - DVD 23692</li></ul><p><strong>Environmental Documentaries </strong></p><ul><li><a href=\"https://search.library.duke.edu/search?id=DUKE005752046\">Semper Fi</a> - DVD 23276</li><li><a href=\"https://search.library.duke.edu/search?id=DUKE005752045\">Chasing Water</a> - DVD 23275</li><li><a href=\"https://search.library.duke.edu/search?id=DUKE004920321\">Gashole</a> - DVD 23494</li><li><a href=\"https://search.library.duke.edu/search?id=DUKE005752047\">A Fierce Green Fire</a> - DVD 23510</li></ul><p><strong>Jean Rouch</strong></p><ul><li><a href=\"https://search.library.duke.edu/search?id=DUKE005831379\">Chronicle of a Summer</a> - DVD 23862</li><li><a href=\"https://search.library.duke.edu/search?id=DUKE005772098\">The Lion Hunters</a> - DVD 23513</li><li><a href=\"https://search.library.duke.edu/search?id=DUKE005772103\">Jaguar</a> - DVD 23514</li><li><a href=\"https://search.library.duke.edu/search?id=DUKE005772105\">The Mad Masters</a> - DVD 23515</li><li><a href=\"https://search.library.duke.edu/search?id=DUKE005772125\">Little by Little</a> - DVD 23516</li><li><a href=\"https://search.library.duke.edu/search?id=DUKE005772128\">Mammy Water</a> - DVD 23517</li><li><a href=\"https://search.library.duke.edu/search?id=DUKE005772129\">Moi, un Noir</a> - DVD 23518</li></ul><p><strong>Classic Hollywood</strong></p><ul><li><a href=\"https://search.library.duke.edu/search?id=DUKE005772133\">A Thousand Clowns</a> - DVD 23553</li><li><a href=\"https://search.library.duke.edu/search?id=DUKE005764904\">You'll Never Get Rich</a> - DVD 23493</li><li><a href=\"https://search.library.duke.edu/search?id=DUKE005772150\">The Heart is a Lonely Hunter</a> - DVD 23549</li><li><a href=\"https://search.library.duke.edu/search?id=DUKE005770357\">Cyrano de Bergerac</a> (1950) - DVD 23488</li><li><a href=\"https://search.library.duke.edu/search?id=DUKE005764907\">Father's Little Dividend</a> - DVD 23491</li><li><a href=\"https://search.library.duke.edu/search?id=DUKE005772141\">The Vitaphone Comedy Shorts, Vol. 1</a> - DVD 23548</li><li><a href=\"https://search.library.duke.edu/search?id=DUKE005772137\">Vitaphone Varieties, Vol. 2</a> - DVD 23595</li><li><a href=\"https://search.library.duke.edu/search?id=DUKE005772179\">Bobby Jones: The Complete Warner Brothers Shorts Collection</a> - DVD 23594</li><li><a href=\"https://search.library.duke.edu/search?id=DUKE005768958\">The Toast of New York</a> - DVD 23551</li><li><a href=\"https://search.library.duke.edu/search?id=DUKE005772162\">Ten Little Indians</a> - DVD 23552</li></ul><p><strong>Silent Era</strong></p><ul><li><a href=\"https://search.library.duke.edu/search?id=DUKE005772157\">The Show</a> (Tod Browning) - DVD 23554</li><li><a href=\"https://search.library.duke.edu/search?id=DUKE005772146\">The Circle</a> (Frank Borzage) - DVD 23556</li><li><a href=\"https://search.library.duke.edu/search?id=DUKE005764743\">Harakiri</a> (Fritz Lang) - DVD 23361</li><li><a href=\"https://search.library.duke.edu/search?id=DUKE005769069\">The Wandering Shadow</a> (Fritz Lang) - DVD 23362</li><li><a href=\"https://search.library.duke.edu/search?id=DUKE005769070\">Four Around the Woman</a> (Fritz Lang) - DVD 23363</li></ul><p><strong>Other DVDs</strong></p><ul><li><a href=\"https://search.library.duke.edu/search?id=DUKE005776552\">Monsters</a> - DVD 23618</li><li><a href=\"https://search.library.duke.edu/search?id=DUKE005799469\">My Cousin Vinny</a> - DVD 23616</li><li><a href=\"https://search.library.duke.edu/search?id=DUKE005817489\">Black Gold</a> - DVD 22376</li><li><a href=\"https://search.library.duke.edu/search?id=DUKE005816930\">The Ballad of Narayama</a> (Kinoshita) - DVD 23683</li><li><a href=\"https://search.library.duke.edu/search?id=DUKE005816933\">The Kid with a Bike</a> (Dardenne Brothers) - DVD 23685</li><li><a href=\"https://search.library.duke.edu/search?id=DUKE005772719\">Elles</a> - DVD 23603</li><li><a href=\"https://search.library.duke.edu/search?id=DUKE005764814\">A Royal Affair</a> - DVD 23490</li><li><a href=\"https://search.library.duke.edu/search?id=DUKE004320080\">Pharaoh's Army</a> - DVD 23689</li><li><a href=\"https://search.library.duke.edu/search?id=DUKE005797648\">Ong Bak 2</a> - DVD 23619</li><li><a href=\"https://search.library.duke.edu/search?id=DUKE005797653\">Ong Bak 3</a> - DVD 23622&nbsp;</li><li><a href=\"https://search.library.duke.edu/search?id=DUKE004322068\">The Road</a> - DVD 23624</li><li><a href=\"https://search.library.duke.edu/search?id=DUKE005768720\">Patty Hearst</a> - DVD 23523</li><li><a href=\"https://search.library.duke.edu/search?id=DUKE005799349\">Mooz-Lum</a> - DVD 23663</li><li><a href=\"https://search.library.duke.edu/search?id=DUKE005816617\">The Dynamiter</a> - DVD 23682</li><li><a href=\"https://search.library.duke.edu/search?id=DUKE005771976\">La Lectrice</a> - DVD 23626</li><li><a href=\"https://search.library.duke.edu/search?id=DUKE005764753\">Sterile Cuckoo</a> - DVD 23355</li><li><a href=\"https://search.library.duke.edu/search?id=DUKE005772713\">Man of the Story</a> (Gopalakrishnan) - DVD 23679</li><li><a href=\"https://search.library.duke.edu/search?id=DUKE005772718\">Mundane History</a> (Suwichakornpong) - DVD 23678</li><li><a href=\"https://search.library.duke.edu/search?id=DUKE005663662\">The Cabin in the Woods</a> - DVD 23495</li><li><a href=\"https://search.library.duke.edu/search?id=DUKE005771220\">Leon the Professional</a> - DVD 23492</li><li><a href=\"https://search.library.duke.edu/search?id=DUKE005772130\">The Christine Jorgensen Story</a> - DVD 23550</li><li><a href=\"https://search.library.duke.edu/search?id=DUKE005768272\">Game Change</a> - DVD 23521</li><li><a href=\"https://search.library.duke.edu/search?id=DUKE005776575\">Habermann</a> - DVD 23670</li><li><a href=\"https://search.library.duke.edu/search?id=DUKE005288987\">My Joy</a> - DVD 23630</li><li><a href=\"https://search.library.duke.edu/search?id=DUKE005324939\">Mancora</a> - DVD 23632</li><li><a href=\"https://search.library.duke.edu/search?id=DUKE005797641\">White Wedding</a> - DVD 23563</li><li><a href=\"https://search.library.duke.edu/search?id=DUKE005772714\">Sentiment</a> (Hejtmanek) - DVD 23680</li><li><a href=\"https://search.library.duke.edu/search?id=DUKE005805280\">The Sessions</a> - DVD 23694</li><li><a href=\"https://search.library.duke.edu/search?id=DUKE005776496\">Secret World</a> - DVD 23662</li></ul>",
      "langcode" : "und",
      "bundle" : "lilly_video_page",
      "revision_id" : 2661,
      "entity_id" : 46,
      "body_format" : "full_html",
      "body_summary" : ""
   },
   "node_field_data" : {
      "changed" : null,
      "langcode" : "und",
      "status" : 1,
      "type" : "lilly_video_page",
      "created" : 1374060493,
      "promote" : 0,
      "sticky" : 0,
      "title" : "March 2013",
      "uid" : 1,
      "default_langcode" : 1,
      "revision_translation_affected" : 1
   },
   "asidebox" : {
      "block_module" : null,
      "body_format" : null,
      "body_value" : null,
      "status" : "disabled",
      "block_delta" : null,
      "bid" : null,
      "vid" : 2661,
      "body_title" : "",
      "nid" : 46
   },
   "path_alias" : {
      "language" : "und",
      "pid" : 63,
      "langcode" : "und",
      "status" : 0,
      "alias" : "/lilly/film-video/new-video-archives/march-2013"
   },
   "vid" : 2661,
   "revisions" : [
      {
         "node_revision__field_tags" : [],
         "promote" : 0,
         "vuuid" : "ccf61fa1-16dc-45dc-ba31-0508fa6b3022",
         "title" : "March 2013",
         "sticky" : 0,
         "comment" : 1,
         "status" : 1,
         "node_revision__body" : {
            "body_summary" : "",
            "revision_id" : 2661,
            "entity_id" : 46,
            "body_format" : "full_html",
            "bundle" : "lilly_video_page",
            "deleted" : 0,
            "delta" : 0,
            "langcode" : "und",
            "body_value" : "<h2 align=\"center\"><strong>March&nbsp;2013</strong></h2><p><strong>Documentaries</strong></p><ul><li><a href=\"https://search.library.duke.edu/search?id=DUKE005776565\">Being Elmo: A Puppeteer's Journey</a> - DVD 23612</li><li><a href=\"https://search.library.duke.edu/search?id=DUKE005768534\">Neuromarketing: Consumers Under the Influence</a> - DVD 23478</li><li><a href=\"https://search.library.duke.edu/search?id=DUKE005771846\">The Untouchables: Mony, Power and Wall Street</a> - DVD 23739</li><li><a href=\"https://search.library.duke.edu/search?id=DUKE005817209\">Gang Wars</a> - DVD 23702</li><li><a href=\"https://search.library.duke.edu/search?id=DUKE005764741\">Into the Abyss</a> (death penalty) - DVD 23498</li><li><a href=\"https://search.library.duke.edu/search?id=DUKE005743720\">Bitter Seeds</a> (industrial agriculture) - DVD 23282</li><li><a href=\"https://search.library.duke.edu/search?id=DUKE005752602\">Water Children</a> (fertility) - DVD 23294</li><li><a href=\"https://search.library.duke.edu/search?id=DUKE005752595\">Jasad &amp; the Queen of Contradictions</a> (sexuality) - DVD 23391</li><li><a href=\"https://search.library.duke.edu/search?id=DUKE005772424\">Robert Frost: A Lover's Quarrel with the World</a> - DVD 23557</li><li><a href=\"https://search.library.duke.edu/search?id=DUKE005752516\">Going Up the Stairs</a> (art) - DVD 23292</li><li><a href=\"https://search.library.duke.edu/search?id=DUKE005775471\">Boardwalk Ballyhoo</a> (Atlantic City) - DVD 23480</li><li><a href=\"https://search.library.duke.edu/search?id=DUKE005779789\">Klitschko</a> (boxing) - DVD 23655</li><li><a href=\"https://search.library.duke.edu/search?id=DUKE005746726\">Soka Afrika</a> (soccer) - DVD 23390</li><li><a href=\"https://search.library.duke.edu/search?id=DUKE005768872\">After Kony</a> (Uganda) - DVD 23509</li><li><a href=\"https://search.library.duke.edu/search?id=DUKE005817450\">Bombay, Our City </a>- DVD 23709</li><li><a href=\"https://search.library.duke.edu/search?id=DUKE005752051\">Unfinished Spaces</a> (Cuban architecture) - DVD 23280</li></ul><p><strong>Documentaries About Women</strong></p><ul><li><a href=\"https://search.library.duke.edu/search?id=DUKE005746699\">It's a Girl</a> (gender selection) - DVD 23319</li><li><a href=\"https://search.library.duke.edu/search?id=DUKE005752514\">Quest for Honor</a> (honor killings) - DVD 23285</li><li><a href=\"https://search.library.duke.edu/search?id=DUKE005752517\">Rights &amp; Wrongs: The Story of Women in Islam</a> - DVD 23286</li><li><a href=\"https://search.library.duke.edu/search?id=DUKE005727259\">The Light in Her Eyes</a> (women and Islam) - DVD 23134</li><li><a href=\"https://search.library.duke.edu/search?id=DUKE005752522\">Saving Face</a> (women in Pakistan) - DVD 23290</li><li><a href=\"https://search.library.duke.edu/search?id=DUKE005752532\">Girl Power: All Dolled Up</a> - DVD 23291</li><li><a href=\"https://search.library.duke.edu/search?id=DUKE005743322\">Wonder Women!: The Untold Story of American Superheroines</a> - DVD 23687</li><li><a href=\"https://search.library.duke.edu/search?id=DUKE005805289\">Girl Model</a> - DVD 23692</li></ul><p><strong>Environmental Documentaries </strong></p><ul><li><a href=\"https://search.library.duke.edu/search?id=DUKE005752046\">Semper Fi</a> - DVD 23276</li><li><a href=\"https://search.library.duke.edu/search?id=DUKE005752045\">Chasing Water</a> - DVD 23275</li><li><a href=\"https://search.library.duke.edu/search?id=DUKE004920321\">Gashole</a> - DVD 23494</li><li><a href=\"https://search.library.duke.edu/search?id=DUKE005752047\">A Fierce Green Fire</a> - DVD 23510</li></ul><p><strong>Jean Rouch</strong></p><ul><li><a href=\"https://search.library.duke.edu/search?id=DUKE005831379\">Chronicle of a Summer</a> - DVD 23862</li><li><a href=\"https://search.library.duke.edu/search?id=DUKE005772098\">The Lion Hunters</a> - DVD 23513</li><li><a href=\"https://search.library.duke.edu/search?id=DUKE005772103\">Jaguar</a> - DVD 23514</li><li><a href=\"https://search.library.duke.edu/search?id=DUKE005772105\">The Mad Masters</a> - DVD 23515</li><li><a href=\"https://search.library.duke.edu/search?id=DUKE005772125\">Little by Little</a> - DVD 23516</li><li><a href=\"https://search.library.duke.edu/search?id=DUKE005772128\">Mammy Water</a> - DVD 23517</li><li><a href=\"https://search.library.duke.edu/search?id=DUKE005772129\">Moi, un Noir</a> - DVD 23518</li></ul><p><strong>Classic Hollywood</strong></p><ul><li><a href=\"https://search.library.duke.edu/search?id=DUKE005772133\">A Thousand Clowns</a> - DVD 23553</li><li><a href=\"https://search.library.duke.edu/search?id=DUKE005764904\">You'll Never Get Rich</a> - DVD 23493</li><li><a href=\"https://search.library.duke.edu/search?id=DUKE005772150\">The Heart is a Lonely Hunter</a> - DVD 23549</li><li><a href=\"https://search.library.duke.edu/search?id=DUKE005770357\">Cyrano de Bergerac</a> (1950) - DVD 23488</li><li><a href=\"https://search.library.duke.edu/search?id=DUKE005764907\">Father's Little Dividend</a> - DVD 23491</li><li><a href=\"https://search.library.duke.edu/search?id=DUKE005772141\">The Vitaphone Comedy Shorts, Vol. 1</a> - DVD 23548</li><li><a href=\"https://search.library.duke.edu/search?id=DUKE005772137\">Vitaphone Varieties, Vol. 2</a> - DVD 23595</li><li><a href=\"https://search.library.duke.edu/search?id=DUKE005772179\">Bobby Jones: The Complete Warner Brothers Shorts Collection</a> - DVD 23594</li><li><a href=\"https://search.library.duke.edu/search?id=DUKE005768958\">The Toast of New York</a> - DVD 23551</li><li><a href=\"https://search.library.duke.edu/search?id=DUKE005772162\">Ten Little Indians</a> - DVD 23552</li></ul><p><strong>Silent Era</strong></p><ul><li><a href=\"https://search.library.duke.edu/search?id=DUKE005772157\">The Show</a> (Tod Browning) - DVD 23554</li><li><a href=\"https://search.library.duke.edu/search?id=DUKE005772146\">The Circle</a> (Frank Borzage) - DVD 23556</li><li><a href=\"https://search.library.duke.edu/search?id=DUKE005764743\">Harakiri</a> (Fritz Lang) - DVD 23361</li><li><a href=\"https://search.library.duke.edu/search?id=DUKE005769069\">The Wandering Shadow</a> (Fritz Lang) - DVD 23362</li><li><a href=\"https://search.library.duke.edu/search?id=DUKE005769070\">Four Around the Woman</a> (Fritz Lang) - DVD 23363</li></ul><p><strong>Other DVDs</strong></p><ul><li><a href=\"https://search.library.duke.edu/search?id=DUKE005776552\">Monsters</a> - DVD 23618</li><li><a href=\"https://search.library.duke.edu/search?id=DUKE005799469\">My Cousin Vinny</a> - DVD 23616</li><li><a href=\"https://search.library.duke.edu/search?id=DUKE005817489\">Black Gold</a> - DVD 22376</li><li><a href=\"https://search.library.duke.edu/search?id=DUKE005816930\">The Ballad of Narayama</a> (Kinoshita) - DVD 23683</li><li><a href=\"https://search.library.duke.edu/search?id=DUKE005816933\">The Kid with a Bike</a> (Dardenne Brothers) - DVD 23685</li><li><a href=\"https://search.library.duke.edu/search?id=DUKE005772719\">Elles</a> - DVD 23603</li><li><a href=\"https://search.library.duke.edu/search?id=DUKE005764814\">A Royal Affair</a> - DVD 23490</li><li><a href=\"https://search.library.duke.edu/search?id=DUKE004320080\">Pharaoh's Army</a> - DVD 23689</li><li><a href=\"https://search.library.duke.edu/search?id=DUKE005797648\">Ong Bak 2</a> - DVD 23619</li><li><a href=\"https://search.library.duke.edu/search?id=DUKE005797653\">Ong Bak 3</a> - DVD 23622&nbsp;</li><li><a href=\"https://search.library.duke.edu/search?id=DUKE004322068\">The Road</a> - DVD 23624</li><li><a href=\"https://search.library.duke.edu/search?id=DUKE005768720\">Patty Hearst</a> - DVD 23523</li><li><a href=\"https://search.library.duke.edu/search?id=DUKE005799349\">Mooz-Lum</a> - DVD 23663</li><li><a href=\"https://search.library.duke.edu/search?id=DUKE005816617\">The Dynamiter</a> - DVD 23682</li><li><a href=\"https://search.library.duke.edu/search?id=DUKE005771976\">La Lectrice</a> - DVD 23626</li><li><a href=\"https://search.library.duke.edu/search?id=DUKE005764753\">Sterile Cuckoo</a> - DVD 23355</li><li><a href=\"https://search.library.duke.edu/search?id=DUKE005772713\">Man of the Story</a> (Gopalakrishnan) - DVD 23679</li><li><a href=\"https://search.library.duke.edu/search?id=DUKE005772718\">Mundane History</a> (Suwichakornpong) - DVD 23678</li><li><a href=\"https://search.library.duke.edu/search?id=DUKE005663662\">The Cabin in the Woods</a> - DVD 23495</li><li><a href=\"https://search.library.duke.edu/search?id=DUKE005771220\">Leon the Professional</a> - DVD 23492</li><li><a href=\"https://search.library.duke.edu/search?id=DUKE005772130\">The Christine Jorgensen Story</a> - DVD 23550</li><li><a href=\"https://search.library.duke.edu/search?id=DUKE005768272\">Game Change</a> - DVD 23521</li><li><a href=\"https://search.library.duke.edu/search?id=DUKE005776575\">Habermann</a> - DVD 23670</li><li><a href=\"https://search.library.duke.edu/search?id=DUKE005288987\">My Joy</a> - DVD 23630</li><li><a href=\"https://search.library.duke.edu/search?id=DUKE005324939\">Mancora</a> - DVD 23632</li><li><a href=\"https://search.library.duke.edu/search?id=DUKE005797641\">White Wedding</a> - DVD 23563</li><li><a href=\"https://search.library.duke.edu/search?id=DUKE005772714\">Sentiment</a> (Hejtmanek) - DVD 23680</li><li><a href=\"https://search.library.duke.edu/search?id=DUKE005805280\">The Sessions</a> - DVD 23694</li><li><a href=\"https://search.library.duke.edu/search?id=DUKE005776496\">Secret World</a> - DVD 23662</li></ul>"
         },
         "timestamp" : 1507574509,
         "log" : "",
         "field_revision" : {
            "changed" : null,
            "langcode" : null,
            "uid" : 1,
            "status" : 1,
            "default_langcode" : 1,
            "revision_translation_affected" : 1,
            "title" : "March 2013",
            "sticky" : 0,
            "created" : null
         },
         "uid" : 3
      }
   ],
   "type" : "lilly_video_page",
   "langcode" : "und",
   "nid" : "46",
   "uuid" : "2f7cc5fe-40f5-4cbd-8b88-2bc9da4db040",
   "field_tags" : [],
   "node_access" : null,
   "field_image" : null
}

