{
   "node_access" : null,
   "field_image" : null,
   "uuid" : "4212a98c-a17d-4441-a4ca-fa91c49e3074",
   "nid" : "43",
   "field_tags" : [],
   "type" : "lilly_video_page",
   "langcode" : "und",
   "path_alias" : {
      "langcode" : "und",
      "status" : 0,
      "alias" : "/lilly/film-video/new-video-archives/december-2012",
      "language" : "und",
      "pid" : 60
   },
   "vid" : 2591,
   "revisions" : [
      {
         "timestamp" : 1507570928,
         "log" : "",
         "field_revision" : {
            "default_langcode" : 1,
            "uid" : 1,
            "status" : 1,
            "changed" : null,
            "langcode" : null,
            "created" : null,
            "sticky" : 0,
            "title" : "December 2012",
            "revision_translation_affected" : 1
         },
         "uid" : 3,
         "node_revision__field_tags" : [],
         "promote" : 0,
         "vuuid" : "d4cfd163-e7a1-481e-85ee-b9c3026de830",
         "title" : "December 2012",
         "sticky" : 0,
         "comment" : 1,
         "status" : 1,
         "node_revision__body" : {
            "body_format" : "full_html",
            "revision_id" : 2591,
            "entity_id" : 43,
            "body_summary" : "",
            "langcode" : "und",
            "body_value" : "<h2 align=\"center\"><strong>&nbsp;December 2012</strong></h2><p><strong>Documentaries</strong></p><ul><li><a href=\"https://search.library.duke.edu/search?id=DUKE005663315\">American Artifact</a> (rock poster art) - DVD 22800</li><li><a href=\"https://search.library.duke.edu/search?id=DUKE005740222\">The Queen of Versailles</a> (wealth in America) - DVD 23135</li><li><a href=\"https://search.library.duke.edu/search?id=DUKE005685713\">Born in the U.S.A.</a> (childbirth) - DVD 22834</li><li><a href=\"https://search.library.duke.edu/search?id=DUKE005684374\">Strong!</a> (female weight lifter) - DVD 22823</li><li><a href=\"https://search.library.duke.edu/search?id=DUKE005704717\">Grrrl Love and Revolution</a> - DVD 22927</li><li><a href=\"https://search.library.duke.edu/search?id=DUKE005704718\">In the Name of the Family</a> (honor killings) - DVD 22930</li><li><a href=\"https://search.library.duke.edu/search?id=DUKE005704719\">Calypso Rose: The Lioness of the Jungle</a> (music) - DVD 22928</li><li><a href=\"https://search.library.duke.edu/search?id=DUKE005688352\">Cracking the Codes: The System of Racial Inequity</a> - DVD 22899</li><li><a href=\"https://search.library.duke.edu/search?id=DUKE005685278\">The Colonial Misunderstanding</a> (colonialism and religion in Africa) - DVD 22863</li><li><a href=\"https://search.library.duke.edu/search?id=DUKE005664090\">Stolen</a> (modern day slavery) - DVD 22737</li><li><a href=\"https://search.library.duke.edu/search?id=DUKE005684494\">The Prodigal Son</a> (slavery in the Caribbean) - DVD 22807</li><li><a href=\"https://search.library.duke.edu/search?id=DUKE005684344\">In the Land of Blood and Honey</a> - DVD 22792</li><li><a href=\"https://search.library.duke.edu/search?id=DUKE005689390\">5 Broken Cameras </a>(Arab/Israeli conflict) - DVD 23017</li><li><a href=\"https://search.library.duke.edu/search?id=DUKE005704498\">On Boys, Girsl and the Veil</a> (Middle East) - DVD 22933</li><li><a href=\"https://search.library.duke.edu/search?id=DUKE005704499\">Scheherazade, Tell Me a Story</a> (women in Egypt) - DVD 22931</li><li><a href=\"https://search.library.duke.edu/search?id=DUKE005704373\">Summer Thefts</a> (Egypt) - DVD 22932</li><li><a href=\"https://search.library.duke.edu/search?id=DUKE005731900\">Metal and Melancholy</a> (taxi drivers in Peru) - DVD 23012</li><li><a href=\"https://search.library.duke.edu/search?id=DUKE005684338\">Jiro Dreams of Sushi</a> (cooking) - DVD 22796</li><li><a href=\"https://search.library.duke.edu/search?id=DUKE005731046\">2016: Obama's America</a> - DVD 22965</li></ul><p><strong>LGBT Documentaries</strong></p><ul><li><a href=\"https://search.library.duke.edu/search?id=DUKE005731808\">Vintage Families of Value</a> - DVD 22963</li><li><a href=\"https://search.library.duke.edu/search?id=DUKE005326224\">Orientations</a> - DVD 22962</li><li><a href=\"https://search.library.duke.edu/search?id=DUKE005326216\">Black Nations / Queer Nations?</a> - DVD 22960</li><li><a href=\"https://search.library.duke.edu/search?id=DUKE005326215\">Marriage Equality</a> - DVD 22964</li><li><a href=\"https://search.library.duke.edu/search?id=DUKE005731807\">Jareena: Portrait of a Hijda</a> - DVD 22961</li></ul><p><strong>Television</strong></p><ul><li><a href=\"https://search.library.duke.edu/search?id=DUKE005732452\">Community (season two)</a> - DVD 23096</li></ul><p><strong>Film Noir</strong></p><ul><li><a href=\"https://search.library.duke.edu/search?id=DUKE005743579\">The Glass Key</a> - DVD 23239</li><li><a href=\"https://search.library.duke.edu/search?id=DUKE005743581\">Phantom Lady</a> - DVD 23240</li><li><a href=\"https://search.library.duke.edu/search?id=DUKE005743587\">The Blue Dahlia</a> - DVD 23241</li></ul><p><strong>Broadway Theatre</strong></p><ul><li><a href=\"https://search.library.duke.edu/search?id=DUKE005714143\">The Time of Your Life</a> - DVD 22922</li><li><a href=\"https://search.library.duke.edu/search?id=DUKE005688597\">O Youth and Beauty!</a> - DVD 22904</li><li><a href=\"https://search.library.duke.edu/search?id=DUKE005714157\">Paradise Lost</a> - DVD 22920</li><li><a href=\"https://search.library.duke.edu/search?id=DUKE005714092\">Particular Men</a> - DVD 22917</li><li><a href=\"https://search.library.duke.edu/search?id=DUKE005714071\">The Human Voice</a> - DVD 22916</li><li><a href=\"https://search.library.duke.edu/search?id=DUKE005714152\">The Good Doctor</a> - DVD 22918</li><li><a href=\"https://search.library.duke.edu/search?id=DUKE005714199\">Fifth of July</a> - DVD 22924</li><li><a href=\"https://search.library.duke.edu/search?id=DUKE005688595\">An Enemy of the People</a> - DVD 22905</li><li><a href=\"https://search.library.duke.edu/search?id=DUKE005713927\">Awake and Sing!</a> - DVD 22919</li><li><a href=\"https://search.library.duke.edu/search?id=DUKE005688602\">Steambath</a> - DVD 22903</li><li><a href=\"https://search.library.duke.edu/search?id=DUKE005688605\">Six Characters in Search of an Author</a> - DVD 22906</li><li><a href=\"https://search.library.duke.edu/search?id=DUKE005714191\">Sea Marks</a> - DVD 22925</li><li><a href=\"https://search.library.duke.edu/search?id=DUKE005714150\">The Typists</a> - DVD 22915</li><li><a href=\"https://search.library.duke.edu/search?id=DUKE005713918\">The Rimers of Eldritch</a> - DVD 22923</li><li><a href=\"https://search.library.duke.edu/search?id=DUKE005688689\">The Star Wagon</a> - DVD 22907</li><li><a href=\"https://search.library.duke.edu/search?id=DUKE005714080\">Tartuffe</a> - DVD 22921</li><li><a href=\"https://search.library.duke.edu/search?id=DUKE005714170\">Working</a> - DVD 22926</li></ul><p><strong>Shochiku Studio</strong></p><ul><li><a href=\"https://search.library.duke.edu/search?id=DUKE005741490\">The X from Outer Space</a> - DVD 23141</li><li><a href=\"https://search.library.duke.edu/search?id=DUKE005741492\">Goke, Body Snatcher from Hell</a> - DVD 23142</li><li><a href=\"https://search.library.duke.edu/search?id=DUKE005741494\">The Living Skeleton</a> - DVD 23143</li><li><a href=\"https://search.library.duke.edu/search?id=DUKE005741495\">Genocide</a> - DVD 23144</li></ul><p><strong>African Cinema</strong></p><ul><li><a href=\"https://search.library.duke.edu/search?id=DUKE005685290\">Keita: The Heritage of the Griot</a> - DVD 22830</li><li><a href=\"https://search.library.duke.edu/search?id=DUKE005685286\">Fathers</a> - DVD 22831</li><li><a href=\"https://search.library.duke.edu/search?id=DUKE005685293\">O Heroi</a> - DVD 22832</li><li><a href=\"https://search.library.duke.edu/search?id=DUKE005685281\">Mapantsula</a> - DVD 22811</li><li><a href=\"https://search.library.duke.edu/search?id=DUKE005684521\">Africa Dreaming</a> - DVD 22808</li><li><a href=\"https://search.library.duke.edu/search?id=DUKE005685283\">Adanggaman</a> - DVD 22813</li><li><a href=\"https://search.library.duke.edu/search?id=DUKE005685280\">Alex's Wedding</a> - DVD 22812</li><li><a href=\"https://search.library.duke.edu/search?id=DUKE005684492\">Tales of Ordinary People</a> - DVD 22810</li></ul><p><strong>Other DVDs</strong></p><ul><li><a href=\"https://search.library.duke.edu/search?id=DUKE004677729\">Unstoppable</a> - DVD 22897</li><li><a href=\"https://search.library.duke.edu/search?id=DUKE005685662\">Skin</a> - 22802</li><li><a href=\"https://search.library.duke.edu/search?id=DUKE005704690\">Quest for Fire</a> - DVD 22909</li><li><a href=\"https://search.library.duke.edu/search?id=DUKE005684551\">David &amp; Kamal</a> - DVD 22787</li><li><a href=\"https://search.library.duke.edu/search?id=DUKE005663301\">Confidence</a> (Szabo) - DVD 22861</li><li><a href=\"https://search.library.duke.edu/search?id=DUKE005664028\">Margaret</a> - DVD 22858</li><li><a href=\"https://search.library.duke.edu/search?id=DUKE005739075\">Where Do We Go Now?</a> - DVD 23117</li><li><a href=\"https://search.library.duke.edu/search?id=DUKE005739491\">When Nietzsche Wept</a> - DVD 23115</li><li><a href=\"https://search.library.duke.edu/search?id=DUKE005740219\">Second Generation</a> - DVD 23136</li><li><a href=\"https://search.library.duke.edu/search?id=DUKE005684334\">The Butcher, the Chef, and the Swordsman </a>- DVD 22794</li><li><a href=\"https://search.library.duke.edu/search?id=DUKE005685653\">Detective Dee and the Mystery of the Phantom Flame</a> - DVD 22820</li><li><a href=\"https://search.library.duke.edu/search?id=DUKE005741484\">Heaven's Gate</a> - DVD 23139</li><li><a href=\"https://search.library.duke.edu/search?id=DUKE005741488\">Purple Noon</a> - DVD 23140</li><li><a href=\"https://search.library.duke.edu/search?id=DUKE005664104\">1911 Revolution</a> (Jackie Chan) - DVD 22745</li><li><a href=\"https://search.library.duke.edu/search?id=DUKE005663693\">Beat Films</a> (Christopher MacLaine) - DVD 22914</li><li><a href=\"https://search.library.duke.edu/search?id=DUKE005741611\">The Day I Saw Your Heart</a> - DVD 23145</li><li><a href=\"https://search.library.duke.edu/search?id=DUKE005684533\">Nora's Will</a> - DVD 22786</li><li><a href=\"https://search.library.duke.edu/search?id=DUKE005585020\">Bel Ami</a> - DVD 23156</li><li><a href=\"https://search.library.duke.edu/search?id=DUKE005741896\">Spider Lilies</a> - DVD 23175</li><li><a href=\"https://search.library.duke.edu/search?id=DUKE005743342\">Drifting Flopwers</a> - DVD 23176</li><li><a href=\"https://search.library.duke.edu/search?id=DUKE005586211\">Headhunters</a> - DVD 23196</li></ul>",
            "deleted" : 0,
            "delta" : 0,
            "bundle" : "lilly_video_page"
         }
      }
   ],
   "asidebox" : {
      "status" : "disabled",
      "body_format" : null,
      "body_value" : null,
      "block_module" : null,
      "nid" : 43,
      "vid" : 2591,
      "body_title" : "",
      "block_delta" : null,
      "bid" : null
   },
   "node__body" : {
      "langcode" : "und",
      "body_value" : "<h2 align=\"center\"><strong>&nbsp;December 2012</strong></h2><p><strong>Documentaries</strong></p><ul><li><a href=\"https://search.library.duke.edu/search?id=DUKE005663315\">American Artifact</a> (rock poster art) - DVD 22800</li><li><a href=\"https://search.library.duke.edu/search?id=DUKE005740222\">The Queen of Versailles</a> (wealth in America) - DVD 23135</li><li><a href=\"https://search.library.duke.edu/search?id=DUKE005685713\">Born in the U.S.A.</a> (childbirth) - DVD 22834</li><li><a href=\"https://search.library.duke.edu/search?id=DUKE005684374\">Strong!</a> (female weight lifter) - DVD 22823</li><li><a href=\"https://search.library.duke.edu/search?id=DUKE005704717\">Grrrl Love and Revolution</a> - DVD 22927</li><li><a href=\"https://search.library.duke.edu/search?id=DUKE005704718\">In the Name of the Family</a> (honor killings) - DVD 22930</li><li><a href=\"https://search.library.duke.edu/search?id=DUKE005704719\">Calypso Rose: The Lioness of the Jungle</a> (music) - DVD 22928</li><li><a href=\"https://search.library.duke.edu/search?id=DUKE005688352\">Cracking the Codes: The System of Racial Inequity</a> - DVD 22899</li><li><a href=\"https://search.library.duke.edu/search?id=DUKE005685278\">The Colonial Misunderstanding</a> (colonialism and religion in Africa) - DVD 22863</li><li><a href=\"https://search.library.duke.edu/search?id=DUKE005664090\">Stolen</a> (modern day slavery) - DVD 22737</li><li><a href=\"https://search.library.duke.edu/search?id=DUKE005684494\">The Prodigal Son</a> (slavery in the Caribbean) - DVD 22807</li><li><a href=\"https://search.library.duke.edu/search?id=DUKE005684344\">In the Land of Blood and Honey</a> - DVD 22792</li><li><a href=\"https://search.library.duke.edu/search?id=DUKE005689390\">5 Broken Cameras </a>(Arab/Israeli conflict) - DVD 23017</li><li><a href=\"https://search.library.duke.edu/search?id=DUKE005704498\">On Boys, Girsl and the Veil</a> (Middle East) - DVD 22933</li><li><a href=\"https://search.library.duke.edu/search?id=DUKE005704499\">Scheherazade, Tell Me a Story</a> (women in Egypt) - DVD 22931</li><li><a href=\"https://search.library.duke.edu/search?id=DUKE005704373\">Summer Thefts</a> (Egypt) - DVD 22932</li><li><a href=\"https://search.library.duke.edu/search?id=DUKE005731900\">Metal and Melancholy</a> (taxi drivers in Peru) - DVD 23012</li><li><a href=\"https://search.library.duke.edu/search?id=DUKE005684338\">Jiro Dreams of Sushi</a> (cooking) - DVD 22796</li><li><a href=\"https://search.library.duke.edu/search?id=DUKE005731046\">2016: Obama's America</a> - DVD 22965</li></ul><p><strong>LGBT Documentaries</strong></p><ul><li><a href=\"https://search.library.duke.edu/search?id=DUKE005731808\">Vintage Families of Value</a> - DVD 22963</li><li><a href=\"https://search.library.duke.edu/search?id=DUKE005326224\">Orientations</a> - DVD 22962</li><li><a href=\"https://search.library.duke.edu/search?id=DUKE005326216\">Black Nations / Queer Nations?</a> - DVD 22960</li><li><a href=\"https://search.library.duke.edu/search?id=DUKE005326215\">Marriage Equality</a> - DVD 22964</li><li><a href=\"https://search.library.duke.edu/search?id=DUKE005731807\">Jareena: Portrait of a Hijda</a> - DVD 22961</li></ul><p><strong>Television</strong></p><ul><li><a href=\"https://search.library.duke.edu/search?id=DUKE005732452\">Community (season two)</a> - DVD 23096</li></ul><p><strong>Film Noir</strong></p><ul><li><a href=\"https://search.library.duke.edu/search?id=DUKE005743579\">The Glass Key</a> - DVD 23239</li><li><a href=\"https://search.library.duke.edu/search?id=DUKE005743581\">Phantom Lady</a> - DVD 23240</li><li><a href=\"https://search.library.duke.edu/search?id=DUKE005743587\">The Blue Dahlia</a> - DVD 23241</li></ul><p><strong>Broadway Theatre</strong></p><ul><li><a href=\"https://search.library.duke.edu/search?id=DUKE005714143\">The Time of Your Life</a> - DVD 22922</li><li><a href=\"https://search.library.duke.edu/search?id=DUKE005688597\">O Youth and Beauty!</a> - DVD 22904</li><li><a href=\"https://search.library.duke.edu/search?id=DUKE005714157\">Paradise Lost</a> - DVD 22920</li><li><a href=\"https://search.library.duke.edu/search?id=DUKE005714092\">Particular Men</a> - DVD 22917</li><li><a href=\"https://search.library.duke.edu/search?id=DUKE005714071\">The Human Voice</a> - DVD 22916</li><li><a href=\"https://search.library.duke.edu/search?id=DUKE005714152\">The Good Doctor</a> - DVD 22918</li><li><a href=\"https://search.library.duke.edu/search?id=DUKE005714199\">Fifth of July</a> - DVD 22924</li><li><a href=\"https://search.library.duke.edu/search?id=DUKE005688595\">An Enemy of the People</a> - DVD 22905</li><li><a href=\"https://search.library.duke.edu/search?id=DUKE005713927\">Awake and Sing!</a> - DVD 22919</li><li><a href=\"https://search.library.duke.edu/search?id=DUKE005688602\">Steambath</a> - DVD 22903</li><li><a href=\"https://search.library.duke.edu/search?id=DUKE005688605\">Six Characters in Search of an Author</a> - DVD 22906</li><li><a href=\"https://search.library.duke.edu/search?id=DUKE005714191\">Sea Marks</a> - DVD 22925</li><li><a href=\"https://search.library.duke.edu/search?id=DUKE005714150\">The Typists</a> - DVD 22915</li><li><a href=\"https://search.library.duke.edu/search?id=DUKE005713918\">The Rimers of Eldritch</a> - DVD 22923</li><li><a href=\"https://search.library.duke.edu/search?id=DUKE005688689\">The Star Wagon</a> - DVD 22907</li><li><a href=\"https://search.library.duke.edu/search?id=DUKE005714080\">Tartuffe</a> - DVD 22921</li><li><a href=\"https://search.library.duke.edu/search?id=DUKE005714170\">Working</a> - DVD 22926</li></ul><p><strong>Shochiku Studio</strong></p><ul><li><a href=\"https://search.library.duke.edu/search?id=DUKE005741490\">The X from Outer Space</a> - DVD 23141</li><li><a href=\"https://search.library.duke.edu/search?id=DUKE005741492\">Goke, Body Snatcher from Hell</a> - DVD 23142</li><li><a href=\"https://search.library.duke.edu/search?id=DUKE005741494\">The Living Skeleton</a> - DVD 23143</li><li><a href=\"https://search.library.duke.edu/search?id=DUKE005741495\">Genocide</a> - DVD 23144</li></ul><p><strong>African Cinema</strong></p><ul><li><a href=\"https://search.library.duke.edu/search?id=DUKE005685290\">Keita: The Heritage of the Griot</a> - DVD 22830</li><li><a href=\"https://search.library.duke.edu/search?id=DUKE005685286\">Fathers</a> - DVD 22831</li><li><a href=\"https://search.library.duke.edu/search?id=DUKE005685293\">O Heroi</a> - DVD 22832</li><li><a href=\"https://search.library.duke.edu/search?id=DUKE005685281\">Mapantsula</a> - DVD 22811</li><li><a href=\"https://search.library.duke.edu/search?id=DUKE005684521\">Africa Dreaming</a> - DVD 22808</li><li><a href=\"https://search.library.duke.edu/search?id=DUKE005685283\">Adanggaman</a> - DVD 22813</li><li><a href=\"https://search.library.duke.edu/search?id=DUKE005685280\">Alex's Wedding</a> - DVD 22812</li><li><a href=\"https://search.library.duke.edu/search?id=DUKE005684492\">Tales of Ordinary People</a> - DVD 22810</li></ul><p><strong>Other DVDs</strong></p><ul><li><a href=\"https://search.library.duke.edu/search?id=DUKE004677729\">Unstoppable</a> - DVD 22897</li><li><a href=\"https://search.library.duke.edu/search?id=DUKE005685662\">Skin</a> - 22802</li><li><a href=\"https://search.library.duke.edu/search?id=DUKE005704690\">Quest for Fire</a> - DVD 22909</li><li><a href=\"https://search.library.duke.edu/search?id=DUKE005684551\">David &amp; Kamal</a> - DVD 22787</li><li><a href=\"https://search.library.duke.edu/search?id=DUKE005663301\">Confidence</a> (Szabo) - DVD 22861</li><li><a href=\"https://search.library.duke.edu/search?id=DUKE005664028\">Margaret</a> - DVD 22858</li><li><a href=\"https://search.library.duke.edu/search?id=DUKE005739075\">Where Do We Go Now?</a> - DVD 23117</li><li><a href=\"https://search.library.duke.edu/search?id=DUKE005739491\">When Nietzsche Wept</a> - DVD 23115</li><li><a href=\"https://search.library.duke.edu/search?id=DUKE005740219\">Second Generation</a> - DVD 23136</li><li><a href=\"https://search.library.duke.edu/search?id=DUKE005684334\">The Butcher, the Chef, and the Swordsman </a>- DVD 22794</li><li><a href=\"https://search.library.duke.edu/search?id=DUKE005685653\">Detective Dee and the Mystery of the Phantom Flame</a> - DVD 22820</li><li><a href=\"https://search.library.duke.edu/search?id=DUKE005741484\">Heaven's Gate</a> - DVD 23139</li><li><a href=\"https://search.library.duke.edu/search?id=DUKE005741488\">Purple Noon</a> - DVD 23140</li><li><a href=\"https://search.library.duke.edu/search?id=DUKE005664104\">1911 Revolution</a> (Jackie Chan) - DVD 22745</li><li><a href=\"https://search.library.duke.edu/search?id=DUKE005663693\">Beat Films</a> (Christopher MacLaine) - DVD 22914</li><li><a href=\"https://search.library.duke.edu/search?id=DUKE005741611\">The Day I Saw Your Heart</a> - DVD 23145</li><li><a href=\"https://search.library.duke.edu/search?id=DUKE005684533\">Nora's Will</a> - DVD 22786</li><li><a href=\"https://search.library.duke.edu/search?id=DUKE005585020\">Bel Ami</a> - DVD 23156</li><li><a href=\"https://search.library.duke.edu/search?id=DUKE005741896\">Spider Lilies</a> - DVD 23175</li><li><a href=\"https://search.library.duke.edu/search?id=DUKE005743342\">Drifting Flopwers</a> - DVD 23176</li><li><a href=\"https://search.library.duke.edu/search?id=DUKE005586211\">Headhunters</a> - DVD 23196</li></ul>",
      "delta" : 0,
      "deleted" : 0,
      "bundle" : "lilly_video_page",
      "body_format" : "full_html",
      "revision_id" : 2591,
      "entity_id" : 43,
      "body_summary" : ""
   },
   "node_field_data" : {
      "type" : "lilly_video_page",
      "status" : 1,
      "langcode" : "und",
      "changed" : null,
      "title" : "December 2012",
      "sticky" : 0,
      "promote" : 0,
      "created" : 1373916558,
      "default_langcode" : 1,
      "uid" : 1,
      "revision_translation_affected" : 1
   }
}

