{
   "field_image" : null,
   "node_access" : null,
   "field_tags" : [],
   "uuid" : "46594e68-79bb-4964-9fa7-991eb3a00919",
   "nid" : "137",
   "asidebox" : {
      "nid" : 137,
      "body_title" : "",
      "vid" : 2948,
      "bid" : null,
      "block_delta" : null,
      "status" : "disabled",
      "body_value" : null,
      "body_format" : null,
      "block_module" : null
   },
   "node_field_data" : {
      "sticky" : 0,
      "title" : "Online Scores / Sheet Music",
      "created" : 1379023406,
      "promote" : 0,
      "type" : "music_course_support_page",
      "langcode" : "und",
      "changed" : null,
      "status" : 1,
      "revision_translation_affected" : 1,
      "default_langcode" : 1,
      "uid" : 1
   },
   "node__body" : {
      "body_format" : "full_html",
      "revision_id" : 2948,
      "entity_id" : 137,
      "body_summary" : "",
      "langcode" : "und",
      "body_value" : "<h2>Find scores and sheet music online:</h2><ul class=\"bullet-green spacing-med\"><li><a href=\"https://find.library.duke.edu/catalog/DUKE009409358\" target=\"_blank\">Music Online. Classical Scores Library</a></li><li><a target=\"_blank\" href=\"http://imslp.org/\">IMSLP </a>(International Music Score Library Project)<br>One of the largest repositories of online scores</li><li><a target=\"_blank\" href=\"https://urresearch.rochester.edu/viewInstitutionalCollection.action?collectionId=63\">Sibley Music Library Musical Scores</a></li><li><a target=\"_blank\" href=\"https://repository.duke.edu/dc/quartets\">Classical String Quartets</a>&nbsp;at Duke University</li><li><a href=\"https://www.loc.gov/collections/cambini-collection/about-this-collection/\" target=\"_blank\">Cambini Quintets</a> at the Library of Congress</li><li><a target=\"_blank\" href=\"http://www.sscm-wlscm.org/\">WLSCM</a> (Web Library of Seventeenth-Century Music)</li><li><a target=\"_blank\" href=\"http://archives.nyphil.org/index.php\">New York Philharmonic Leon Levy Digital Archives</a></li><li><a href=\"https://escholarship.org/uc/uclamusicscores\" target=\"_blank\">Contemporary Music Score Collection</a> (UCLA Music Library)</li><li><a target=\"_blank\" href=\"http://www2.cpdl.org/wiki/index.php/Main_Page\">Choral Public Domain Library</a></li><li><a target=\"_blank\" href=\"http://www.diamm.ac.uk/\">DIAMM</a> (Digital Image Archive of Medieval Music)</li><li><a href=\"https://measuringpolyphony.org/\" target=\"_blank\">Measuring Polyphony</a>: Digital Encodings of Late Medieval Music</li><li><a href=\"https://www.birmingham.ac.uk/schools/lcahm/departments/music/research/ascima/index.aspx\" target=\"_blank\">Archive of Seventeenth-Century Italian Madrigals and Arias</a> (ASCIMA)</li><li><a target=\"_blank\" href=\"http://www.mutopiaproject.org/\">Mutopia Project</a></li><li><a target=\"_blank\" href=\"http://www.dlib.indiana.edu/variations/scores/\">Indiana University Variations Online Musical Scores</a></li><li><a target=\"_blank\" href=\"http://lcweb2.loc.gov/diglib/ihas/html/treasures/treasures-home.html\">Music Treasures Consortium</a>&nbsp;at the Library of Congress</li><li><a href=\"https://www.loc.gov/collections/pre-1700-musical-treasures/about-this-collection/\" target=\"_blank\">Pre-1700 Musical Treasures</a> at the Library of Congress</li><li><a href=\"https://www.loc.gov/collections/moldenhauer-archives/about-this-collection/\" target=\"_blank\">Moldenhauer Archives</a></li><li><a href=\"https://www.loc.gov/collections/american-choral-music/about-this-collection/\" target=\"_blank\">American Choral Music</a> at the Library of Congress</li><li><a href=\"https://www.themorgan.org/music\">Morgan Library &amp; Museum Music Manuscripts Online</a></li><li><a target=\"_blank\" href=\"https://find.library.duke.edu/catalog/DUKE003875667\">Gallica</a> (Bibliothèque nationale de France)</li><li><a href=\"https://sites.lib.byu.edu/obps/\">Opera &amp; Ballet Primary Sources</a></li><li><a target=\"_blank\" href=\"http://www.bl.uk/onlinegallery/index.html\">British Library Online Gallery</a></li><li><a target=\"_blank\" href=\"http://www.kb.dk/en/nb/samling/ma/digmus/index.html\" style=\"text-decoration-line: underline;\">Danish Royal Library Digital Music Archive</a></li><li><a target=\"_blank\" href=\"http://digital.library.unt.edu/explore/collections/VRBR/browse/\">University of North Texas Virtual Music Rare Book Room</a></li><li><a target=\"_blank\" href=\"http://chopin.lib.uchicago.edu/\">Chopin Early Editions</a></li><li><a href=\"https://www.loc.gov/collections/felix-mendelssohn/about-this-collection/\" target=\"_blank\">Felix Mendelssohn</a> at the Library of Congress</li><li><a href=\"http://www.marenzio.org/index.xhtml\" target=\"_blank\">Marenzio Online Digital Edition</a> (MODE)</li><li><a href=\"http://www.tassomusic.org/\" target=\"_blank\">Tasso in Music Project</a></li><li><a href=\"https://schubert-online.at/activpage/index.php?lang=E\" target=\"_blank\">Schubert Online</a>&nbsp;</li><li><a href=\"https://digitale-sammlungen.ulb.uni-bonn.de/ulbbnhans/topic/view/1080028\" target=\"_blank\">Schumann Autographs</a></li><li><a target=\"_blank\" href=\"http://dme.mozarteum.at/DME/nma/start.php?l=2\">New Mozart Digital Edition</a></li><li><a href=\"https://www.loc.gov/collections/aaron-copland/about-this-collection/\" target=\"_blank\">Aaron Copland Collection</a> at the Library of Congress</li><li><a href=\"https://www.loc.gov/collections/elliott-carter/about-this-collection/\" target=\"_blank\">Elliott Carter Collection</a> at the Library of Congress</li><li><a href=\"https://www.loc.gov/collections/ernest-bloch/about-this-collection/\" target=\"_blank\">Ernest Bloch Collection</a> at the Library of Congress</li><li><a href=\"https://www.loc.gov/collections/samuel-barber-at-the-library-of-congress/about-this-collection/\" target=\"_blank\">Samuel Barber</a> at the Library of Congress</li><li><a href=\"https://archive.org/details/austenfamilymusicbooks\" target=\"_blank\">The Austen Family Music Books</a></li><li><a href=\"http://www.sfsma.org/\">Silent Film Sound &amp; Music Archive</a></li><li><a href=\"http://library.duke.edu/digitalcollections/hasm/\">Historic American Sheet Music</a></li><li><a href=\"https://www.loc.gov/collections/african-american-band-music/about-this-collection/\" target=\"_blank\">African-American Band Music &amp; Recordings</a> at the Library of Congress</li><li><a target=\"_blank\" href=\"http://library.brown.edu/cds/sheetmusic/afam/about.html\">African American Sheet Music at Brown University</a></li><li><a target=\"_blank\" href=\"http://digital2.library.ucla.edu/sheetmusic/\">Sheet Music Consortium</a></li><li><a target=\"_blank\" href=\"http://www2.lib.unc.edu/dc/sheetmusic/\">19th-Century American Sheet Music</a></li><li><a href=\"https://library.soundingspirit.org/\" target=\"_blank\">Sounding Spirit Digital Library</a></li></ul><p style=\"padding-left: 30px;\"></p><p></p>",
      "deleted" : 0,
      "delta" : 0,
      "bundle" : "music_course_support_page"
   },
   "langcode" : "und",
   "type" : "music_course_support_page",
   "revisions" : [
      {
         "field_revision" : {
            "default_langcode" : 1,
            "langcode" : null,
            "changed" : null,
            "uid" : 1,
            "status" : 1,
            "created" : null,
            "sticky" : 0,
            "title" : "Online Scores / Sheet Music",
            "revision_translation_affected" : 1
         },
         "uid" : 18,
         "timestamp" : 1595559397,
         "log" : "",
         "title" : "Online Scores / Sheet Music",
         "sticky" : 0,
         "vuuid" : "1a0a51a8-b1ca-4012-9e69-a847c6d0cdbe",
         "node_revision__field_tags" : [],
         "promote" : 0,
         "node_revision__body" : {
            "revision_id" : 2948,
            "entity_id" : 137,
            "body_format" : "full_html",
            "body_summary" : "",
            "deleted" : 0,
            "delta" : 0,
            "langcode" : "und",
            "body_value" : "<h2>Find scores and sheet music online:</h2><ul class=\"bullet-green spacing-med\"><li><a href=\"https://find.library.duke.edu/catalog/DUKE009409358\" target=\"_blank\">Music Online. Classical Scores Library</a></li><li><a target=\"_blank\" href=\"http://imslp.org/\">IMSLP </a>(International Music Score Library Project)<br>One of the largest repositories of online scores</li><li><a target=\"_blank\" href=\"https://urresearch.rochester.edu/viewInstitutionalCollection.action?collectionId=63\">Sibley Music Library Musical Scores</a></li><li><a target=\"_blank\" href=\"https://repository.duke.edu/dc/quartets\">Classical String Quartets</a>&nbsp;at Duke University</li><li><a href=\"https://www.loc.gov/collections/cambini-collection/about-this-collection/\" target=\"_blank\">Cambini Quintets</a> at the Library of Congress</li><li><a target=\"_blank\" href=\"http://www.sscm-wlscm.org/\">WLSCM</a> (Web Library of Seventeenth-Century Music)</li><li><a target=\"_blank\" href=\"http://archives.nyphil.org/index.php\">New York Philharmonic Leon Levy Digital Archives</a></li><li><a href=\"https://escholarship.org/uc/uclamusicscores\" target=\"_blank\">Contemporary Music Score Collection</a> (UCLA Music Library)</li><li><a target=\"_blank\" href=\"http://www2.cpdl.org/wiki/index.php/Main_Page\">Choral Public Domain Library</a></li><li><a target=\"_blank\" href=\"http://www.diamm.ac.uk/\">DIAMM</a> (Digital Image Archive of Medieval Music)</li><li><a href=\"https://measuringpolyphony.org/\" target=\"_blank\">Measuring Polyphony</a>: Digital Encodings of Late Medieval Music</li><li><a href=\"https://www.birmingham.ac.uk/schools/lcahm/departments/music/research/ascima/index.aspx\" target=\"_blank\">Archive of Seventeenth-Century Italian Madrigals and Arias</a> (ASCIMA)</li><li><a target=\"_blank\" href=\"http://www.mutopiaproject.org/\">Mutopia Project</a></li><li><a target=\"_blank\" href=\"http://www.dlib.indiana.edu/variations/scores/\">Indiana University Variations Online Musical Scores</a></li><li><a target=\"_blank\" href=\"http://lcweb2.loc.gov/diglib/ihas/html/treasures/treasures-home.html\">Music Treasures Consortium</a>&nbsp;at the Library of Congress</li><li><a href=\"https://www.loc.gov/collections/pre-1700-musical-treasures/about-this-collection/\" target=\"_blank\">Pre-1700 Musical Treasures</a> at the Library of Congress</li><li><a href=\"https://www.loc.gov/collections/moldenhauer-archives/about-this-collection/\" target=\"_blank\">Moldenhauer Archives</a></li><li><a href=\"https://www.loc.gov/collections/american-choral-music/about-this-collection/\" target=\"_blank\">American Choral Music</a> at the Library of Congress</li><li><a href=\"https://www.themorgan.org/music\">Morgan Library &amp; Museum Music Manuscripts Online</a></li><li><a target=\"_blank\" href=\"https://find.library.duke.edu/catalog/DUKE003875667\">Gallica</a> (Bibliothèque nationale de France)</li><li><a href=\"https://sites.lib.byu.edu/obps/\">Opera &amp; Ballet Primary Sources</a></li><li><a target=\"_blank\" href=\"http://www.bl.uk/onlinegallery/index.html\">British Library Online Gallery</a></li><li><a target=\"_blank\" href=\"http://www.kb.dk/en/nb/samling/ma/digmus/index.html\" style=\"text-decoration-line: underline;\">Danish Royal Library Digital Music Archive</a></li><li><a target=\"_blank\" href=\"http://digital.library.unt.edu/explore/collections/VRBR/browse/\">University of North Texas Virtual Music Rare Book Room</a></li><li><a target=\"_blank\" href=\"http://chopin.lib.uchicago.edu/\">Chopin Early Editions</a></li><li><a href=\"https://www.loc.gov/collections/felix-mendelssohn/about-this-collection/\" target=\"_blank\">Felix Mendelssohn</a> at the Library of Congress</li><li><a href=\"http://www.marenzio.org/index.xhtml\" target=\"_blank\">Marenzio Online Digital Edition</a> (MODE)</li><li><a href=\"http://www.tassomusic.org/\" target=\"_blank\">Tasso in Music Project</a></li><li><a href=\"https://schubert-online.at/activpage/index.php?lang=E\" target=\"_blank\">Schubert Online</a>&nbsp;</li><li><a href=\"https://digitale-sammlungen.ulb.uni-bonn.de/ulbbnhans/topic/view/1080028\" target=\"_blank\">Schumann Autographs</a></li><li><a target=\"_blank\" href=\"http://dme.mozarteum.at/DME/nma/start.php?l=2\">New Mozart Digital Edition</a></li><li><a href=\"https://www.loc.gov/collections/aaron-copland/about-this-collection/\" target=\"_blank\">Aaron Copland Collection</a> at the Library of Congress</li><li><a href=\"https://www.loc.gov/collections/elliott-carter/about-this-collection/\" target=\"_blank\">Elliott Carter Collection</a> at the Library of Congress</li><li><a href=\"https://www.loc.gov/collections/ernest-bloch/about-this-collection/\" target=\"_blank\">Ernest Bloch Collection</a> at the Library of Congress</li><li><a href=\"https://www.loc.gov/collections/samuel-barber-at-the-library-of-congress/about-this-collection/\" target=\"_blank\">Samuel Barber</a> at the Library of Congress</li><li><a href=\"https://archive.org/details/austenfamilymusicbooks\" target=\"_blank\">The Austen Family Music Books</a></li><li><a href=\"http://www.sfsma.org/\">Silent Film Sound &amp; Music Archive</a></li><li><a href=\"http://library.duke.edu/digitalcollections/hasm/\">Historic American Sheet Music</a></li><li><a href=\"https://www.loc.gov/collections/african-american-band-music/about-this-collection/\" target=\"_blank\">African-American Band Music &amp; Recordings</a> at the Library of Congress</li><li><a target=\"_blank\" href=\"http://library.brown.edu/cds/sheetmusic/afam/about.html\">African American Sheet Music at Brown University</a></li><li><a target=\"_blank\" href=\"http://digital2.library.ucla.edu/sheetmusic/\">Sheet Music Consortium</a></li><li><a target=\"_blank\" href=\"http://www2.lib.unc.edu/dc/sheetmusic/\">19th-Century American Sheet Music</a></li><li><a href=\"https://library.soundingspirit.org/\" target=\"_blank\">Sounding Spirit Digital Library</a></li></ul><p style=\"padding-left: 30px;\"></p><p></p>",
            "bundle" : "music_course_support_page"
         },
         "status" : 1,
         "comment" : 1
      }
   ],
   "path_alias" : {
      "status" : 0,
      "langcode" : "und",
      "alias" : "/music/resources/online-scores-sheet-music",
      "pid" : 158,
      "language" : "und"
   },
   "vid" : 2948
}

