{
   "field_image" : null,
   "node_access" : null,
   "field_tags" : [],
   "nid" : "101",
   "uuid" : "4f2566c0-ffe6-44e3-9954-4b126fddb27b",
   "langcode" : "und",
   "type" : "about_lilly_library_page",
   "revisions" : [
      {
         "comment" : 1,
         "status" : 1,
         "node_revision__body" : {
            "body_value" : "<h2><strong>Lilly Library</strong></h2><p>Visit us&nbsp;on <a href=\"https://admissions.duke.edu/setting/campus\" target=\"_blank\">East Campus</a>, Home to Duke's <a href=\"https://studentaffairs.duke.edu/new-students\">First-Year</a> students.</p><h3><strong>Only in Lilly</strong></h3><h3></h3><h4><strong>Our People:</strong></h4><ul><li>Meet our <a href=\"/lilly/about/contact\">Staff.</a></li><li>Apply for <a href=\"/about/jobs/students\">Student Jobs</a> in Lilly.</li></ul><h4><strong>Our Collections:</strong></h4><ul><li>Where are the books? DVDs? Find them in our <a href=\"/lilly/about/locationguide\">Lilly location guide</a>.</li><li>Browse our <em>New Additions</em>: <a href=\"/lilly/new-additions\">Books</a> and <a href=\"/lilly/new-additions/videos-dvds\">Films</a></li><li>Explore our collections in <a href=\"https://search.library.duke.edu/search?Nty=1&amp;Ntk=Subject&amp;Ntt=art&amp;N=206484&amp;local-filter=TRUE&amp;affiliation=DUKE\">art</a>, <a href=\"https://search.library.duke.edu/search?Nr=OR%28210969%2cOR%28206474%29%29&amp;Ne=2+200043+206474+210899+210956&amp;N=210865+206437\">current literature</a>, <a href=\"https://search.library.duke.edu/search?Nty=1&amp;sort=0&amp;Ntk=Subject&amp;Nr=OR%28210969%2cOR%28206474%29%29&amp;Ne=2+200043+206474+210899+210956&amp;N=206484+206437&amp;Ntt=motion%20picture\">film</a>, <a href=\"https://search.library.duke.edu/search?Nty=1&amp;local-filter=TRUE&amp;affiliation=DUKE&amp;Ntk=Subject&amp;Ntt=dance&amp;N=206484\">dance</a>, <a href=\"https://guides.library.duke.edu/images\">images</a>&nbsp;&amp;&nbsp;<a href=\"https://guides.library.duke.edu/philosophy\">philosophy</a>.</li><li>32K and counting! Borrow DVDs and devilDVDs from our extensive <a href=\"/lilly/film-video\">film </a>collection.</li></ul><p><strong><img src=\"/east/sites/default/files/east/lilly-other/Thomas-Room-Fall-2012.jpg\" alt=\"Thomas Reading Room \" width=\"450\" height=\"287\" class=\"image-right img-responsive\"></strong></p><h3><strong>Insider Tips: get to know Lilly Library</strong></h3><ul><li>Choose your favorite spot to <a href=\"/lilly/about/study-spaces\">study</a>&nbsp;and work.</li><li>Learn more about the <a href=\"/services/firstyear\">First Year Library Experience</a> on East Campus.</li><li>View the <a title=\"Lilly Art Tour\" href=\"http://exhibits.library.duke.edu/exhibits/show/lillyarttour\" target=\"_blank\">Lilly Art Tour</a> to learn more about the artwork in the building.</li></ul><h3><strong>Do You Know?&nbsp; All about East:</strong></h3><ul><li>Who is that? Names behind East Campus&nbsp;<a href=\"/rubenstein/uarchives/history/exhibits/building-names/east\">building</a>s.</li><li>No men allowed? Learn about the <a href=\"/rubenstein/uarchives/history/articles/baldwin\">Woman's College</a> and its story.</li><li>What is beyond the Stone Wall?<br>Check out the neighborhood: <a href=\"https://www.opendurham.org/category/neighborhood/old-west-durham\">Old West Durham</a>.&nbsp;</li></ul>",
            "langcode" : "und",
            "delta" : 0,
            "deleted" : 0,
            "bundle" : "about_lilly_library_page",
            "body_format" : "full_html",
            "revision_id" : 2865,
            "entity_id" : 101,
            "body_summary" : ""
         },
         "promote" : 0,
         "node_revision__field_tags" : [],
         "vuuid" : "1b27bf22-1d1c-49e2-a822-ecfb5830bd9a",
         "title" : "About Us",
         "sticky" : 0,
         "timestamp" : 1564513856,
         "log" : "",
         "field_revision" : {
            "status" : 1,
            "uid" : 1,
            "langcode" : null,
            "changed" : null,
            "default_langcode" : 1,
            "revision_translation_affected" : 1,
            "title" : "About Us",
            "sticky" : 0,
            "created" : null
         },
         "uid" : 5
      }
   ],
   "path_alias" : {
      "alias" : "/lilly/about",
      "langcode" : "und",
      "status" : 0,
      "language" : "und",
      "pid" : 122
   },
   "vid" : 2865,
   "asidebox" : {
      "block_module" : null,
      "body_format" : "full_html",
      "body_value" : "<ul><li><a href=\"/lilly/about/directions\">Where is Lilly?</a></li><li><a href=\"/about/hours\">When is Lilly open?</a></li><li><a href=\"/lilly/about/contact\">Who can help you?</a></li><li><a href=\"https://library.duke.edu/residence-hall-librarian\">Who is my Residence Hall Librarian?</a></li></ul>",
      "status" : "html",
      "body_title" : "TOP QUESTIONS @ LILLY",
      "vid" : 2865,
      "nid" : 101,
      "block_delta" : null,
      "bid" : null
   },
   "node_field_data" : {
      "langcode" : "und",
      "changed" : null,
      "status" : 1,
      "type" : "about_lilly_library_page",
      "created" : 1376596899,
      "promote" : 0,
      "sticky" : 0,
      "title" : "About Us",
      "uid" : 1,
      "default_langcode" : 1,
      "revision_translation_affected" : 1
   },
   "node__body" : {
      "body_value" : "<h2><strong>Lilly Library</strong></h2><p>Visit us&nbsp;on <a href=\"https://admissions.duke.edu/setting/campus\" target=\"_blank\">East Campus</a>, Home to Duke's <a href=\"https://studentaffairs.duke.edu/new-students\">First-Year</a> students.</p><h3><strong>Only in Lilly</strong></h3><h3></h3><h4><strong>Our People:</strong></h4><ul><li>Meet our <a href=\"/lilly/about/contact\">Staff.</a></li><li>Apply for <a href=\"/about/jobs/students\">Student Jobs</a> in Lilly.</li></ul><h4><strong>Our Collections:</strong></h4><ul><li>Where are the books? DVDs? Find them in our <a href=\"/lilly/about/locationguide\">Lilly location guide</a>.</li><li>Browse our <em>New Additions</em>: <a href=\"/lilly/new-additions\">Books</a> and <a href=\"/lilly/new-additions/videos-dvds\">Films</a></li><li>Explore our collections in <a href=\"https://search.library.duke.edu/search?Nty=1&amp;Ntk=Subject&amp;Ntt=art&amp;N=206484&amp;local-filter=TRUE&amp;affiliation=DUKE\">art</a>, <a href=\"https://search.library.duke.edu/search?Nr=OR%28210969%2cOR%28206474%29%29&amp;Ne=2+200043+206474+210899+210956&amp;N=210865+206437\">current literature</a>, <a href=\"https://search.library.duke.edu/search?Nty=1&amp;sort=0&amp;Ntk=Subject&amp;Nr=OR%28210969%2cOR%28206474%29%29&amp;Ne=2+200043+206474+210899+210956&amp;N=206484+206437&amp;Ntt=motion%20picture\">film</a>, <a href=\"https://search.library.duke.edu/search?Nty=1&amp;local-filter=TRUE&amp;affiliation=DUKE&amp;Ntk=Subject&amp;Ntt=dance&amp;N=206484\">dance</a>, <a href=\"https://guides.library.duke.edu/images\">images</a>&nbsp;&amp;&nbsp;<a href=\"https://guides.library.duke.edu/philosophy\">philosophy</a>.</li><li>32K and counting! Borrow DVDs and devilDVDs from our extensive <a href=\"/lilly/film-video\">film </a>collection.</li></ul><p><strong><img src=\"/east/sites/default/files/east/lilly-other/Thomas-Room-Fall-2012.jpg\" alt=\"Thomas Reading Room \" width=\"450\" height=\"287\" class=\"image-right img-responsive\"></strong></p><h3><strong>Insider Tips: get to know Lilly Library</strong></h3><ul><li>Choose your favorite spot to <a href=\"/lilly/about/study-spaces\">study</a>&nbsp;and work.</li><li>Learn more about the <a href=\"/services/firstyear\">First Year Library Experience</a> on East Campus.</li><li>View the <a title=\"Lilly Art Tour\" href=\"http://exhibits.library.duke.edu/exhibits/show/lillyarttour\" target=\"_blank\">Lilly Art Tour</a> to learn more about the artwork in the building.</li></ul><h3><strong>Do You Know?&nbsp; All about East:</strong></h3><ul><li>Who is that? Names behind East Campus&nbsp;<a href=\"/rubenstein/uarchives/history/exhibits/building-names/east\">building</a>s.</li><li>No men allowed? Learn about the <a href=\"/rubenstein/uarchives/history/articles/baldwin\">Woman's College</a> and its story.</li><li>What is beyond the Stone Wall?<br>Check out the neighborhood: <a href=\"https://www.opendurham.org/category/neighborhood/old-west-durham\">Old West Durham</a>.&nbsp;</li></ul>",
      "langcode" : "und",
      "deleted" : 0,
      "delta" : 0,
      "bundle" : "about_lilly_library_page",
      "body_format" : "full_html",
      "entity_id" : 101,
      "revision_id" : 2865,
      "body_summary" : ""
   }
}

