{
   "node_access" : null,
   "field_image" : null,
   "nid" : "44",
   "uuid" : "5a1cd7d8-8452-48fa-a84f-041a3d919835",
   "field_tags" : [],
   "asidebox" : {
      "body_format" : null,
      "body_value" : null,
      "status" : "disabled",
      "block_module" : null,
      "block_delta" : null,
      "bid" : null,
      "nid" : 44,
      "vid" : 2645,
      "body_title" : ""
   },
   "node__body" : {
      "deleted" : 0,
      "delta" : 0,
      "body_value" : "<h2 style=\"text-align: center;\"><strong>&nbsp;January 2013</strong></h2><p><strong>Documentaries</strong></p><ul><li><a href=\"https://search.library.duke.edu/search?id=DUKE005732142\">The Autobiography of Nicolae Ceausescu</a> - DVD 23305</li><li><a href=\"https://search.library.duke.edu/search?id=DUKE004648762\">The Other Side of Immigration</a> - DVD 23259</li><li><a href=\"https://search.library.duke.edu/search?id=DUKE005752049\">Detropia</a> (postindustrial America) - DVD 23281</li><li><a href=\"https://search.library.duke.edu/search?id=DUKE005750213\">Far From Home</a> (school integration) - DVD 23281</li><li><a href=\"https://search.library.duke.edu/search?id=DUKE005732197\">The Dust Bowl</a> (Ken Burns) - DVD 23097</li><li><a href=\"https://search.library.duke.edu/search?id=DUKE005733053\">The Last Days&nbsp;of the USSR</a> - DVD 23086</li><li><a href=\"https://search.library.duke.edu/search?id=DUKE005732275\">Vietnam: A Television History</a> - DVD 23007</li><li><a href=\"https://search.library.duke.edu/search?id=DUKE005747352\">Michelangelo: Self Portrait </a>- DVD 23323</li><li><a href=\"https://search.library.duke.edu/search?id=DUKE005732224\">The First Ladies</a> - DVD 23011</li><li><a href=\"https://search.library.duke.edu/search?id=DUKE005732221\">The Presidents</a> (PBS) - DVD 23056 (17 discs)</li><li><a href=\"https://search.library.duke.edu/search?id=DUKE005732232\">Barak Obama</a> - DVD 23010</li><li><a href=\"https://search.library.duke.edu/search?id=DUKE005732280\">Ulysses S. Grant: Warrior / President</a>&nbsp;(PBS) - DVD 23006</li><li><a href=\"https://search.library.duke.edu/search?id=DUKE005732190\">Death in the Civil War</a> - DVD 23004</li><li><a href=\"https://search.library.duke.edu/search?id=DUKE005750613\">Programmed to be Fat?</a> - DVD 23270</li><li><a href=\"https://search.library.duke.edu/search?id=DUKE005732459\">Jeans: A Faded Blue Planet</a> - DVD 23099</li><li><a href=\"https://search.library.duke.edu/search?id=DUKE005732460\">Facebook Follies</a> - DVD 23018</li><li><a href=\"https://search.library.duke.edu/search?id=DUKE005746729\">Ai Weiwei: Never Sorry</a> (art) - DVD 23258</li></ul><p><strong>Documentaries About Film</strong></p><ul><li><a href=\"https://search.library.duke.edu/search?id=DUKE005189443\">Latinos Beyond Reel</a> - DVD 23204</li><li><a href=\"https://search.library.duke.edu/search?id=DUKE005731665\">Chantal Akerman, From Here</a> - DVD 23055</li><li><a href=\"https://search.library.duke.edu/search?id=DUKE005689400\">Free Radicals: A History of Experimental Film</a> - DVD 23016</li></ul><p><strong>Enviornmental Documentaries</strong></p><ul><li><a href=\"https://search.library.duke.edu/search?id=DUKE005741917\">One Ocean</a> - DVD 23162</li><li><a href=\"https://search.library.duke.edu/search?id=DUKE005727266\">Terra Blight</a> - DVD 23118</li><li><a href=\"https://search.library.duke.edu/search?id=DUKE005736630\">White Water Black Gold</a> - DVD 23021</li><li><a href=\"https://search.library.duke.edu/search?id=DUKE005736628\">Toxic Tears: The Darker Side of the Green Revolution</a> - DVD 23019</li></ul><p><strong>Revolutions Series</strong></p><ul><li><a href=\"https://search.library.duke.edu/search?id=DUKE005733000\">Africa</a> - DVD 23068</li><li><a href=\"https://search.library.duke.edu/search?id=DUKE005739835\">Argentina</a> - DVD 23069</li><li><a href=\"https://search.library.duke.edu/search?id=DUKE005739836\">Georgia</a> - DVD 23070</li><li><a href=\"https://search.library.duke.edu/search?id=DUKE005739837\">Haiti</a> - DVD 23071</li><li><a href=\"https://search.library.duke.edu/search?id=DUKE005739839\">Madagascar</a> - DVD 23072</li><li><a href=\"https://search.library.duke.edu/search?id=DUKE005739840\">Paraguay</a> - DVD 23073</li><li><a href=\"https://search.library.duke.edu/search?id=DUKE005739841\">Vietnam</a> - DVD 23074</li></ul><p><strong>Reel China Series</strong></p><ul><li><a href=\"https://search.library.duke.edu/search?id=DUKE005733015\">The Big Family</a> - DVD 23075</li><li><a href=\"https://search.library.duke.edu/search?id=DUKE005739848\">Hard Old Rock</a> - DVD 23076</li><li><a href=\"https://search.library.duke.edu/search?id=DUKE005739849\">The Last Village</a> - DVD 23077</li><li><a href=\"https://search.library.duke.edu/search?id=DUKE005739850\">Piano Dream</a> - DVD 23078</li><li><a href=\"https://search.library.duke.edu/search?id=DUKE005739852\">Three Strings for Two Storytellers</a> - DVD 23079</li></ul><p><strong>Television</strong></p><ul><li><a href=\"https://search.library.duke.edu/search?id=DUKE005746742\">North and South</a> - DVD 23261</li><li><a href=\"https://search.library.duke.edu/search?id=DUKE005746752\">Centennial</a> - DVD 23262</li><li><a href=\"https://search.library.duke.edu/search?id=DUKE005434050\">Everybody Hates Chris (season one)</a> - DVD 23324</li><li><a href=\"https://search.library.duke.edu/search?id=DUKE005755002\">Everybody Hates Chris (season two)</a> - DVD 23325</li><li><a href=\"https://search.library.duke.edu/search?id=DUKE005755003\">Everybody Hates Chris (season three)</a> - DVD 23326</li><li><a href=\"https://search.library.duke.edu/search?id=DUKE005755006\">Everybody Hates Chris (season four)</a> - DVD 23327</li><li><a href=\"https://search.library.duke.edu/search?id=DUKE005763520\">Scandal (season one)</a> - DVD 23383</li></ul><p><strong>Westerns</strong></p><ul><li><a href=\"https://search.library.duke.edu/search?id=DUKE005750293\">Sommersby</a> - DVD 23310</li><li><a href=\"https://search.library.duke.edu/search?id=DUKE005750291\">Rio Lobo</a> - DVD 23298</li><li><a href=\"https://search.library.duke.edu/search?id=DUKE005750217\">The Horse Soldiers</a> - DVD 23297</li><li><a href=\"https://search.library.duke.edu/search?id=DUKE005750294\">Chato's Land</a> - DVD 23296</li><li><a href=\"https://search.library.duke.edu/search?id=DUKE005750277\">Westbound</a> - DVD 23295</li><li><a href=\"https://search.library.duke.edu/search?id=DUKE005750280\">The Beguiled</a> - DVD 23313</li><li><a href=\"https://search.library.duke.edu/search?id=DUKE005750224\">Major Dundee</a> - DVD 23312</li><li><a href=\"https://search.library.duke.edu/search?id=DUKE005750297\">Escape from Fort Bravo</a> - DVD 23311</li><li><a href=\"https://search.library.duke.edu/search?id=DUKE005750289\">The Undefeated</a> - DVD 23314</li><li><a href=\"https://search.library.duke.edu/search?id=DUKE005750309\">Dark Command</a> - DVD 23332</li></ul><p><strong>Other DVDs</strong></p><ul><li><a href=\"https://search.library.duke.edu/search?id=DUKE005743330\">Class of '61</a> - DVD 23308</li><li><a href=\"https://search.library.duke.edu/search?id=DUKE005747257\">Cosmopolis</a> - DVD 23336</li><li><a href=\"https://search.library.duke.edu/search?id=DUKE005754930\">Dark City</a> - DVD 23347</li><li><a href=\"https://search.library.duke.edu/search?id=DUKE005753194\">Waterworld</a> - DVD 23345</li><li><a href=\"https://search.library.duke.edu/search?id=DUKE005750677\">The Gospel Road</a> - DVD 23337</li><li><a href=\"https://search.library.duke.edu/search?id=DUKE005753145\">War Witch</a> - DVD 23331</li><li><a href=\"https://search.library.duke.edu/search?id=DUKE005763471\">The Brothers Bloom </a>- DVD 23339</li><li><a href=\"https://search.library.duke.edu/search?id=DUKE005747365\">Compliance</a> - DVD 23334</li><li><a href=\"https://search.library.duke.edu/search?id=DUKE005746751\">A Year Without Love</a> - DVD 23260</li><li><a href=\"https://search.library.duke.edu/search?id=DUKE005743331\">The Great Water</a> - DVD 23307</li><li><a href=\"https://search.library.duke.edu/search?id=DUKE005750609\">Tous les Matins du Monde</a> - DVD 23316</li><li><a href=\"https://search.library.duke.edu/search?id=DUKE005750632\">Rich in Love</a> - DVD 23330</li><li><a href=\"https://search.library.duke.edu/search?id=DUKE005750608\">The Beautiful Person</a> - DVD 23315</li><li><a href=\"https://search.library.duke.edu/search?id=DUKE005750313\">The Last Confederate</a> - DVD 23328</li><li><a href=\"https://search.library.duke.edu/search?id=DUKE005747255\">Faust</a> (Sokurov) - DVD 23329</li><li><a href=\"https://search.library.duke.edu/search?id=DUKE005740224\">Park Row </a>(Sam Fuller) - DVD 23147</li><li><a href=\"https://search.library.duke.edu/search?id=DUKE005743580\">Santitos</a> - DVD 23200</li></ul>",
      "langcode" : "und",
      "bundle" : "lilly_video_page",
      "revision_id" : 2645,
      "entity_id" : 44,
      "body_format" : "full_html",
      "body_summary" : ""
   },
   "node_field_data" : {
      "langcode" : "und",
      "changed" : null,
      "status" : 1,
      "type" : "lilly_video_page",
      "created" : 1373986948,
      "promote" : 0,
      "sticky" : 0,
      "title" : "January 2013",
      "uid" : 1,
      "default_langcode" : 1,
      "revision_translation_affected" : 1
   },
   "type" : "lilly_video_page",
   "langcode" : "und",
   "vid" : 2645,
   "path_alias" : {
      "alias" : "/lilly/film-video/new-video-archives/january-2013",
      "status" : 0,
      "langcode" : "und",
      "pid" : 61,
      "language" : "und"
   },
   "revisions" : [
      {
         "title" : "January 2013",
         "sticky" : 0,
         "vuuid" : "0106c31c-4fb6-4a65-b5ee-c513bfa2c46f",
         "node_revision__field_tags" : [],
         "promote" : 0,
         "node_revision__body" : {
            "body_summary" : "",
            "body_format" : "full_html",
            "entity_id" : 44,
            "revision_id" : 2645,
            "bundle" : "lilly_video_page",
            "body_value" : "<h2 style=\"text-align: center;\"><strong>&nbsp;January 2013</strong></h2><p><strong>Documentaries</strong></p><ul><li><a href=\"https://search.library.duke.edu/search?id=DUKE005732142\">The Autobiography of Nicolae Ceausescu</a> - DVD 23305</li><li><a href=\"https://search.library.duke.edu/search?id=DUKE004648762\">The Other Side of Immigration</a> - DVD 23259</li><li><a href=\"https://search.library.duke.edu/search?id=DUKE005752049\">Detropia</a> (postindustrial America) - DVD 23281</li><li><a href=\"https://search.library.duke.edu/search?id=DUKE005750213\">Far From Home</a> (school integration) - DVD 23281</li><li><a href=\"https://search.library.duke.edu/search?id=DUKE005732197\">The Dust Bowl</a> (Ken Burns) - DVD 23097</li><li><a href=\"https://search.library.duke.edu/search?id=DUKE005733053\">The Last Days&nbsp;of the USSR</a> - DVD 23086</li><li><a href=\"https://search.library.duke.edu/search?id=DUKE005732275\">Vietnam: A Television History</a> - DVD 23007</li><li><a href=\"https://search.library.duke.edu/search?id=DUKE005747352\">Michelangelo: Self Portrait </a>- DVD 23323</li><li><a href=\"https://search.library.duke.edu/search?id=DUKE005732224\">The First Ladies</a> - DVD 23011</li><li><a href=\"https://search.library.duke.edu/search?id=DUKE005732221\">The Presidents</a> (PBS) - DVD 23056 (17 discs)</li><li><a href=\"https://search.library.duke.edu/search?id=DUKE005732232\">Barak Obama</a> - DVD 23010</li><li><a href=\"https://search.library.duke.edu/search?id=DUKE005732280\">Ulysses S. Grant: Warrior / President</a>&nbsp;(PBS) - DVD 23006</li><li><a href=\"https://search.library.duke.edu/search?id=DUKE005732190\">Death in the Civil War</a> - DVD 23004</li><li><a href=\"https://search.library.duke.edu/search?id=DUKE005750613\">Programmed to be Fat?</a> - DVD 23270</li><li><a href=\"https://search.library.duke.edu/search?id=DUKE005732459\">Jeans: A Faded Blue Planet</a> - DVD 23099</li><li><a href=\"https://search.library.duke.edu/search?id=DUKE005732460\">Facebook Follies</a> - DVD 23018</li><li><a href=\"https://search.library.duke.edu/search?id=DUKE005746729\">Ai Weiwei: Never Sorry</a> (art) - DVD 23258</li></ul><p><strong>Documentaries About Film</strong></p><ul><li><a href=\"https://search.library.duke.edu/search?id=DUKE005189443\">Latinos Beyond Reel</a> - DVD 23204</li><li><a href=\"https://search.library.duke.edu/search?id=DUKE005731665\">Chantal Akerman, From Here</a> - DVD 23055</li><li><a href=\"https://search.library.duke.edu/search?id=DUKE005689400\">Free Radicals: A History of Experimental Film</a> - DVD 23016</li></ul><p><strong>Enviornmental Documentaries</strong></p><ul><li><a href=\"https://search.library.duke.edu/search?id=DUKE005741917\">One Ocean</a> - DVD 23162</li><li><a href=\"https://search.library.duke.edu/search?id=DUKE005727266\">Terra Blight</a> - DVD 23118</li><li><a href=\"https://search.library.duke.edu/search?id=DUKE005736630\">White Water Black Gold</a> - DVD 23021</li><li><a href=\"https://search.library.duke.edu/search?id=DUKE005736628\">Toxic Tears: The Darker Side of the Green Revolution</a> - DVD 23019</li></ul><p><strong>Revolutions Series</strong></p><ul><li><a href=\"https://search.library.duke.edu/search?id=DUKE005733000\">Africa</a> - DVD 23068</li><li><a href=\"https://search.library.duke.edu/search?id=DUKE005739835\">Argentina</a> - DVD 23069</li><li><a href=\"https://search.library.duke.edu/search?id=DUKE005739836\">Georgia</a> - DVD 23070</li><li><a href=\"https://search.library.duke.edu/search?id=DUKE005739837\">Haiti</a> - DVD 23071</li><li><a href=\"https://search.library.duke.edu/search?id=DUKE005739839\">Madagascar</a> - DVD 23072</li><li><a href=\"https://search.library.duke.edu/search?id=DUKE005739840\">Paraguay</a> - DVD 23073</li><li><a href=\"https://search.library.duke.edu/search?id=DUKE005739841\">Vietnam</a> - DVD 23074</li></ul><p><strong>Reel China Series</strong></p><ul><li><a href=\"https://search.library.duke.edu/search?id=DUKE005733015\">The Big Family</a> - DVD 23075</li><li><a href=\"https://search.library.duke.edu/search?id=DUKE005739848\">Hard Old Rock</a> - DVD 23076</li><li><a href=\"https://search.library.duke.edu/search?id=DUKE005739849\">The Last Village</a> - DVD 23077</li><li><a href=\"https://search.library.duke.edu/search?id=DUKE005739850\">Piano Dream</a> - DVD 23078</li><li><a href=\"https://search.library.duke.edu/search?id=DUKE005739852\">Three Strings for Two Storytellers</a> - DVD 23079</li></ul><p><strong>Television</strong></p><ul><li><a href=\"https://search.library.duke.edu/search?id=DUKE005746742\">North and South</a> - DVD 23261</li><li><a href=\"https://search.library.duke.edu/search?id=DUKE005746752\">Centennial</a> - DVD 23262</li><li><a href=\"https://search.library.duke.edu/search?id=DUKE005434050\">Everybody Hates Chris (season one)</a> - DVD 23324</li><li><a href=\"https://search.library.duke.edu/search?id=DUKE005755002\">Everybody Hates Chris (season two)</a> - DVD 23325</li><li><a href=\"https://search.library.duke.edu/search?id=DUKE005755003\">Everybody Hates Chris (season three)</a> - DVD 23326</li><li><a href=\"https://search.library.duke.edu/search?id=DUKE005755006\">Everybody Hates Chris (season four)</a> - DVD 23327</li><li><a href=\"https://search.library.duke.edu/search?id=DUKE005763520\">Scandal (season one)</a> - DVD 23383</li></ul><p><strong>Westerns</strong></p><ul><li><a href=\"https://search.library.duke.edu/search?id=DUKE005750293\">Sommersby</a> - DVD 23310</li><li><a href=\"https://search.library.duke.edu/search?id=DUKE005750291\">Rio Lobo</a> - DVD 23298</li><li><a href=\"https://search.library.duke.edu/search?id=DUKE005750217\">The Horse Soldiers</a> - DVD 23297</li><li><a href=\"https://search.library.duke.edu/search?id=DUKE005750294\">Chato's Land</a> - DVD 23296</li><li><a href=\"https://search.library.duke.edu/search?id=DUKE005750277\">Westbound</a> - DVD 23295</li><li><a href=\"https://search.library.duke.edu/search?id=DUKE005750280\">The Beguiled</a> - DVD 23313</li><li><a href=\"https://search.library.duke.edu/search?id=DUKE005750224\">Major Dundee</a> - DVD 23312</li><li><a href=\"https://search.library.duke.edu/search?id=DUKE005750297\">Escape from Fort Bravo</a> - DVD 23311</li><li><a href=\"https://search.library.duke.edu/search?id=DUKE005750289\">The Undefeated</a> - DVD 23314</li><li><a href=\"https://search.library.duke.edu/search?id=DUKE005750309\">Dark Command</a> - DVD 23332</li></ul><p><strong>Other DVDs</strong></p><ul><li><a href=\"https://search.library.duke.edu/search?id=DUKE005743330\">Class of '61</a> - DVD 23308</li><li><a href=\"https://search.library.duke.edu/search?id=DUKE005747257\">Cosmopolis</a> - DVD 23336</li><li><a href=\"https://search.library.duke.edu/search?id=DUKE005754930\">Dark City</a> - DVD 23347</li><li><a href=\"https://search.library.duke.edu/search?id=DUKE005753194\">Waterworld</a> - DVD 23345</li><li><a href=\"https://search.library.duke.edu/search?id=DUKE005750677\">The Gospel Road</a> - DVD 23337</li><li><a href=\"https://search.library.duke.edu/search?id=DUKE005753145\">War Witch</a> - DVD 23331</li><li><a href=\"https://search.library.duke.edu/search?id=DUKE005763471\">The Brothers Bloom </a>- DVD 23339</li><li><a href=\"https://search.library.duke.edu/search?id=DUKE005747365\">Compliance</a> - DVD 23334</li><li><a href=\"https://search.library.duke.edu/search?id=DUKE005746751\">A Year Without Love</a> - DVD 23260</li><li><a href=\"https://search.library.duke.edu/search?id=DUKE005743331\">The Great Water</a> - DVD 23307</li><li><a href=\"https://search.library.duke.edu/search?id=DUKE005750609\">Tous les Matins du Monde</a> - DVD 23316</li><li><a href=\"https://search.library.duke.edu/search?id=DUKE005750632\">Rich in Love</a> - DVD 23330</li><li><a href=\"https://search.library.duke.edu/search?id=DUKE005750608\">The Beautiful Person</a> - DVD 23315</li><li><a href=\"https://search.library.duke.edu/search?id=DUKE005750313\">The Last Confederate</a> - DVD 23328</li><li><a href=\"https://search.library.duke.edu/search?id=DUKE005747255\">Faust</a> (Sokurov) - DVD 23329</li><li><a href=\"https://search.library.duke.edu/search?id=DUKE005740224\">Park Row </a>(Sam Fuller) - DVD 23147</li><li><a href=\"https://search.library.duke.edu/search?id=DUKE005743580\">Santitos</a> - DVD 23200</li></ul>",
            "langcode" : "und",
            "delta" : 0,
            "deleted" : 0
         },
         "status" : 1,
         "comment" : 1,
         "uid" : 3,
         "field_revision" : {
            "uid" : 1,
            "status" : 1,
            "langcode" : null,
            "changed" : null,
            "default_langcode" : 1,
            "created" : null,
            "revision_translation_affected" : 1,
            "sticky" : 0,
            "title" : "January 2013"
         },
         "log" : "",
         "timestamp" : 1507574145
      }
   ]
}

