{
   "node_field_data" : {
      "changed" : null,
      "langcode" : "und",
      "status" : 1,
      "type" : "about_lilly_library_page",
      "created" : 1374493576,
      "promote" : 0,
      "title" : "Iraq War",
      "sticky" : 0,
      "uid" : 1,
      "default_langcode" : 1,
      "revision_translation_affected" : 1
   },
   "node__body" : {
      "body_summary" : "",
      "revision_id" : 2639,
      "entity_id" : 78,
      "body_format" : "full_html",
      "bundle" : "about_lilly_library_page",
      "deleted" : 0,
      "delta" : 0,
      "body_value" : "<p align=\"justify\"><strong><a href=\"https://search.library.duke.edu/search?id=DUKE003801409\">Combat Diary: The Marines of Lima Company</a>&nbsp;-</strong> A personal look from the soldiers’ point of view of one of today’s most controversial topics. Shot firsthand by the soldiers of Lima Company, the hardest hit <span id=\"normalb\" class=\"text3\">combat</span> unit in Iraq, this features an honest and heartbreaking glimpse at today’s state of war. <strong>(DVD 7054)</strong></p><p align=\"justify\"><strong><a href=\"https://search.library.duke.edu/search?id=DUKE003847100\">Gitmo: The New Rules of War</a>&nbsp;-</strong> This documentary attempts to document what really goes on at America’s detention center in the war on terror - Guantanamo Bay, Cuba. <strong>(DVD 8169)</strong></p><p align=\"justify\"><strong><a href=\"https://search.library.duke.edu/search?id=DUKE003851532\">Voices of Iraq</a> -</strong> Documents the lives, hopes, and dreams of Iraqi mothers, children, teachers, sheiks, and insurgents during the upheaval of a nation being born. <strong>(DVD 8181)</strong></p><p align=\"justify\"><strong><a href=\"https://search.library.duke.edu/search?id=DUKE003560780\">Occupation Dreamland</a> -</strong> Follows the members of Alpha Company, 1st Battalion, 505th Parachute Regiment, 82nd Airborne Division, deployed in Falluja, Iraq, during the winter and spring of 2004, leading up to the Battle of Fallujah. <strong>(DVD 5587)</strong></p><p align=\"justify\"><strong><a href=\"https://search.library.duke.edu/search?id=DUKE003847101\">Ghosts of Abu Ghraib</a> -</strong> Interviews with perpetrators, witnesses, and victims examining the abuses that occurred in the fall of 2003 at the notorious Iraqi prison. Probes the psychology of how typical American men and women came to commit these atrocious acts. (<strong>DVD 8510)</strong></p><p align=\"justify\"><strong><a href=\"https://search.library.duke.edu/search?id=DUKE003793411\">Iraq for Sale: The War Profiteers</a>&nbsp;-</strong> Discusses the monetary cost of war and describes the misuse of funds that were intended <span id=\"normalb\" class=\"text3\">for</span> <span id=\"normalb\" class=\"text3\">Iraq</span>’s reconstruction. <strong>(DVD 6958)</strong></p><p align=\"justify\"><strong><a href=\"https://search.library.duke.edu/search?id=DUKE003801411\">Off to War: From Rural Arkansas to Iraq</a>&nbsp;-</strong> Tracks the citizen soldiers of the Arkansas National Guard as they come face <span id=\"normalb\" class=\"text3\">to</span> face with the horrors of <span id=\"normalb\" class=\"text3\">war</span>. Never before has a unit of soldiers been followed from the beginning <span id=\"normalb\" class=\"text3\">to</span> the end of their deployment at <span id=\"normalb\" class=\"text3\">war.</span> <strong>(DVD 6961)</strong></p><p align=\"justify\"><strong><a href=\"https://search.library.duke.edu/search?id=DUKE003387566\">Uncovered: The War on Iraq</a>&nbsp;-</strong> Top CIA analysts, UN weapons inspectors, Pentagon officials, politicians, and many others from both sides of the aisle dissect the evidence and evaluate the Bush administration’s case for leading the United States into war with Iraq. Directed by Robert Greenwald. <strong>(DVD 3848)</strong></p><p align=\"justify\"><strong><a href=\"https://search.library.duke.edu/search?id=DUKE003843589\">Iraq in Fragments</a> -</strong> Documentary <span id=\"normalb\" class=\"text3\">in</span> three parts. Offers a series of intimate, passionately-felt portraits: A fatherless 11-year-old is apprenticed to the domineering owner of a Baghdad garage; Sadr followers <span id=\"normalb\" class=\"text3\">in</span> two Shiite cities rally for regional elections while enforcing Islamic law at the point of a gun; a family of Kurdish farmers welcomes the U.S. presence, which has allowed them a measure of freedom previously denied. <strong>(DVD 8710)</strong></p><p align=\"justify\"><strong><a href=\"https://search.library.duke.edu/search?id=DUKE003846854\">The Ground Truth</a> -</strong> Documents the stories of American men and women who heeded the call for military service in Afghanistan and Iraq and the challenges they faced upon their return home. <strong>(DVD 7878)</strong></p><p align=\"justify\"><strong><a href=\"https://search.library.duke.edu/search?id=DUKE003773825\">Robbing the Cradle of Civilization: The Looting of Iraq's Ancient Treasures</a>&nbsp;-</strong> This television documentary investigates the looting of the Baghdad Museum in April 2003 during the invasion of Iraq. It also examines the illegal, international trade in antiquities, and its connection to the looting of the museum and to the pillaging of archaeological sites. <strong>(DVD 6598)</strong></p><p align=\"justify\"><strong><a href=\"https://search.library.duke.edu/search?id=DUKE003901323\">Buying the War</a> -</strong> In this program, veteran journalist Bill Moyers, award-winning producer Kathleen Hughes, and their investigative team piece together the reporting and political spin that shaped the public mind prior to, during, and following the 2003 invasion. <strong>(DVD 9293)</strong></p><p align=\"justify\"><strong><a href=\"https://search.library.duke.edu/search?id=DUKE003409410\">Control Room</a> -</strong> A chronicle which provides a rare window into the international perception of the Iraq War, courtesy of Al Jazeera, the Arab world’s most popular news outlet. Criticized by Cabinet members and Pentagon officials for reporting with a pro-Iraqi bias, and strongly condemned for frequently airing civilian casualties as well as footage of American POW’s, the station has revealed (and continues to show the world) everything about the Iraq War that the Bush administration does not want the public to see. <strong>(DVD 4031)</strong></p>",
      "langcode" : "und"
   },
   "asidebox" : {
      "block_module" : null,
      "body_value" : "<p style=\"text-align: center;\"><em><img src=\"/east/sites/default/files/east/lilly-video-images/combatdiary_0.jpg\" alt=\"combat-diary\" width=\"200\" height=\"133\"></em><br><em>Combat Diary</em></p><p style=\"text-align: center;\"><em><img src=\"/east/sites/default/files/east/lilly-video-images/abughraib_0.jpg\" alt=\"ghosts-of-abu-ghraib\" width=\"200\" height=\"173\"></em><br><em>Ghosts of Abu Ghraib</em></p><p style=\"text-align: center;\"><em><img src=\"/east/sites/default/files/east/lilly-video-images/Iraq_for_Sale_0.jpg\" alt=\"iraq-for-sale\" width=\"200\" height=\"264\"></em><br><em>Iraq for Sale</em></p><p style=\"text-align: center;\"><em><img src=\"/east/sites/default/files/east/lilly-video-images/iraqinfragments_0.jpg\" alt=\"iraq-in-fragments\" width=\"200\" height=\"150\"></em><br><em>Iraq in Fragments</em></p><p style=\"text-align: center;\"><em><img src=\"/east/sites/default/files/east/lilly-video-images/groundtruth2_0.jpg\" alt=\"ground-truth\" width=\"200\" height=\"135\"></em><br><em>The Ground Truth</em></p>",
      "body_format" : "full_html",
      "status" : "html",
      "bid" : null,
      "block_delta" : null,
      "body_title" : "",
      "vid" : 2639,
      "nid" : 78
   },
   "revisions" : [
      {
         "log" : "",
         "timestamp" : 1507574030,
         "uid" : 3,
         "field_revision" : {
            "title" : "Iraq War",
            "sticky" : 0,
            "revision_translation_affected" : 1,
            "created" : null,
            "default_langcode" : 1,
            "status" : 1,
            "uid" : 1,
            "langcode" : null,
            "changed" : null
         },
         "node_revision__body" : {
            "bundle" : "about_lilly_library_page",
            "deleted" : 0,
            "delta" : 0,
            "body_value" : "<p align=\"justify\"><strong><a href=\"https://search.library.duke.edu/search?id=DUKE003801409\">Combat Diary: The Marines of Lima Company</a>&nbsp;-</strong> A personal look from the soldiers’ point of view of one of today’s most controversial topics. Shot firsthand by the soldiers of Lima Company, the hardest hit <span id=\"normalb\" class=\"text3\">combat</span> unit in Iraq, this features an honest and heartbreaking glimpse at today’s state of war. <strong>(DVD 7054)</strong></p><p align=\"justify\"><strong><a href=\"https://search.library.duke.edu/search?id=DUKE003847100\">Gitmo: The New Rules of War</a>&nbsp;-</strong> This documentary attempts to document what really goes on at America’s detention center in the war on terror - Guantanamo Bay, Cuba. <strong>(DVD 8169)</strong></p><p align=\"justify\"><strong><a href=\"https://search.library.duke.edu/search?id=DUKE003851532\">Voices of Iraq</a> -</strong> Documents the lives, hopes, and dreams of Iraqi mothers, children, teachers, sheiks, and insurgents during the upheaval of a nation being born. <strong>(DVD 8181)</strong></p><p align=\"justify\"><strong><a href=\"https://search.library.duke.edu/search?id=DUKE003560780\">Occupation Dreamland</a> -</strong> Follows the members of Alpha Company, 1st Battalion, 505th Parachute Regiment, 82nd Airborne Division, deployed in Falluja, Iraq, during the winter and spring of 2004, leading up to the Battle of Fallujah. <strong>(DVD 5587)</strong></p><p align=\"justify\"><strong><a href=\"https://search.library.duke.edu/search?id=DUKE003847101\">Ghosts of Abu Ghraib</a> -</strong> Interviews with perpetrators, witnesses, and victims examining the abuses that occurred in the fall of 2003 at the notorious Iraqi prison. Probes the psychology of how typical American men and women came to commit these atrocious acts. (<strong>DVD 8510)</strong></p><p align=\"justify\"><strong><a href=\"https://search.library.duke.edu/search?id=DUKE003793411\">Iraq for Sale: The War Profiteers</a>&nbsp;-</strong> Discusses the monetary cost of war and describes the misuse of funds that were intended <span id=\"normalb\" class=\"text3\">for</span> <span id=\"normalb\" class=\"text3\">Iraq</span>’s reconstruction. <strong>(DVD 6958)</strong></p><p align=\"justify\"><strong><a href=\"https://search.library.duke.edu/search?id=DUKE003801411\">Off to War: From Rural Arkansas to Iraq</a>&nbsp;-</strong> Tracks the citizen soldiers of the Arkansas National Guard as they come face <span id=\"normalb\" class=\"text3\">to</span> face with the horrors of <span id=\"normalb\" class=\"text3\">war</span>. Never before has a unit of soldiers been followed from the beginning <span id=\"normalb\" class=\"text3\">to</span> the end of their deployment at <span id=\"normalb\" class=\"text3\">war.</span> <strong>(DVD 6961)</strong></p><p align=\"justify\"><strong><a href=\"https://search.library.duke.edu/search?id=DUKE003387566\">Uncovered: The War on Iraq</a>&nbsp;-</strong> Top CIA analysts, UN weapons inspectors, Pentagon officials, politicians, and many others from both sides of the aisle dissect the evidence and evaluate the Bush administration’s case for leading the United States into war with Iraq. Directed by Robert Greenwald. <strong>(DVD 3848)</strong></p><p align=\"justify\"><strong><a href=\"https://search.library.duke.edu/search?id=DUKE003843589\">Iraq in Fragments</a> -</strong> Documentary <span id=\"normalb\" class=\"text3\">in</span> three parts. Offers a series of intimate, passionately-felt portraits: A fatherless 11-year-old is apprenticed to the domineering owner of a Baghdad garage; Sadr followers <span id=\"normalb\" class=\"text3\">in</span> two Shiite cities rally for regional elections while enforcing Islamic law at the point of a gun; a family of Kurdish farmers welcomes the U.S. presence, which has allowed them a measure of freedom previously denied. <strong>(DVD 8710)</strong></p><p align=\"justify\"><strong><a href=\"https://search.library.duke.edu/search?id=DUKE003846854\">The Ground Truth</a> -</strong> Documents the stories of American men and women who heeded the call for military service in Afghanistan and Iraq and the challenges they faced upon their return home. <strong>(DVD 7878)</strong></p><p align=\"justify\"><strong><a href=\"https://search.library.duke.edu/search?id=DUKE003773825\">Robbing the Cradle of Civilization: The Looting of Iraq's Ancient Treasures</a>&nbsp;-</strong> This television documentary investigates the looting of the Baghdad Museum in April 2003 during the invasion of Iraq. It also examines the illegal, international trade in antiquities, and its connection to the looting of the museum and to the pillaging of archaeological sites. <strong>(DVD 6598)</strong></p><p align=\"justify\"><strong><a href=\"https://search.library.duke.edu/search?id=DUKE003901323\">Buying the War</a> -</strong> In this program, veteran journalist Bill Moyers, award-winning producer Kathleen Hughes, and their investigative team piece together the reporting and political spin that shaped the public mind prior to, during, and following the 2003 invasion. <strong>(DVD 9293)</strong></p><p align=\"justify\"><strong><a href=\"https://search.library.duke.edu/search?id=DUKE003409410\">Control Room</a> -</strong> A chronicle which provides a rare window into the international perception of the Iraq War, courtesy of Al Jazeera, the Arab world’s most popular news outlet. Criticized by Cabinet members and Pentagon officials for reporting with a pro-Iraqi bias, and strongly condemned for frequently airing civilian casualties as well as footage of American POW’s, the station has revealed (and continues to show the world) everything about the Iraq War that the Bush administration does not want the public to see. <strong>(DVD 4031)</strong></p>",
            "langcode" : "und",
            "body_summary" : "",
            "revision_id" : 2639,
            "entity_id" : 78,
            "body_format" : "full_html"
         },
         "comment" : 1,
         "status" : 1,
         "title" : "Iraq War",
         "sticky" : 0,
         "promote" : 0,
         "node_revision__field_tags" : [],
         "vuuid" : "ea2fe944-d94f-4d11-93ad-cab1bf492202"
      }
   ],
   "path_alias" : {
      "pid" : 95,
      "language" : "und",
      "status" : 0,
      "langcode" : "und",
      "alias" : "/lilly/film-video/spotlight/archives/iraq-war"
   },
   "vid" : 2639,
   "langcode" : "und",
   "type" : "about_lilly_library_page",
   "field_tags" : [],
   "uuid" : "5fb2c83c-da56-488d-a09d-3de914ef33b5",
   "nid" : "78",
   "field_image" : null,
   "node_access" : null
}

