{
   "field_image" : null,
   "node_access" : null,
   "field_tags" : [],
   "uuid" : "641806a6-b3d3-4abb-825b-473f6a2e63fb",
   "nid" : "79",
   "langcode" : "und",
   "type" : "about_lilly_library_page",
   "revisions" : [
      {
         "comment" : 1,
         "status" : 1,
         "node_revision__body" : {
            "body_summary" : "",
            "body_format" : "full_html",
            "entity_id" : 79,
            "revision_id" : 2635,
            "bundle" : "about_lilly_library_page",
            "body_value" : "<p align=\"justify\"><strong><a href=\"https://search.library.duke.edu/search?id=DUKE003133871\">The Seventh Seal</a> -</strong> In medieval Sweden a knight returns from war only to find a ravaged homeland. He meets up with a group of travelling players and eventually confronts the embodiment of death with whom he engages in a game of chess for his life. The knight and Death play as the cultural turmoil envelopes the people around them as they try, in different ways, to deal with the upheaval the plague has caused. <strong>(DVD 991)</strong></p><p align=\"justify\"><strong><a href=\"https://search.library.duke.edu/search?id=DUKE003145651\">Cries and Whispers</a> -</strong> A story of four women’s search for spiritual peace. Agnes, a spinster who lives with her housekeeper, is dying of cancer, and is visited one last time by her two sisters. <strong>(DVD 1165)</strong></p><p align=\"justify\"><strong><a href=\"https://search.library.duke.edu/search?id=DUKE003914756\">Sawdust and Tinsel </a>-</strong> A relationship between a turn-of-the-century traveling circus owner and his performer girlfriend suddenly changes, when they pull into the town where the owner’s wife and children live, whom he hasn’t seen in three years. <strong>(DVD 9538)</strong></p><p align=\"justify\"><strong><a href=\"https://search.library.duke.edu/search?id=DUKE003503879\">The Virgin Spring</a> -</strong> A peasant girl is raped and murdered in 14th century Sweden. When her killers seek shelter in her father’s house, he kills them to avenge her death. <strong>(DVD 5981)</strong></p><p align=\"justify\"><strong><a href=\"https://search.library.duke.edu/search?id=DUKE003285898\">Scenes from&nbsp;a Marriage</a> -</strong> Originally created as a six-part series for television, this film offers a close-up examination of a relationship as it slowly falls apart, and investigates the toll it takes on both parties. <strong>(DVD 2828)</strong></p><p align=\"justify\"><strong><a href=\"https://search.library.duke.edu/search?id=DUKE003421061\">Persona</a> -</strong> A famous actress is stricken with psychosomatic dumbness and is placed under a nurse’s care in an isolated house, where the two gradually assume each other’s personalities. <strong>(DVD 4058)</strong></p><p align=\"justify\"><strong><a href=\"https://search.library.duke.edu/search?id=DUKE003862031\">Port of Call </a>-</strong> A suicidal young woman living in a working-class <span id=\"normalb\" class=\"text3\">port</span> town unexpectedly falls for a sailor on leave. Haunted by a troubled past and held in a vice grip by her domineering mother, she hopes her new relationship might save her from self-destruction. <strong>(DVD 8265)</strong></p><p align=\"justify\"><strong><a href=\"https://search.library.duke.edu/search?id=DUKE003280111\">Through a Glass Darkly</a> -</strong> While vacationing in a remote island retreat, a family's already fragile ties are tested when Karin discovers her father, a writer,&nbsp;has been using her schizophrenia for his own literary means.&nbsp; <strong>(DVD 2762)</strong></p><p align=\"justify\"><strong><a href=\"https://search.library.duke.edu/search?id=DUKE003410094\">Fanny and Alexander</a> -</strong> Told through the eyes of <span id=\"normalb\" class=\"text3\">Alexander</span> and his sister <span id=\"normalb\" class=\"text3\">Fanny</span>, we see the exuberant and colorful Ekdahl household in a Swedish town early in the twentieth century. Their parents are the director and the leading lady of the local theatre company. Oscar’s mother and brother are its chief patrons. After&nbsp;their father's&nbsp;early death, his widow marries the bishop and moves with her children to his austere and forbidding chancery. The children are immediately miserable, but befriend a local Jewish merchant whose odd household becomes the children’s refuge. <strong>(DVD 3945)</strong></p><p align=\"justify\"><strong><a href=\"https://search.library.duke.edu/search?id=DUKE003280113\">Winter Light</a> -</strong> This compelling drama is set within a three-hour period on a Sunday afternoon in November, and begins when the local pastor is finishing his sermon. As of late, Pastor Ericsson has watched his congregation dwindle to a minimal level.&nbsp;<strong>(DVD 2764)</strong></p><p align=\"justify\"><strong><a href=\"https://search.library.duke.edu/search?id=DUKE003280112\">The Silence</a> -</strong> Traveling home by train through a country seemingly on the brink of war, two sisters - the sickly, intellectual Ester and the sensual, pragmatic Anna - along with Anna's young son, Johan,&nbsp;are forced to disembark in an unknown city for Ester to rest.&nbsp; (<strong>DVD 2763)</strong></p><p align=\"justify\"><strong><a href=\"https://search.library.duke.edu/search?id=DUKE003421063\">Hour of the Wolf</a> -</strong>&nbsp; Bergman's spin on the demons that plague his fellow creative artists. Max von Sydow&nbsp;plays a painter who, while spending a summer in seclusion with his pregnant wife Liv Ullmann, is visited by bizarre and disturbing visions. <strong>(DVD 4059)</strong></p><p align=\"justify\"><strong><a href=\"https://search.library.duke.edu/search?id=DUKE005447629\">Summer With Monika</a> -</strong> A promiscuous girl and young boy leave the city to spend an idyllic summer. When she becomes pregnant, they are forced to marry. After the child’s birth, she is unfaithful and heads for a life of prostitution. <strong>(DVD 22222)</strong></p><p><strong><a href=\"https://search.library.duke.edu/search?id=DUKE003068208\">Wild Strawberries</a> -</strong> A distinguished professor emeritus who lives alone with his housekeeper can only come to terms with his egocentricity by traveling back in time to his earliest youth, finding there the seeds of his failure as husband, lover, father. This film deals with the phenomena</p>",
            "langcode" : "und",
            "delta" : 0,
            "deleted" : 0
         },
         "node_revision__field_tags" : [],
         "promote" : 0,
         "vuuid" : "51ca4514-87f5-4b71-868b-eab383369ff9",
         "sticky" : 0,
         "title" : "Ingmar Bergman",
         "timestamp" : 1507573957,
         "log" : "",
         "field_revision" : {
            "default_langcode" : 1,
            "status" : 1,
            "uid" : 1,
            "langcode" : null,
            "changed" : null,
            "sticky" : 0,
            "title" : "Ingmar Bergman",
            "revision_translation_affected" : 1,
            "created" : null
         },
         "uid" : 3
      }
   ],
   "path_alias" : {
      "alias" : "/lilly/film-video/spotlight/archives/ingmar-bergman",
      "langcode" : "und",
      "status" : 0,
      "language" : "und",
      "pid" : 96
   },
   "vid" : 2635,
   "asidebox" : {
      "bid" : null,
      "block_delta" : null,
      "nid" : 79,
      "vid" : 2635,
      "body_title" : "",
      "status" : "html",
      "body_value" : "<p style=\"text-align: center;\"><em><img src=\"/east/sites/default/files/east/lilly-video-images/seventh_seal_0.jpg\" alt=\"seventh-seal\" width=\"200\" height=\"138\"></em><br><em>The Seventh Seal</em></p><p style=\"text-align: center;\"><em><img src=\"/east/sites/default/files/east/lilly-video-images/sawdustandtinsel_0.jpg\" alt=\"sawdust-and-tinsel\" width=\"200\" height=\"145\"></em><br><em>Sawdust and Tinsel</em></p><p style=\"text-align: center;\"><em><img src=\"/east/sites/default/files/east/lilly-video-images/persona_0.jpg\" alt=\"persona\" width=\"200\" height=\"144\"></em><br><em>Persona</em></p><p style=\"text-align: center;\"><em><img src=\"/east/sites/default/files/east/lilly-video-images/throughaglassdarkly_0.jpg\" alt=\"through-a-glass-darkly\" width=\"200\" height=\"138\"></em><br><em>Through a Glass Darkly</em></p><p style=\"text-align: center;\"><em><img src=\"/east/sites/default/files/east/lilly-video-images/silence_0.jpg\" alt=\"silence\" width=\"200\" height=\"144\"></em><br><em>The Silence</em></p><p style=\"text-align: center;\"><em><img src=\"/east/sites/default/files/east/lilly-video-images/summerwithmonkia_0.jpg\" alt=\"summer-with-monika\" width=\"200\" height=\"150\"></em><br><em>Summer with Monika</em></p>",
      "body_format" : "full_html",
      "block_module" : null
   },
   "node_field_data" : {
      "type" : "about_lilly_library_page",
      "changed" : null,
      "langcode" : "und",
      "status" : 1,
      "title" : "Ingmar Bergman",
      "sticky" : 0,
      "created" : 1374494141,
      "promote" : 0,
      "uid" : 1,
      "default_langcode" : 1,
      "revision_translation_affected" : 1
   },
   "node__body" : {
      "bundle" : "about_lilly_library_page",
      "body_value" : "<p align=\"justify\"><strong><a href=\"https://search.library.duke.edu/search?id=DUKE003133871\">The Seventh Seal</a> -</strong> In medieval Sweden a knight returns from war only to find a ravaged homeland. He meets up with a group of travelling players and eventually confronts the embodiment of death with whom he engages in a game of chess for his life. The knight and Death play as the cultural turmoil envelopes the people around them as they try, in different ways, to deal with the upheaval the plague has caused. <strong>(DVD 991)</strong></p><p align=\"justify\"><strong><a href=\"https://search.library.duke.edu/search?id=DUKE003145651\">Cries and Whispers</a> -</strong> A story of four women’s search for spiritual peace. Agnes, a spinster who lives with her housekeeper, is dying of cancer, and is visited one last time by her two sisters. <strong>(DVD 1165)</strong></p><p align=\"justify\"><strong><a href=\"https://search.library.duke.edu/search?id=DUKE003914756\">Sawdust and Tinsel </a>-</strong> A relationship between a turn-of-the-century traveling circus owner and his performer girlfriend suddenly changes, when they pull into the town where the owner’s wife and children live, whom he hasn’t seen in three years. <strong>(DVD 9538)</strong></p><p align=\"justify\"><strong><a href=\"https://search.library.duke.edu/search?id=DUKE003503879\">The Virgin Spring</a> -</strong> A peasant girl is raped and murdered in 14th century Sweden. When her killers seek shelter in her father’s house, he kills them to avenge her death. <strong>(DVD 5981)</strong></p><p align=\"justify\"><strong><a href=\"https://search.library.duke.edu/search?id=DUKE003285898\">Scenes from&nbsp;a Marriage</a> -</strong> Originally created as a six-part series for television, this film offers a close-up examination of a relationship as it slowly falls apart, and investigates the toll it takes on both parties. <strong>(DVD 2828)</strong></p><p align=\"justify\"><strong><a href=\"https://search.library.duke.edu/search?id=DUKE003421061\">Persona</a> -</strong> A famous actress is stricken with psychosomatic dumbness and is placed under a nurse’s care in an isolated house, where the two gradually assume each other’s personalities. <strong>(DVD 4058)</strong></p><p align=\"justify\"><strong><a href=\"https://search.library.duke.edu/search?id=DUKE003862031\">Port of Call </a>-</strong> A suicidal young woman living in a working-class <span id=\"normalb\" class=\"text3\">port</span> town unexpectedly falls for a sailor on leave. Haunted by a troubled past and held in a vice grip by her domineering mother, she hopes her new relationship might save her from self-destruction. <strong>(DVD 8265)</strong></p><p align=\"justify\"><strong><a href=\"https://search.library.duke.edu/search?id=DUKE003280111\">Through a Glass Darkly</a> -</strong> While vacationing in a remote island retreat, a family's already fragile ties are tested when Karin discovers her father, a writer,&nbsp;has been using her schizophrenia for his own literary means.&nbsp; <strong>(DVD 2762)</strong></p><p align=\"justify\"><strong><a href=\"https://search.library.duke.edu/search?id=DUKE003410094\">Fanny and Alexander</a> -</strong> Told through the eyes of <span id=\"normalb\" class=\"text3\">Alexander</span> and his sister <span id=\"normalb\" class=\"text3\">Fanny</span>, we see the exuberant and colorful Ekdahl household in a Swedish town early in the twentieth century. Their parents are the director and the leading lady of the local theatre company. Oscar’s mother and brother are its chief patrons. After&nbsp;their father's&nbsp;early death, his widow marries the bishop and moves with her children to his austere and forbidding chancery. The children are immediately miserable, but befriend a local Jewish merchant whose odd household becomes the children’s refuge. <strong>(DVD 3945)</strong></p><p align=\"justify\"><strong><a href=\"https://search.library.duke.edu/search?id=DUKE003280113\">Winter Light</a> -</strong> This compelling drama is set within a three-hour period on a Sunday afternoon in November, and begins when the local pastor is finishing his sermon. As of late, Pastor Ericsson has watched his congregation dwindle to a minimal level.&nbsp;<strong>(DVD 2764)</strong></p><p align=\"justify\"><strong><a href=\"https://search.library.duke.edu/search?id=DUKE003280112\">The Silence</a> -</strong> Traveling home by train through a country seemingly on the brink of war, two sisters - the sickly, intellectual Ester and the sensual, pragmatic Anna - along with Anna's young son, Johan,&nbsp;are forced to disembark in an unknown city for Ester to rest.&nbsp; (<strong>DVD 2763)</strong></p><p align=\"justify\"><strong><a href=\"https://search.library.duke.edu/search?id=DUKE003421063\">Hour of the Wolf</a> -</strong>&nbsp; Bergman's spin on the demons that plague his fellow creative artists. Max von Sydow&nbsp;plays a painter who, while spending a summer in seclusion with his pregnant wife Liv Ullmann, is visited by bizarre and disturbing visions. <strong>(DVD 4059)</strong></p><p align=\"justify\"><strong><a href=\"https://search.library.duke.edu/search?id=DUKE005447629\">Summer With Monika</a> -</strong> A promiscuous girl and young boy leave the city to spend an idyllic summer. When she becomes pregnant, they are forced to marry. After the child’s birth, she is unfaithful and heads for a life of prostitution. <strong>(DVD 22222)</strong></p><p><strong><a href=\"https://search.library.duke.edu/search?id=DUKE003068208\">Wild Strawberries</a> -</strong> A distinguished professor emeritus who lives alone with his housekeeper can only come to terms with his egocentricity by traveling back in time to his earliest youth, finding there the seeds of his failure as husband, lover, father. This film deals with the phenomena</p>",
      "langcode" : "und",
      "delta" : 0,
      "deleted" : 0,
      "body_summary" : "",
      "body_format" : "full_html",
      "entity_id" : 79,
      "revision_id" : 2635
   }
}

