{
   "field_image" : null,
   "node_access" : null,
   "field_tags" : [],
   "nid" : "86",
   "uuid" : "67f40682-41d9-467a-ab8b-e1129f763432",
   "asidebox" : {
      "vid" : 2633,
      "body_title" : "",
      "nid" : 86,
      "bid" : null,
      "block_delta" : null,
      "block_module" : null,
      "body_format" : "full_html",
      "body_value" : "<p style=\"text-align: center;\"><em><img src=\"/east/sites/default/files/east/lilly-video-images/panic-room_0.jpg\" alt=\"panic-room\" width=\"200\" height=\"134\"></em><br><em>Panic Room</em></p><p style=\"text-align: center;\"><em><img src=\"/east/sites/default/files/east/lilly-video-images/straw_dogs_0.jpg\" alt=\"straw-dogs\" width=\"200\" height=\"98\"></em><br><em>Straw Dogs</em></p><p style=\"text-align: center;\"><em><img src=\"/east/sites/default/files/east/lilly-video-images/wait-till-dark_0.jpg\" alt=\"wait-until-dark\" width=\"200\" height=\"113\"></em><br><em>Wait Until Dark</em></p><p style=\"text-align: center;\"><em><img src=\"/east/sites/default/files/east/lilly-video-images/funny_games_0.jpg\" alt=\"funny-games\" width=\"200\" height=\"130\"></em><br><em>Funny Games</em></p><p style=\"text-align: center;\"><em><img src=\"/east/sites/default/files/east/lilly-video-images/home-alone_0.jpg\" alt=\"home-alone\" width=\"200\" height=\"122\"></em><br><em>Home Alone</em></p><p style=\"text-align: center;\"><em><img src=\"/east/sites/default/files/east/lilly-video-images/sexy-beast2_0.jpg\" alt=\"sexy-beast\" width=\"200\" height=\"116\"></em><br><em>Sexy Beast</em></p><p style=\"text-align: center;\"><em><img src=\"/east/sites/default/files/east/lilly-video-images/cul-de-sac_0.jpg\" alt=\"cul-de-sac\" width=\"200\" height=\"143\"></em><br><em>Cul-de-Sac</em></p>",
      "status" : "html"
   },
   "node_field_data" : {
      "default_langcode" : 1,
      "uid" : 1,
      "revision_translation_affected" : 1,
      "type" : "about_lilly_library_page",
      "changed" : null,
      "langcode" : "und",
      "status" : 1,
      "sticky" : 0,
      "title" : "Home Invasions & Unwelcome Guests",
      "created" : 1374500703,
      "promote" : 0
   },
   "node__body" : {
      "bundle" : "about_lilly_library_page",
      "body_value" : "<p style=\"text-align: justify;\"><strong><a href=\"https://search.library.duke.edu/search?id=DUKE003399285\">Panic Room</a> -</strong> Trapped in their New York brownstone's panic room, a hidden chamber built as a sanctuary in the event of break-ins, newly divorced Meg and her daughter Sarah play a deadly game of cat-and-mouse with three intruders during a brutal home invasion.&nbsp;Starring Jodie Foster.&nbsp;<strong>(DVD 3346)</strong></p><p style=\"text-align: justify;\"><strong><a href=\"https://search.library.duke.edu/search?id=DUKE003387477\">Death and the Maiden</a> -</strong> Fifteen years ago, Paulina Escobar had her life shattered when she was taken prisoner and tortured by a sadistic doctor. Now, through a chance encounter, she may have found the man responsible for her nightmares and tonight he's going to pay. Based on a play by Ariel Dorfman. <strong>(DVD 3617)</strong></p><p style=\"text-align: justify;\"><strong><a href=\"https://search.library.duke.edu/search?id=DUKE003146980\">Straw Dogs</a> -</strong> David is a quiet American mathematician who has moved with his wife back to her hometown in rural England.&nbsp; When David hires a crew of locals to repair his barn, the men begin to harass the couple. The harassment continues and intensifies, yet David ignores it. Finally, the men push him too far. Directed by Sam Peckinpah. <strong>(DVD 1265)</strong></p><p style=\"text-align: justify;\"><strong><a href=\"https://search.library.duke.edu/search?id=DUKE003840929\">The Man Who Came to Dinner</a> -</strong> A pompous lecturer is forced to spend the winter inside a prominent Ohio family's home due to injury, and proceeds to meddle with the lives of everyone in the household. Based on a play by George S. Kaufman and Moss Hart. <strong>(DVD 7552)</strong></p><p style=\"text-align: justify;\"><strong><a href=\"https://search.library.duke.edu/search?id=DUKE003486365\">Wait Until Dark</a> -</strong> A photographer unwittingly smuggles a doll stuffed with heroin into New York City. His recently blinded wife, alone in their apartment, is first terrorized by hired crooks, and then by&nbsp;a psychopath, in search of the doll. Starring Audrey Hepburn.&nbsp;<strong>(DVD 5500)</strong></p><p style=\"text-align: justify;\"><strong><a href=\"https://search.library.duke.edu/search?id=DUKE003789443\">Bone</a> -</strong> Bone is a mysterious African American man who invades the home of a wealthy Beverly Hills couple. At first he demands money and sex, but soon finds himself embroiled the in the seemingly happy couple's rocky and complicated relationship. <strong>(DVD 6732)</strong></p><p style=\"text-align: justify;\"><strong><a href=\"https://search.library.duke.edu/search?id=DUKE003158970\">Funny Games</a> -</strong> At their lakeside vacation home, Ann, George and their son have unexpected visitors: two well-spoken, well-bred young men wearing polite smiles and preppy sportswear. Directed by Michael Hanaeke. <strong>(DVD 1572)</strong></p><p style=\"text-align: justify;\"><strong><a href=\"https://search.library.duke.edu/search?id=DUKE003213999\">The Ref</a> -</strong> An unfortunate cat burglar becomes trapped in a fate worse than jail when he takes a bickering couple and their annoying relatives hostage. Starring Kevin Spacey and Judy Davis. <strong>(DVD 1999)</strong></p><p style=\"text-align: justify;\"><strong><a href=\"https://search.library.duke.edu/search?id=DUKE004652973\">Home Alone</a> -</strong> Eight-year-old Kevin McCallister has become the man of the house, overnight! Accidentally left behind when his family rushes off on a Christmas vacation, Kevin gets busy decorating the house for the holidays as two bumbling burglars are trying to break in. <strong>(DVD 18528)</strong></p><p style=\"text-align: justify;\"><strong><a href=\"https://search.library.duke.edu/search?id=DUKE003196796\">See the Sea</a> -</strong> During a summer escape to the beautiful island of Yeu, Sasha's beginning to grow bored. She's been spending her days tending to her new baby daughter while awaiting the arrival of her husband from his office on the mainland.&nbsp;Tatiana, a&nbsp;brooding teen-aged backpacker, arrives in desperate need of a place to pitch her tent. It isn't long before&nbsp; an unbridled game of deception begins. Directed by François Ozon. <strong>(DVD 1791)</strong></p><p style=\"text-align: justify;\"><strong><a href=\"https://search.library.duke.edu/search?id=DUKE003112284\">Sexy Beast</a> -</strong> High voltage crime thriller that crackles with chilling style and wit. A savage gangster named Don Logan is met with resistance when he intrudes upon a retired pal for \"one last job\". But Logan just won't take no for an answer. Starring Ben Kingsley. <strong>(DVD 795)</strong></p><p style=\"text-align: justify;\"><strong><a href=\"https://cms-oit-01.oit.duke.edu/entity/DVD%2016072\">The Plumber</a> -</strong> One morning there is an unexpected knock on the door and Jilly opens it to a wild man who says he's the plumber. So begins five days of mental torment that will change her life. Directed by Peter Weir. <strong>(DVD 16072)</strong></p><p style=\"text-align: justify;\"><strong><a href=\"https://search.library.duke.edu/search?id=DUKE003158280\">Dead Calm</a> -</strong> John and Rae Ingram rescue the only surviving crew member of a crippled schooner, but after they bring him aboard their yacht they find themselves the targets of a deranged killer. Starring Nicole Kidman and Sam Neill. <strong>(DVD 1514)</strong></p><p style=\"text-align: justify;\"><strong><a href=\"https://search.library.duke.edu/search?id=DUKE005073905\">Cul-de-Sac</a> - </strong>A withdrawn couple's isolated house is infiltrated by a rude, burly gangster on the run. The three engage in role-playing games of sexual and emotional humiliations. An evocative, claustrophobic, and morbidly funny tale of the modern world in chaos. Starring Donald Pleasence and Françoise&nbsp;Dorléac. Directed by Roman Polanski. <strong>(DVD 20126)</strong></p>",
      "langcode" : "und",
      "delta" : 0,
      "deleted" : 0,
      "body_summary" : "",
      "body_format" : "full_html",
      "revision_id" : 2633,
      "entity_id" : 86
   },
   "langcode" : "und",
   "type" : "about_lilly_library_page",
   "revisions" : [
      {
         "node_revision__body" : {
            "delta" : 0,
            "deleted" : 0,
            "langcode" : "und",
            "body_value" : "<p style=\"text-align: justify;\"><strong><a href=\"https://search.library.duke.edu/search?id=DUKE003399285\">Panic Room</a> -</strong> Trapped in their New York brownstone's panic room, a hidden chamber built as a sanctuary in the event of break-ins, newly divorced Meg and her daughter Sarah play a deadly game of cat-and-mouse with three intruders during a brutal home invasion.&nbsp;Starring Jodie Foster.&nbsp;<strong>(DVD 3346)</strong></p><p style=\"text-align: justify;\"><strong><a href=\"https://search.library.duke.edu/search?id=DUKE003387477\">Death and the Maiden</a> -</strong> Fifteen years ago, Paulina Escobar had her life shattered when she was taken prisoner and tortured by a sadistic doctor. Now, through a chance encounter, she may have found the man responsible for her nightmares and tonight he's going to pay. Based on a play by Ariel Dorfman. <strong>(DVD 3617)</strong></p><p style=\"text-align: justify;\"><strong><a href=\"https://search.library.duke.edu/search?id=DUKE003146980\">Straw Dogs</a> -</strong> David is a quiet American mathematician who has moved with his wife back to her hometown in rural England.&nbsp; When David hires a crew of locals to repair his barn, the men begin to harass the couple. The harassment continues and intensifies, yet David ignores it. Finally, the men push him too far. Directed by Sam Peckinpah. <strong>(DVD 1265)</strong></p><p style=\"text-align: justify;\"><strong><a href=\"https://search.library.duke.edu/search?id=DUKE003840929\">The Man Who Came to Dinner</a> -</strong> A pompous lecturer is forced to spend the winter inside a prominent Ohio family's home due to injury, and proceeds to meddle with the lives of everyone in the household. Based on a play by George S. Kaufman and Moss Hart. <strong>(DVD 7552)</strong></p><p style=\"text-align: justify;\"><strong><a href=\"https://search.library.duke.edu/search?id=DUKE003486365\">Wait Until Dark</a> -</strong> A photographer unwittingly smuggles a doll stuffed with heroin into New York City. His recently blinded wife, alone in their apartment, is first terrorized by hired crooks, and then by&nbsp;a psychopath, in search of the doll. Starring Audrey Hepburn.&nbsp;<strong>(DVD 5500)</strong></p><p style=\"text-align: justify;\"><strong><a href=\"https://search.library.duke.edu/search?id=DUKE003789443\">Bone</a> -</strong> Bone is a mysterious African American man who invades the home of a wealthy Beverly Hills couple. At first he demands money and sex, but soon finds himself embroiled the in the seemingly happy couple's rocky and complicated relationship. <strong>(DVD 6732)</strong></p><p style=\"text-align: justify;\"><strong><a href=\"https://search.library.duke.edu/search?id=DUKE003158970\">Funny Games</a> -</strong> At their lakeside vacation home, Ann, George and their son have unexpected visitors: two well-spoken, well-bred young men wearing polite smiles and preppy sportswear. Directed by Michael Hanaeke. <strong>(DVD 1572)</strong></p><p style=\"text-align: justify;\"><strong><a href=\"https://search.library.duke.edu/search?id=DUKE003213999\">The Ref</a> -</strong> An unfortunate cat burglar becomes trapped in a fate worse than jail when he takes a bickering couple and their annoying relatives hostage. Starring Kevin Spacey and Judy Davis. <strong>(DVD 1999)</strong></p><p style=\"text-align: justify;\"><strong><a href=\"https://search.library.duke.edu/search?id=DUKE004652973\">Home Alone</a> -</strong> Eight-year-old Kevin McCallister has become the man of the house, overnight! Accidentally left behind when his family rushes off on a Christmas vacation, Kevin gets busy decorating the house for the holidays as two bumbling burglars are trying to break in. <strong>(DVD 18528)</strong></p><p style=\"text-align: justify;\"><strong><a href=\"https://search.library.duke.edu/search?id=DUKE003196796\">See the Sea</a> -</strong> During a summer escape to the beautiful island of Yeu, Sasha's beginning to grow bored. She's been spending her days tending to her new baby daughter while awaiting the arrival of her husband from his office on the mainland.&nbsp;Tatiana, a&nbsp;brooding teen-aged backpacker, arrives in desperate need of a place to pitch her tent. It isn't long before&nbsp; an unbridled game of deception begins. Directed by François Ozon. <strong>(DVD 1791)</strong></p><p style=\"text-align: justify;\"><strong><a href=\"https://search.library.duke.edu/search?id=DUKE003112284\">Sexy Beast</a> -</strong> High voltage crime thriller that crackles with chilling style and wit. A savage gangster named Don Logan is met with resistance when he intrudes upon a retired pal for \"one last job\". But Logan just won't take no for an answer. Starring Ben Kingsley. <strong>(DVD 795)</strong></p><p style=\"text-align: justify;\"><strong><a href=\"https://cms-oit-01.oit.duke.edu/entity/DVD%2016072\">The Plumber</a> -</strong> One morning there is an unexpected knock on the door and Jilly opens it to a wild man who says he's the plumber. So begins five days of mental torment that will change her life. Directed by Peter Weir. <strong>(DVD 16072)</strong></p><p style=\"text-align: justify;\"><strong><a href=\"https://search.library.duke.edu/search?id=DUKE003158280\">Dead Calm</a> -</strong> John and Rae Ingram rescue the only surviving crew member of a crippled schooner, but after they bring him aboard their yacht they find themselves the targets of a deranged killer. Starring Nicole Kidman and Sam Neill. <strong>(DVD 1514)</strong></p><p style=\"text-align: justify;\"><strong><a href=\"https://search.library.duke.edu/search?id=DUKE005073905\">Cul-de-Sac</a> - </strong>A withdrawn couple's isolated house is infiltrated by a rude, burly gangster on the run. The three engage in role-playing games of sexual and emotional humiliations. An evocative, claustrophobic, and morbidly funny tale of the modern world in chaos. Starring Donald Pleasence and Françoise&nbsp;Dorléac. Directed by Roman Polanski. <strong>(DVD 20126)</strong></p>",
            "bundle" : "about_lilly_library_page",
            "entity_id" : 86,
            "revision_id" : 2633,
            "body_format" : "full_html",
            "body_summary" : ""
         },
         "comment" : 1,
         "status" : 1,
         "sticky" : 0,
         "title" : "Home Invasions & Unwelcome Guests",
         "node_revision__field_tags" : [],
         "promote" : 0,
         "vuuid" : "a8dc7955-80f3-4b56-ac79-a3e8701c91a0",
         "timestamp" : 1507573925,
         "log" : "",
         "field_revision" : {
            "default_langcode" : 1,
            "status" : 1,
            "uid" : 1,
            "changed" : null,
            "langcode" : null,
            "sticky" : 0,
            "title" : "Home Invasions & Unwelcome Guests",
            "revision_translation_affected" : 1,
            "created" : null
         },
         "uid" : 3
      }
   ],
   "vid" : 2633,
   "path_alias" : {
      "pid" : 103,
      "language" : "und",
      "alias" : "/lilly/film-video/spotlight/archives/home-invasions",
      "status" : 0,
      "langcode" : "und"
   }
}

