{
   "revisions" : [
      {
         "field_revision" : {
            "revision_translation_affected" : 1,
            "title" : "Iranian Cinema",
            "sticky" : 0,
            "created" : null,
            "status" : 1,
            "uid" : 1,
            "changed" : null,
            "langcode" : null,
            "default_langcode" : 1
         },
         "uid" : 3,
         "timestamp" : 1507573993,
         "log" : "",
         "status" : 1,
         "comment" : 1,
         "node_revision__body" : {
            "body_format" : "full_html",
            "revision_id" : 2637,
            "entity_id" : 71,
            "body_summary" : "",
            "langcode" : "und",
            "body_value" : "<p style=\"text-align: justify;\"><strong><a href=\"https://search.library.duke.edu/search?id=DUKE002979967\">Taste of Cherry</a> -</strong> A middle-aged man embarks on an existential odyssey through the mountains just beyond Tehran.&nbsp; Directed by Abbas Kiarostami. <strong>(DVD 254)</strong></p><p style=\"text-align: justify;\"><strong><a href=\"https://search.library.duke.edu/search?id=DUKE004328663\">Close-up</a> -</strong> This docudrama comments on Iranian society. Ali Sabzian claims to a fellow passenger on the bus that he is the famous Iranian film director Mohsen Makhmalbaf. He then becomes involved with his fellow passenger and her family, claiming that he has cast the family's son in a major role. At some point this tale comes unravelled, and the family takes him to court. <strong>(DVD 17067)</strong>&nbsp;</p><p style=\"text-align: justify;\"><strong><a href=\"https://search.library.duke.edu/search?id=DUKE003145574\">Jewel Thief</a> -</strong> The son of the police chief is mistaken for a jewel thief and tries to help capture him by impersonating him. <strong>(DVD 1232)</strong></p><p style=\"text-align: justify;\"><strong><a href=\"https://search.library.duke.edu/search?id=DUKE003515694\">Unwanted Woman</a> -</strong>&nbsp;Searing tale about the struggles of women in modern-day Iran. Poor Sima puts up with her philandering and abusive husband, Ahmad. He is so blatant with his indiscretions that he asks Sima to cover for him when he plans a trip with his girlfriend Saba. <strong>(DVD 5521)</strong></p><p style=\"text-align: justify;\"><strong><a href=\"https://search.library.duke.edu/search?id=DUKE003396937\">The Cow</a> -</strong> Hasan, a peasant, is the only one in his small and poor village lucky enough to own a cow. He spoils the cow like a child and lives in perpetual fear that the inhabitants of a neighboring and hostile village will steal his cow.<strong> (DVD 3861)</strong></p><p style=\"text-align: justify;\"><strong><a href=\"https://search.library.duke.edu/search?id=DUKE003808199\">Iron Island</a> -</strong> A derelict oil tanker is home to cast-off members of the Sunni-Arab minority of Iran. When the owner decides to sell it, it is up to the self-proclaimed patriarch of the ship to provide a future for the people of his floating city, no matter the cost. <strong>(DVD 7237)</strong></p><p style=\"text-align: justify;\"><strong><a href=\"https://search.library.duke.edu/search?id=DUKE003464011\">The&nbsp;House is Black</a> -</strong> This film about the leprosy colony in Tabriz, Iran is a compassionate portrait of forgotten people. Straightforward yet sympathetic, the film affords dignity to its subjects, particularly through Forough Farrokhzad's striking poem read by the poet herself. It provides a vision of pain no caring human being should ignore. <strong>(DVD 4550)</strong></p><p style=\"text-align: justify;\"><strong><a href=\"https://search.library.duke.edu/search?id=DUKE003885154\">Hamoun</a> -</strong> The story of Hamid Hamoun, a business&nbsp;executive, who also works as a part-time English instructor. He feels alienated from Iranian society, bound by its conventions yet unwilling to abide by its rigid laws. His wife wants to divorce him but is unable to do so under Islamic law. Hamid's refusal to accept reality, or grant his wife the divorce she longs for, is both character study and metaphor for the condition of modern urban life in Iran. <strong>(DVD 11592)</strong></p><p style=\"text-align: justify;\"><strong><a href=\"https://search.library.duke.edu/search?id=DUKE003484968\">Blackboards</a> -</strong> A group of male teachers crosses the mountainous paths of the remote Iranian Kurdish region. The men wander from village to village in search of students, carrying large blackboards on their backs. The boards are sometime used as shelter, camouflage, and shields instead of for teaching purposes. One by one the men venture away from the group in search of students to teach. Along their way they must face other hardships and obstacles. <strong>(DVD 4972)</strong></p><p style=\"text-align: justify;\"><strong><a href=\"https://search.library.duke.edu/search?id=DUKE004225822\">The White Balloon</a> - </strong>A young girl's desire for a pretty goldfish her family cannot afford, sparks an adventure. <strong>(DVD 14947)</strong></p><p style=\"text-align: justify;\"><strong><a href=\"https://search.library.duke.edu/search?id=DUKE003121084\">The Hidden Half</a> - </strong>Khosro is sent from the president's office on a fact-finding mission to Shiraz, to investigate the complaints of a female political prisoner awaiting execution. Khosro's wife Fereshteh, being of the same generation as the prisoner, decides to do something about her situation. <strong>(DVD 891)</strong></p><p style=\"text-align: justify;\"><strong><a href=\"https://search.library.duke.edu/search?id=DUKE003429782\">Ten</a> -</strong> A portrait of contemporary Iran, as seen through the eyes of one woman as she drives through the streets of Tehran. Her journey is comprised of ten conversations with various female passengers, and shed light on the lives of these women whose voices are seldom heard. <strong>(DVD 4503)</strong></p><p style=\"text-align: justify;\"><strong><a href=\"https://search.library.duke.edu/search?id=DUKE004096482\">The Silence</a> -&nbsp;</strong>A hypnotic symphony of visual and aural rhythms. It follows the life of Khorshid, a blind 10-year-old boy who experiences life through hypnotic sounds and the music of the world. <strong>(DVD 13069)</strong></p><p style=\"text-align: justify;\"><strong><a href=\"https://search.library.duke.edu/search?id=DUKE003924773\">A Time for Drunken Horses</a> -</strong>&nbsp;&nbsp;Just off the Iraqi border in the cold and stark mountains of Iranian Kurdistan, a boy is forced into the smuggling trade and his sister into a loveless marriage in order to raise money to get medical treatment for his older brother. <strong>(DVD 9651)</strong></p>",
            "delta" : 0,
            "deleted" : 0,
            "bundle" : "about_lilly_library_page"
         },
         "vuuid" : "0804b8bd-bf6e-4799-b84c-2b0dbba259b5",
         "promote" : 0,
         "node_revision__field_tags" : [],
         "title" : "Iranian Cinema",
         "sticky" : 0
      }
   ],
   "path_alias" : {
      "language" : "und",
      "pid" : 88,
      "langcode" : "und",
      "status" : 0,
      "alias" : "/lilly/film-video/spotlight/archives/iranian-cinema"
   },
   "vid" : 2637,
   "langcode" : "und",
   "type" : "about_lilly_library_page",
   "node_field_data" : {
      "status" : 1,
      "changed" : null,
      "langcode" : "und",
      "type" : "about_lilly_library_page",
      "promote" : 0,
      "created" : 1374248959,
      "sticky" : 0,
      "title" : "Iranian Cinema",
      "default_langcode" : 1,
      "uid" : 1,
      "revision_translation_affected" : 1
   },
   "node__body" : {
      "bundle" : "about_lilly_library_page",
      "langcode" : "und",
      "body_value" : "<p style=\"text-align: justify;\"><strong><a href=\"https://search.library.duke.edu/search?id=DUKE002979967\">Taste of Cherry</a> -</strong> A middle-aged man embarks on an existential odyssey through the mountains just beyond Tehran.&nbsp; Directed by Abbas Kiarostami. <strong>(DVD 254)</strong></p><p style=\"text-align: justify;\"><strong><a href=\"https://search.library.duke.edu/search?id=DUKE004328663\">Close-up</a> -</strong> This docudrama comments on Iranian society. Ali Sabzian claims to a fellow passenger on the bus that he is the famous Iranian film director Mohsen Makhmalbaf. He then becomes involved with his fellow passenger and her family, claiming that he has cast the family's son in a major role. At some point this tale comes unravelled, and the family takes him to court. <strong>(DVD 17067)</strong>&nbsp;</p><p style=\"text-align: justify;\"><strong><a href=\"https://search.library.duke.edu/search?id=DUKE003145574\">Jewel Thief</a> -</strong> The son of the police chief is mistaken for a jewel thief and tries to help capture him by impersonating him. <strong>(DVD 1232)</strong></p><p style=\"text-align: justify;\"><strong><a href=\"https://search.library.duke.edu/search?id=DUKE003515694\">Unwanted Woman</a> -</strong>&nbsp;Searing tale about the struggles of women in modern-day Iran. Poor Sima puts up with her philandering and abusive husband, Ahmad. He is so blatant with his indiscretions that he asks Sima to cover for him when he plans a trip with his girlfriend Saba. <strong>(DVD 5521)</strong></p><p style=\"text-align: justify;\"><strong><a href=\"https://search.library.duke.edu/search?id=DUKE003396937\">The Cow</a> -</strong> Hasan, a peasant, is the only one in his small and poor village lucky enough to own a cow. He spoils the cow like a child and lives in perpetual fear that the inhabitants of a neighboring and hostile village will steal his cow.<strong> (DVD 3861)</strong></p><p style=\"text-align: justify;\"><strong><a href=\"https://search.library.duke.edu/search?id=DUKE003808199\">Iron Island</a> -</strong> A derelict oil tanker is home to cast-off members of the Sunni-Arab minority of Iran. When the owner decides to sell it, it is up to the self-proclaimed patriarch of the ship to provide a future for the people of his floating city, no matter the cost. <strong>(DVD 7237)</strong></p><p style=\"text-align: justify;\"><strong><a href=\"https://search.library.duke.edu/search?id=DUKE003464011\">The&nbsp;House is Black</a> -</strong> This film about the leprosy colony in Tabriz, Iran is a compassionate portrait of forgotten people. Straightforward yet sympathetic, the film affords dignity to its subjects, particularly through Forough Farrokhzad's striking poem read by the poet herself. It provides a vision of pain no caring human being should ignore. <strong>(DVD 4550)</strong></p><p style=\"text-align: justify;\"><strong><a href=\"https://search.library.duke.edu/search?id=DUKE003885154\">Hamoun</a> -</strong> The story of Hamid Hamoun, a business&nbsp;executive, who also works as a part-time English instructor. He feels alienated from Iranian society, bound by its conventions yet unwilling to abide by its rigid laws. His wife wants to divorce him but is unable to do so under Islamic law. Hamid's refusal to accept reality, or grant his wife the divorce she longs for, is both character study and metaphor for the condition of modern urban life in Iran. <strong>(DVD 11592)</strong></p><p style=\"text-align: justify;\"><strong><a href=\"https://search.library.duke.edu/search?id=DUKE003484968\">Blackboards</a> -</strong> A group of male teachers crosses the mountainous paths of the remote Iranian Kurdish region. The men wander from village to village in search of students, carrying large blackboards on their backs. The boards are sometime used as shelter, camouflage, and shields instead of for teaching purposes. One by one the men venture away from the group in search of students to teach. Along their way they must face other hardships and obstacles. <strong>(DVD 4972)</strong></p><p style=\"text-align: justify;\"><strong><a href=\"https://search.library.duke.edu/search?id=DUKE004225822\">The White Balloon</a> - </strong>A young girl's desire for a pretty goldfish her family cannot afford, sparks an adventure. <strong>(DVD 14947)</strong></p><p style=\"text-align: justify;\"><strong><a href=\"https://search.library.duke.edu/search?id=DUKE003121084\">The Hidden Half</a> - </strong>Khosro is sent from the president's office on a fact-finding mission to Shiraz, to investigate the complaints of a female political prisoner awaiting execution. Khosro's wife Fereshteh, being of the same generation as the prisoner, decides to do something about her situation. <strong>(DVD 891)</strong></p><p style=\"text-align: justify;\"><strong><a href=\"https://search.library.duke.edu/search?id=DUKE003429782\">Ten</a> -</strong> A portrait of contemporary Iran, as seen through the eyes of one woman as she drives through the streets of Tehran. Her journey is comprised of ten conversations with various female passengers, and shed light on the lives of these women whose voices are seldom heard. <strong>(DVD 4503)</strong></p><p style=\"text-align: justify;\"><strong><a href=\"https://search.library.duke.edu/search?id=DUKE004096482\">The Silence</a> -&nbsp;</strong>A hypnotic symphony of visual and aural rhythms. It follows the life of Khorshid, a blind 10-year-old boy who experiences life through hypnotic sounds and the music of the world. <strong>(DVD 13069)</strong></p><p style=\"text-align: justify;\"><strong><a href=\"https://search.library.duke.edu/search?id=DUKE003924773\">A Time for Drunken Horses</a> -</strong>&nbsp;&nbsp;Just off the Iraqi border in the cold and stark mountains of Iranian Kurdistan, a boy is forced into the smuggling trade and his sister into a loveless marriage in order to raise money to get medical treatment for his older brother. <strong>(DVD 9651)</strong></p>",
      "deleted" : 0,
      "delta" : 0,
      "body_summary" : "",
      "body_format" : "full_html",
      "entity_id" : 71,
      "revision_id" : 2637
   },
   "asidebox" : {
      "block_module" : null,
      "status" : "html",
      "body_value" : "<p style=\"text-align: center;\"><em><img src=\"/east/sites/default/files/east/lilly-video-images/closeup_0.jpg\" alt=\"close-up\" width=\"200\" height=\"150\"></em><br><em>Close-Up</em></p><p style=\"text-align: center;\"><em><img src=\"/east/sites/default/files/east/lilly-video-images/Cow_0.jpg\" alt=\"cow\" width=\"200\" height=\"158\"></em><br><em>The Cow</em></p><p style=\"text-align: center;\"><em><img src=\"/east/sites/default/files/east/lilly-video-images/houseisblack2_0.jpg\" alt=\"house-is-black\" width=\"200\" height=\"150\"></em><br><em>The House is Black</em></p><p style=\"text-align: center;\"><em><img src=\"/east/sites/default/files/east/lilly-video-images/blackboards_0.jpg\" alt=\"blackboards\" width=\"200\" height=\"140\"></em><br><em>Blackboards</em></p><p style=\"text-align: center;\"><em><img src=\"/east/sites/default/files/east/lilly-video-images/HiddenHalf_0.jpg\" alt=\"hidden-half\" width=\"200\" height=\"120\"></em><br><em>The Hidden Half</em></p><p style=\"text-align: center;\"><em><img src=\"/east/sites/default/files/east/lilly-video-images/time-for-drunken-horses_0.jpg\" alt=\"time-for-drunken-horses\" width=\"200\" height=\"127\"></em><br><em>A Time for Drunken Horses</em></p>",
      "body_format" : "full_html",
      "block_delta" : null,
      "bid" : null,
      "body_title" : "",
      "vid" : 2637,
      "nid" : 71
   },
   "field_tags" : [],
   "nid" : "71",
   "uuid" : "7a42818f-389e-4c6f-b093-6b1d9dea3c0b",
   "field_image" : null,
   "node_access" : null
}

