{
   "node_access" : null,
   "field_image" : null,
   "nid" : "56",
   "uuid" : "7a6502d6-a455-4a44-aadd-042e722523e2",
   "field_tags" : [],
   "type" : "about_lilly_library_page",
   "langcode" : "und",
   "path_alias" : {
      "langcode" : "und",
      "status" : 0,
      "alias" : "/lilly/film-video/spotlight/archives/future-imperfect",
      "language" : "und",
      "pid" : 73
   },
   "vid" : 2621,
   "revisions" : [
      {
         "node_revision__body" : {
            "body_format" : "full_html",
            "revision_id" : 2621,
            "entity_id" : 56,
            "body_summary" : "",
            "langcode" : "und",
            "body_value" : "<p align=\"justify\"><strong><a href=\"https://search.library.duke.edu/search?id=DUKE004658317\">A Clockwork Orange</a> -</strong> Depicts a harrowing journey through a near-future world of decaying cities, murderous adolescents and nightmarish technologies of punishment and crime. <strong>(DVD 18600)</strong></p><p align=\"justify\"><strong><a href=\"https://search.library.duke.edu/search?id=DUKE003788256\">Time of the Wolf</a> -</strong> An extremely timely and prescient piece of social commentary, this film follows a family's difficult journey immediately after an unknown apocalyptic event. The viewer is plunged directly into the terrifying aftermath, with all of its confusion, uncertainty, and danger. Directed by Michael Haneke. <strong>(DVD 6759)</strong></p><p align=\"justify\"><strong><a href=\"https://search.library.duke.edu/search?id=DUKE003139420\">Final Combat</a> -</strong> In a war-devastated world, one man escapes his Captain's power and in Paris joins forces with the Doctor to defend one of the last women on earth from the Brute. <strong>(DVD 1082)</strong></p><p align=\"justify\"><strong><a href=\"https://search.library.duke.edu/search?id=DUKE003841027\">Brazil</a> -</strong> In this surrealistic nightmare vision of a \"perfect\" future where technology reigns supreme, a daydreaming bureaucrat who is involved with an underground superhero and a beautiful mysterious woman becomes the tragic victim of his own romantic illusions. <strong>(DVD 7785)</strong></p><p align=\"justify\"><strong><a href=\"https://search.library.duke.edu/search?id=DUKE004280281\">Repo! The Genetic Opera</a> -</strong> In the not-so-distant future, a worldwide epidemic of organ failures devastates the planet. Out of the tragedy, a savior emerges called GENECO, a biotech company that offer organ transplants, but at a steep price. Those who miss their payments are scheduled for repossession and are hunted by the Repo Man.&nbsp;<strong>(DVD 15619)</strong></p><p align=\"justify\"><strong><a href=\"https://search.library.duke.edu/search?id=DUKE003388148\">The Handmaid's Tale</a> -</strong> Set in the near future, the handmaids of the title are women who can still bear children after the ravages of war caused wide-spread sterility. One of the handmaids, Kate, is caught trying to escape the Republic of Gilead and sent to the prison-like training center. She is sent from there to the home of the commander to bear his child, but revolutionary forces have other plans for her! <strong>(DVD 4627)</strong></p><p align=\"justify\"><strong><a href=\"https://search.library.duke.edu/search?id=DUKE003116964\">Seconds</a> -</strong> Desperate to escape his dreary, dead-end life, an aging banker succumbs to a mysterious organization's offer of a new identity and a fresh start. Surgically transformed into a handsome, young man, he begins a jet-set existence among a shadowy community of similar \"reborns.\" But his heady exhilaration spirals into a heart-stopping terror as he discovers that his newly purchased life carries a terrifying price. <strong>(DVD 833)</strong></p><p align=\"justify\"><strong><a href=\"https://search.library.duke.edu/search?id=DUKE003465653\">12 Monkeys</a> -</strong> An inmate from a futuristic prison is sent to the past to gather information about the virus that sent the human race to live underground.&nbsp;<strong>(DVD 4544)</strong></p><p align=\"justify\"><strong><a href=\"https://search.library.duke.edu/search?id=DUKE003114010\">The Sacrifice</a> -</strong> A dark and complex drama about redemption and the nuclear holocaust. When a middle aged intellectual in retirement on an island in the Baltic Seas witnesses signs of what he believes to be a nuclear holocaust, he offers to make the ultimate sacrifice in return for the salvation of mankind. <strong>(DVD 818)</strong></p><p align=\"justify\"><strong><a href=\"https://search.library.duke.edu/search?id=DUKE003841043\">Children of Men</a> -</strong> London, 2027. Humanity has become infertile and no child has been born for 18 years. Science is at loss to explain the reason. Immigration is a crime and regugees are caged like animals. African and East European societies have collapsed and their dwindling populations are migrating toward England and other wealthy nations. <strong>(DVD 7834)</strong></p><p align=\"justify\"><strong><a href=\"https://search.library.duke.edu/search?id=DUKE004062476\">Life After People</a> -</strong> What will the world be like when mankind is extinct? Cities will disappear. Our greatest masterpieces will fade and crumble. Journey to locations around the globe already going through the processes of a lack of human intervention. How long would it take before the last remnants of mankind completely disappeared? <strong>(DVD 12482)</strong></p><p align=\"justify\"><strong><a href=\"https://search.library.duke.edu/search?id=DUKE003146989\">Sleeper</a> -</strong> Miles Monroe (Woody Allen) enters the hospital in 1973 for a minor ulcer operation only to wake up 200 years later after being defrosted. As Miles tries to adjust to his new environment, he is re-programmed, de-programmed, chased by Big Brother-like police. <strong>(DVD 1288)</strong></p><p align=\"justify\"><strong><a href=\"https://search.library.duke.edu/search?id=DUKE004078524\">Threads</a>&nbsp;-</strong> Depicts the experiences of two English families during a global nuclear war, realistically portraying the breakdown of the support threads of a technologically advanced society. <strong>(DVD 12737)</strong></p><p align=\"justify\"><strong><a href=\"https://search.library.duke.edu/search?id=DUKE003515637\">The End of August at the Hotel Ozone</a> -</strong> Director Jan Schmidt paints a chilling, bleak picture of the future. Nuclear war has destroyed almost all civilization. A group of women has gone to primal barbarity to survive. They go in search for men to help them have children. <strong>(DVD 6255)</strong></p><p align=\"justify\"><strong><a href=\"https://search.library.duke.edu/search?id=DUKE003259189\">On the Beach</a> -</strong> Radioactive fallout from a nuclear war has wiped out the entire northern hemisphere, with the exception of Australia. With fallout expected momentarily, the Australians review their lives, establish new relationships and prepare for their tragic demise. <strong>(DVD 2529)</strong></p>",
            "deleted" : 0,
            "delta" : 0,
            "bundle" : "about_lilly_library_page"
         },
         "comment" : 1,
         "status" : 1,
         "sticky" : 0,
         "title" : "Future Imperfect",
         "promote" : 0,
         "node_revision__field_tags" : [],
         "vuuid" : "e2f218fd-b63a-48c8-af0f-840cd857c2bd",
         "timestamp" : 1507571571,
         "log" : "",
         "field_revision" : {
            "sticky" : 0,
            "title" : "Future Imperfect",
            "revision_translation_affected" : 1,
            "created" : null,
            "default_langcode" : 1,
            "uid" : 1,
            "status" : 1,
            "changed" : null,
            "langcode" : null
         },
         "uid" : 3
      }
   ],
   "asidebox" : {
      "bid" : null,
      "block_delta" : null,
      "nid" : 56,
      "vid" : 2621,
      "body_title" : "",
      "status" : "html",
      "body_format" : "full_html",
      "body_value" : "<p style=\"text-align: center;\"><img src=\"/east/sites/default/files/east/lilly-video-images/timeofthewolf_0.jpg\" alt=\"time-of-the-wolf\" width=\"200\" height=\"123\"><br><em>Time of the Wolf</em></p><p style=\"text-align: center;\"><em><img src=\"/east/sites/default/files/east/lilly-video-images/repo11_0.jpg\" alt=\"repo\" width=\"200\" height=\"145\"></em><br><em>Repo! The Genetic Opera</em></p><p style=\"text-align: center;\"><em><img src=\"/east/sites/default/files/east/lilly-video-images/handmaids-tale_0.jpg\" alt=\"handmaids-tale\" width=\"200\" height=\"120\"></em><br><em>The Handmaid's Tale</em></p><p style=\"text-align: center;\"><em><img src=\"/east/sites/default/files/east/lilly-video-images/seconds_0.jpg\" alt=\"seconds\" width=\"200\" height=\"139\"></em><br><em>Seconds</em></p><p style=\"text-align: center;\"><em><img src=\"/east/sites/default/files/east/lilly-video-images/children-of-men_0.jpg\" alt=\"children-of-men\" width=\"200\" height=\"152\"></em><br><em>Children of Men</em></p><p style=\"text-align: center;\"><em><img src=\"/east/sites/default/files/east/lilly-video-images/sleeper_0.jpg\" alt=\"sleeper\" width=\"200\" height=\"112\"></em><br><em>Sleeper</em></p><p style=\"text-align: center;\"><em><img src=\"/east/sites/default/files/east/lilly-video-images/on-the-beach_0.jpg\" alt=\"on-the-beach\" width=\"200\" height=\"156\"></em><br><em>On the Beach</em></p>",
      "block_module" : null
   },
   "node__body" : {
      "entity_id" : 56,
      "revision_id" : 2621,
      "body_format" : "full_html",
      "body_summary" : "",
      "deleted" : 0,
      "delta" : 0,
      "langcode" : "und",
      "body_value" : "<p align=\"justify\"><strong><a href=\"https://search.library.duke.edu/search?id=DUKE004658317\">A Clockwork Orange</a> -</strong> Depicts a harrowing journey through a near-future world of decaying cities, murderous adolescents and nightmarish technologies of punishment and crime. <strong>(DVD 18600)</strong></p><p align=\"justify\"><strong><a href=\"https://search.library.duke.edu/search?id=DUKE003788256\">Time of the Wolf</a> -</strong> An extremely timely and prescient piece of social commentary, this film follows a family's difficult journey immediately after an unknown apocalyptic event. The viewer is plunged directly into the terrifying aftermath, with all of its confusion, uncertainty, and danger. Directed by Michael Haneke. <strong>(DVD 6759)</strong></p><p align=\"justify\"><strong><a href=\"https://search.library.duke.edu/search?id=DUKE003139420\">Final Combat</a> -</strong> In a war-devastated world, one man escapes his Captain's power and in Paris joins forces with the Doctor to defend one of the last women on earth from the Brute. <strong>(DVD 1082)</strong></p><p align=\"justify\"><strong><a href=\"https://search.library.duke.edu/search?id=DUKE003841027\">Brazil</a> -</strong> In this surrealistic nightmare vision of a \"perfect\" future where technology reigns supreme, a daydreaming bureaucrat who is involved with an underground superhero and a beautiful mysterious woman becomes the tragic victim of his own romantic illusions. <strong>(DVD 7785)</strong></p><p align=\"justify\"><strong><a href=\"https://search.library.duke.edu/search?id=DUKE004280281\">Repo! The Genetic Opera</a> -</strong> In the not-so-distant future, a worldwide epidemic of organ failures devastates the planet. Out of the tragedy, a savior emerges called GENECO, a biotech company that offer organ transplants, but at a steep price. Those who miss their payments are scheduled for repossession and are hunted by the Repo Man.&nbsp;<strong>(DVD 15619)</strong></p><p align=\"justify\"><strong><a href=\"https://search.library.duke.edu/search?id=DUKE003388148\">The Handmaid's Tale</a> -</strong> Set in the near future, the handmaids of the title are women who can still bear children after the ravages of war caused wide-spread sterility. One of the handmaids, Kate, is caught trying to escape the Republic of Gilead and sent to the prison-like training center. She is sent from there to the home of the commander to bear his child, but revolutionary forces have other plans for her! <strong>(DVD 4627)</strong></p><p align=\"justify\"><strong><a href=\"https://search.library.duke.edu/search?id=DUKE003116964\">Seconds</a> -</strong> Desperate to escape his dreary, dead-end life, an aging banker succumbs to a mysterious organization's offer of a new identity and a fresh start. Surgically transformed into a handsome, young man, he begins a jet-set existence among a shadowy community of similar \"reborns.\" But his heady exhilaration spirals into a heart-stopping terror as he discovers that his newly purchased life carries a terrifying price. <strong>(DVD 833)</strong></p><p align=\"justify\"><strong><a href=\"https://search.library.duke.edu/search?id=DUKE003465653\">12 Monkeys</a> -</strong> An inmate from a futuristic prison is sent to the past to gather information about the virus that sent the human race to live underground.&nbsp;<strong>(DVD 4544)</strong></p><p align=\"justify\"><strong><a href=\"https://search.library.duke.edu/search?id=DUKE003114010\">The Sacrifice</a> -</strong> A dark and complex drama about redemption and the nuclear holocaust. When a middle aged intellectual in retirement on an island in the Baltic Seas witnesses signs of what he believes to be a nuclear holocaust, he offers to make the ultimate sacrifice in return for the salvation of mankind. <strong>(DVD 818)</strong></p><p align=\"justify\"><strong><a href=\"https://search.library.duke.edu/search?id=DUKE003841043\">Children of Men</a> -</strong> London, 2027. Humanity has become infertile and no child has been born for 18 years. Science is at loss to explain the reason. Immigration is a crime and regugees are caged like animals. African and East European societies have collapsed and their dwindling populations are migrating toward England and other wealthy nations. <strong>(DVD 7834)</strong></p><p align=\"justify\"><strong><a href=\"https://search.library.duke.edu/search?id=DUKE004062476\">Life After People</a> -</strong> What will the world be like when mankind is extinct? Cities will disappear. Our greatest masterpieces will fade and crumble. Journey to locations around the globe already going through the processes of a lack of human intervention. How long would it take before the last remnants of mankind completely disappeared? <strong>(DVD 12482)</strong></p><p align=\"justify\"><strong><a href=\"https://search.library.duke.edu/search?id=DUKE003146989\">Sleeper</a> -</strong> Miles Monroe (Woody Allen) enters the hospital in 1973 for a minor ulcer operation only to wake up 200 years later after being defrosted. As Miles tries to adjust to his new environment, he is re-programmed, de-programmed, chased by Big Brother-like police. <strong>(DVD 1288)</strong></p><p align=\"justify\"><strong><a href=\"https://search.library.duke.edu/search?id=DUKE004078524\">Threads</a>&nbsp;-</strong> Depicts the experiences of two English families during a global nuclear war, realistically portraying the breakdown of the support threads of a technologically advanced society. <strong>(DVD 12737)</strong></p><p align=\"justify\"><strong><a href=\"https://search.library.duke.edu/search?id=DUKE003515637\">The End of August at the Hotel Ozone</a> -</strong> Director Jan Schmidt paints a chilling, bleak picture of the future. Nuclear war has destroyed almost all civilization. A group of women has gone to primal barbarity to survive. They go in search for men to help them have children. <strong>(DVD 6255)</strong></p><p align=\"justify\"><strong><a href=\"https://search.library.duke.edu/search?id=DUKE003259189\">On the Beach</a> -</strong> Radioactive fallout from a nuclear war has wiped out the entire northern hemisphere, with the exception of Australia. With fallout expected momentarily, the Australians review their lives, establish new relationships and prepare for their tragic demise. <strong>(DVD 2529)</strong></p>",
      "bundle" : "about_lilly_library_page"
   },
   "node_field_data" : {
      "uid" : 1,
      "default_langcode" : 1,
      "revision_translation_affected" : 1,
      "status" : 1,
      "langcode" : "und",
      "changed" : null,
      "type" : "about_lilly_library_page",
      "promote" : 0,
      "created" : 1374164603,
      "title" : "Future Imperfect",
      "sticky" : 0
   }
}

