{
   "nid" : "48",
   "uuid" : "8084b9d0-9f03-4643-ad5d-53807fbe96d6",
   "field_tags" : [],
   "node_access" : null,
   "field_image" : null,
   "node__body" : {
      "bundle" : "lilly_video_page",
      "delta" : 0,
      "deleted" : 0,
      "body_value" : "<h2 align=\"center\"><strong>&nbsp;May 2013</strong></h2><p>&nbsp;<strong>Documentaries</strong></p><ul><li><a href=\"https://search.library.duke.edu/search?id=DUKE005836921\">Vol Special</a> (illegal immigrants) - DVD 24024</li><li><a href=\"https://search.library.duke.edu/search?id=DUKE005834719\">Beyond Gay: The Politics of Pride</a> - DVD 23941</li><li><a href=\"https://search.library.duke.edu/search?id=DUKE005727578\">Cuban Roors, Bronx Stories</a> - DVD 23040</li><li><a href=\"https://search.library.duke.edu/search?id=DUKE005832537\">This is Cinerama</a> - DVD 23899</li><li><a href=\"https://search.library.duke.edu/search?id=DUKE005832619\">Milton Glaser: To Inform and Delight</a> (graphic delight) - DVD 23908</li><li><a href=\"https://search.library.duke.edu/search?id=DUKE005832606\">Beyond Time</a> (William Turnbull) - DVD 23921</li></ul><p><strong>Masaki Kobayashi</strong></p><ul><li><a href=\"https://search.library.duke.edu/search?id=DUKE005845271\">The Thick-Walled Room</a> - DVD 23969</li><li><a href=\"https://search.library.duke.edu/search?id=DUKE005845272\">I Will Buy You</a> - DVD 23970</li><li><a href=\"https://search.library.duke.edu/search?id=DUKE005845273\">Black River </a>- DVD 23971</li><li><a href=\"https://search.library.duke.edu/search?id=DUKE005845274\">The Inheritance</a> - DVD 23972</li></ul><p><strong>Pierre Etaix</strong></p><ul><li><a href=\"https://search.library.duke.edu/search?id=DUKE005845275\">The Rupture / Happy Anniversary / The Suitor</a> - DVD 23973</li><li><a href=\"https://search.library.duke.edu/search?id=DUKE005845276\">Yoyo / As Long as You've Got Your Health / Feeling Good</a> - DVD 23974</li><li><a href=\"https://search.library.duke.edu/search?id=DUKE005845277\">Le Grand Amour / Land of Milk and Honey</a> - DVD 23975</li></ul><p><strong>Experimental Cinema / Video Art</strong></p><ul><li><a href=\"https://search.library.duke.edu/search?id=DUKE005775550\">California Trilogy</a> (James Benning) - DVD 23965</li><li><a href=\"https://search.library.duke.edu/search?id=DUKE005832541\">Rudy Burckhardt Films</a> - DVD 23926</li><li><a href=\"https://search.library.duke.edu/search?id=DUKE005832582\">William Wegman: Video Works 1970-1999</a> - DVD 23925</li><li><a href=\"https://search.library.duke.edu/search?id=DUKE005832599\">Seducing Time</a> (Lynn Hershaman Leeson) - DVD 23936</li><li><a href=\"https://search.library.duke.edu/search?id=DUKE005832580\">Wind in Our Hair</a> (Lynne Sachs) - DVD 23938</li><li><a href=\"https://search.library.duke.edu/search?id=DUKE005832578\">The Last Happy Day</a> (Lynne Sachs) - DVD 23923</li><li><a href=\"https://search.library.duke.edu/search?id=DUKE005832545\">Futurist Life Redux</a> - DVD 23922</li><li><a href=\"https://search.library.duke.edu/search?id=DUKE005832584\">Theater of Trasparency / 2000-2010</a> - DVD 23937</li></ul><p><strong>Other DVDs</strong></p><ul><li><a href=\"https://search.library.duke.edu/search?id=DUKE005824783\">The Intouchables</a> - DVD 23821</li><li><a href=\"https://search.library.duke.edu/search?id=DUKE005821309\">My Lucky Elephant</a> - DVD 23830</li><li><a href=\"https://search.library.duke.edu/search?id=DUKE005828562\">North Sea Texas</a> - DVD 23824</li><li><a href=\"https://search.library.duke.edu/search?id=DUKE005847730\">Mediterraneo</a> - DVD 24118</li><li><a href=\"https://search.library.duke.edu/search?id=DUKE005847733\">Profumo di Donna</a> - DVD 24051</li><li><a href=\"https://search.library.duke.edu/search?id=DUKE005847988\">The Net</a> - DVD 24056</li><li><a href=\"https://search.library.duke.edu/search?id=DUKE005847218\">Flirting</a> - DVD 24062</li></ul>",
      "langcode" : "und",
      "body_summary" : "",
      "entity_id" : 48,
      "revision_id" : 2665,
      "body_format" : "full_html"
   },
   "node_field_data" : {
      "revision_translation_affected" : 1,
      "default_langcode" : 1,
      "uid" : 1,
      "promote" : 0,
      "created" : 1374063694,
      "sticky" : 0,
      "title" : "May 2013",
      "status" : 1,
      "changed" : null,
      "langcode" : "und",
      "type" : "lilly_video_page"
   },
   "asidebox" : {
      "block_module" : null,
      "body_value" : null,
      "body_format" : null,
      "status" : "disabled",
      "vid" : 2665,
      "body_title" : "",
      "nid" : 48,
      "block_delta" : null,
      "bid" : null
   },
   "vid" : 2665,
   "path_alias" : {
      "pid" : 65,
      "language" : "und",
      "alias" : "/lilly/film-video/new-video-archives/may-2013",
      "status" : 0,
      "langcode" : "und"
   },
   "revisions" : [
      {
         "uid" : 3,
         "field_revision" : {
            "status" : 1,
            "uid" : 1,
            "langcode" : null,
            "changed" : null,
            "default_langcode" : 1,
            "created" : null,
            "revision_translation_affected" : 1,
            "sticky" : 0,
            "title" : "May 2013"
         },
         "log" : "",
         "timestamp" : 1507574692,
         "sticky" : 0,
         "title" : "May 2013",
         "vuuid" : "056dd78e-f56f-4676-a722-d4041661e827",
         "node_revision__field_tags" : [],
         "promote" : 0,
         "node_revision__body" : {
            "deleted" : 0,
            "delta" : 0,
            "body_value" : "<h2 align=\"center\"><strong>&nbsp;May 2013</strong></h2><p>&nbsp;<strong>Documentaries</strong></p><ul><li><a href=\"https://search.library.duke.edu/search?id=DUKE005836921\">Vol Special</a> (illegal immigrants) - DVD 24024</li><li><a href=\"https://search.library.duke.edu/search?id=DUKE005834719\">Beyond Gay: The Politics of Pride</a> - DVD 23941</li><li><a href=\"https://search.library.duke.edu/search?id=DUKE005727578\">Cuban Roors, Bronx Stories</a> - DVD 23040</li><li><a href=\"https://search.library.duke.edu/search?id=DUKE005832537\">This is Cinerama</a> - DVD 23899</li><li><a href=\"https://search.library.duke.edu/search?id=DUKE005832619\">Milton Glaser: To Inform and Delight</a> (graphic delight) - DVD 23908</li><li><a href=\"https://search.library.duke.edu/search?id=DUKE005832606\">Beyond Time</a> (William Turnbull) - DVD 23921</li></ul><p><strong>Masaki Kobayashi</strong></p><ul><li><a href=\"https://search.library.duke.edu/search?id=DUKE005845271\">The Thick-Walled Room</a> - DVD 23969</li><li><a href=\"https://search.library.duke.edu/search?id=DUKE005845272\">I Will Buy You</a> - DVD 23970</li><li><a href=\"https://search.library.duke.edu/search?id=DUKE005845273\">Black River </a>- DVD 23971</li><li><a href=\"https://search.library.duke.edu/search?id=DUKE005845274\">The Inheritance</a> - DVD 23972</li></ul><p><strong>Pierre Etaix</strong></p><ul><li><a href=\"https://search.library.duke.edu/search?id=DUKE005845275\">The Rupture / Happy Anniversary / The Suitor</a> - DVD 23973</li><li><a href=\"https://search.library.duke.edu/search?id=DUKE005845276\">Yoyo / As Long as You've Got Your Health / Feeling Good</a> - DVD 23974</li><li><a href=\"https://search.library.duke.edu/search?id=DUKE005845277\">Le Grand Amour / Land of Milk and Honey</a> - DVD 23975</li></ul><p><strong>Experimental Cinema / Video Art</strong></p><ul><li><a href=\"https://search.library.duke.edu/search?id=DUKE005775550\">California Trilogy</a> (James Benning) - DVD 23965</li><li><a href=\"https://search.library.duke.edu/search?id=DUKE005832541\">Rudy Burckhardt Films</a> - DVD 23926</li><li><a href=\"https://search.library.duke.edu/search?id=DUKE005832582\">William Wegman: Video Works 1970-1999</a> - DVD 23925</li><li><a href=\"https://search.library.duke.edu/search?id=DUKE005832599\">Seducing Time</a> (Lynn Hershaman Leeson) - DVD 23936</li><li><a href=\"https://search.library.duke.edu/search?id=DUKE005832580\">Wind in Our Hair</a> (Lynne Sachs) - DVD 23938</li><li><a href=\"https://search.library.duke.edu/search?id=DUKE005832578\">The Last Happy Day</a> (Lynne Sachs) - DVD 23923</li><li><a href=\"https://search.library.duke.edu/search?id=DUKE005832545\">Futurist Life Redux</a> - DVD 23922</li><li><a href=\"https://search.library.duke.edu/search?id=DUKE005832584\">Theater of Trasparency / 2000-2010</a> - DVD 23937</li></ul><p><strong>Other DVDs</strong></p><ul><li><a href=\"https://search.library.duke.edu/search?id=DUKE005824783\">The Intouchables</a> - DVD 23821</li><li><a href=\"https://search.library.duke.edu/search?id=DUKE005821309\">My Lucky Elephant</a> - DVD 23830</li><li><a href=\"https://search.library.duke.edu/search?id=DUKE005828562\">North Sea Texas</a> - DVD 23824</li><li><a href=\"https://search.library.duke.edu/search?id=DUKE005847730\">Mediterraneo</a> - DVD 24118</li><li><a href=\"https://search.library.duke.edu/search?id=DUKE005847733\">Profumo di Donna</a> - DVD 24051</li><li><a href=\"https://search.library.duke.edu/search?id=DUKE005847988\">The Net</a> - DVD 24056</li><li><a href=\"https://search.library.duke.edu/search?id=DUKE005847218\">Flirting</a> - DVD 24062</li></ul>",
            "langcode" : "und",
            "bundle" : "lilly_video_page",
            "revision_id" : 2665,
            "entity_id" : 48,
            "body_format" : "full_html",
            "body_summary" : ""
         },
         "status" : 1,
         "comment" : 1
      }
   ],
   "type" : "lilly_video_page",
   "langcode" : "und"
}

