{
   "node_access" : null,
   "field_image" : null,
   "nid" : "73",
   "uuid" : "8e785fdc-4898-4386-9d26-6715abb27edb",
   "field_tags" : [],
   "asidebox" : {
      "vid" : 2725,
      "body_title" : "",
      "nid" : 73,
      "bid" : null,
      "block_delta" : null,
      "block_module" : null,
      "status" : "html",
      "body_format" : "full_html",
      "body_value" : "<p style=\"text-align: center;\"><em><img src=\"/east/sites/default/files/east/lilly-video-images/fivehundreddaysofsummer_0.jpg\" alt=\"500-days-of-summer\" width=\"200\" height=\"120\"></em><br><em>(500) Days of Summer</em></p><p style=\"text-align: center;\"><em><img src=\"/east/sites/default/files/east/lilly-video-images/brokeback_0.jpg\" alt=\"brokeback-mountain\" width=\"200\" height=\"127\"></em><br><em>Brokeback Mountain</em></p><p style=\"text-align: center;\"><em><img src=\"/east/sites/default/files/east/lilly-video-images/inthemoodforlove-1_0.jpg\" alt=\"in-the-mood-for-love\" width=\"200\" height=\"121\"></em><br><em>In the Mood for Love</em></p><p style=\"text-align: center;\"><em><img src=\"/east/sites/default/files/east/lilly-video-images/crazy_heart_0.jpg\" alt=\"crazy-heart\" width=\"200\" height=\"133\"></em><br><em>Crazy Heart</em></p><p style=\"text-align: center;\"><em><img src=\"/east/sites/default/files/east/lilly-video-images/twofortheroad_0.jpg\" alt=\"two-for-the-road\" width=\"200\" height=\"150\"></em><br><em>Two for the Road</em></p><p style=\"text-align: center;\"><em><img src=\"/east/sites/default/files/east/lilly-video-images/casablanca_0.jpg\" alt=\"casablanca\" width=\"200\" height=\"137\"></em><br><em>Casablanca</em></p><p style=\"text-align: center;\"><em><img src=\"/east/sites/default/files/east/lilly-video-images/calendar_0.gif\" alt=\"calendar\" width=\"200\" height=\"154\"></em><br><em>Calendar</em></p>"
   },
   "node__body" : {
      "bundle" : "about_lilly_library_page",
      "deleted" : 0,
      "delta" : 0,
      "langcode" : "und",
      "body_value" : "<p style=\"text-align: justify;\"><strong><a href=\"https://search.library.duke.edu/search?id=DUKE004327042\">(500) Days of Summer</a> - </strong>For Tom, it was love at first sight when Summer Finn walked into the company where he worked. Although Summer does not believe in relationships or boyfriends, Tom and Summer become more than just friends. Through the trials and tribulations of Tom and Summer's relationship, Tom could always count on the advice of his two best friends. However, Tom is the one who ultimately has to make&nbsp;his own&nbsp;choice. <strong>(DVD 17012)</strong></p><p style=\"text-align: justify;\"><strong><a href=\"https://search.library.duke.edu/search?id=DUKE003788417\">Two Girls and a Guy</a>&nbsp;-</strong> When two young women (Heather Graham, Natasha Gregson Wagner) realize that they have the same boyfriend&nbsp;(Robert Downey Jr.)&nbsp;they take him on the wildest ride of his life. <strong>(DVD 6765)</strong></p><p style=\"text-align: justify;\"><strong><a href=\"https://search.library.duke.edu/search?id=DUKE003589103\">Brokeback Mountain</a> - </strong>It's 1963, a time when the lines between the sexes and sex roles were crisply delineated. Ennis Del Mar and Jack Twist find themselves thrown together when they are hired to tend sheep in the remote area of Brokeback Mountain, Wyoming. Ennis and Jack are inexorably drawn to each other through their proximity, loneliness and through a shared lack of tenderness and emotion in their lives and are emotionally, physically and psychically bonded to each other almost from the start. <strong>(DVD 5696)</strong></p><p style=\"text-align: justify;\"><strong><a href=\"https://search.library.duke.edu/search?id=DUKE002938372\">Brief Encounter</a> -</strong> In a London subway station, an attraction develops between two strangers (Trevor Howard, Celia Johnson)&nbsp;who are each married to someone else. Directed by David Lean.<strong> (DVD 215)</strong></p><p style=\"text-align: justify;\"><strong><a href=\"https://search.library.duke.edu/search?id=DUKE003211336\">In the Mood for Love</a> -</strong> In this lush, aching tale set in 1962 Hong Kong, a man and a woman, neighbors in an apartment building, discover that their respective spouses are engaged in an affair. They are soon drawn to one another, but fight to restrain themselves. Directed by Wong Kar-Wei.&nbsp;<strong>(DVD 1951)</strong></p><p style=\"text-align: justify;\"><strong><a href=\"https://search.library.duke.edu/search?id=DUKE003184204\">Annie Hall</a> -</strong> Woody Allen's semiautobiographical portrait of his amorous, but ultimately mismatched, relationship with co-star Diane Keaton. Allen uses satire and comedy to portray this \"nervous romance\" for modern times. Winner of the Best Picture Oscar. <strong>(DVD 1708)</strong></p><p style=\"text-align: justify;\"><strong><a href=\"https://search.library.duke.edu/search?id=DUKE003285898\">Scenes from a Marriage</a> -</strong> Ingmar Bergman's intimate, evocatively-filmed drama about marital turmoil.&nbsp; This made for TV film stars Liv Ullman and Erland Josephson. <strong>(DVD 2828)</strong></p><p style=\"text-align: justify;\"><strong><a href=\"https://search.library.duke.edu/search?id=DUKE004315946\">Crazy Heart</a> - </strong>The story of a country music star's rocky road to redemption. Bad Blake is a boozy, broken-down singer who reaches for salvation with the help of Jean, a journalist who discovers the real man behind the music. But will Bad's hard-livin' ways cost him his last chance at a comeback? <strong>(DVD 16384)</strong></p><p style=\"text-align: justify;\"><strong><a href=\"https://search.library.duke.edu/search?id=DUKE003946048\">5x2</a> -</strong> The story of a failed marriage told in reverse chronology, starting with the finalization of the couple's divorce and concluding, literally, as they walk off into the sunset for their first encounter. Directed by Francois Ozon. <strong>(DVD 10710)</strong></p><p style=\"text-align: justify;\"><strong><a href=\"https://search.library.duke.edu/search?id=DUKE003788399\">Two for the Road</a> -</strong> Joanna (Audrey Hepburn)&nbsp;is in a touring girl's choir and Mark (Albert Finney) is a struggling architect when they first meet on the road in Europe. The film follows their life together - through courtship and marriage, infidelity and parenthood - all on the road. <strong>(DVD 6963)</strong></p><p style=\"text-align: justify;\"><strong><a href=\"https://search.library.duke.edu/search?id=DUKE003136807\">The Unbearable Lightness of Being</a>&nbsp;-</strong> Tomas is a womanizer whose sexual appetite is never fully satisfied. He deeply loves his wife, Tereza; but, he only finds true understanding with his lover Sabina. Tomas struggles with the decision of whether to give up his freedom and commit to the love of one woman or to remain faithful to his promiscuous ways. <strong>(DVD 1045)</strong></p><p style=\"text-align: justify;\"><strong><a href=\"https://search.library.duke.edu/search?id=DUKE003000498\">Casablanca</a> -</strong>&nbsp;During World War II, Morocco is&nbsp;seething with European refugees desperate for passage to neutral Lisbon. Only a world-weary and bitter nightclub owner (Humphrey Bogart) can help a resistance-hero escape from the Nazis, but they are both in love with the same woman (Ingrid Bergman). <strong>(DVD 282) </strong></p><p style=\"text-align: justify;\"><strong><a href=\"https://search.library.duke.edu/search?id=DUKE003977967\">Shoot the Moon</a> -</strong> A famous writer (Albert Finney) and his wife (Diane Keaton) break up after 15 years, with four daughters watching. Directed by Alan Parker. <strong>(DVD 11408)</strong></p><p style=\"text-align: justify;\"><strong><a href=\"https://search.library.duke.edu/search?id=DUKE003866637\">Who's Afraid of Virgina Woolf?</a> - </strong>Martha and George are a bitter aging couple who, with the help of alcohol, use a young couple to fuel anguish and emotional pain towards each other. <strong>(DVD 8355)</strong></p><p style=\"text-align: justify;\"><strong><a href=\"https://search.library.duke.edu/search?id=DUKE004087098\">Baby, It's You</a> -</strong> Jill is a drama major headed for college. The 'Sheik' is a dropout headed for nowhere. Now, two of the most different people imaginable are on a collision course with first love. Directed by John Sayles. <strong>(DVD 12991)</strong></p><p style=\"text-align: justify;\"><strong><a href=\"https://search.library.duke.edu/search?id=DUKE003048161\">Calendar</a> -</strong> A self-absorbed Canadian-Armenian photograher is hired to take pictures of Armenian historical churches for a calendar. He takes his wife along as a translator, and as they traverse the sites chosen for the calendar with the Armenian guide, their relationship begins to unravel. <strong>(DVD 487)</strong></p>",
      "body_summary" : "",
      "entity_id" : 73,
      "revision_id" : 2725,
      "body_format" : "full_html"
   },
   "node_field_data" : {
      "langcode" : "und",
      "changed" : null,
      "status" : 1,
      "type" : "about_lilly_library_page",
      "created" : 1374255605,
      "promote" : 0,
      "title" : "The Trouble with Relationships",
      "sticky" : 0,
      "uid" : 1,
      "default_langcode" : 1,
      "revision_translation_affected" : 1
   },
   "type" : "about_lilly_library_page",
   "langcode" : "und",
   "path_alias" : {
      "language" : "und",
      "pid" : 90,
      "alias" : "/lilly/film-video/spotlight/archives/relationships",
      "langcode" : "und",
      "status" : 0
   },
   "vid" : 2725,
   "revisions" : [
      {
         "timestamp" : 1507576925,
         "log" : "",
         "field_revision" : {
            "default_langcode" : 1,
            "status" : 1,
            "uid" : 1,
            "changed" : null,
            "langcode" : null,
            "title" : "The Trouble with Relationships",
            "sticky" : 0,
            "revision_translation_affected" : 1,
            "created" : null
         },
         "uid" : 3,
         "node_revision__body" : {
            "bundle" : "about_lilly_library_page",
            "deleted" : 0,
            "delta" : 0,
            "body_value" : "<p style=\"text-align: justify;\"><strong><a href=\"https://search.library.duke.edu/search?id=DUKE004327042\">(500) Days of Summer</a> - </strong>For Tom, it was love at first sight when Summer Finn walked into the company where he worked. Although Summer does not believe in relationships or boyfriends, Tom and Summer become more than just friends. Through the trials and tribulations of Tom and Summer's relationship, Tom could always count on the advice of his two best friends. However, Tom is the one who ultimately has to make&nbsp;his own&nbsp;choice. <strong>(DVD 17012)</strong></p><p style=\"text-align: justify;\"><strong><a href=\"https://search.library.duke.edu/search?id=DUKE003788417\">Two Girls and a Guy</a>&nbsp;-</strong> When two young women (Heather Graham, Natasha Gregson Wagner) realize that they have the same boyfriend&nbsp;(Robert Downey Jr.)&nbsp;they take him on the wildest ride of his life. <strong>(DVD 6765)</strong></p><p style=\"text-align: justify;\"><strong><a href=\"https://search.library.duke.edu/search?id=DUKE003589103\">Brokeback Mountain</a> - </strong>It's 1963, a time when the lines between the sexes and sex roles were crisply delineated. Ennis Del Mar and Jack Twist find themselves thrown together when they are hired to tend sheep in the remote area of Brokeback Mountain, Wyoming. Ennis and Jack are inexorably drawn to each other through their proximity, loneliness and through a shared lack of tenderness and emotion in their lives and are emotionally, physically and psychically bonded to each other almost from the start. <strong>(DVD 5696)</strong></p><p style=\"text-align: justify;\"><strong><a href=\"https://search.library.duke.edu/search?id=DUKE002938372\">Brief Encounter</a> -</strong> In a London subway station, an attraction develops between two strangers (Trevor Howard, Celia Johnson)&nbsp;who are each married to someone else. Directed by David Lean.<strong> (DVD 215)</strong></p><p style=\"text-align: justify;\"><strong><a href=\"https://search.library.duke.edu/search?id=DUKE003211336\">In the Mood for Love</a> -</strong> In this lush, aching tale set in 1962 Hong Kong, a man and a woman, neighbors in an apartment building, discover that their respective spouses are engaged in an affair. They are soon drawn to one another, but fight to restrain themselves. Directed by Wong Kar-Wei.&nbsp;<strong>(DVD 1951)</strong></p><p style=\"text-align: justify;\"><strong><a href=\"https://search.library.duke.edu/search?id=DUKE003184204\">Annie Hall</a> -</strong> Woody Allen's semiautobiographical portrait of his amorous, but ultimately mismatched, relationship with co-star Diane Keaton. Allen uses satire and comedy to portray this \"nervous romance\" for modern times. Winner of the Best Picture Oscar. <strong>(DVD 1708)</strong></p><p style=\"text-align: justify;\"><strong><a href=\"https://search.library.duke.edu/search?id=DUKE003285898\">Scenes from a Marriage</a> -</strong> Ingmar Bergman's intimate, evocatively-filmed drama about marital turmoil.&nbsp; This made for TV film stars Liv Ullman and Erland Josephson. <strong>(DVD 2828)</strong></p><p style=\"text-align: justify;\"><strong><a href=\"https://search.library.duke.edu/search?id=DUKE004315946\">Crazy Heart</a> - </strong>The story of a country music star's rocky road to redemption. Bad Blake is a boozy, broken-down singer who reaches for salvation with the help of Jean, a journalist who discovers the real man behind the music. But will Bad's hard-livin' ways cost him his last chance at a comeback? <strong>(DVD 16384)</strong></p><p style=\"text-align: justify;\"><strong><a href=\"https://search.library.duke.edu/search?id=DUKE003946048\">5x2</a> -</strong> The story of a failed marriage told in reverse chronology, starting with the finalization of the couple's divorce and concluding, literally, as they walk off into the sunset for their first encounter. Directed by Francois Ozon. <strong>(DVD 10710)</strong></p><p style=\"text-align: justify;\"><strong><a href=\"https://search.library.duke.edu/search?id=DUKE003788399\">Two for the Road</a> -</strong> Joanna (Audrey Hepburn)&nbsp;is in a touring girl's choir and Mark (Albert Finney) is a struggling architect when they first meet on the road in Europe. The film follows their life together - through courtship and marriage, infidelity and parenthood - all on the road. <strong>(DVD 6963)</strong></p><p style=\"text-align: justify;\"><strong><a href=\"https://search.library.duke.edu/search?id=DUKE003136807\">The Unbearable Lightness of Being</a>&nbsp;-</strong> Tomas is a womanizer whose sexual appetite is never fully satisfied. He deeply loves his wife, Tereza; but, he only finds true understanding with his lover Sabina. Tomas struggles with the decision of whether to give up his freedom and commit to the love of one woman or to remain faithful to his promiscuous ways. <strong>(DVD 1045)</strong></p><p style=\"text-align: justify;\"><strong><a href=\"https://search.library.duke.edu/search?id=DUKE003000498\">Casablanca</a> -</strong>&nbsp;During World War II, Morocco is&nbsp;seething with European refugees desperate for passage to neutral Lisbon. Only a world-weary and bitter nightclub owner (Humphrey Bogart) can help a resistance-hero escape from the Nazis, but they are both in love with the same woman (Ingrid Bergman). <strong>(DVD 282) </strong></p><p style=\"text-align: justify;\"><strong><a href=\"https://search.library.duke.edu/search?id=DUKE003977967\">Shoot the Moon</a> -</strong> A famous writer (Albert Finney) and his wife (Diane Keaton) break up after 15 years, with four daughters watching. Directed by Alan Parker. <strong>(DVD 11408)</strong></p><p style=\"text-align: justify;\"><strong><a href=\"https://search.library.duke.edu/search?id=DUKE003866637\">Who's Afraid of Virgina Woolf?</a> - </strong>Martha and George are a bitter aging couple who, with the help of alcohol, use a young couple to fuel anguish and emotional pain towards each other. <strong>(DVD 8355)</strong></p><p style=\"text-align: justify;\"><strong><a href=\"https://search.library.duke.edu/search?id=DUKE004087098\">Baby, It's You</a> -</strong> Jill is a drama major headed for college. The 'Sheik' is a dropout headed for nowhere. Now, two of the most different people imaginable are on a collision course with first love. Directed by John Sayles. <strong>(DVD 12991)</strong></p><p style=\"text-align: justify;\"><strong><a href=\"https://search.library.duke.edu/search?id=DUKE003048161\">Calendar</a> -</strong> A self-absorbed Canadian-Armenian photograher is hired to take pictures of Armenian historical churches for a calendar. He takes his wife along as a translator, and as they traverse the sites chosen for the calendar with the Armenian guide, their relationship begins to unravel. <strong>(DVD 487)</strong></p>",
            "langcode" : "und",
            "body_summary" : "",
            "revision_id" : 2725,
            "entity_id" : 73,
            "body_format" : "full_html"
         },
         "comment" : 1,
         "status" : 1,
         "sticky" : 0,
         "title" : "The Trouble with Relationships",
         "promote" : 0,
         "node_revision__field_tags" : [],
         "vuuid" : "5eaae58e-905c-47ae-a88b-29e9615c4f60"
      }
   ]
}

