{
   "uuid" : "92de6458-c2d1-4609-9988-dc1b00582661",
   "nid" : "185",
   "field_tags" : [],
   "node_access" : null,
   "field_image" : null,
   "node__body" : {
      "body_format" : "full_html_no_wysiwyg",
      "entity_id" : 185,
      "revision_id" : 2359,
      "body_summary" : "",
      "langcode" : "und",
      "body_value" : "<img src=\"/east/sites/default/files/east/lilly-other/lilly_level4.jpg\" width=\"431\" height=\"549\" alt=\"floorplan of the fourth level Lilly Library\" class=\"img-responsive\" />",
      "deleted" : 0,
      "delta" : 0,
      "bundle" : "about_lilly_library_page"
   },
   "node_field_data" : {
      "promote" : 0,
      "created" : 1476884200,
      "sticky" : 0,
      "title" : "Fourth Level",
      "status" : 1,
      "changed" : null,
      "langcode" : "und",
      "type" : "about_lilly_library_page",
      "revision_translation_affected" : 1,
      "default_langcode" : 1,
      "uid" : 1
   },
   "asidebox" : {
      "block_delta" : null,
      "bid" : null,
      "body_title" : "",
      "vid" : 2359,
      "nid" : 185,
      "block_module" : null,
      "status" : "disabled",
      "body_format" : null,
      "body_value" : null
   },
   "path_alias" : {
      "langcode" : "und",
      "status" : 0,
      "alias" : "/lilly/about/locationguide/fourth-level",
      "language" : "und",
      "pid" : 243
   },
   "vid" : 2359,
   "revisions" : [
      {
         "log" : "",
         "timestamp" : 1488385021,
         "uid" : 3,
         "field_revision" : {
            "default_langcode" : 1,
            "uid" : 1,
            "status" : 1,
            "changed" : null,
            "langcode" : null,
            "sticky" : 0,
            "title" : "Fourth Level",
            "revision_translation_affected" : 1,
            "created" : null
         },
         "node_revision__body" : {
            "entity_id" : 185,
            "revision_id" : 2359,
            "body_format" : "full_html_no_wysiwyg",
            "body_summary" : "",
            "delta" : 0,
            "deleted" : 0,
            "langcode" : "und",
            "body_value" : "<img src=\"/east/sites/default/files/east/lilly-other/lilly_level4.jpg\" width=\"431\" height=\"549\" alt=\"floorplan of the fourth level Lilly Library\" class=\"img-responsive\" />",
            "bundle" : "about_lilly_library_page"
         },
         "comment" : 1,
         "status" : 1,
         "title" : "Fourth Level",
         "sticky" : 0,
         "node_revision__field_tags" : [],
         "promote" : 0,
         "vuuid" : "d033ed0b-9f53-4973-8f80-07c87180784e"
      }
   ],
   "type" : "about_lilly_library_page",
   "langcode" : "und"
}

