{
   "field_tags" : [],
   "uuid" : "97f34887-57bc-40d2-b8a7-e1cfa5151b13",
   "nid" : "139",
   "field_image" : null,
   "node_access" : null,
   "node_field_data" : {
      "sticky" : 0,
      "title" : "Directions to Music Library",
      "created" : 1379024491,
      "promote" : 0,
      "type" : "about_music_library_page",
      "changed" : null,
      "langcode" : "und",
      "status" : 1,
      "revision_translation_affected" : 1,
      "default_langcode" : 1,
      "uid" : 1
   },
   "node__body" : {
      "bundle" : "about_music_library_page",
      "langcode" : "und",
      "body_value" : "<div class=\"field field-name-body field-type-text-with-summary field-label-hidden\"><div class=\"field-items\"><div class=\"field-item even\"><h2>How&nbsp;do I get to the Music Library?</h2><img src=\"/east/sites/default/files/east/users/sarah%20griffin/ent2.jpg\" alt=\"Mary Duke Biddle Music Building\" title=\"Mary Duke Biddle Music Building\" width=\"335\" height=\"170\" class=\"image-right img-responsive\"></div><ul><li><p><a target=\"_blank\" href=\"https://maps.duke.edu/map/index.php?id=21&amp;embedMrkId=2807&amp;mapOnly=1#!ct/551?m/2807\"></a><a target=\"_blank\" href=\"https://maps.duke.edu/?focus=169\" title=\"Duke Maps - Biddle\">Locate Biddle Music Building</a></p></li><li><p><a href=\"https://www.google.com/maps/place/Mary+Duke+Biddle+Music+Building,+113+Mary+Duke+Biddle+Music+Bldg,+Durham,+NC+27708/@36.0091396,-78.9180839,17z/data=!3m1!4b1!4m5!3m4!1s0x89ace3f7c3400071:0xb79a86d3f44ee2ce!8m2!3d36.0091396!4d-78.9158952\" title=\"Google Maps\" target=\"_blank\">Get directions</a>&nbsp;</p></li><li><a href=\"https://parking.duke.edu/buses\" title=\"Duke Buses\" target=\"_blank\">Campus Bus Routes</a></li></ul><h2>Where do I park on East Campus?</h2><h3>On East Campus</h3><p>Weekday visitor parking is available in a small number of&nbsp;<a href=\"https://parking.duke.edu/visitor\" title=\"Visitor Parking\" target=\"_blank\">metered spots</a> near the tennis courts and Brodie Gym.</p><h3>Near East Campus</h3><p>Visitors may park on city streets adjacent to the campus.&nbsp;</p><h3>For <a href=\"https://library.duke.edu/using/borrowing/pickup\" title=\"Library Takeout\" target=\"_blank\">Library Takeout</a> Appointments</h3><p>There are four designated parking spaces reserved for <a href=\"https://library.duke.edu/using/borrowing/pickup\" title=\"Library Takeout\" target=\"_blank\">Library Takeout</a> pickup, located next to the tennis courts between Lilly and Biddle. These spots are first-come, first-served, and are marked \"Loading and Unloading.\" Please&nbsp;<strong>only</strong> use these parking spots for short-term parking while you pick up your materials.</p><p></p><h2>For more information</h2><p>Contact <a href=\"https://parking.duke.edu/parking/index.php\" title=\"Duke Parking\" target=\"_self\">Duke Parking &amp;Transportation</a> at (919) 684-PARK (7275).</p></div></div>",
      "delta" : 0,
      "deleted" : 0,
      "body_summary" : "",
      "body_format" : "full_html",
      "entity_id" : 139,
      "revision_id" : 2976
   },
   "asidebox" : {
      "body_value" : "<p>Contact Parking Services at (919) 684-PARK (7275).</p>",
      "body_format" : "full_html",
      "status" : "disabled",
      "block_module" : null,
      "bid" : null,
      "block_delta" : null,
      "nid" : 139,
      "body_title" : "More Information ",
      "vid" : 2976
   },
   "revisions" : [
      {
         "node_revision__body" : {
            "body_summary" : "",
            "body_format" : "full_html",
            "entity_id" : 139,
            "revision_id" : 2976,
            "bundle" : "about_music_library_page",
            "body_value" : "<div class=\"field field-name-body field-type-text-with-summary field-label-hidden\"><div class=\"field-items\"><div class=\"field-item even\"><h2>How&nbsp;do I get to the Music Library?</h2><img src=\"/east/sites/default/files/east/users/sarah%20griffin/ent2.jpg\" alt=\"Mary Duke Biddle Music Building\" title=\"Mary Duke Biddle Music Building\" width=\"335\" height=\"170\" class=\"image-right img-responsive\"></div><ul><li><p><a target=\"_blank\" href=\"https://maps.duke.edu/map/index.php?id=21&amp;embedMrkId=2807&amp;mapOnly=1#!ct/551?m/2807\"></a><a target=\"_blank\" href=\"https://maps.duke.edu/?focus=169\" title=\"Duke Maps - Biddle\">Locate Biddle Music Building</a></p></li><li><p><a href=\"https://www.google.com/maps/place/Mary+Duke+Biddle+Music+Building,+113+Mary+Duke+Biddle+Music+Bldg,+Durham,+NC+27708/@36.0091396,-78.9180839,17z/data=!3m1!4b1!4m5!3m4!1s0x89ace3f7c3400071:0xb79a86d3f44ee2ce!8m2!3d36.0091396!4d-78.9158952\" title=\"Google Maps\" target=\"_blank\">Get directions</a>&nbsp;</p></li><li><a href=\"https://parking.duke.edu/buses\" title=\"Duke Buses\" target=\"_blank\">Campus Bus Routes</a></li></ul><h2>Where do I park on East Campus?</h2><h3>On East Campus</h3><p>Weekday visitor parking is available in a small number of&nbsp;<a href=\"https://parking.duke.edu/visitor\" title=\"Visitor Parking\" target=\"_blank\">metered spots</a> near the tennis courts and Brodie Gym.</p><h3>Near East Campus</h3><p>Visitors may park on city streets adjacent to the campus.&nbsp;</p><h3>For <a href=\"https://library.duke.edu/using/borrowing/pickup\" title=\"Library Takeout\" target=\"_blank\">Library Takeout</a> Appointments</h3><p>There are four designated parking spaces reserved for <a href=\"https://library.duke.edu/using/borrowing/pickup\" title=\"Library Takeout\" target=\"_blank\">Library Takeout</a> pickup, located next to the tennis courts between Lilly and Biddle. These spots are first-come, first-served, and are marked \"Loading and Unloading.\" Please&nbsp;<strong>only</strong> use these parking spots for short-term parking while you pick up your materials.</p><p></p><h2>For more information</h2><p>Contact <a href=\"https://parking.duke.edu/parking/index.php\" title=\"Duke Parking\" target=\"_self\">Duke Parking &amp;Transportation</a> at (919) 684-PARK (7275).</p></div></div>",
            "langcode" : "und",
            "deleted" : 0,
            "delta" : 0
         },
         "status" : 1,
         "comment" : 1,
         "title" : "Directions to Music Library",
         "sticky" : 0,
         "vuuid" : "a9172682-7361-4a44-b1a2-a4ac84118701",
         "promote" : 0,
         "node_revision__field_tags" : [],
         "field_revision" : {
            "sticky" : 0,
            "title" : "Directions to Music Library",
            "revision_translation_affected" : 1,
            "created" : null,
            "default_langcode" : 1,
            "langcode" : null,
            "changed" : null,
            "status" : 1,
            "uid" : 1
         },
         "uid" : 7,
         "timestamp" : 1610034909,
         "log" : ""
      }
   ],
   "path_alias" : {
      "pid" : 160,
      "language" : "und",
      "alias" : "/music/about/directions",
      "status" : 0,
      "langcode" : "und"
   },
   "vid" : 2976,
   "langcode" : "und",
   "type" : "about_music_library_page"
}

