{
   "revisions" : [
      {
         "uid" : 3,
         "field_revision" : {
            "status" : 1,
            "uid" : 1,
            "changed" : null,
            "langcode" : null,
            "default_langcode" : 1,
            "revision_translation_affected" : 1,
            "title" : "Video Spotlight: Women Filmmakers",
            "sticky" : 0,
            "created" : null
         },
         "log" : "",
         "timestamp" : 1507577045,
         "status" : 1,
         "comment" : 1,
         "node_revision__body" : {
            "body_summary" : "",
            "entity_id" : 87,
            "revision_id" : 2731,
            "body_format" : "full_html",
            "bundle" : "about_lilly_library_page",
            "deleted" : 0,
            "delta" : 0,
            "body_value" : "<p style=\"text-align: justify;\"><strong><a href=\"https://search.library.duke.edu/search?id=DUKE004278734\">The Hurt Locker</a> -</strong> US Army Staff Sergeant Will James, Sergeant J.T. Sanborn and Specialist Owen Eldridge comprise the Bravo Company's bomb disposal unit stationed in Baghdad. James is the tech team leader. When he arrives on the scene, Bravo Company has thirty-nine days left on its current deployment, and it will be a long thirty-nine days for Sanborn and Eldridge whose styles do not mesh with their new leader. Directed by Kathryn Bigelow, who became the first woman to win the best director Oscar. <strong>(DVD 16804)</strong></p><p style=\"text-align: justify;\"><strong><a href=\"https://search.library.duke.edu/search?id=DUKE003765275\">Sisters, or the Balance of Happiness</a> -</strong> Margarethe Von Trotta's film follows wo sisters who share a complex and compelling relationship in this well-crafted film about sibling rivalry, dependency and suicide. <strong>(DVD 6184)</strong></p><p style=\"text-align: justify;\"><strong><a href=\"https://search.library.duke.edu/search?id=DUKE004263712\">Yes</a> -</strong> Feeling trapped in her marriage to a politician, an American scientist begins an affair with a Lebanese surgeon living in exile in London. As the affair goes on the couple finds it difficult to put aside their very different beliefs. Directed by Sally Potter. <strong>(DVD 15146)</strong></p><p style=\"text-align: justify;\"><strong><a href=\"https://search.library.duke.edu/search?id=DUKE003145474\">Daisies</a> - </strong>Vera Chytilova's film tracks two teenage girls as they decide that since the world is spoiled they will be spoiled as well; accordingly they embark on a series of destructive pranks in which they consume and destroy the world about them. <strong>(DVD 1153)</strong></p><p style=\"text-align: justify;\"><strong><a href=\"https://search.library.duke.edu/search?id=DUKE004204879\">Gaumont Treasures: Alice Guy</a> -</strong> Few individual artists have exerted as profound in influence upon the evolution of cinema as Alice Guy. Her work stands alongside the Lumiere Brothers, Georges Melies, and Edwin S. Porter in creating the grammer of the cinema. More than&nbsp;sixty of her films are collected here.&nbsp;<strong>(DVD 14671, disc 1)</strong></p><p style=\"text-align: justify;\"><a href=\"https://search.library.duke.edu/search?id=DUKE003000485\"><strong>The Piano</strong></a><strong> - </strong>A young mute woman and her child travel to New Zealand in the 1800s for an arranged marriage to a farmer. After the marriage she meets another man, and the competition for her love begins. Just one of the men realizes that her affections can only be won through her beloved piano. Directed by Jane Campion. <strong>(DVD 295)</strong></p><p style=\"text-align: justify;\"><strong><a href=\"https://search.library.duke.edu/search?id=DUKE004048627\">Loving Couples</a> - </strong>In Mai Zetterling's film, three mothers-to-be take a look back on their romantic lives as they are about to give birth. Each is from a different social class and each one has a different take on becoming a mother. <strong>(DVD 12021) </strong></p><p style=\"text-align: justify;\"><strong><a href=\"https://search.library.duke.edu/search?id=DUKE004167902\">Christopher Strong</a> -</strong> Katharine Hepburn portrays a record-breaking flyer who falls hopelessly in love with a married man (Colin Clive). Though madly in love, he can't divorce his good natured and caring wife (Billie Burke). Directed by Dorothy Arzner. <strong>(DVD 14375)</strong></p><p style=\"text-align: justify;\"><strong><a href=\"https://search.library.duke.edu/search?id=DUKE004084772\">The Postmodern Life of My Aunt</a> -</strong> A twelve-year-old boy Kuankuan visits his aunt who is living alone after her retirement in Shanghai. Through his eyes his aunt appears stingy, out-of-date, loud, and ridiculous. But after a series of adventures together, they have reached some understanding before he leaves for home. A year later Kuankuan visits her again in her new home, much changed and very resigned. Shanghai seems to have been a mirage, or a happy dream. Directed by Ann Hui. <strong>(DVD 12842)</strong></p><p style=\"text-align: justify;\"><strong><a href=\"https://search.library.duke.edu/search?id=DUKE003852281\">Harlan County USA</a> -</strong> Barbara Kopple's documentary chronicles the 1973 Harlan County, Kentucky coal miners' strike against the operators of the Brookside mine and the Duke Power Company, which resulted from the company's refusal to honor the national contract of the United Mine Workers of America when the miners joined the union. <strong>(DVD 8208)&nbsp; </strong></p><p style=\"text-align: justify;\"><strong><a href=\"https://search.library.duke.edu/search?id=DUKE003886038\">My Brilliant Career</a> -</strong> In Gillian Armstrong's film Sybylla Melvyn (Judy Davis) struggles with the conflicts that we all have between ambition, family, love, and guilt in a most remarkable manner. Simple yet universal themes told with charm, wit, and a vulnerability that allows us to get right inside of her character and to understand her. <strong>(DVD 9084)</strong></p><p style=\"text-align: justify;\"><strong><a href=\"https://search.library.duke.edu/search?id=DUKE004319673\">Between the Lines</a> -</strong> When a publishing mogul buys a Boston underground newspaper and promises changes that will compromise its aggressive political stance in favor of \"lifestyle\" articles. It becomes clear to the freewheeling and free thinking employees that their carefree days are behind them.&nbsp; Directed by Joan Micklin Silver. <strong>(DVD 16640)</strong></p><p style=\"text-align: justify;\"><strong><a href=\"https://search.library.duke.edu/search?id=DUKE003429857\">La Cienaga</a> -</strong> Mecha, her husband Gregorio and their friends are spending another stifling day drinking and lounging around the filthy swimming pool of their crumbling summer estate when Mecha stumbles and is badly cut on her broken wine glass. On hearing the news, her less affluent cousin Tali marshals her own large family for a visit. The long, hot summer and crowded situation strain everyone's nerves and repressed family conflicts surface. An atmosphere of oppressive humidity and constant foreboding fill this commentary on the decadence, malaise and racism of Argentina's decaying. Directed by Lucrecia Martel.&nbsp;&nbsp;<strong>(DVD 6893)</strong></p><p style=\"text-align: justify;\"><strong><a href=\"https://search.library.duke.edu/search?id=DUKE003974739\">Germany, Pale Mother</a> - </strong>Set during World War II, newlywed Lene must watch her new husband go off to war during the German invasion of Poland.&nbsp;She discovers that she is pregnant and is forced to take her child on a journey across the war-ravaged countryside. Directed by Helma Sanders-Brahms. <strong>(DVD 11323)</strong></p><p style=\"text-align: justify;\"><strong><a href=\"https://search.library.duke.edu/search?id=DUKE003765476\">Sink or&nbsp;Swim</a>&nbsp;-</strong> Su Friedrich's film is&nbsp;a compelling account of the immutable, highly charged relationship between a father and daughter. A young girl narrates twenty-six short stories which recount memories of a father she both fears and admires. He is more concerned with his career than his family, which affects his daughter greatly.<strong> (DVD 6224)</strong></p><p style=\"text-align: justify;\"><strong><a href=\"https://search.library.duke.edu/search?id=DUKE003509046\">Girlhood</a> -</strong> Director Liz Garbus presents the coming-of-age stories of two girls trying to make a life for themselves both inside and outside of Baltimore's juvenile justice system. <strong>(DVD 5309)&nbsp; </strong></p><p style=\"text-align: justify;\"><strong><a href=\"https://search.library.duke.edu/search?id=DUKE003833319\">Seven Beauties</a> - </strong>Pasqualino (Giancarlo Giannini) is a small time crook&nbsp;and lady's man living off his sisters' money until he is arrested and sent to the army. He is captured by the Germans and taken to a concentration camp where he plots his escape by seducing a German officer (Shirley Stoler). Directed by Lina Wertmuller.<strong>&nbsp;(DVD 7934)</strong></p>",
            "langcode" : "und"
         },
         "vuuid" : "92ee6d06-4eb2-4ad3-a98a-3f20fa2ff391",
         "promote" : 0,
         "node_revision__field_tags" : [],
         "sticky" : 0,
         "title" : "Video Spotlight: Women Filmmakers"
      }
   ],
   "vid" : 2731,
   "path_alias" : {
      "alias" : "/lilly/film-video/spotlight/archives/women-filmmakers",
      "langcode" : "und",
      "status" : 0,
      "language" : "und",
      "pid" : 104
   },
   "langcode" : "und",
   "type" : "about_lilly_library_page",
   "node_field_data" : {
      "uid" : 1,
      "default_langcode" : 1,
      "revision_translation_affected" : 1,
      "type" : "about_lilly_library_page",
      "status" : 1,
      "changed" : null,
      "langcode" : "und",
      "title" : "Video Spotlight: Women Filmmakers",
      "sticky" : 0,
      "promote" : 0,
      "created" : 1374501594
   },
   "node__body" : {
      "body_summary" : "",
      "revision_id" : 2731,
      "entity_id" : 87,
      "body_format" : "full_html",
      "bundle" : "about_lilly_library_page",
      "deleted" : 0,
      "delta" : 0,
      "body_value" : "<p style=\"text-align: justify;\"><strong><a href=\"https://search.library.duke.edu/search?id=DUKE004278734\">The Hurt Locker</a> -</strong> US Army Staff Sergeant Will James, Sergeant J.T. Sanborn and Specialist Owen Eldridge comprise the Bravo Company's bomb disposal unit stationed in Baghdad. James is the tech team leader. When he arrives on the scene, Bravo Company has thirty-nine days left on its current deployment, and it will be a long thirty-nine days for Sanborn and Eldridge whose styles do not mesh with their new leader. Directed by Kathryn Bigelow, who became the first woman to win the best director Oscar. <strong>(DVD 16804)</strong></p><p style=\"text-align: justify;\"><strong><a href=\"https://search.library.duke.edu/search?id=DUKE003765275\">Sisters, or the Balance of Happiness</a> -</strong> Margarethe Von Trotta's film follows wo sisters who share a complex and compelling relationship in this well-crafted film about sibling rivalry, dependency and suicide. <strong>(DVD 6184)</strong></p><p style=\"text-align: justify;\"><strong><a href=\"https://search.library.duke.edu/search?id=DUKE004263712\">Yes</a> -</strong> Feeling trapped in her marriage to a politician, an American scientist begins an affair with a Lebanese surgeon living in exile in London. As the affair goes on the couple finds it difficult to put aside their very different beliefs. Directed by Sally Potter. <strong>(DVD 15146)</strong></p><p style=\"text-align: justify;\"><strong><a href=\"https://search.library.duke.edu/search?id=DUKE003145474\">Daisies</a> - </strong>Vera Chytilova's film tracks two teenage girls as they decide that since the world is spoiled they will be spoiled as well; accordingly they embark on a series of destructive pranks in which they consume and destroy the world about them. <strong>(DVD 1153)</strong></p><p style=\"text-align: justify;\"><strong><a href=\"https://search.library.duke.edu/search?id=DUKE004204879\">Gaumont Treasures: Alice Guy</a> -</strong> Few individual artists have exerted as profound in influence upon the evolution of cinema as Alice Guy. Her work stands alongside the Lumiere Brothers, Georges Melies, and Edwin S. Porter in creating the grammer of the cinema. More than&nbsp;sixty of her films are collected here.&nbsp;<strong>(DVD 14671, disc 1)</strong></p><p style=\"text-align: justify;\"><a href=\"https://search.library.duke.edu/search?id=DUKE003000485\"><strong>The Piano</strong></a><strong> - </strong>A young mute woman and her child travel to New Zealand in the 1800s for an arranged marriage to a farmer. After the marriage she meets another man, and the competition for her love begins. Just one of the men realizes that her affections can only be won through her beloved piano. Directed by Jane Campion. <strong>(DVD 295)</strong></p><p style=\"text-align: justify;\"><strong><a href=\"https://search.library.duke.edu/search?id=DUKE004048627\">Loving Couples</a> - </strong>In Mai Zetterling's film, three mothers-to-be take a look back on their romantic lives as they are about to give birth. Each is from a different social class and each one has a different take on becoming a mother. <strong>(DVD 12021) </strong></p><p style=\"text-align: justify;\"><strong><a href=\"https://search.library.duke.edu/search?id=DUKE004167902\">Christopher Strong</a> -</strong> Katharine Hepburn portrays a record-breaking flyer who falls hopelessly in love with a married man (Colin Clive). Though madly in love, he can't divorce his good natured and caring wife (Billie Burke). Directed by Dorothy Arzner. <strong>(DVD 14375)</strong></p><p style=\"text-align: justify;\"><strong><a href=\"https://search.library.duke.edu/search?id=DUKE004084772\">The Postmodern Life of My Aunt</a> -</strong> A twelve-year-old boy Kuankuan visits his aunt who is living alone after her retirement in Shanghai. Through his eyes his aunt appears stingy, out-of-date, loud, and ridiculous. But after a series of adventures together, they have reached some understanding before he leaves for home. A year later Kuankuan visits her again in her new home, much changed and very resigned. Shanghai seems to have been a mirage, or a happy dream. Directed by Ann Hui. <strong>(DVD 12842)</strong></p><p style=\"text-align: justify;\"><strong><a href=\"https://search.library.duke.edu/search?id=DUKE003852281\">Harlan County USA</a> -</strong> Barbara Kopple's documentary chronicles the 1973 Harlan County, Kentucky coal miners' strike against the operators of the Brookside mine and the Duke Power Company, which resulted from the company's refusal to honor the national contract of the United Mine Workers of America when the miners joined the union. <strong>(DVD 8208)&nbsp; </strong></p><p style=\"text-align: justify;\"><strong><a href=\"https://search.library.duke.edu/search?id=DUKE003886038\">My Brilliant Career</a> -</strong> In Gillian Armstrong's film Sybylla Melvyn (Judy Davis) struggles with the conflicts that we all have between ambition, family, love, and guilt in a most remarkable manner. Simple yet universal themes told with charm, wit, and a vulnerability that allows us to get right inside of her character and to understand her. <strong>(DVD 9084)</strong></p><p style=\"text-align: justify;\"><strong><a href=\"https://search.library.duke.edu/search?id=DUKE004319673\">Between the Lines</a> -</strong> When a publishing mogul buys a Boston underground newspaper and promises changes that will compromise its aggressive political stance in favor of \"lifestyle\" articles. It becomes clear to the freewheeling and free thinking employees that their carefree days are behind them.&nbsp; Directed by Joan Micklin Silver. <strong>(DVD 16640)</strong></p><p style=\"text-align: justify;\"><strong><a href=\"https://search.library.duke.edu/search?id=DUKE003429857\">La Cienaga</a> -</strong> Mecha, her husband Gregorio and their friends are spending another stifling day drinking and lounging around the filthy swimming pool of their crumbling summer estate when Mecha stumbles and is badly cut on her broken wine glass. On hearing the news, her less affluent cousin Tali marshals her own large family for a visit. The long, hot summer and crowded situation strain everyone's nerves and repressed family conflicts surface. An atmosphere of oppressive humidity and constant foreboding fill this commentary on the decadence, malaise and racism of Argentina's decaying. Directed by Lucrecia Martel.&nbsp;&nbsp;<strong>(DVD 6893)</strong></p><p style=\"text-align: justify;\"><strong><a href=\"https://search.library.duke.edu/search?id=DUKE003974739\">Germany, Pale Mother</a> - </strong>Set during World War II, newlywed Lene must watch her new husband go off to war during the German invasion of Poland.&nbsp;She discovers that she is pregnant and is forced to take her child on a journey across the war-ravaged countryside. Directed by Helma Sanders-Brahms. <strong>(DVD 11323)</strong></p><p style=\"text-align: justify;\"><strong><a href=\"https://search.library.duke.edu/search?id=DUKE003765476\">Sink or&nbsp;Swim</a>&nbsp;-</strong> Su Friedrich's film is&nbsp;a compelling account of the immutable, highly charged relationship between a father and daughter. A young girl narrates twenty-six short stories which recount memories of a father she both fears and admires. He is more concerned with his career than his family, which affects his daughter greatly.<strong> (DVD 6224)</strong></p><p style=\"text-align: justify;\"><strong><a href=\"https://search.library.duke.edu/search?id=DUKE003509046\">Girlhood</a> -</strong> Director Liz Garbus presents the coming-of-age stories of two girls trying to make a life for themselves both inside and outside of Baltimore's juvenile justice system. <strong>(DVD 5309)&nbsp; </strong></p><p style=\"text-align: justify;\"><strong><a href=\"https://search.library.duke.edu/search?id=DUKE003833319\">Seven Beauties</a> - </strong>Pasqualino (Giancarlo Giannini) is a small time crook&nbsp;and lady's man living off his sisters' money until he is arrested and sent to the army. He is captured by the Germans and taken to a concentration camp where he plots his escape by seducing a German officer (Shirley Stoler). Directed by Lina Wertmuller.<strong>&nbsp;(DVD 7934)</strong></p>",
      "langcode" : "und"
   },
   "asidebox" : {
      "body_format" : "full_html",
      "body_value" : "<div class=\"video-spotlight\"><p style=\"text-align: center;\"><em><img src=\"/east/sites/default/files/east/lilly-video-images/hurtlocker_0.jpg\" alt=\"hurt-locker\" width=\"200\" height=\"133\"></em><br><em>The Hurt Locker</em></p><p style=\"text-align: center;\"><em><img src=\"/east/sites/default/files/east/lilly-video-images/daises_200_0.jpg\" alt=\"daisies\" width=\"200\" height=\"148\"></em><br><em>Daises</em></p><p style=\"text-align: center;\"><em><img src=\"/east/sites/default/files/east/lilly-video-images/Piano_0.jpg\" alt=\"piano\" width=\"200\" height=\"160\"></em><br><em>The Piano</em></p><p style=\"text-align: center;\"><em><img src=\"/east/sites/default/files/east/lilly-video-images/christopher-strong_0.jpg\" alt=\"christopher-strong\" width=\"200\" height=\"254\"></em><br><em>Christopher Strong</em></p><p style=\"text-align: center;\"><em><img src=\"/east/sites/default/files/east/lilly-video-images/my-brilliant-career_200_0.jpg\" alt=\"my-brilliant-career\" width=\"200\" height=\"113\"></em><br><em>My Brilliant Career</em></p><p style=\"text-align: center;\"><em><img src=\"/east/sites/default/files/east/lilly-video-images/la-cienega_01_0.jpg\" alt=\"la-cienaga\" width=\"200\" height=\"174\"></em><br><em>La Cienaga</em></p><p style=\"text-align: center;\"><em><img src=\"/east/sites/default/files/east/lilly-video-images/sink-or-swim_0.jpg\" alt=\"sink-or-swim\" width=\"200\" height=\"150\"></em><br><em>Sink or Swim</em></p><p style=\"text-align: center;\"><em><img src=\"/east/sites/default/files/east/lilly-video-images/seven-beauties_0.png\" alt=\"seven-beauties\" width=\"200\" height=\"125\"></em><br><em>Seven Beauties</em></p></div>",
      "status" : "html",
      "block_module" : null,
      "block_delta" : null,
      "bid" : null,
      "nid" : 87,
      "vid" : 2731,
      "body_title" : ""
   },
   "field_tags" : [],
   "nid" : "87",
   "uuid" : "9851d30b-e16a-4da4-b6dc-b31d26ff13d7",
   "field_image" : null,
   "node_access" : null
}

