{
   "type" : "about_lilly_library_page",
   "langcode" : "und",
   "vid" : 2361,
   "path_alias" : {
      "language" : "und",
      "pid" : 245,
      "alias" : "/lilly/about/locationguide/third-level",
      "langcode" : "und",
      "status" : 0
   },
   "revisions" : [
      {
         "node_revision__body" : {
            "entity_id" : 187,
            "revision_id" : 2361,
            "body_format" : "full_html_no_wysiwyg",
            "body_summary" : "",
            "deleted" : 0,
            "delta" : 0,
            "body_value" : "<img src=\"/east/sites/default/files/east/lilly-other/lilly_level3.jpg\" width=\"431\" height=\"549\" alt=\"floorplan of the third level Lilly Library\" class=\"img-responsive\" />",
            "langcode" : "und",
            "bundle" : "about_lilly_library_page"
         },
         "comment" : 1,
         "status" : 1,
         "title" : "Third Level",
         "sticky" : 0,
         "node_revision__field_tags" : [],
         "promote" : 0,
         "vuuid" : "432e2244-f5b7-4848-a353-d7922300ed57",
         "log" : "",
         "timestamp" : 1488385051,
         "uid" : 3,
         "field_revision" : {
            "sticky" : 0,
            "title" : "Third Level",
            "revision_translation_affected" : 1,
            "created" : null,
            "default_langcode" : 1,
            "langcode" : null,
            "changed" : null,
            "uid" : 1,
            "status" : 1
         }
      }
   ],
   "asidebox" : {
      "nid" : 187,
      "body_title" : "",
      "vid" : 2361,
      "bid" : null,
      "block_delta" : null,
      "status" : "disabled",
      "body_format" : null,
      "body_value" : null,
      "block_module" : null
   },
   "node__body" : {
      "body_summary" : "",
      "entity_id" : 187,
      "revision_id" : 2361,
      "body_format" : "full_html_no_wysiwyg",
      "bundle" : "about_lilly_library_page",
      "deleted" : 0,
      "delta" : 0,
      "langcode" : "und",
      "body_value" : "<img src=\"/east/sites/default/files/east/lilly-other/lilly_level3.jpg\" width=\"431\" height=\"549\" alt=\"floorplan of the third level Lilly Library\" class=\"img-responsive\" />"
   },
   "node_field_data" : {
      "revision_translation_affected" : 1,
      "uid" : 1,
      "default_langcode" : 1,
      "title" : "Third Level",
      "sticky" : 0,
      "created" : 1476884287,
      "promote" : 0,
      "type" : "about_lilly_library_page",
      "changed" : null,
      "langcode" : "und",
      "status" : 1
   },
   "node_access" : null,
   "field_image" : null,
   "nid" : "187",
   "uuid" : "9d57252a-146f-483b-9b3c-d9ce6a00ec78",
   "field_tags" : []
}

