{
   "field_image" : null,
   "node_access" : null,
   "field_tags" : [],
   "uuid" : "9f459c56-348d-4e8c-a972-06d2f47361ea",
   "nid" : "54",
   "langcode" : "und",
   "type" : "about_lilly_library_page",
   "revisions" : [
      {
         "node_revision__body" : {
            "bundle" : "about_lilly_library_page",
            "deleted" : 0,
            "delta" : 0,
            "langcode" : "und",
            "body_value" : "<p align=\"justify\"><strong><a href=\"https://search.library.duke.edu/search?id=DUKE003145510\">The Piano Teacher</a> -</strong> The story of Erika, a middle-aged classical piano instructor who is trapped between her rigid passion for music and her suffocating home life. She escapes her life with nightly voyeuristic wanderings and self-inflicted masochistic experiments. <strong>(DVD 1221)</strong></p><p align=\"justify\"><strong><a href=\"https://search.library.duke.edu/search?id=DUKE003788256\">Time of the Wolf</a> -</strong> An extremely timely and prescient piece of social commentary, Time of the Wolf follows a family’s difficult journey immediately after an unknown apocalyptic event. The film puts us directly into the terrifying aftermath, with all of its confusion, uncertainty, and danger. <strong>(DVD 6759)</strong></p><p align=\"justify\"><strong><a href=\"https://search.library.duke.edu/search?id=DUKE003909360\">The Story of Women</a> -</strong> In this chilling recreation of a real-life criminal case, <span id=\"normalb\" class=\"text3\">Isabelle</span> <span id=\"normalb\" class=\"text3\">Huppert</span> plays Marie Latour, a beautiful and childish woman whose life and destiny are changed when she performs an abortion for a distraught neighbor during World War II. <strong>(DVD 9474)</strong></p><p align=\"justify\"><strong><a href=\"https://search.library.duke.edu/search?id=DUKE003294073\">Amateur</a> -</strong> A crackpot ex-nun who writes pornographic short stories crosses paths with an amnesiac wandering the streets of New York City. When they set out to uncover his identity, they come face to face with his unsavory past--including a vengeful porno actress and ruthless corporate assassins hot on their trail. <strong>(DVD 2858)</strong></p><p align=\"justify\"><strong><a href=\"https://search.library.duke.edu/search?id=DUKE003847056\">Gabrielle</a> -</strong> Jean is a successful publisher. He has refined tastes and abundant material possessions, among which he seems to include his wife, Gabrielle. But in a single afternoon, Gabrielle decides to leave him for another man and then abruptly reverses her decision. Now, everything that Jean believed to be true about his life and marriage falls apart. <strong>(DVD 7868)</strong></p><p align=\"justify\"><strong><a href=\"https://search.library.duke.edu/search?id=DUKE003842742\">Slow Motion</a> -</strong> This parody of modern life revolves around three characters who are all at turning points in their lives--the country girl who comes to the city to be a prostitute, the city woman who decides to give up her job and pursue an idyllic life in the country, and a television director who is separated from his wife and daughter. <strong>(DVD 7754)</strong></p><p align=\"justify\"><strong><a href=\"https://search.library.duke.edu/search?id=DUKE003201359\">Heaven's Gate</a> -</strong> A lawman and a hitman are in love with the same woman. All three are caught up in a devastating class war, when ruthless ranchers decide to kill off the starving immigrants who have been stealing their cattle. The story is based on a real range war in the 1890s in Johnson County, Wyoming. <strong>(DVD 1833)</strong></p><p align=\"justify\"><strong><a href=\"https://search.library.duke.edu/search?id=DUKE003387574\">Madame Bovary</a> -</strong> Emma Bovary is a woman possessed by a burning hunger for life and love--and a passion that can never be fulfilled. Feeling trapped in a loveless marriage, Emma indulges herself in a lifestyle of reckless overspending and a series of shocking affairs which threaten to destroy her and everyone around her. <strong>(DVD 3623)</strong></p><p align=\"justify\"><strong><a href=\"https://search.library.duke.edu/search?id=DUKE003150409\">Destinees Sentimentales</a> -</strong> Jean Barnery is a young Protestant cleric in Barbazac in 1900 when he divorces his severe wife after falling in love with Pauline, the independent-minded niece of an upper-crust parishioner. <strong>(DVD 1308)</strong></p><p align=\"justify\"><strong><a href=\"https://search.library.duke.edu/search?id=DUKE004346771\">Le Ceremonie</a> -</strong> An eccentric housekeeper for a wealthy French family and her boisterous postal worker friend unleash a vicious rampage against the bourgeoisie family. <strong>(DVD 18196)</strong></p><p align=\"justify\"><strong><a href=\"https://search.library.duke.edu/search?id=DUKE002667371\">The Lacemaker</a> -</strong> Isabelle Huppert stars as Pomme, a meek and mild French beautician whose life takes a fateful turn during a vacation to Normandy. Huppert becomes the lover of middle-class literature-student Francois. The relationship sours when Francois takes her home to meet his parents, thanks in no small part to their differing social backgrounds. <strong>(VC 8249)</strong></p><p align=\"justify\"><strong><a href=\"https://search.library.duke.edu/search?id=DUKE000633405\">Entre Nous</a> -</strong> Set in Lyons in the 1950’s, a story of two women who are trapped in middle-class complacency. Their relationship deepens into a dependency that eventually bursts the confines of the provincial society around them. <strong>(VC 246)</strong></p>",
            "body_summary" : "",
            "entity_id" : 54,
            "revision_id" : 2641,
            "body_format" : "full_html"
         },
         "status" : 1,
         "comment" : 1,
         "sticky" : 0,
         "title" : "Isabelle Huppert",
         "vuuid" : "b1d27c4a-258e-48cf-8526-f363f97db8a6",
         "node_revision__field_tags" : [],
         "promote" : 0,
         "uid" : 3,
         "field_revision" : {
            "created" : null,
            "revision_translation_affected" : 1,
            "title" : "Isabelle Huppert",
            "sticky" : 0,
            "langcode" : null,
            "changed" : null,
            "status" : 1,
            "uid" : 1,
            "default_langcode" : 1
         },
         "log" : "",
         "timestamp" : 1507574068
      }
   ],
   "vid" : 2641,
   "path_alias" : {
      "alias" : "/lilly/film-video/spotlight/archives/Isabelle-Huppert",
      "langcode" : "und",
      "status" : 0,
      "language" : "und",
      "pid" : 71
   },
   "asidebox" : {
      "nid" : 54,
      "vid" : 2641,
      "body_title" : "",
      "bid" : null,
      "block_delta" : null,
      "status" : "html",
      "body_format" : "full_html",
      "body_value" : "<p style=\"text-align: center;\"><em><img src=\"/east/sites/default/files/east/lilly-video-images/pianoteacher_0.jpg\" alt=\"piano-teacher\" width=\"200\" height=\"133\"><br>The Piano Teacher<br></em></p><p style=\"text-align: center;\"><em><img src=\"/east/sites/default/files/east/lilly-video-images/timeofthewolf_0.jpg\" alt=\"time-of-the-wolf\" width=\"200\" height=\"123\"></em><br><em>Time of the Wolf</em></p><p style=\"text-align: center;\"><em><img src=\"/east/sites/default/files/east/lilly-video-images/story-of-women_0.jpg\" alt=\"story-of-women\" width=\"200\" height=\"134\"></em><br><em>The Story of Women</em></p><p style=\"text-align: center;\"><em><img src=\"/east/sites/default/files/east/lilly-video-images/Gabrielle_0.jpg\" alt=\"gabrielle\" width=\"200\" height=\"134\"></em><br><em>Gabrielle</em></p><p style=\"text-align: center;\"><em><img src=\"/east/sites/default/files/east/lilly-video-images/madame_bovary_0.jpg\" alt=\"madame-bovary\" width=\"200\" height=\"123\"></em><br><em>Madame Bovary</em></p><p style=\"text-align: center;\"><em><img src=\"/east/sites/default/files/east/lilly-video-images/entre-nous_0.jpg\" alt=\"entre-nous\" width=\"200\" height=\"134\"></em><br><em>Entre Nous</em></p>",
      "block_module" : null
   },
   "node_field_data" : {
      "promote" : 0,
      "created" : 1374162820,
      "title" : "Isabelle Huppert",
      "sticky" : 0,
      "status" : 1,
      "changed" : null,
      "langcode" : "und",
      "type" : "about_lilly_library_page",
      "revision_translation_affected" : 1,
      "default_langcode" : 1,
      "uid" : 1
   },
   "node__body" : {
      "body_summary" : "",
      "revision_id" : 2641,
      "entity_id" : 54,
      "body_format" : "full_html",
      "bundle" : "about_lilly_library_page",
      "deleted" : 0,
      "delta" : 0,
      "body_value" : "<p align=\"justify\"><strong><a href=\"https://search.library.duke.edu/search?id=DUKE003145510\">The Piano Teacher</a> -</strong> The story of Erika, a middle-aged classical piano instructor who is trapped between her rigid passion for music and her suffocating home life. She escapes her life with nightly voyeuristic wanderings and self-inflicted masochistic experiments. <strong>(DVD 1221)</strong></p><p align=\"justify\"><strong><a href=\"https://search.library.duke.edu/search?id=DUKE003788256\">Time of the Wolf</a> -</strong> An extremely timely and prescient piece of social commentary, Time of the Wolf follows a family’s difficult journey immediately after an unknown apocalyptic event. The film puts us directly into the terrifying aftermath, with all of its confusion, uncertainty, and danger. <strong>(DVD 6759)</strong></p><p align=\"justify\"><strong><a href=\"https://search.library.duke.edu/search?id=DUKE003909360\">The Story of Women</a> -</strong> In this chilling recreation of a real-life criminal case, <span id=\"normalb\" class=\"text3\">Isabelle</span> <span id=\"normalb\" class=\"text3\">Huppert</span> plays Marie Latour, a beautiful and childish woman whose life and destiny are changed when she performs an abortion for a distraught neighbor during World War II. <strong>(DVD 9474)</strong></p><p align=\"justify\"><strong><a href=\"https://search.library.duke.edu/search?id=DUKE003294073\">Amateur</a> -</strong> A crackpot ex-nun who writes pornographic short stories crosses paths with an amnesiac wandering the streets of New York City. When they set out to uncover his identity, they come face to face with his unsavory past--including a vengeful porno actress and ruthless corporate assassins hot on their trail. <strong>(DVD 2858)</strong></p><p align=\"justify\"><strong><a href=\"https://search.library.duke.edu/search?id=DUKE003847056\">Gabrielle</a> -</strong> Jean is a successful publisher. He has refined tastes and abundant material possessions, among which he seems to include his wife, Gabrielle. But in a single afternoon, Gabrielle decides to leave him for another man and then abruptly reverses her decision. Now, everything that Jean believed to be true about his life and marriage falls apart. <strong>(DVD 7868)</strong></p><p align=\"justify\"><strong><a href=\"https://search.library.duke.edu/search?id=DUKE003842742\">Slow Motion</a> -</strong> This parody of modern life revolves around three characters who are all at turning points in their lives--the country girl who comes to the city to be a prostitute, the city woman who decides to give up her job and pursue an idyllic life in the country, and a television director who is separated from his wife and daughter. <strong>(DVD 7754)</strong></p><p align=\"justify\"><strong><a href=\"https://search.library.duke.edu/search?id=DUKE003201359\">Heaven's Gate</a> -</strong> A lawman and a hitman are in love with the same woman. All three are caught up in a devastating class war, when ruthless ranchers decide to kill off the starving immigrants who have been stealing their cattle. The story is based on a real range war in the 1890s in Johnson County, Wyoming. <strong>(DVD 1833)</strong></p><p align=\"justify\"><strong><a href=\"https://search.library.duke.edu/search?id=DUKE003387574\">Madame Bovary</a> -</strong> Emma Bovary is a woman possessed by a burning hunger for life and love--and a passion that can never be fulfilled. Feeling trapped in a loveless marriage, Emma indulges herself in a lifestyle of reckless overspending and a series of shocking affairs which threaten to destroy her and everyone around her. <strong>(DVD 3623)</strong></p><p align=\"justify\"><strong><a href=\"https://search.library.duke.edu/search?id=DUKE003150409\">Destinees Sentimentales</a> -</strong> Jean Barnery is a young Protestant cleric in Barbazac in 1900 when he divorces his severe wife after falling in love with Pauline, the independent-minded niece of an upper-crust parishioner. <strong>(DVD 1308)</strong></p><p align=\"justify\"><strong><a href=\"https://search.library.duke.edu/search?id=DUKE004346771\">Le Ceremonie</a> -</strong> An eccentric housekeeper for a wealthy French family and her boisterous postal worker friend unleash a vicious rampage against the bourgeoisie family. <strong>(DVD 18196)</strong></p><p align=\"justify\"><strong><a href=\"https://search.library.duke.edu/search?id=DUKE002667371\">The Lacemaker</a> -</strong> Isabelle Huppert stars as Pomme, a meek and mild French beautician whose life takes a fateful turn during a vacation to Normandy. Huppert becomes the lover of middle-class literature-student Francois. The relationship sours when Francois takes her home to meet his parents, thanks in no small part to their differing social backgrounds. <strong>(VC 8249)</strong></p><p align=\"justify\"><strong><a href=\"https://search.library.duke.edu/search?id=DUKE000633405\">Entre Nous</a> -</strong> Set in Lyons in the 1950’s, a story of two women who are trapped in middle-class complacency. Their relationship deepens into a dependency that eventually bursts the confines of the provincial society around them. <strong>(VC 246)</strong></p>",
      "langcode" : "und"
   }
}

