{
   "field_image" : null,
   "node_access" : null,
   "field_tags" : [],
   "nid" : "21",
   "uuid" : "9fe1fb05-88b9-46e5-9822-eb0c32af17ed",
   "langcode" : "und",
   "type" : "lilly_video_page",
   "revisions" : [
      {
         "node_revision__body" : {
            "deleted" : 0,
            "delta" : 0,
            "langcode" : "und",
            "body_value" : "<h2 align=\"center\"><strong>&nbsp;April 2011</strong></h2><p><strong>Documentaries</strong></p><ul><li>Paperback Dreams: The Life&nbsp;&amp; Times of the Independent Bookstore - DVD 19340</li><li>The Lottery (charter schools) - DVD 19398</li><li>La Sierra (drugs in Columbia) - DVD 18975</li><li>Roses in December (El Salvador) - DVD 18971</li><li>Which Way Home (illegal immigration) - DVD 18982</li><li>Off and Running (race and identity) - DVD 18961</li><li>La Voix de Son Maitre (business) - DVD 19228</li><li>Swastika (Nazi Germany) - DVD 18949</li><li>The Tillman Story (Afghanistan) - DVD 18977</li><li>Legacy of Peace (religion) - DVD 19199</li><li>Inside Mecca - DVD 19292</li><li>Beyond Belief (terrorism) - DVD 19062</li><li>Women without Men (Iran) - DVD19290</li><li>Talking Through Walls: How the Struggle to Build a Mosque United a Community - DVD 19287</li><li>Good Cat in Screenland (development in China) - DVD 19121</li><li>Two in the Wave (Turffaut/Godard) - DVD 18960</li><li>Dario Argento: An Eye for Horror - DVD 19376</li><li>Tigrero: A Film That Was Never Made - DVD 19071</li><li>Thomas Jefferson: A View From the Mountain - DVD 18970</li><li>Kings of Pastry (food) - DVD 19122</li></ul><p><strong>African American Documentaries</strong></p><ul><li>Sex &amp; Justice: Anita Hill vs. Clarence Thomas - DVD 18967</li><li>Blacks &amp; Jews - DVD 18886</li><li>Hoxie: The First Stand (school desegregation) - DVD 18883</li><li>Blacking Up: Hip-Hop's Remix of Race and Indentity - DVD 18880</li><li>Black Panther / San Francisco State: State on Strike - DVD 18885</li><li>Black Theatre: The Making of a Movement - DVD 18887</li><li>Shattering the Silences: The Case for Minority Faculty - DVD 18884</li><li>Struggles in Steel (labor issues) - DVD 18888</li><li>Up From the Bottoms: The Search for the American Dream - DVD 18959</li><li>Negroes to Hire: Slave Life and Culture on Missouri Farms - DVD 18963</li></ul><p><strong>Art Documentaries</strong></p><ul><li>Jean-Michel Basquiat: The Radiant Child - DVD 19089</li><li>Dali in New York - DVD 19090</li><li>Alex Katz: What About Style? - DVD 19091</li><li>William Kentridge: Anything is Possible - DVD 19088</li></ul><p><strong>Classic Hollywood</strong></p><ul><li>Where the Boys Are - DVD 19154</li><li>The 5,000 Fingers of Dr. T (Dr. Seuss) - DVD 19134</li><li>Gone to Earth (Powell/Pressburger) - DVD 19332</li><li>Boys' Night Out - DVD 19124</li><li>The Mikado - DVD 19294</li><li>Mickey One - DVD 19280</li><li>Intruder in the Dust - DVD 19309</li><li>Black Fury - DVD 19308</li></ul><p><strong>Television</strong></p><ul><li>Cranford: Return to Cranford (BBC) - DVD 19288</li><li>Friday Night Lights (season four) - DVD 19342</li><li>Friday Night Lights (season five) - DVD 19345</li></ul><p><strong>Vintage British Educational Shorts</strong></p><ul><li>Secrets of Nature - DVD 19278</li><li>Design for Today (architecture, design, fashion) - DVD 19272</li><li>They Stand Ready (military) - DVD 19273</li></ul><p><strong>Experimental Cinema / Video Art</strong></p><ul><li>Mock Up on Mu (Craig Baldwin) - DVD 19016</li><li>Resistance[s] vol. 3 - DVD 19087</li><li>Andy Mann: Street Tapes &amp; Cable Access - DVD 19086</li><li>Re:Frame - DVD 19085</li><li>Conditioned - DVD 19083</li><li>Tales of Urban Fascination - DVD 19096</li><li>The Point of Least Resistance / The Right Way - DVD 19084</li></ul><p><strong>Other DVDs</strong></p><ul><li>Metropolis (2010 restoration) - DVD 18674</li><li>Soul Kitchen - DVD 18994</li><li>Never Let Me Go - DVD 19015</li><li>A Woman, a Gun and&nbsp;a Noodle Shop (Zhang Yimou) - DVD 19073</li><li>The Prowler (Joseph Losey) - DVD 19018</li><li>The Men Who Stare at Goats - DVD 19347</li><li>The Milk of Sorrow - DVD 19006</li><li>Howl - DVD 18956</li><li>Perrier's Bounty - DVD 19129</li><li>The Sicilian Girl - DVD 19014</li><li>Promised Lands (Susan Sontag) - DVD 18957</li><li>Adelheid - DVD 18988</li><li>Handsome Harry - DVD 18996</li><li>Intermission - DVD 19123</li><li>Why Did I Get Married Too? - DVD 19274</li><li>Morgiana - DVD 19201</li><li>A Time to Love and a Time to Die (Douglas Sirk) - DVD 19263</li><li>You Will Meet a Tall Dark Stranger (Woody Allen) - DVD 18998</li><li>Amish Grace - DVD 19076</li><li>The Doom Generation - DVD 18995</li><li>Working Girl - DVD 19337</li><li>The Uninvited - DVD 19297</li><li>Agora - DVD 19284</li><li>Let's Love Hong Kong - DVD 19288</li><li>Un Amore a Roma (Risi) - DVD 19291</li><li>Tropic of Cancer - DVD 19079</li><li>Carmo Hit the Road - DVD 19117</li><li>Searchers 2.0 (Alex Cox) - DVD 19094</li><li>Straight to Hell Returns (Alex Cox) - DVD 19093</li><li>Samson &amp; Delilah - DV D19098</li><li>The Unpolished - DVD 19204</li><li>A Month in the Country - DVD 19346</li></ul>",
            "bundle" : "lilly_video_page",
            "revision_id" : 692,
            "entity_id" : 21,
            "body_format" : "full_html",
            "body_summary" : ""
         },
         "status" : 1,
         "comment" : 1,
         "title" : "April 2011",
         "sticky" : 0,
         "vuuid" : "02d9bc1c-3f9a-4613-a499-9241b27150cd",
         "promote" : 0,
         "node_revision__field_tags" : [],
         "uid" : 9,
         "field_revision" : {
            "default_langcode" : 1,
            "uid" : 1,
            "status" : 1,
            "langcode" : null,
            "changed" : null,
            "title" : "April 2011",
            "sticky" : 0,
            "revision_translation_affected" : 1,
            "created" : null
         },
         "log" : "",
         "timestamp" : 1380291027
      }
   ],
   "path_alias" : {
      "language" : "und",
      "pid" : 38,
      "langcode" : "und",
      "status" : 0,
      "alias" : "/lilly/film-video/new-video-archives/april-2011"
   },
   "vid" : 692,
   "asidebox" : {
      "block_delta" : null,
      "bid" : null,
      "nid" : 21,
      "vid" : 692,
      "body_title" : "",
      "body_value" : null,
      "body_format" : null,
      "status" : "disabled",
      "block_module" : null
   },
   "node_field_data" : {
      "promote" : 0,
      "created" : 1373899346,
      "title" : "April 2011",
      "sticky" : 0,
      "status" : 1,
      "langcode" : "und",
      "changed" : null,
      "type" : "lilly_video_page",
      "revision_translation_affected" : 1,
      "uid" : 1,
      "default_langcode" : 1
   },
   "node__body" : {
      "body_format" : "full_html",
      "entity_id" : 21,
      "revision_id" : 692,
      "body_summary" : "",
      "body_value" : "<h2 align=\"center\"><strong>&nbsp;April 2011</strong></h2><p><strong>Documentaries</strong></p><ul><li>Paperback Dreams: The Life&nbsp;&amp; Times of the Independent Bookstore - DVD 19340</li><li>The Lottery (charter schools) - DVD 19398</li><li>La Sierra (drugs in Columbia) - DVD 18975</li><li>Roses in December (El Salvador) - DVD 18971</li><li>Which Way Home (illegal immigration) - DVD 18982</li><li>Off and Running (race and identity) - DVD 18961</li><li>La Voix de Son Maitre (business) - DVD 19228</li><li>Swastika (Nazi Germany) - DVD 18949</li><li>The Tillman Story (Afghanistan) - DVD 18977</li><li>Legacy of Peace (religion) - DVD 19199</li><li>Inside Mecca - DVD 19292</li><li>Beyond Belief (terrorism) - DVD 19062</li><li>Women without Men (Iran) - DVD19290</li><li>Talking Through Walls: How the Struggle to Build a Mosque United a Community - DVD 19287</li><li>Good Cat in Screenland (development in China) - DVD 19121</li><li>Two in the Wave (Turffaut/Godard) - DVD 18960</li><li>Dario Argento: An Eye for Horror - DVD 19376</li><li>Tigrero: A Film That Was Never Made - DVD 19071</li><li>Thomas Jefferson: A View From the Mountain - DVD 18970</li><li>Kings of Pastry (food) - DVD 19122</li></ul><p><strong>African American Documentaries</strong></p><ul><li>Sex &amp; Justice: Anita Hill vs. Clarence Thomas - DVD 18967</li><li>Blacks &amp; Jews - DVD 18886</li><li>Hoxie: The First Stand (school desegregation) - DVD 18883</li><li>Blacking Up: Hip-Hop's Remix of Race and Indentity - DVD 18880</li><li>Black Panther / San Francisco State: State on Strike - DVD 18885</li><li>Black Theatre: The Making of a Movement - DVD 18887</li><li>Shattering the Silences: The Case for Minority Faculty - DVD 18884</li><li>Struggles in Steel (labor issues) - DVD 18888</li><li>Up From the Bottoms: The Search for the American Dream - DVD 18959</li><li>Negroes to Hire: Slave Life and Culture on Missouri Farms - DVD 18963</li></ul><p><strong>Art Documentaries</strong></p><ul><li>Jean-Michel Basquiat: The Radiant Child - DVD 19089</li><li>Dali in New York - DVD 19090</li><li>Alex Katz: What About Style? - DVD 19091</li><li>William Kentridge: Anything is Possible - DVD 19088</li></ul><p><strong>Classic Hollywood</strong></p><ul><li>Where the Boys Are - DVD 19154</li><li>The 5,000 Fingers of Dr. T (Dr. Seuss) - DVD 19134</li><li>Gone to Earth (Powell/Pressburger) - DVD 19332</li><li>Boys' Night Out - DVD 19124</li><li>The Mikado - DVD 19294</li><li>Mickey One - DVD 19280</li><li>Intruder in the Dust - DVD 19309</li><li>Black Fury - DVD 19308</li></ul><p><strong>Television</strong></p><ul><li>Cranford: Return to Cranford (BBC) - DVD 19288</li><li>Friday Night Lights (season four) - DVD 19342</li><li>Friday Night Lights (season five) - DVD 19345</li></ul><p><strong>Vintage British Educational Shorts</strong></p><ul><li>Secrets of Nature - DVD 19278</li><li>Design for Today (architecture, design, fashion) - DVD 19272</li><li>They Stand Ready (military) - DVD 19273</li></ul><p><strong>Experimental Cinema / Video Art</strong></p><ul><li>Mock Up on Mu (Craig Baldwin) - DVD 19016</li><li>Resistance[s] vol. 3 - DVD 19087</li><li>Andy Mann: Street Tapes &amp; Cable Access - DVD 19086</li><li>Re:Frame - DVD 19085</li><li>Conditioned - DVD 19083</li><li>Tales of Urban Fascination - DVD 19096</li><li>The Point of Least Resistance / The Right Way - DVD 19084</li></ul><p><strong>Other DVDs</strong></p><ul><li>Metropolis (2010 restoration) - DVD 18674</li><li>Soul Kitchen - DVD 18994</li><li>Never Let Me Go - DVD 19015</li><li>A Woman, a Gun and&nbsp;a Noodle Shop (Zhang Yimou) - DVD 19073</li><li>The Prowler (Joseph Losey) - DVD 19018</li><li>The Men Who Stare at Goats - DVD 19347</li><li>The Milk of Sorrow - DVD 19006</li><li>Howl - DVD 18956</li><li>Perrier's Bounty - DVD 19129</li><li>The Sicilian Girl - DVD 19014</li><li>Promised Lands (Susan Sontag) - DVD 18957</li><li>Adelheid - DVD 18988</li><li>Handsome Harry - DVD 18996</li><li>Intermission - DVD 19123</li><li>Why Did I Get Married Too? - DVD 19274</li><li>Morgiana - DVD 19201</li><li>A Time to Love and a Time to Die (Douglas Sirk) - DVD 19263</li><li>You Will Meet a Tall Dark Stranger (Woody Allen) - DVD 18998</li><li>Amish Grace - DVD 19076</li><li>The Doom Generation - DVD 18995</li><li>Working Girl - DVD 19337</li><li>The Uninvited - DVD 19297</li><li>Agora - DVD 19284</li><li>Let's Love Hong Kong - DVD 19288</li><li>Un Amore a Roma (Risi) - DVD 19291</li><li>Tropic of Cancer - DVD 19079</li><li>Carmo Hit the Road - DVD 19117</li><li>Searchers 2.0 (Alex Cox) - DVD 19094</li><li>Straight to Hell Returns (Alex Cox) - DVD 19093</li><li>Samson &amp; Delilah - DV D19098</li><li>The Unpolished - DVD 19204</li><li>A Month in the Country - DVD 19346</li></ul>",
      "langcode" : "und",
      "deleted" : 0,
      "delta" : 0,
      "bundle" : "lilly_video_page"
   }
}

