{
   "type" : "lilly_video_page",
   "langcode" : "und",
   "vid" : 708,
   "path_alias" : {
      "language" : "und",
      "pid" : 40,
      "alias" : "/lilly/film-video/new-video-archives/june-2011",
      "langcode" : "und",
      "status" : 0
   },
   "revisions" : [
      {
         "node_revision__body" : {
            "bundle" : "lilly_video_page",
            "body_value" : "<h2 align=\"center\"><strong>&nbsp;June 2011</strong></h2><p><strong>Documentaries</strong></p><ul><li>Hijacking Catastrophe: 9/11, Fear &amp; the Selling of American Empire - DVD 19144</li><li>Deep Down: A Story from the Heart of Coal Country - DVD 18927</li><li>Freedom Riders (civil rights movement) - DVD 19614</li><li>Defmaation (anti-semitism) - DVD 19139</li><li>Four Seasons Lodge (Holocaust) - DVD 19462</li><li>Muslims in Love - DVD 19265</li><li>Boots on Ground: A Year in Iraq - DVD 19637</li><li>Jenin Jenin / Since You Left (middle east) - DVD 19429</li><li>Sin Pais (deportation) - DVD 18926</li><li>The Whole Enchilada (immigration) - DVD 19267</li><li>Strangers in the Neighborhood (race relations in the Netherlands) - DVD 19501</li><li>Clara Lemlich: A Strike Leader's Diary - DVD 19343</li><li>Regretters: Sex Change Revisited - DVD 19270</li><li>Edie &amp; Thea (same sex marriage) - DVD 19360</li><li>Inside the Campus: Life at a Chinese Unversity - DVD 19269</li><li>Petition (Chinese legal system) - DVD 18934</li><li>A Toisan Trilogy: Stories from Chinese America - DVD 19202</li><li>Forbidden City U.S.A. (Chinese nightclub in San Francisco) - DVD 19203</li><li>Transcendental Man: The Life and Ideas of Ray Kurzweil - DVD 19611</li><li>Mugabe and the White African (Zimbabwe) - DVD 19390</li><li>World of Witchcraft: Central African Republic - DVD 19264</li><li>An African Election (Ghana) - DVD 19417</li><li>Diamonds in the Rough: Ugandan Hip Hop Revolution - DVD 19226</li><li>Blaze: The Truth Through Hip Hop - DVD 19153</li><li>Rise Up (music in Jamaica) - DVD 19227</li><li>Videocracy (TV in Italy) - DVD 19143</li><li>Western Armenia: Lost Motherland - DVD 19651</li><li>Louise Bourgeois: The Spider, the Mistress and the Tangerine (art)&nbsp;- DVD 19648</li><li>Rocaterrania:Each Person is a Nation Unto Themselves (art) - DVD 19371</li><li>Cheating the Stillness: The World of Julia Peterkin - DVD 19628</li><li>William S. Burroughs: A Man Within - DVD 19367</li><li>Wrestling With Angels: Playwright Tony Kushner - DVD 19373</li><li>Soundtracker (nature) - DVD 19388</li><li>Rat (rodents in NY) - DVD 19386</li><li>Ghost Bird (bird watching) - DVD 19334</li></ul><p><strong>Television</strong></p><ul><li>Boondocks (season three) - DVD 19607</li><li>Little Mosque on the Praire (season two) - DVD 19603</li><li>Little Mosque on the Praire (season three) - DVD 19604</li><li>Little Mosque on the Praire (season four) - DVD 19605</li><li>The Newsroom (season three) - DVD 19494</li><li>The Storyteller: The Definitive Collection (Jim Henson) - DVD 19420</li></ul><p><strong>Gillian Armstrong</strong></p><ul><li>Smokes and Lollies / 14's Good, 18's Better - DVD 19319</li><li>Bingo, Bridesmaids and Braces - DVD 19320</li><li>Not Fourteen Again - DVD 19321</li><li>Love Lust and Lies - DVD 19322</li></ul><p><strong>Classic Hollywood</strong></p><ul><li>The Learning Tree - DVD 19442</li><li>While the City Sleeps - DVD 19498</li><li>Beyond a Reasonable Doubt - DVD 19497</li><li>It Happened Tomorow - DVD 19422</li><li>Girl Crazy (Wheeler and Woolsey) - DVD 19585</li><li>Peach O'Reno (Wheeler and Woolsey) - DVD 19586</li><li>Vitaphone Varieties (shorts) - DVD 19741</li></ul><p><strong>Silent Era</strong></p><ul><li>Gaumont Treasures, Vol. 2 (Emile Cohl, Jean Durand, Jacques Feyder) - DVD 19449</li><li>Laila - DVD 19613</li><li>The Unholy Three (Lon Chaney) - DVD 19583</li><li>He Who Gets Slapped (Lon Chaney) - DVD 19587</li><li>Flunky, Work Hard / No Blood Relation (Mikio Naruse) - DVD 19350</li><li>Apart from You / Every-Night Dreams (Mikio Naruse) - DVD 19351</li><li>Street Without End (Mikio Naruse) - DVD 19352</li></ul><p><strong>Ingrid Bergman</strong> (her Swedish films)</p><ul><li>Intermezzo - DVD 19503</li><li>A Woman's Face - DVD 19504</li><li>June Night - DVD 19505</li></ul><p><strong>Other DVDs</strong></p><ul><li>The Social Network - DVD 19140</li><li>Whisky - DVD 19383</li><li>Somewhere (Sofia Coppola) - DVD 19423</li><li>Vision (Margarethe Von Trotta) - DVD 19425</li><li>From the Ground Up (Su Friedrich) - DVD 19370</li><li>Fair Game - DVD 19652</li><li>Biutiful (Inarritu) - DVD 19647</li><li>Syndromes and a Century (Weerasethakul) - DVD 19440</li><li>The Paranoids - DVD 19356</li><li>Grbavica: The Land of My Dreams - DVD 19612</li><li>You Don't Know Jack - DVD 19438</li><li>All Over Me - DVD 19638</li><li>A Day in the Death of Joe Egg - DVD 19279</li><li>Film Socialisme (Godard) - DVD 19728</li><li>Kes (Ken Loach) - DVD 19436</li><li>10 Rillington Place - DVD 19281</li><li>A Screaming Man - DVD 19588</li><li>The Four-Faced Liar - DVD 19359</li><li>The Photograph - DVD 19384</li><li>Song from the Southern Seas - DVD 19379</li><li>The Vanquished (Antonioni) - DVD 19426</li><li>I am from Titov Veles - DVD 19339</li><li>Vengence (Johnnie To) - DVD 19387</li><li>Please Give - DVD 19391</li><li>Bunny Chow - DVD 19298</li><li>Around a Small Mountain - DVD 19382</li><li>If I Want to Whistle, I Whistle - DVD 19480</li><li>Here and There - DVD 19421</li><li>A Marine Story - DVD 19358</li><li>A Summer in Genoa - DVD 19424</li><li>Don't Look Back - DVD 19419</li><li>Pomegranates &amp; Myrrh - DVD 19307</li></ul>",
            "langcode" : "und",
            "deleted" : 0,
            "delta" : 0,
            "body_summary" : "",
            "body_format" : "full_html",
            "entity_id" : 23,
            "revision_id" : 708
         },
         "status" : 1,
         "comment" : 1,
         "title" : "June 2011",
         "sticky" : 0,
         "vuuid" : "15df741b-1727-47bf-8690-63173cdaf1fa",
         "promote" : 0,
         "node_revision__field_tags" : [],
         "field_revision" : {
            "default_langcode" : 1,
            "langcode" : null,
            "changed" : null,
            "status" : 1,
            "uid" : 1,
            "sticky" : 0,
            "title" : "June 2011",
            "revision_translation_affected" : 1,
            "created" : null
         },
         "uid" : 9,
         "timestamp" : 1380291157,
         "log" : ""
      }
   ],
   "asidebox" : {
      "bid" : null,
      "block_delta" : null,
      "nid" : 23,
      "body_title" : "",
      "vid" : 708,
      "body_format" : null,
      "body_value" : null,
      "status" : "disabled",
      "block_module" : null
   },
   "node__body" : {
      "body_value" : "<h2 align=\"center\"><strong>&nbsp;June 2011</strong></h2><p><strong>Documentaries</strong></p><ul><li>Hijacking Catastrophe: 9/11, Fear &amp; the Selling of American Empire - DVD 19144</li><li>Deep Down: A Story from the Heart of Coal Country - DVD 18927</li><li>Freedom Riders (civil rights movement) - DVD 19614</li><li>Defmaation (anti-semitism) - DVD 19139</li><li>Four Seasons Lodge (Holocaust) - DVD 19462</li><li>Muslims in Love - DVD 19265</li><li>Boots on Ground: A Year in Iraq - DVD 19637</li><li>Jenin Jenin / Since You Left (middle east) - DVD 19429</li><li>Sin Pais (deportation) - DVD 18926</li><li>The Whole Enchilada (immigration) - DVD 19267</li><li>Strangers in the Neighborhood (race relations in the Netherlands) - DVD 19501</li><li>Clara Lemlich: A Strike Leader's Diary - DVD 19343</li><li>Regretters: Sex Change Revisited - DVD 19270</li><li>Edie &amp; Thea (same sex marriage) - DVD 19360</li><li>Inside the Campus: Life at a Chinese Unversity - DVD 19269</li><li>Petition (Chinese legal system) - DVD 18934</li><li>A Toisan Trilogy: Stories from Chinese America - DVD 19202</li><li>Forbidden City U.S.A. (Chinese nightclub in San Francisco) - DVD 19203</li><li>Transcendental Man: The Life and Ideas of Ray Kurzweil - DVD 19611</li><li>Mugabe and the White African (Zimbabwe) - DVD 19390</li><li>World of Witchcraft: Central African Republic - DVD 19264</li><li>An African Election (Ghana) - DVD 19417</li><li>Diamonds in the Rough: Ugandan Hip Hop Revolution - DVD 19226</li><li>Blaze: The Truth Through Hip Hop - DVD 19153</li><li>Rise Up (music in Jamaica) - DVD 19227</li><li>Videocracy (TV in Italy) - DVD 19143</li><li>Western Armenia: Lost Motherland - DVD 19651</li><li>Louise Bourgeois: The Spider, the Mistress and the Tangerine (art)&nbsp;- DVD 19648</li><li>Rocaterrania:Each Person is a Nation Unto Themselves (art) - DVD 19371</li><li>Cheating the Stillness: The World of Julia Peterkin - DVD 19628</li><li>William S. Burroughs: A Man Within - DVD 19367</li><li>Wrestling With Angels: Playwright Tony Kushner - DVD 19373</li><li>Soundtracker (nature) - DVD 19388</li><li>Rat (rodents in NY) - DVD 19386</li><li>Ghost Bird (bird watching) - DVD 19334</li></ul><p><strong>Television</strong></p><ul><li>Boondocks (season three) - DVD 19607</li><li>Little Mosque on the Praire (season two) - DVD 19603</li><li>Little Mosque on the Praire (season three) - DVD 19604</li><li>Little Mosque on the Praire (season four) - DVD 19605</li><li>The Newsroom (season three) - DVD 19494</li><li>The Storyteller: The Definitive Collection (Jim Henson) - DVD 19420</li></ul><p><strong>Gillian Armstrong</strong></p><ul><li>Smokes and Lollies / 14's Good, 18's Better - DVD 19319</li><li>Bingo, Bridesmaids and Braces - DVD 19320</li><li>Not Fourteen Again - DVD 19321</li><li>Love Lust and Lies - DVD 19322</li></ul><p><strong>Classic Hollywood</strong></p><ul><li>The Learning Tree - DVD 19442</li><li>While the City Sleeps - DVD 19498</li><li>Beyond a Reasonable Doubt - DVD 19497</li><li>It Happened Tomorow - DVD 19422</li><li>Girl Crazy (Wheeler and Woolsey) - DVD 19585</li><li>Peach O'Reno (Wheeler and Woolsey) - DVD 19586</li><li>Vitaphone Varieties (shorts) - DVD 19741</li></ul><p><strong>Silent Era</strong></p><ul><li>Gaumont Treasures, Vol. 2 (Emile Cohl, Jean Durand, Jacques Feyder) - DVD 19449</li><li>Laila - DVD 19613</li><li>The Unholy Three (Lon Chaney) - DVD 19583</li><li>He Who Gets Slapped (Lon Chaney) - DVD 19587</li><li>Flunky, Work Hard / No Blood Relation (Mikio Naruse) - DVD 19350</li><li>Apart from You / Every-Night Dreams (Mikio Naruse) - DVD 19351</li><li>Street Without End (Mikio Naruse) - DVD 19352</li></ul><p><strong>Ingrid Bergman</strong> (her Swedish films)</p><ul><li>Intermezzo - DVD 19503</li><li>A Woman's Face - DVD 19504</li><li>June Night - DVD 19505</li></ul><p><strong>Other DVDs</strong></p><ul><li>The Social Network - DVD 19140</li><li>Whisky - DVD 19383</li><li>Somewhere (Sofia Coppola) - DVD 19423</li><li>Vision (Margarethe Von Trotta) - DVD 19425</li><li>From the Ground Up (Su Friedrich) - DVD 19370</li><li>Fair Game - DVD 19652</li><li>Biutiful (Inarritu) - DVD 19647</li><li>Syndromes and a Century (Weerasethakul) - DVD 19440</li><li>The Paranoids - DVD 19356</li><li>Grbavica: The Land of My Dreams - DVD 19612</li><li>You Don't Know Jack - DVD 19438</li><li>All Over Me - DVD 19638</li><li>A Day in the Death of Joe Egg - DVD 19279</li><li>Film Socialisme (Godard) - DVD 19728</li><li>Kes (Ken Loach) - DVD 19436</li><li>10 Rillington Place - DVD 19281</li><li>A Screaming Man - DVD 19588</li><li>The Four-Faced Liar - DVD 19359</li><li>The Photograph - DVD 19384</li><li>Song from the Southern Seas - DVD 19379</li><li>The Vanquished (Antonioni) - DVD 19426</li><li>I am from Titov Veles - DVD 19339</li><li>Vengence (Johnnie To) - DVD 19387</li><li>Please Give - DVD 19391</li><li>Bunny Chow - DVD 19298</li><li>Around a Small Mountain - DVD 19382</li><li>If I Want to Whistle, I Whistle - DVD 19480</li><li>Here and There - DVD 19421</li><li>A Marine Story - DVD 19358</li><li>A Summer in Genoa - DVD 19424</li><li>Don't Look Back - DVD 19419</li><li>Pomegranates &amp; Myrrh - DVD 19307</li></ul>",
      "langcode" : "und",
      "deleted" : 0,
      "delta" : 0,
      "bundle" : "lilly_video_page",
      "body_format" : "full_html",
      "entity_id" : 23,
      "revision_id" : 708,
      "body_summary" : ""
   },
   "node_field_data" : {
      "revision_translation_affected" : 1,
      "uid" : 1,
      "default_langcode" : 1,
      "title" : "June 2011",
      "sticky" : 0,
      "promote" : 0,
      "created" : 1373899555,
      "type" : "lilly_video_page",
      "status" : 1,
      "langcode" : "und",
      "changed" : null
   },
   "node_access" : null,
   "field_image" : null,
   "uuid" : "a2309920-269a-4d9c-8b59-a1547b7a4216",
   "nid" : "23",
   "field_tags" : []
}

