{
   "field_tags" : [],
   "nid" : "15",
   "uuid" : "b3fb5d7d-8ac1-4309-90a0-2215ff8cf375",
   "field_image" : null,
   "node_access" : null,
   "node_field_data" : {
      "langcode" : "und",
      "changed" : null,
      "status" : 1,
      "type" : "lilly_video_page",
      "created" : 1373890619,
      "promote" : 0,
      "title" : "New DVDs at Lilly",
      "sticky" : 0,
      "uid" : 1,
      "default_langcode" : 1,
      "revision_translation_affected" : 1
   },
   "node__body" : {
      "langcode" : "und",
      "body_value" : "<h2 style=\"text-align: center;\"><strong>June&nbsp;2013</strong></h2><h3 style=\"text-align: left;\"><span class=\"maroon\"><strong>Browse <a href=\"https://search.library.duke.edu/search?Nr=AND%28206474%29&amp;Ne=2+200043+206474+210899&amp;N=206470+206484+206431\" target=\"_blank\">all titles </a>newly available <br>in the past 30 days.</strong></span>&nbsp;</h3><p><strong><strong>Documentaries</strong> </strong></p><ul><li><a href=\"https://search.library.duke.edu/search?id=DUKE005845296\">The Life and Times of Allen Ginsberg</a> - DVD 23992</li><li><a href=\"https://search.library.duke.edu/search?id=DUKE005830481\">We are Egypt</a> - DVD 24151</li><li><a href=\"https://search.library.duke.edu/search?id=DUKE005843858\">Whittle, the Jet Pioneer</a> - DVD 23967</li><li><a href=\"https://search.library.duke.edu/search?id=DUKE005841598\">Chuck Berry: Hail! Hail! Rock 'n' Roll</a> - DVD 23954</li><li><a href=\"https://search.library.duke.edu/search?id=DUKE005843663\">The Marshall Plan: Against the Odds</a> - DVD 24000</li><li><a href=\"https://search.library.duke.edu/search?id=DUKE005846303\">Cola Wars: Message in a Bottle</a> - DVD 24001</li><li><a href=\"https://search.library.duke.edu/search?id=DUKE005844348\">Stuart Hall: Representation and the Media</a> - DVD 23990</li><li><a href=\"https://search.library.duke.edu/search?id=DUKE005854107\">The President's Photographer</a> - DVD 24089</li><li><a href=\"https://search.library.duke.edu/search?id=DUKE005834696\">Sector Zero</a> (Beirut) - DVD 23960</li></ul><p><strong>LGBT&nbsp;Documentaries </strong></p><ul><li><a href=\"https://search.library.duke.edu/search?id=DUKE005843866\">Off the Straight and Narrow: Lesbians, Gays, Bisexuals &amp; Television</a> - DVD 23979</li><li><a href=\"https://search.library.duke.edu/search?id=DUKE005833894\">Rape for Who I Am</a> - DVD 24009</li><li><a href=\"https://search.library.duke.edu/search?id=DUKE005822444\">A Boy Named Sue</a> - DVD 24014</li><li><a href=\"https://search.library.duke.edu/search?id=DUKE005822449\">Outlaw</a> - DVD 24016</li><li><a href=\"https://search.library.duke.edu/search?id=DUKE005822452\">Sir, Just a Normal Guy</a> - DVD 24015</li></ul><p><strong>AIDS Documentaries</strong></p><ul><li><a href=\"https://search.library.duke.edu/search?id=DUKE005836846\">Protection</a> - DVD 24108</li><li><a href=\"https://search.library.duke.edu/search?id=DUKE005837237\">The Other City</a> - DVD 24097</li><li><a href=\"https://search.library.duke.edu/search?id=DUKE005848985\">And the Band Played On</a> - DVD 24074</li></ul><p><strong>Women's Issues</strong></p><ul><li><a href=\"https://search.library.duke.edu/search?id=DUKE005833892\">Our Bodies Our Minds</a> - DVD 24008</li><li><a href=\"https://search.library.duke.edu/search?id=DUKE005846299\">A Girl Like Her</a> - DVD 24061</li><li><a href=\"https://search.library.duke.edu/search?id=DUKE005843664\">Service: When Women Come Marching Home</a> - DVD 23983</li><li><a href=\"https://search.library.duke.edu/search?id=DUKE005843506\">Pink Smoke Over the Vatican</a> - DVD 23959</li><li><a href=\"https://search.library.duke.edu/search?id=DUKE005833893\">The Naked Feminist</a> - DVD 24007</li><li><a href=\"https://search.library.duke.edu/search?id=DUKE005847434\">Pink Ribbons, Inc.</a> - DVD 24057</li><li><a href=\"https://search.library.duke.edu/search?id=DUKE005846302\">The Middle of Everywhere: The Abortion Debate From America's Heartland</a> - DVD 24060</li></ul><p><strong>Dance DVDs</strong></p><ul><li><a href=\"https://search.library.duke.edu/search?id=DUKE005854248\">Alvin Ailey American Dance Theater: Beyond the Steps</a> - DVD 24102</li><li><a href=\"https://search.library.duke.edu/search?id=DUKE005854246\">An Evening With the Alvin Ailey American Dance Theater</a> - DVD 24101</li><li><a href=\"https://search.library.duke.edu/search?id=DUKE005854148\">Baryshnikov Dances Sinatra</a> - DVD 24100</li><li><a href=\"https://search.library.duke.edu/search?id=DUKE005854247\">Jose Limon: Three Modern Dance Classics</a> - DVD 24091</li><li><a href=\"https://search.library.duke.edu/search?id=DUKE005647639\">Sanchari</a> - DVD 24112</li><li><a href=\"https://search.library.duke.edu/search?id=DUKE005647635\">Bhavantarana</a> - DVD 24110</li><li><a href=\"https://search.library.duke.edu/search?id=DUKE005835845\">Bejart! Did You Say Bejart?</a> - DVD 24006</li><li><a href=\"https://search.library.duke.edu/search?id=DUKE005835844\">Alonzo King: Lines Ballet</a> - DVD 24004</li></ul><p><strong>Nikita Mikhalkov</strong></p><ul><li><a href=\"https://search.library.duke.edu/search?id=DUKE005860047\">A Slave of Love</a> - DVD 24160</li><li><a href=\"https://search.library.duke.edu/search?id=DUKE005860683\">Five Evenings</a> - DVD 24161</li><li><a href=\"https://search.library.duke.edu/search?id=DUKE005860686\">Without Witness</a> - DVD 24162</li></ul><p><strong>Sam Peckinpah</strong></p><ul><li><a href=\"https://search.library.duke.edu/search?id=DUKE005843520\">The Getaway</a> -&nbsp;DVD 23958</li><li><a href=\"https://search.library.duke.edu/search?id=DUKE005843559\">The Osterman Weekend</a> - DVD 23955</li><li><a href=\"https://search.library.duke.edu/search?id=DUKE005843556\">Cross of Iron</a> - DVD 23957</li></ul><p><strong>Classic Hollywood</strong></p><ul><li><a href=\"https://search.library.duke.edu/search?id=DUKE005846233\">The Dawn Patrol</a> (Howard Hawks) - DVD 23997</li><li><a href=\"https://search.library.duke.edu/search?id=DUKE005848989\">Jubal</a> - DVD 24064</li><li><a href=\"https://search.library.duke.edu/search?id=DUKE005843666\">WUSA</a> - DVD 23961</li><li><a href=\"https://search.library.duke.edu/search?id=DUKE005843667\">A New Leaf</a> (Elaine May) - DVD 23978</li></ul><p><strong>Other DVDs</strong></p><ul><li><a href=\"https://search.library.duke.edu/search?id=DUKE003228610\">The Firm</a> - DVD 24073</li><li><a href=\"https://search.library.duke.edu/search?id=DUKE005848787\">The Hunt for Red October</a> - DVD 24071</li><li><a href=\"https://search.library.duke.edu/search?id=DUKE003329440\">As Good As It Gets</a> - DVD 24070</li><li><a href=\"https://search.library.duke.edu/search?id=DUKE005849041\">Men With Guns</a> (John Sayles) - DVD 24076</li><li><a href=\"https://search.library.duke.edu/search?id=DUKE005860389\">The Barber of Siberia</a> - DVD 24187</li><li><a href=\"https://search.library.duke.edu/search?id=DUKE003329413\">The&nbsp; Pelican Brief</a> - DVD 24077</li><li><a href=\"https://search.library.duke.edu/search?id=DUKE005858854\">Delicatessen</a> - DVD 24099</li><li><a href=\"https://search.library.duke.edu/search?id=DUKE005854090\">Hyde Park on Hudson</a> - DVD 24086</li><li><a href=\"https://search.library.duke.edu/search?id=DUKE005860367\">To Get to Heaven First You Have to Die</a> - DVD 24190</li><li><a href=\"https://search.library.duke.edu/search?id=DUKE005854218\">The Monster</a> (Roberto Benigni) - DVD 24090</li><li><a href=\"https://search.library.duke.edu/search?id=DUKE005860354\">Lucky</a> - DVD 24153</li><li><a href=\"https://search.library.duke.edu/search?id=DUKE005887212\">Medium Cool</a> - DVD 24176</li><li><a href=\"https://search.library.duke.edu/search?id=DUKE005846231\">Hey Good Lookin'</a> (Ralph Bakshi) - DVD 24119</li><li><a href=\"https://search.library.duke.edu/search?id=DUKE005848806\">Belle Epoque</a> - DVD 24072</li><li><a href=\"https://search.library.duke.edu/search?id=DUKE005887211\">Life is Sweet</a> (Mike Leigh) - DVD 24175</li><li><a href=\"https://search.library.duke.edu/search?id=DUKE005845816\">Jamon Jamon</a> - DVD 24018</li><li><a href=\"https://search.library.duke.edu/search?id=DUKE005851149\">Miss Bala</a> - DVD 24095</li><li><a href=\"https://search.library.duke.edu/search?id=DUKE005846219\">The Confrontation</a> (Jancso) - DVD 24078</li><li><a href=\"https://search.library.duke.edu/search?id=DUKE005843569\">My Name is Juani</a> - DVD 23982</li><li><a href=\"https://search.library.duke.edu/search?id=DUKE005848984\">El Mariachi</a> - DVD 24075</li><li><a href=\"https://search.library.duke.edu/search?id=DUKE005860039\">The World is Big</a> - DVD 24164</li></ul><p></p>",
      "deleted" : 0,
      "delta" : 0,
      "bundle" : "lilly_video_page",
      "body_format" : "full_html",
      "entity_id" : 15,
      "revision_id" : 2687,
      "body_summary" : ""
   },
   "asidebox" : {
      "status" : "html",
      "body_format" : "full_html",
      "body_value" : "<ul><li><a href=\"https://cms-oit-01.oit.duke.edu/PerkinsLibrary/htdocs/lilly/film-video/new-video-archives/index\">View our New DVD Archives</a></li></ul>",
      "block_module" : null,
      "bid" : null,
      "block_delta" : null,
      "nid" : 15,
      "body_title" : "More Information ",
      "vid" : 2687
   },
   "revisions" : [
      {
         "title" : "New DVDs at Lilly",
         "sticky" : 0,
         "promote" : 0,
         "node_revision__field_tags" : [],
         "vuuid" : "485fe56d-2969-425e-8db9-22df09d2d272",
         "node_revision__body" : {
            "revision_id" : 2687,
            "entity_id" : 15,
            "body_format" : "full_html",
            "body_summary" : "",
            "deleted" : 0,
            "delta" : 0,
            "body_value" : "<h2 style=\"text-align: center;\"><strong>June&nbsp;2013</strong></h2><h3 style=\"text-align: left;\"><span class=\"maroon\"><strong>Browse <a href=\"https://search.library.duke.edu/search?Nr=AND%28206474%29&amp;Ne=2+200043+206474+210899&amp;N=206470+206484+206431\" target=\"_blank\">all titles </a>newly available <br>in the past 30 days.</strong></span>&nbsp;</h3><p><strong><strong>Documentaries</strong> </strong></p><ul><li><a href=\"https://search.library.duke.edu/search?id=DUKE005845296\">The Life and Times of Allen Ginsberg</a> - DVD 23992</li><li><a href=\"https://search.library.duke.edu/search?id=DUKE005830481\">We are Egypt</a> - DVD 24151</li><li><a href=\"https://search.library.duke.edu/search?id=DUKE005843858\">Whittle, the Jet Pioneer</a> - DVD 23967</li><li><a href=\"https://search.library.duke.edu/search?id=DUKE005841598\">Chuck Berry: Hail! Hail! Rock 'n' Roll</a> - DVD 23954</li><li><a href=\"https://search.library.duke.edu/search?id=DUKE005843663\">The Marshall Plan: Against the Odds</a> - DVD 24000</li><li><a href=\"https://search.library.duke.edu/search?id=DUKE005846303\">Cola Wars: Message in a Bottle</a> - DVD 24001</li><li><a href=\"https://search.library.duke.edu/search?id=DUKE005844348\">Stuart Hall: Representation and the Media</a> - DVD 23990</li><li><a href=\"https://search.library.duke.edu/search?id=DUKE005854107\">The President's Photographer</a> - DVD 24089</li><li><a href=\"https://search.library.duke.edu/search?id=DUKE005834696\">Sector Zero</a> (Beirut) - DVD 23960</li></ul><p><strong>LGBT&nbsp;Documentaries </strong></p><ul><li><a href=\"https://search.library.duke.edu/search?id=DUKE005843866\">Off the Straight and Narrow: Lesbians, Gays, Bisexuals &amp; Television</a> - DVD 23979</li><li><a href=\"https://search.library.duke.edu/search?id=DUKE005833894\">Rape for Who I Am</a> - DVD 24009</li><li><a href=\"https://search.library.duke.edu/search?id=DUKE005822444\">A Boy Named Sue</a> - DVD 24014</li><li><a href=\"https://search.library.duke.edu/search?id=DUKE005822449\">Outlaw</a> - DVD 24016</li><li><a href=\"https://search.library.duke.edu/search?id=DUKE005822452\">Sir, Just a Normal Guy</a> - DVD 24015</li></ul><p><strong>AIDS Documentaries</strong></p><ul><li><a href=\"https://search.library.duke.edu/search?id=DUKE005836846\">Protection</a> - DVD 24108</li><li><a href=\"https://search.library.duke.edu/search?id=DUKE005837237\">The Other City</a> - DVD 24097</li><li><a href=\"https://search.library.duke.edu/search?id=DUKE005848985\">And the Band Played On</a> - DVD 24074</li></ul><p><strong>Women's Issues</strong></p><ul><li><a href=\"https://search.library.duke.edu/search?id=DUKE005833892\">Our Bodies Our Minds</a> - DVD 24008</li><li><a href=\"https://search.library.duke.edu/search?id=DUKE005846299\">A Girl Like Her</a> - DVD 24061</li><li><a href=\"https://search.library.duke.edu/search?id=DUKE005843664\">Service: When Women Come Marching Home</a> - DVD 23983</li><li><a href=\"https://search.library.duke.edu/search?id=DUKE005843506\">Pink Smoke Over the Vatican</a> - DVD 23959</li><li><a href=\"https://search.library.duke.edu/search?id=DUKE005833893\">The Naked Feminist</a> - DVD 24007</li><li><a href=\"https://search.library.duke.edu/search?id=DUKE005847434\">Pink Ribbons, Inc.</a> - DVD 24057</li><li><a href=\"https://search.library.duke.edu/search?id=DUKE005846302\">The Middle of Everywhere: The Abortion Debate From America's Heartland</a> - DVD 24060</li></ul><p><strong>Dance DVDs</strong></p><ul><li><a href=\"https://search.library.duke.edu/search?id=DUKE005854248\">Alvin Ailey American Dance Theater: Beyond the Steps</a> - DVD 24102</li><li><a href=\"https://search.library.duke.edu/search?id=DUKE005854246\">An Evening With the Alvin Ailey American Dance Theater</a> - DVD 24101</li><li><a href=\"https://search.library.duke.edu/search?id=DUKE005854148\">Baryshnikov Dances Sinatra</a> - DVD 24100</li><li><a href=\"https://search.library.duke.edu/search?id=DUKE005854247\">Jose Limon: Three Modern Dance Classics</a> - DVD 24091</li><li><a href=\"https://search.library.duke.edu/search?id=DUKE005647639\">Sanchari</a> - DVD 24112</li><li><a href=\"https://search.library.duke.edu/search?id=DUKE005647635\">Bhavantarana</a> - DVD 24110</li><li><a href=\"https://search.library.duke.edu/search?id=DUKE005835845\">Bejart! Did You Say Bejart?</a> - DVD 24006</li><li><a href=\"https://search.library.duke.edu/search?id=DUKE005835844\">Alonzo King: Lines Ballet</a> - DVD 24004</li></ul><p><strong>Nikita Mikhalkov</strong></p><ul><li><a href=\"https://search.library.duke.edu/search?id=DUKE005860047\">A Slave of Love</a> - DVD 24160</li><li><a href=\"https://search.library.duke.edu/search?id=DUKE005860683\">Five Evenings</a> - DVD 24161</li><li><a href=\"https://search.library.duke.edu/search?id=DUKE005860686\">Without Witness</a> - DVD 24162</li></ul><p><strong>Sam Peckinpah</strong></p><ul><li><a href=\"https://search.library.duke.edu/search?id=DUKE005843520\">The Getaway</a> -&nbsp;DVD 23958</li><li><a href=\"https://search.library.duke.edu/search?id=DUKE005843559\">The Osterman Weekend</a> - DVD 23955</li><li><a href=\"https://search.library.duke.edu/search?id=DUKE005843556\">Cross of Iron</a> - DVD 23957</li></ul><p><strong>Classic Hollywood</strong></p><ul><li><a href=\"https://search.library.duke.edu/search?id=DUKE005846233\">The Dawn Patrol</a> (Howard Hawks) - DVD 23997</li><li><a href=\"https://search.library.duke.edu/search?id=DUKE005848989\">Jubal</a> - DVD 24064</li><li><a href=\"https://search.library.duke.edu/search?id=DUKE005843666\">WUSA</a> - DVD 23961</li><li><a href=\"https://search.library.duke.edu/search?id=DUKE005843667\">A New Leaf</a> (Elaine May) - DVD 23978</li></ul><p><strong>Other DVDs</strong></p><ul><li><a href=\"https://search.library.duke.edu/search?id=DUKE003228610\">The Firm</a> - DVD 24073</li><li><a href=\"https://search.library.duke.edu/search?id=DUKE005848787\">The Hunt for Red October</a> - DVD 24071</li><li><a href=\"https://search.library.duke.edu/search?id=DUKE003329440\">As Good As It Gets</a> - DVD 24070</li><li><a href=\"https://search.library.duke.edu/search?id=DUKE005849041\">Men With Guns</a> (John Sayles) - DVD 24076</li><li><a href=\"https://search.library.duke.edu/search?id=DUKE005860389\">The Barber of Siberia</a> - DVD 24187</li><li><a href=\"https://search.library.duke.edu/search?id=DUKE003329413\">The&nbsp; Pelican Brief</a> - DVD 24077</li><li><a href=\"https://search.library.duke.edu/search?id=DUKE005858854\">Delicatessen</a> - DVD 24099</li><li><a href=\"https://search.library.duke.edu/search?id=DUKE005854090\">Hyde Park on Hudson</a> - DVD 24086</li><li><a href=\"https://search.library.duke.edu/search?id=DUKE005860367\">To Get to Heaven First You Have to Die</a> - DVD 24190</li><li><a href=\"https://search.library.duke.edu/search?id=DUKE005854218\">The Monster</a> (Roberto Benigni) - DVD 24090</li><li><a href=\"https://search.library.duke.edu/search?id=DUKE005860354\">Lucky</a> - DVD 24153</li><li><a href=\"https://search.library.duke.edu/search?id=DUKE005887212\">Medium Cool</a> - DVD 24176</li><li><a href=\"https://search.library.duke.edu/search?id=DUKE005846231\">Hey Good Lookin'</a> (Ralph Bakshi) - DVD 24119</li><li><a href=\"https://search.library.duke.edu/search?id=DUKE005848806\">Belle Epoque</a> - DVD 24072</li><li><a href=\"https://search.library.duke.edu/search?id=DUKE005887211\">Life is Sweet</a> (Mike Leigh) - DVD 24175</li><li><a href=\"https://search.library.duke.edu/search?id=DUKE005845816\">Jamon Jamon</a> - DVD 24018</li><li><a href=\"https://search.library.duke.edu/search?id=DUKE005851149\">Miss Bala</a> - DVD 24095</li><li><a href=\"https://search.library.duke.edu/search?id=DUKE005846219\">The Confrontation</a> (Jancso) - DVD 24078</li><li><a href=\"https://search.library.duke.edu/search?id=DUKE005843569\">My Name is Juani</a> - DVD 23982</li><li><a href=\"https://search.library.duke.edu/search?id=DUKE005848984\">El Mariachi</a> - DVD 24075</li><li><a href=\"https://search.library.duke.edu/search?id=DUKE005860039\">The World is Big</a> - DVD 24164</li></ul><p></p>",
            "langcode" : "und",
            "bundle" : "lilly_video_page"
         },
         "comment" : 1,
         "status" : 1,
         "timestamp" : 1507575960,
         "log" : "",
         "field_revision" : {
            "revision_translation_affected" : 1,
            "sticky" : 0,
            "title" : "New DVDs at Lilly",
            "created" : null,
            "langcode" : null,
            "changed" : null,
            "status" : 1,
            "uid" : 1,
            "default_langcode" : 1
         },
         "uid" : 3
      }
   ],
   "vid" : 2687,
   "path_alias" : {
      "alias" : "/lilly/film-video/new-dvds",
      "langcode" : "und",
      "status" : 0,
      "language" : "und",
      "pid" : 32
   },
   "langcode" : "und",
   "type" : "lilly_video_page"
}

