{
   "field_tags" : [],
   "nid" : "179",
   "uuid" : "b5f956f1-06ee-4ca3-8fd4-c409dcf66275",
   "field_image" : null,
   "node_access" : null,
   "node_field_data" : {
      "default_langcode" : 1,
      "uid" : 1,
      "revision_translation_affected" : 1,
      "type" : "about_music_library_page",
      "status" : 1,
      "changed" : null,
      "langcode" : "und",
      "title" : "Locate Materials in the Music Library",
      "sticky" : 0,
      "promote" : 0,
      "created" : 1466782199
   },
   "node__body" : {
      "body_value" : "<table class=\"table table-bordered table-condensed table-striped\" border=\"0\"><thead class=\"thead-inverse\"><tr><th>Call Number or Collection</th><th>Where Is It?</th></tr></thead><tbody><tr><td>Reference</td><td><a href=\"/music/about/locationguide/main\" title=\"Main Level Map\">Main Level</a></td></tr><tr><td>Periodicals</td><td><a href=\"/music/about/locationguide/main\" title=\"Main Level\">Main Level</a></td></tr><tr><td>Scores M1-M1021</td><td><a href=\"/music/about/locationguide/main\" title=\"Main Level\">Main Level</a></td></tr><tr><td>Scores M1022-end</td><td><a href=\"/music/about/locationguide/lower\" title=\"Lower Level\">Lower Level</a></td></tr><tr><td>Books A-Z</td><td><a href=\"/music/about/locationguide/lower\" title=\"Lower Level Map\">Lower Level</a></td></tr><tr><td>Oversized Scores</td><td><a href=\"/music/about/locationguide/lower\" title=\"Lower Level\">Lower Level</a></td></tr><tr><td>Miniature Scores</td><td><a href=\"/music/about/locationguide/lower\" title=\"Lower Level\">Lower Level</a></td></tr><tr><td>Sound Recordings</td><td>Ask at Circulation Desk - <a href=\"/music/about/locationguide/main\" title=\"Main Level\">Main Level</a></td></tr><tr><td>Course Reserves</td><td>Ask at Circulation Desk - <a href=\"/music/about/locationguide/main\" title=\"Main Level\">Main Level</a></td></tr></tbody></table>\r\n\r\n<p>See locations for <a href=\"/using/locationguide\">all Duke University Libraries</a></p>\r\n<p><a href=\"/music/about/directions\">Where is the Music Library?</a></p>",
      "langcode" : "und",
      "deleted" : 0,
      "delta" : 0,
      "bundle" : "about_music_library_page",
      "body_format" : "full_html_no_wysiwyg",
      "revision_id" : 2313,
      "entity_id" : 179,
      "body_summary" : ""
   },
   "asidebox" : {
      "body_value" : null,
      "body_format" : null,
      "status" : "disabled",
      "block_module" : null,
      "nid" : 179,
      "vid" : 2313,
      "body_title" : "",
      "bid" : null,
      "block_delta" : null
   },
   "revisions" : [
      {
         "node_revision__body" : {
            "delta" : 0,
            "deleted" : 0,
            "body_value" : "<table class=\"table table-bordered table-condensed table-striped\" border=\"0\"><thead class=\"thead-inverse\"><tr><th>Call Number or Collection</th><th>Where Is It?</th></tr></thead><tbody><tr><td>Reference</td><td><a href=\"/music/about/locationguide/main\" title=\"Main Level Map\">Main Level</a></td></tr><tr><td>Periodicals</td><td><a href=\"/music/about/locationguide/main\" title=\"Main Level\">Main Level</a></td></tr><tr><td>Scores M1-M1021</td><td><a href=\"/music/about/locationguide/main\" title=\"Main Level\">Main Level</a></td></tr><tr><td>Scores M1022-end</td><td><a href=\"/music/about/locationguide/lower\" title=\"Lower Level\">Lower Level</a></td></tr><tr><td>Books A-Z</td><td><a href=\"/music/about/locationguide/lower\" title=\"Lower Level Map\">Lower Level</a></td></tr><tr><td>Oversized Scores</td><td><a href=\"/music/about/locationguide/lower\" title=\"Lower Level\">Lower Level</a></td></tr><tr><td>Miniature Scores</td><td><a href=\"/music/about/locationguide/lower\" title=\"Lower Level\">Lower Level</a></td></tr><tr><td>Sound Recordings</td><td>Ask at Circulation Desk - <a href=\"/music/about/locationguide/main\" title=\"Main Level\">Main Level</a></td></tr><tr><td>Course Reserves</td><td>Ask at Circulation Desk - <a href=\"/music/about/locationguide/main\" title=\"Main Level\">Main Level</a></td></tr></tbody></table>\r\n\r\n<p>See locations for <a href=\"/using/locationguide\">all Duke University Libraries</a></p>\r\n<p><a href=\"/music/about/directions\">Where is the Music Library?</a></p>",
            "langcode" : "und",
            "bundle" : "about_music_library_page",
            "entity_id" : 179,
            "revision_id" : 2313,
            "body_format" : "full_html_no_wysiwyg",
            "body_summary" : ""
         },
         "status" : 1,
         "comment" : 1,
         "sticky" : 0,
         "title" : "Locate Materials in the Music Library",
         "vuuid" : "98b999f9-140e-4291-aee1-dad434ed3782",
         "node_revision__field_tags" : [],
         "promote" : 0,
         "field_revision" : {
            "changed" : null,
            "langcode" : null,
            "status" : 1,
            "uid" : 1,
            "default_langcode" : 1,
            "revision_translation_affected" : 1,
            "title" : "Locate Materials in the Music Library",
            "sticky" : 0,
            "created" : null
         },
         "uid" : 3,
         "timestamp" : 1480969429,
         "log" : ""
      }
   ],
   "path_alias" : {
      "language" : "und",
      "pid" : 233,
      "langcode" : "und",
      "status" : 0,
      "alias" : "/music/about/locationguide"
   },
   "vid" : 2313,
   "langcode" : "und",
   "type" : "about_music_library_page"
}

