{
   "field_tags" : [],
   "uuid" : "cfbd741a-9c6a-4882-9d3c-337fbc19fbe6",
   "nid" : "146",
   "field_image" : null,
   "node_access" : null,
   "revisions" : [
      {
         "timestamp" : 1566567991,
         "log" : "",
         "field_revision" : {
            "created" : null,
            "revision_translation_affected" : 1,
            "title" : "Early African-American film at Duke",
            "sticky" : 0,
            "status" : 1,
            "uid" : 1,
            "changed" : null,
            "langcode" : null,
            "default_langcode" : 1
         },
         "uid" : 3,
         "sticky" : 0,
         "title" : "Early African-American film at Duke",
         "promote" : 0,
         "node_revision__field_tags" : [],
         "vuuid" : "8973f46d-a6d7-4ce5-a7bd-0d8e7af9900f",
         "node_revision__body" : {
            "body_summary" : "",
            "entity_id" : 146,
            "revision_id" : 2917,
            "body_format" : "full_html_no_wysiwyg",
            "bundle" : "page",
            "deleted" : 0,
            "delta" : 0,
            "body_value" : "<style media=\"screen\" title=\"text/css\" type=\"text/css\">\r\n\r\n.dummystyle {\r\n}\r\ndiv.mainfilmographyview h1 {\r\n  font-size: 120%;\r\n}\r\ndiv.mainfilmographyview h2 {\r\n  font-size: 110%;\r\n}\r\n.filmtitle {\r\n  font-size: 120%;\r\n  font-weight: bold;\r\n}\r\n.year {\r\n  font-size: 110%;\r\n}\r\ndiv.filmsummaryrow {\r\n  background-color: #eeeeee;\r\n  padding: .5em;\r\n}\r\ndiv.filmsummarytext {\r\n  padding: 0 0 0 .5em;\r\n}\r\ndiv.filmdatarow {\r\n  padding: .5em;\r\n}\r\ndiv.filmentry {\r\n  border:     1px solid #aaaaaa;\r\n  margin: 0;\r\n  background-color: #ddddff;\r\n}\r\n\r\n#page-column-left { width: 70%; }\r\n#page-column-right { width: 25%; }\r\n\r\n.simile-content {\r\n\twidth: 70%;\r\n\tfloat: left;\r\n\tmargin-right: 30px;\r\n}\r\n\r\n.facets {\r\n\twidth: 25%;\r\n\tfloat: left;\r\n}\r\n\r\n\r\n</style>\r\n\r\n\r\n\r\n<div class=\"simile-content\">\r\n\r\n\r\n<div class=\"mainfilmographyview\">\r\n<div data-ex-role=\"viewPanel\">\r\n <div data-ex-role=\"lens\">\r\n  <div class=\"filmentry\">\t \r\n    <div class=\"filmdatarow\">\r\n\r\n      <div>\r\n        <span data-ex-content=\".title\" class=\"filmtitle\"></span>\r\n        <span data-ex-if-exists=\".year\" class=\"year\">(<span data-ex-content=\".year\" class=\"year\"></span>)</span>\r\n      </div>\r\n      <div><em>Directed by:</em>\r\n        <span data-ex-content=\".director\" class=\"director\"></span>\r\n      </div>\r\n\r\n      <div class=\"callno\">\r\n\t  <span data-ex-content=\"foreach(.callno, concat('<a href=\\'https://search.library.duke.edu/search?N=0&Nty=1&Ntk=Call+Number&Ntt=%22', value, '%22\\'>', value, '</a>'))\"></span>\r\n      </div>\t\t\t\r\n    </div>\r\n    <div data-ex-if-exists=\".summary\" class=\"filmsummaryrow\">\r\n      <div class=\"filmsummary\"><em>Summary:</em>\r\n        <div data-ex-content=\".summary\" class=\"filmsummarytext\"></div>\r\n\r\n      </div>\r\n    </div>\r\n  </div>\r\n </div>       \r\n <div data-ex-role=\"view\"\r\n   data-ex-orders=\".title, .year\"\r\n   data-ex-possibleOrders=\".title, .director, .year\"\r\n   data-ex-grouped=\"false\"\r\n   data-ex-showAll=\"true\">\r\n </div>\r\n</div>\r\n</div>\r\n\r\n\r\n</div>\r\n\r\n\r\n<div class=\"facets\">\r\n\r\n\r\n<div>Search text:\r\n  <div data-ex-role=\"facet\" data-ex-facet-class=\"TextSearch\"></div>\r\n  <div data-ex-role=\"facet\" data-ex-expression=\".director\" data-ex-facet-label=\"Director\"></div>\r\n  <div data-ex-role=\"facet\" data-ex-facetClass=\"NumericRange\" data-ex-expression=\".year\" data-ex-interval=\"10\" data-ex-facet-label=\"Year\"></div>\r\n</div>\r\n\r\n</div>",
            "langcode" : "und"
         },
         "comment" : 1,
         "status" : 1
      }
   ],
   "path_alias" : {
      "alias" : "/lilly/film-video/filmographies/early-african-american-filmography",
      "status" : 0,
      "langcode" : "und",
      "pid" : 167,
      "language" : "und"
   },
   "vid" : 2917,
   "langcode" : "und",
   "type" : "page",
   "node_field_data" : {
      "sticky" : 0,
      "title" : "Early African-American film at Duke",
      "created" : 1379094678,
      "promote" : 0,
      "type" : "page",
      "langcode" : "und",
      "changed" : null,
      "status" : 1,
      "revision_translation_affected" : 1,
      "default_langcode" : 1,
      "uid" : 1
   },
   "node__body" : {
      "body_summary" : "",
      "revision_id" : 2917,
      "entity_id" : 146,
      "body_format" : "full_html_no_wysiwyg",
      "bundle" : "page",
      "delta" : 0,
      "deleted" : 0,
      "langcode" : "und",
      "body_value" : "<style media=\"screen\" title=\"text/css\" type=\"text/css\">\r\n\r\n.dummystyle {\r\n}\r\ndiv.mainfilmographyview h1 {\r\n  font-size: 120%;\r\n}\r\ndiv.mainfilmographyview h2 {\r\n  font-size: 110%;\r\n}\r\n.filmtitle {\r\n  font-size: 120%;\r\n  font-weight: bold;\r\n}\r\n.year {\r\n  font-size: 110%;\r\n}\r\ndiv.filmsummaryrow {\r\n  background-color: #eeeeee;\r\n  padding: .5em;\r\n}\r\ndiv.filmsummarytext {\r\n  padding: 0 0 0 .5em;\r\n}\r\ndiv.filmdatarow {\r\n  padding: .5em;\r\n}\r\ndiv.filmentry {\r\n  border:     1px solid #aaaaaa;\r\n  margin: 0;\r\n  background-color: #ddddff;\r\n}\r\n\r\n#page-column-left { width: 70%; }\r\n#page-column-right { width: 25%; }\r\n\r\n.simile-content {\r\n\twidth: 70%;\r\n\tfloat: left;\r\n\tmargin-right: 30px;\r\n}\r\n\r\n.facets {\r\n\twidth: 25%;\r\n\tfloat: left;\r\n}\r\n\r\n\r\n</style>\r\n\r\n\r\n\r\n<div class=\"simile-content\">\r\n\r\n\r\n<div class=\"mainfilmographyview\">\r\n<div data-ex-role=\"viewPanel\">\r\n <div data-ex-role=\"lens\">\r\n  <div class=\"filmentry\">\t \r\n    <div class=\"filmdatarow\">\r\n\r\n      <div>\r\n        <span data-ex-content=\".title\" class=\"filmtitle\"></span>\r\n        <span data-ex-if-exists=\".year\" class=\"year\">(<span data-ex-content=\".year\" class=\"year\"></span>)</span>\r\n      </div>\r\n      <div><em>Directed by:</em>\r\n        <span data-ex-content=\".director\" class=\"director\"></span>\r\n      </div>\r\n\r\n      <div class=\"callno\">\r\n\t  <span data-ex-content=\"foreach(.callno, concat('<a href=\\'https://search.library.duke.edu/search?N=0&Nty=1&Ntk=Call+Number&Ntt=%22', value, '%22\\'>', value, '</a>'))\"></span>\r\n      </div>\t\t\t\r\n    </div>\r\n    <div data-ex-if-exists=\".summary\" class=\"filmsummaryrow\">\r\n      <div class=\"filmsummary\"><em>Summary:</em>\r\n        <div data-ex-content=\".summary\" class=\"filmsummarytext\"></div>\r\n\r\n      </div>\r\n    </div>\r\n  </div>\r\n </div>       \r\n <div data-ex-role=\"view\"\r\n   data-ex-orders=\".title, .year\"\r\n   data-ex-possibleOrders=\".title, .director, .year\"\r\n   data-ex-grouped=\"false\"\r\n   data-ex-showAll=\"true\">\r\n </div>\r\n</div>\r\n</div>\r\n\r\n\r\n</div>\r\n\r\n\r\n<div class=\"facets\">\r\n\r\n\r\n<div>Search text:\r\n  <div data-ex-role=\"facet\" data-ex-facet-class=\"TextSearch\"></div>\r\n  <div data-ex-role=\"facet\" data-ex-expression=\".director\" data-ex-facet-label=\"Director\"></div>\r\n  <div data-ex-role=\"facet\" data-ex-facetClass=\"NumericRange\" data-ex-expression=\".year\" data-ex-interval=\"10\" data-ex-facet-label=\"Year\"></div>\r\n</div>\r\n\r\n</div>"
   },
   "asidebox" : {
      "bid" : null,
      "block_delta" : null,
      "body_title" : "",
      "vid" : 2917,
      "nid" : 146,
      "block_module" : null,
      "status" : "disabled",
      "body_format" : null,
      "body_value" : null
   }
}

