{
   "node_field_data" : {
      "revision_translation_affected" : 1,
      "uid" : 1,
      "default_langcode" : 1,
      "created" : 1378996685,
      "promote" : 0,
      "sticky" : 0,
      "title" : "Orientation - Library Games",
      "langcode" : "und",
      "changed" : null,
      "status" : 1,
      "type" : "page"
   },
   "node__body" : {
      "body_summary" : "",
      "entity_id" : 134,
      "revision_id" : 2699,
      "body_format" : "full_html",
      "bundle" : "page",
      "deleted" : 0,
      "delta" : 0,
      "langcode" : "und",
      "body_value" : "<p><a href=\"/music/orientation-tasks.html\" target=\"_blank\" title=\"Click Me for Tasks!\"><img src=\"/east/sites/default/files/east/users/sarah%20griffin/blue_and_white_devil-300px.jpg\" alt=\"#LibraryGames\" title=\"Heard about the Library Games, old sport? They're the bee's knees!\" width=\"179\" height=\"310\" class=\"caption-right\"></a></p><p>&nbsp;</p><h1 style=\"text-align: center;\">Think you've got what it takes? <br>Put your library skills to the test!</h1><div style=\"text-align: center;\"><figure><div style=\"text=align: center;\"><button onclick=\"window.open('https://docs.google.com/forms/d/1s-A6qdP6MHzqIYpRgOgtu3n3Dc0aRiLfP28PBIihBU4/viewform')\" style=\"background-color: 3333cc; color: blue; height: 35px; width: 105px; font-size: 16pt;\" title=\"Exclusively for #Duke2017\"><b>Register</b></button></div></figure></div><h3 style=\"text-align: center;\">Enter the 2013 East Campus #LibraryGames for a chance <br>to win a new <i>Kindle Fire HDX</i>, or one of many other great prizes!</h3><h2 style=\"text-align: center;\"><a href=\"/music/orientation-tasks.html\" style=\"text-decoration: none;\" target=\"_blank\" title=\"Fun Tasks!\">Click the dapper Reading Blue Devil to get started on the tasks</a> <span style=\"font-size: 30pt; color: 3333cc; vertical-align: sub;\">↝ </span></h2><p>&nbsp;</p><p>&nbsp;</p><h2 style=\"border: 3px dotted blue; text-align: center;\"><mark>ATTENTION!</mark><br><br>The Library Games will be ending soon! <br><i>Make sure you're in the running to win</i> <br> the NEW Kindle Fire HDX <br><i>or one of our other great prizes!</i><br><br><small>Winners will be drawn Oct. 15 - don't delay!</small></h2><h4>The #LibraryGames will also:</h4><ul><li>introduce you to great services offered by your two East Campus Libraries, Lilly and Music</li><li>help you find some of the \"best-kept secret\" study spots</li><li>familiarize you with the resources for your work that will impress your profs and help maximize your grades</li><li>help you to get to know your friendly Residence Hall and East Campus Librarians!</li></ul><p>&nbsp;</p><p><!-- Facebook Badge START --></p><p><a href=\"https://www.facebook.com/LillyLibraryDuke\" target=\"_TOP\" title=\"Lilly Library- Duke University\"><img src=\"https://badge.facebook.com/badge/45057469827.2531.1172037502.png\" alt=\"Lilly Facebook\" height=\"150\" class=\"image-left img-responsive\"></a><a href=\"https://www.facebook.com/DukeMusicLibrary\" target=\"_TOP\" title=\"Duke Music Library\"><img src=\"https://badge.facebook.com/badge/152864488126984.1207.345100422.png\" alt=\"Music Library Facebook\" height=\"150\" class=\"image-right img-responsive\"></a></p><p>&nbsp;</p><p>**Tasks will be announced on <a href=\"/music/orientation-tasks.html\" target=\"_blank\" title=\"Fun Tasks\">this page</a>, as well as on the Facebook and Twitter feeds for both the Duke Music Library and Lilly Library, your two East Campus library destinations! Students who complete at least <span style=\"text-decoration: underline;\"><b><a href=\"/music/orientation-tasks.html\" target=\"_blank\" title=\"Fun Tasks!\">eight (8) game tasks</a></b></span> will be entered into a drawing to win a Kindle Fire, or one of several other great prizes. ONLY Duke First-Year Students (class of #Duke2017) are eligible to win prizes, so your odds are great! The Orientation Games will end 10/15/2013.**</p><p>&nbsp;</p><div style=\"text-align: center;\"><a class=\"twitter-timeline\" data-widget-id=\"367666884969111552\" href=\"https://twitter.com/search?q=%23LibraryGames\">Tweets about \"#LibraryGames\"</a></div><p>&nbsp;</p><h2 style=\"border: 3px dotted blue; text-align: center;\"><br>Psst! Visit the Lilly \"Speakeasy,\" our kick-off event, <br>7pm on August 27 for some tasty treats, fun prizes, <br>and a head start on your chance to win big!</h2><h2 style=\"border: 3px dotted blue; text-align: center;\">September 12, 7:30pm! <br>The 1920s fun continues with a FREE showing of <br><span style=\"font-size: 32px;\">\"The Great Gatsby\"</span> <br>on the East Campus Quad in front of Lilly! <br>There will be popcorn and a raffle <br>EXCLUSIVELY for #Duke2017<br><small> More information: <a href=\"https://bit.ly/1alPdbk\" target=\"_blank\" title=\"Gatsby Showing\">bit.ly/1alPdbk</a></small></h2><p>&nbsp;</p>"
   },
   "asidebox" : {
      "body_title" : "",
      "vid" : 2699,
      "nid" : 134,
      "bid" : null,
      "block_delta" : null,
      "block_module" : null,
      "body_value" : null,
      "body_format" : null,
      "status" : "disabled"
   },
   "revisions" : [
      {
         "node_revision__body" : {
            "entity_id" : 134,
            "revision_id" : 2699,
            "body_format" : "full_html",
            "body_summary" : "",
            "deleted" : 0,
            "delta" : 0,
            "langcode" : "und",
            "body_value" : "<p><a href=\"/music/orientation-tasks.html\" target=\"_blank\" title=\"Click Me for Tasks!\"><img src=\"/east/sites/default/files/east/users/sarah%20griffin/blue_and_white_devil-300px.jpg\" alt=\"#LibraryGames\" title=\"Heard about the Library Games, old sport? They're the bee's knees!\" width=\"179\" height=\"310\" class=\"caption-right\"></a></p><p>&nbsp;</p><h1 style=\"text-align: center;\">Think you've got what it takes? <br>Put your library skills to the test!</h1><div style=\"text-align: center;\"><figure><div style=\"text=align: center;\"><button onclick=\"window.open('https://docs.google.com/forms/d/1s-A6qdP6MHzqIYpRgOgtu3n3Dc0aRiLfP28PBIihBU4/viewform')\" style=\"background-color: 3333cc; color: blue; height: 35px; width: 105px; font-size: 16pt;\" title=\"Exclusively for #Duke2017\"><b>Register</b></button></div></figure></div><h3 style=\"text-align: center;\">Enter the 2013 East Campus #LibraryGames for a chance <br>to win a new <i>Kindle Fire HDX</i>, or one of many other great prizes!</h3><h2 style=\"text-align: center;\"><a href=\"/music/orientation-tasks.html\" style=\"text-decoration: none;\" target=\"_blank\" title=\"Fun Tasks!\">Click the dapper Reading Blue Devil to get started on the tasks</a> <span style=\"font-size: 30pt; color: 3333cc; vertical-align: sub;\">↝ </span></h2><p>&nbsp;</p><p>&nbsp;</p><h2 style=\"border: 3px dotted blue; text-align: center;\"><mark>ATTENTION!</mark><br><br>The Library Games will be ending soon! <br><i>Make sure you're in the running to win</i> <br> the NEW Kindle Fire HDX <br><i>or one of our other great prizes!</i><br><br><small>Winners will be drawn Oct. 15 - don't delay!</small></h2><h4>The #LibraryGames will also:</h4><ul><li>introduce you to great services offered by your two East Campus Libraries, Lilly and Music</li><li>help you find some of the \"best-kept secret\" study spots</li><li>familiarize you with the resources for your work that will impress your profs and help maximize your grades</li><li>help you to get to know your friendly Residence Hall and East Campus Librarians!</li></ul><p>&nbsp;</p><p><!-- Facebook Badge START --></p><p><a href=\"https://www.facebook.com/LillyLibraryDuke\" target=\"_TOP\" title=\"Lilly Library- Duke University\"><img src=\"https://badge.facebook.com/badge/45057469827.2531.1172037502.png\" alt=\"Lilly Facebook\" height=\"150\" class=\"image-left img-responsive\"></a><a href=\"https://www.facebook.com/DukeMusicLibrary\" target=\"_TOP\" title=\"Duke Music Library\"><img src=\"https://badge.facebook.com/badge/152864488126984.1207.345100422.png\" alt=\"Music Library Facebook\" height=\"150\" class=\"image-right img-responsive\"></a></p><p>&nbsp;</p><p>**Tasks will be announced on <a href=\"/music/orientation-tasks.html\" target=\"_blank\" title=\"Fun Tasks\">this page</a>, as well as on the Facebook and Twitter feeds for both the Duke Music Library and Lilly Library, your two East Campus library destinations! Students who complete at least <span style=\"text-decoration: underline;\"><b><a href=\"/music/orientation-tasks.html\" target=\"_blank\" title=\"Fun Tasks!\">eight (8) game tasks</a></b></span> will be entered into a drawing to win a Kindle Fire, or one of several other great prizes. ONLY Duke First-Year Students (class of #Duke2017) are eligible to win prizes, so your odds are great! The Orientation Games will end 10/15/2013.**</p><p>&nbsp;</p><div style=\"text-align: center;\"><a class=\"twitter-timeline\" data-widget-id=\"367666884969111552\" href=\"https://twitter.com/search?q=%23LibraryGames\">Tweets about \"#LibraryGames\"</a></div><p>&nbsp;</p><h2 style=\"border: 3px dotted blue; text-align: center;\"><br>Psst! Visit the Lilly \"Speakeasy,\" our kick-off event, <br>7pm on August 27 for some tasty treats, fun prizes, <br>and a head start on your chance to win big!</h2><h2 style=\"border: 3px dotted blue; text-align: center;\">September 12, 7:30pm! <br>The 1920s fun continues with a FREE showing of <br><span style=\"font-size: 32px;\">\"The Great Gatsby\"</span> <br>on the East Campus Quad in front of Lilly! <br>There will be popcorn and a raffle <br>EXCLUSIVELY for #Duke2017<br><small> More information: <a href=\"https://bit.ly/1alPdbk\" target=\"_blank\" title=\"Gatsby Showing\">bit.ly/1alPdbk</a></small></h2><p>&nbsp;</p>",
            "bundle" : "page"
         },
         "comment" : 1,
         "status" : 1,
         "sticky" : 0,
         "title" : "Orientation - Library Games",
         "promote" : 0,
         "node_revision__field_tags" : [],
         "vuuid" : "e951e922-60c4-46ce-bb91-ba296b260983",
         "log" : "",
         "timestamp" : 1507576287,
         "uid" : 3,
         "field_revision" : {
            "default_langcode" : 1,
            "status" : 1,
            "uid" : 1,
            "langcode" : null,
            "changed" : null,
            "created" : null,
            "sticky" : 0,
            "title" : "Orientation - Library Games",
            "revision_translation_affected" : 1
         }
      }
   ],
   "path_alias" : {
      "language" : "und",
      "pid" : 155,
      "alias" : "/content/orientation-library-games",
      "langcode" : "und",
      "status" : 0
   },
   "vid" : 2699,
   "langcode" : "und",
   "type" : "page",
   "field_tags" : [],
   "uuid" : "d4df2795-9bd9-4c15-955d-cd539d192e3b",
   "nid" : "134",
   "field_image" : null,
   "node_access" : null
}

