{
   "field_tags" : [],
   "nid" : "90",
   "uuid" : "da80ab05-1ddf-463b-a618-b54ea7e50b6f",
   "field_image" : null,
   "node_access" : null,
   "revisions" : [
      {
         "timestamp" : 1381167514,
         "log" : "",
         "field_revision" : {
            "title" : "New DVD Archives",
            "sticky" : 0,
            "revision_translation_affected" : 1,
            "created" : null,
            "default_langcode" : 1,
            "langcode" : null,
            "changed" : null,
            "status" : 1,
            "uid" : 1
         },
         "uid" : 3,
         "promote" : 0,
         "node_revision__field_tags" : [],
         "vuuid" : "fa6252d8-2caf-45cd-a8f6-c6d600d0b044",
         "title" : "New DVD Archives",
         "sticky" : 0,
         "comment" : 1,
         "status" : 1,
         "node_revision__body" : {
            "body_format" : "full_html",
            "entity_id" : 90,
            "revision_id" : 789,
            "body_summary" : "",
            "langcode" : "und",
            "body_value" : "<div class=\"grid-3\"><h2>2013</h2><p><a href=\"january-2013\">January</a></p><p><a href=\"february-2013\">February</a></p><p><a href=\"march-2013\">March</a></p><p><a href=\"april-2013\">April</a></p><p><a href=\"may-2013\">May</a></p><p><a href=\"june-2013\">June</a>&nbsp;</p></div><div class=\"grid-3\"><h2>2012</h2><p><a href=\"january-2012\">January</a></p><p><a href=\"february-2012\">February</a></p><p><a href=\"march-2012\">March</a></p><p><a href=\"april-2012\">April</a></p><p><a href=\"may-2012\">May</a></p><p><a href=\"june-2012\">June</a></p><p><a href=\"july-2012\">July</a></p><p><a href=\"august-2012\">August</a></p><p><a href=\"september-2012\">September</a></p><p><a href=\"october-2012\">October</a></p><p><a href=\"november-2012\">November</a></p><p><a href=\"december-2012\">December</a></p></div><div class=\"grid-3\"><h2>2011</h2><p><a href=\"january-2011\">January</a></p><p><a href=\"february-2011\">February</a></p><p><a href=\"march-2011\">March</a></p><p><a href=\"april-2011\">April</a></p><p><a href=\"may-2011\">May</a></p><p><a href=\"june-2011\">June</a></p><p><a href=\"july-2011\">July</a></p><p><a href=\"august-2011\">August</a></p><p><a href=\"september-2011\">September</a></p><p><a href=\"october-2011\">October</a></p><p><a href=\"november-2011\">November</a></p><p><a href=\"december-2011\">December</a></p></div>",
            "deleted" : 0,
            "delta" : 0,
            "bundle" : "lilly_video_page"
         }
      }
   ],
   "path_alias" : {
      "status" : 0,
      "langcode" : "und",
      "alias" : "/lilly/film-video/new-video-archives",
      "pid" : 107,
      "language" : "und"
   },
   "vid" : 789,
   "langcode" : "und",
   "type" : "lilly_video_page",
   "node_field_data" : {
      "title" : "New DVD Archives",
      "sticky" : 0,
      "created" : 1374508794,
      "promote" : 0,
      "type" : "lilly_video_page",
      "langcode" : "und",
      "changed" : null,
      "status" : 1,
      "revision_translation_affected" : 1,
      "uid" : 1,
      "default_langcode" : 1
   },
   "node__body" : {
      "bundle" : "lilly_video_page",
      "langcode" : "und",
      "body_value" : "<div class=\"grid-3\"><h2>2013</h2><p><a href=\"january-2013\">January</a></p><p><a href=\"february-2013\">February</a></p><p><a href=\"march-2013\">March</a></p><p><a href=\"april-2013\">April</a></p><p><a href=\"may-2013\">May</a></p><p><a href=\"june-2013\">June</a>&nbsp;</p></div><div class=\"grid-3\"><h2>2012</h2><p><a href=\"january-2012\">January</a></p><p><a href=\"february-2012\">February</a></p><p><a href=\"march-2012\">March</a></p><p><a href=\"april-2012\">April</a></p><p><a href=\"may-2012\">May</a></p><p><a href=\"june-2012\">June</a></p><p><a href=\"july-2012\">July</a></p><p><a href=\"august-2012\">August</a></p><p><a href=\"september-2012\">September</a></p><p><a href=\"october-2012\">October</a></p><p><a href=\"november-2012\">November</a></p><p><a href=\"december-2012\">December</a></p></div><div class=\"grid-3\"><h2>2011</h2><p><a href=\"january-2011\">January</a></p><p><a href=\"february-2011\">February</a></p><p><a href=\"march-2011\">March</a></p><p><a href=\"april-2011\">April</a></p><p><a href=\"may-2011\">May</a></p><p><a href=\"june-2011\">June</a></p><p><a href=\"july-2011\">July</a></p><p><a href=\"august-2011\">August</a></p><p><a href=\"september-2011\">September</a></p><p><a href=\"october-2011\">October</a></p><p><a href=\"november-2011\">November</a></p><p><a href=\"december-2011\">December</a></p></div>",
      "delta" : 0,
      "deleted" : 0,
      "body_summary" : "",
      "body_format" : "full_html",
      "revision_id" : 789,
      "entity_id" : 90
   },
   "asidebox" : {
      "status" : "disabled",
      "body_format" : null,
      "body_value" : null,
      "block_module" : null,
      "bid" : null,
      "block_delta" : null,
      "nid" : 90,
      "body_title" : "",
      "vid" : 789
   }
}

