{
   "field_image" : null,
   "node_access" : null,
   "field_tags" : [],
   "uuid" : "e477d201-514a-4a5e-94db-9d2ad6e335e9",
   "nid" : "153",
   "langcode" : "und",
   "type" : "music_library_page",
   "revisions" : [
      {
         "sticky" : 0,
         "title" : "Resources",
         "node_revision__field_tags" : [],
         "promote" : 0,
         "vuuid" : "0d0d424d-34c1-4566-bbc5-53c901905052",
         "node_revision__body" : {
            "bundle" : "music_library_page",
            "delta" : 0,
            "deleted" : 0,
            "body_value" : "<ul><li><a href=\"/music/resources/listening-online\">Listening Online</a></li><li><a href=\"/music/resources/more-music-collections-duke\">More Music Collections at Duke</a></li><li><a href=\"/music/resources/databases\">Music Databases</a></li><li><a href=\"/music/resources/web-links\">Music Web Links</a></li><li><a href=\"/music/resources/online-scores-sheet-music\">Online Scores / Sheet Music</a></li></ul>",
            "langcode" : "und",
            "body_summary" : "",
            "revision_id" : 990,
            "entity_id" : 153,
            "body_format" : "full_html"
         },
         "comment" : 1,
         "status" : 1,
         "timestamp" : 1382643526,
         "log" : "",
         "field_revision" : {
            "revision_translation_affected" : 1,
            "sticky" : 0,
            "title" : "Resources",
            "created" : null,
            "changed" : null,
            "langcode" : null,
            "status" : 1,
            "uid" : 1,
            "default_langcode" : 1
         },
         "uid" : 4
      }
   ],
   "vid" : 990,
   "path_alias" : {
      "pid" : 177,
      "language" : "und",
      "alias" : "/music/resources",
      "status" : 0,
      "langcode" : "und"
   },
   "asidebox" : {
      "block_module" : null,
      "status" : "disabled",
      "body_format" : null,
      "body_value" : null,
      "vid" : 990,
      "body_title" : "",
      "nid" : 153,
      "block_delta" : null,
      "bid" : null
   },
   "node_field_data" : {
      "revision_translation_affected" : 1,
      "default_langcode" : 1,
      "uid" : 1,
      "created" : 1382643455,
      "promote" : 0,
      "sticky" : 0,
      "title" : "Resources",
      "changed" : null,
      "langcode" : "und",
      "status" : 1,
      "type" : "music_library_page"
   },
   "node__body" : {
      "deleted" : 0,
      "delta" : 0,
      "body_value" : "<ul><li><a href=\"/music/resources/listening-online\">Listening Online</a></li><li><a href=\"/music/resources/more-music-collections-duke\">More Music Collections at Duke</a></li><li><a href=\"/music/resources/databases\">Music Databases</a></li><li><a href=\"/music/resources/web-links\">Music Web Links</a></li><li><a href=\"/music/resources/online-scores-sheet-music\">Online Scores / Sheet Music</a></li></ul>",
      "langcode" : "und",
      "bundle" : "music_library_page",
      "revision_id" : 990,
      "entity_id" : 153,
      "body_format" : "full_html",
      "body_summary" : ""
   }
}

