{
   "nid" : "82",
   "uuid" : "e77370cd-87c3-4268-9b58-03a2522c459e",
   "field_tags" : [],
   "node_access" : null,
   "field_image" : null,
   "node__body" : {
      "body_value" : "<p align=\"justify\"><strong><a href=\"https://search.library.duke.edu/search?id=DUKE004172227\">The Private Life of Henry VIII</a> -</strong> Lavish historical spectacle lustily portraying the life and lovers of notorious British Monarch, King Henry VIII. Starring Charles Laughton. <strong>(DVD 14102)</strong></p><p align=\"justify\"><strong><a href=\"https://search.library.duke.edu/search?id=DUKE003856451\">The Queen</a> -</strong> The film takes place during the week following the death of Diana, Princess of Wales. Adroit use of newsreel and other contemporary footage reminds&nbsp;viewers of the deep sadness that surrounded that event. It is also about the divergent ways the monarch and Prime Minister Tony Blair responded to the resulting torrent of national grief. <strong>(DVD 10258)</strong></p><p align=\"justify\"><strong><a href=\"https://search.library.duke.edu/search?id=DUKE003448724\">Elizabeth</a> -</strong> Queen Elizabeth I must learn to weigh her counsel carefully and ignore her private yearnings if she is to keep her crown--and her head. Starring Cate Blanchett.&nbsp;<strong>(DVD 4964)</strong></p><p align=\"justify\"><strong><a href=\"https://search.library.duke.edu/search?id=DUKE003445438\">The Private Lives of Elizabeth and Essex</a> -</strong> This period drama sets the tumultuous on-again, off-again affair between Queen Elizabeth I and the second Earl of Essex against Essex's powerful ambition to assume the throne of England. <strong>(DVD 4300)</strong></p><p align=\"justify\"><strong><a href=\"https://search.library.duke.edu/search?id=DUKE003158089\">Excalibur</a> -</strong> The classic saga of King Arthur and those around him in the Court-- the knights, his Queen, and the wizard Merlin. Focuses on the rise of Christian civilization out of the Dark Ages. <strong>(DVD 1494)</strong></p><p align=\"justify\"><strong><a href=\"https://search.library.duke.edu/search?id=DUKE004344943\">Cleopatra</a> -</strong> Story of the life of Cleopatra, queen of ancient Egypt from her ascension to the throne through her struggle for power and her loves and entanglements with Julius Caesar and Marc Anthony. <strong>(DVD 17395)</strong></p><p align=\"justify\"><strong><a href=\"https://search.library.duke.edu/search?id=DUKE004203993\">The Madness of King George</a> -</strong> Based on the life of King George III, this is the story of royal intrigue, sexual indiscretions, backstairs plotting and a battle for power between Parliament and the throne, all occuring while the king is being treated for an unknown illness. <strong>(DVD 14588)</strong></p><p align=\"justify\"><strong><a href=\"https://search.library.duke.edu/search?id=DUKE004085009\">The Taking of Power by Louis XIV</a> -</strong> Cardinal Mazarin dies in 1661. The young Louis asserts his intention to govern as well as rule. Mazarin's fiscal advisor, Colbert, warns against Fouquet, who wants to be prime minister and is looting the treasury. Fouquet believes Louis will soon tire of exercizing power and overplays his hand. <strong>(DVD 12793)</strong></p><p align=\"justify\"><strong><a href=\"https://search.library.duke.edu/search?id=DUKE004316022\">The Young Victoria</a> -</strong> Chronicles the life and times of Queen Victoria from her childhood to her early rise to power and the first turbulent years of her rule. Her romantic relationship and eventual marriage to Prince Albert culminates in a royal power struggle which ultimately is the key to her happiness. <strong>(DVD 16385)</strong></p><p align=\"justify\"><strong><a href=\"https://search.library.duke.edu/search?id=DUKE003805128\">Queen Margot</a> -</strong> Thrown into a political marriage of convenience by her ruthlessly power-hungry family, the beautiful Margot soon finds herself hopelessly drawn into their murderous affairs. It's then she realizes her only hope of escape lies somewhere between the heroic soldier who loves her and the enemy husband who could save her. <strong>(DVD 7310)</strong></p><p align=\"justify\"><strong><a href=\"https://search.library.duke.edu/search?id=DUKE003135866\">The King and I</a> -</strong> An English schoolteacher finds herself at odds with the King of Siam when she is the teacher at the royal court in the 1860s. This musical stars Yul Brynner and Deborah Kerr. <strong>(DVD 1023)</strong></p><p align=\"justify\"><strong><a href=\"https://search.library.duke.edu/search?id=DUKE004092500\">Ludwig</a> -</strong> A portrait of Ludwig II, the 19th century mad king of Bavaria. Tormented by his unrequited love for his cousin, Empress Elisabeth of Austria, coupled with his obsession for the music of Wagner, Ludwig retreats into a fantasy world. He builds fairytale castles and ultimately loses his already-fragile grip on his sanity. <strong>(DVD 13036)</strong></p><p align=\"justify\"><strong><a href=\"https://search.library.duke.edu/search?id=DUKE003975238\">The Lion in Winter</a> -</strong> Historical drama of the conflict between King Henry II of England and his wife Eleanor of Aquitaine over Henry's successor to the British throne. <strong>(DVD 11387)</strong></p><p align=\"justify\"><strong><a href=\"https://search.library.duke.edu/search?id=DUKE003973684\">Anne of a Thousand Days</a> -</strong>&nbsp; Follows King Henry VIII and Anne Boleyn in one of history's most famous tragic love affairs in the Academy Award winning materpiece starring Richard Burton and Genevieve Bujold. <strong>(DVD 11097)</strong></p><p align=\"justify\"><strong><a href=\"https://search.library.duke.edu/search?id=DUKE003486563\">Henry V</a> -</strong> Young King Henry of England asserts a hereditary claim to the throne of France, gathering an army and embarking on a course that will lead to one of England's greatest battlefield triumphs and forever change the face of Europe. Starring Kenneth Branagh.&nbsp;<strong>(DVD 4882)</strong></p><p align=\"justify\"><strong><a href=\"https://search.library.duke.edu/search?id=DUKE002652085\">Camelot</a> -</strong> A musical interpretation of the legend of King Arthur starring Richard Harris and Vanessa Redgrave with music and lyrics by Lerner and Lowe. <strong>(DVD 18)</strong></p>",
      "langcode" : "und",
      "delta" : 0,
      "deleted" : 0,
      "bundle" : "about_lilly_library_page",
      "body_format" : "full_html",
      "revision_id" : 2673,
      "entity_id" : 82,
      "body_summary" : ""
   },
   "node_field_data" : {
      "default_langcode" : 1,
      "uid" : 1,
      "revision_translation_affected" : 1,
      "status" : 1,
      "langcode" : "und",
      "changed" : null,
      "type" : "about_lilly_library_page",
      "promote" : 0,
      "created" : 1374496536,
      "title" : "Monarchs in Film",
      "sticky" : 0
   },
   "asidebox" : {
      "block_delta" : null,
      "bid" : null,
      "body_title" : "",
      "vid" : 2673,
      "nid" : 82,
      "block_module" : null,
      "body_format" : "full_html",
      "body_value" : "<p style=\"text-align: center;\"><em><img src=\"/east/sites/default/files/east/lilly-video-images/queen_0.jpg\" alt=\"queen\" width=\"200\" height=\"142\"></em><br><em>The Queen</em></p><p style=\"text-align: center;\"><em><img src=\"/east/sites/default/files/east/lilly-video-images/Cleopatra_0.jpg\" alt=\"cleopatra\" width=\"200\" height=\"214\"></em><br><em>Cleopatra</em></p><p style=\"text-align: center;\"><em><img src=\"/east/sites/default/files/east/lilly-video-images/TakingofPower_0.jpg\" alt=\"taking-of-power-by-louisxiv\" width=\"200\" height=\"153\"></em><br><em>The Taking of Power by Louis XIV</em></p><p style=\"text-align: center;\"><em><img src=\"/east/sites/default/files/east/lilly-video-images/queenmargot_0.jpg\" alt=\"queen-margot\" width=\"200\" height=\"171\"></em><br><em>Queen Margot</em></p><p style=\"text-align: center;\"><em><img src=\"/east/sites/default/files/east/lilly-video-images/annethousand_0.jpg\" alt=\"anne-of-a-thousand-days\" width=\"200\" height=\"166\"></em><br><em>Anne of a Thousand Days</em></p><p style=\"text-align: center;\"><em><img src=\"/east/sites/default/files/east/lilly-video-images/MaryofScotland_0.jpg\" alt=\"mary-of-scotland\" width=\"200\" height=\"167\"></em><br><em>Mary of Scotland</em></p>",
      "status" : "html"
   },
   "path_alias" : {
      "language" : "und",
      "pid" : 99,
      "langcode" : "und",
      "status" : 0,
      "alias" : "/lilly/film-video/spotlight/archives/monarchs-in-film"
   },
   "vid" : 2673,
   "revisions" : [
      {
         "uid" : 3,
         "field_revision" : {
            "status" : 1,
            "uid" : 1,
            "langcode" : null,
            "changed" : null,
            "default_langcode" : 1,
            "revision_translation_affected" : 1,
            "sticky" : 0,
            "title" : "Monarchs in Film",
            "created" : null
         },
         "log" : "",
         "timestamp" : 1507574820,
         "status" : 1,
         "comment" : 1,
         "node_revision__body" : {
            "bundle" : "about_lilly_library_page",
            "deleted" : 0,
            "delta" : 0,
            "body_value" : "<p align=\"justify\"><strong><a href=\"https://search.library.duke.edu/search?id=DUKE004172227\">The Private Life of Henry VIII</a> -</strong> Lavish historical spectacle lustily portraying the life and lovers of notorious British Monarch, King Henry VIII. Starring Charles Laughton. <strong>(DVD 14102)</strong></p><p align=\"justify\"><strong><a href=\"https://search.library.duke.edu/search?id=DUKE003856451\">The Queen</a> -</strong> The film takes place during the week following the death of Diana, Princess of Wales. Adroit use of newsreel and other contemporary footage reminds&nbsp;viewers of the deep sadness that surrounded that event. It is also about the divergent ways the monarch and Prime Minister Tony Blair responded to the resulting torrent of national grief. <strong>(DVD 10258)</strong></p><p align=\"justify\"><strong><a href=\"https://search.library.duke.edu/search?id=DUKE003448724\">Elizabeth</a> -</strong> Queen Elizabeth I must learn to weigh her counsel carefully and ignore her private yearnings if she is to keep her crown--and her head. Starring Cate Blanchett.&nbsp;<strong>(DVD 4964)</strong></p><p align=\"justify\"><strong><a href=\"https://search.library.duke.edu/search?id=DUKE003445438\">The Private Lives of Elizabeth and Essex</a> -</strong> This period drama sets the tumultuous on-again, off-again affair between Queen Elizabeth I and the second Earl of Essex against Essex's powerful ambition to assume the throne of England. <strong>(DVD 4300)</strong></p><p align=\"justify\"><strong><a href=\"https://search.library.duke.edu/search?id=DUKE003158089\">Excalibur</a> -</strong> The classic saga of King Arthur and those around him in the Court-- the knights, his Queen, and the wizard Merlin. Focuses on the rise of Christian civilization out of the Dark Ages. <strong>(DVD 1494)</strong></p><p align=\"justify\"><strong><a href=\"https://search.library.duke.edu/search?id=DUKE004344943\">Cleopatra</a> -</strong> Story of the life of Cleopatra, queen of ancient Egypt from her ascension to the throne through her struggle for power and her loves and entanglements with Julius Caesar and Marc Anthony. <strong>(DVD 17395)</strong></p><p align=\"justify\"><strong><a href=\"https://search.library.duke.edu/search?id=DUKE004203993\">The Madness of King George</a> -</strong> Based on the life of King George III, this is the story of royal intrigue, sexual indiscretions, backstairs plotting and a battle for power between Parliament and the throne, all occuring while the king is being treated for an unknown illness. <strong>(DVD 14588)</strong></p><p align=\"justify\"><strong><a href=\"https://search.library.duke.edu/search?id=DUKE004085009\">The Taking of Power by Louis XIV</a> -</strong> Cardinal Mazarin dies in 1661. The young Louis asserts his intention to govern as well as rule. Mazarin's fiscal advisor, Colbert, warns against Fouquet, who wants to be prime minister and is looting the treasury. Fouquet believes Louis will soon tire of exercizing power and overplays his hand. <strong>(DVD 12793)</strong></p><p align=\"justify\"><strong><a href=\"https://search.library.duke.edu/search?id=DUKE004316022\">The Young Victoria</a> -</strong> Chronicles the life and times of Queen Victoria from her childhood to her early rise to power and the first turbulent years of her rule. Her romantic relationship and eventual marriage to Prince Albert culminates in a royal power struggle which ultimately is the key to her happiness. <strong>(DVD 16385)</strong></p><p align=\"justify\"><strong><a href=\"https://search.library.duke.edu/search?id=DUKE003805128\">Queen Margot</a> -</strong> Thrown into a political marriage of convenience by her ruthlessly power-hungry family, the beautiful Margot soon finds herself hopelessly drawn into their murderous affairs. It's then she realizes her only hope of escape lies somewhere between the heroic soldier who loves her and the enemy husband who could save her. <strong>(DVD 7310)</strong></p><p align=\"justify\"><strong><a href=\"https://search.library.duke.edu/search?id=DUKE003135866\">The King and I</a> -</strong> An English schoolteacher finds herself at odds with the King of Siam when she is the teacher at the royal court in the 1860s. This musical stars Yul Brynner and Deborah Kerr. <strong>(DVD 1023)</strong></p><p align=\"justify\"><strong><a href=\"https://search.library.duke.edu/search?id=DUKE004092500\">Ludwig</a> -</strong> A portrait of Ludwig II, the 19th century mad king of Bavaria. Tormented by his unrequited love for his cousin, Empress Elisabeth of Austria, coupled with his obsession for the music of Wagner, Ludwig retreats into a fantasy world. He builds fairytale castles and ultimately loses his already-fragile grip on his sanity. <strong>(DVD 13036)</strong></p><p align=\"justify\"><strong><a href=\"https://search.library.duke.edu/search?id=DUKE003975238\">The Lion in Winter</a> -</strong> Historical drama of the conflict between King Henry II of England and his wife Eleanor of Aquitaine over Henry's successor to the British throne. <strong>(DVD 11387)</strong></p><p align=\"justify\"><strong><a href=\"https://search.library.duke.edu/search?id=DUKE003973684\">Anne of a Thousand Days</a> -</strong>&nbsp; Follows King Henry VIII and Anne Boleyn in one of history's most famous tragic love affairs in the Academy Award winning materpiece starring Richard Burton and Genevieve Bujold. <strong>(DVD 11097)</strong></p><p align=\"justify\"><strong><a href=\"https://search.library.duke.edu/search?id=DUKE003486563\">Henry V</a> -</strong> Young King Henry of England asserts a hereditary claim to the throne of France, gathering an army and embarking on a course that will lead to one of England's greatest battlefield triumphs and forever change the face of Europe. Starring Kenneth Branagh.&nbsp;<strong>(DVD 4882)</strong></p><p align=\"justify\"><strong><a href=\"https://search.library.duke.edu/search?id=DUKE002652085\">Camelot</a> -</strong> A musical interpretation of the legend of King Arthur starring Richard Harris and Vanessa Redgrave with music and lyrics by Lerner and Lowe. <strong>(DVD 18)</strong></p>",
            "langcode" : "und",
            "body_summary" : "",
            "revision_id" : 2673,
            "entity_id" : 82,
            "body_format" : "full_html"
         },
         "vuuid" : "cfb4c020-48aa-4f4b-a91c-86ee7c44f2db",
         "node_revision__field_tags" : [],
         "promote" : 0,
         "title" : "Monarchs in Film",
         "sticky" : 0
      }
   ],
   "type" : "about_lilly_library_page",
   "langcode" : "und"
}

