{
   "node__body" : {
      "entity_id" : 157,
      "revision_id" : 2988,
      "body_format" : "full_html",
      "body_summary" : "",
      "deleted" : 0,
      "delta" : 0,
      "langcode" : "und",
      "body_value" : "<p style=\"text-align: center;\"><img src=\"/east/sites/default/files/east/users/kelley%20lawton/Blue-Devilish-Postcard-Photo-webpage.jpg\" alt=\"Photo Contest\" width=\"400\" height=\"269\" class=\"image-right img-responsive\"></p><p></p><p>The Duke University Libraries wants to celebrate Duke past and present through your photos. Choose a historic photo from the <a href=\"https://www.flickr.com/photos/dukeyearlook/collections/72157634757831327/\" target=\"_blank\">University Archives</a> in one of the following categories: Academics, Athletics, Campus Scenes and Student Life. &nbsp;Use that photo as an inspiration for your new photographic creation.</p><h2>Who?&nbsp;</h2><p>The contest is open to any currently enrolled Duke student. You can enter one photograph in each category.</p><h2>When?</h2><p>Deadline is Thursday, March 27th&nbsp; at midnight.</p><h2>Prizes?</h2><p>The winning photograph in each category will receive $200. &nbsp;Runners-up will receive $50. &nbsp;The Awards Ceremony will be held on April 8 in Lilly Library’s Thomas Room. Winning photographs will be displayed in Lilly.</p><h2>Judging</h2><p>Judging will be completed by a panel made up of faculty and students. &nbsp;Entries will be evaluated based on the following criteria:</p><ul><li>Photograph’s overall effectiveness in communicating the theme of the contest</li><li>Creativity</li><li>Originality</li><li>Quality of photo</li></ul><p>Please submit your entries using our online form linked below.</p><p><a href=\"https://duke.qualtrics.com/SE/?SID=SV_5uKMPT72EXLw3iJ\" target=\"_blank\" class=\"btn btn-primary\">Submit your entry</a></p><p></p><hr class=\"dashed\"><p></p><h2><a id=\"rules\"></a>Official Contest Rules and Regulations</h2><ul><li>Contest begins February 24 and ends March 23 by midnight.</li><li>The contest is open to all current Duke University students.</li><li>All photographs must be the individual’s original work.</li><li>Individuals may submit 1 photograph per category, a maximum of 4 photographs.</li><li>Images can be in color or black and white and must be at least 300 dpi. TIFF or JPEG format. The winning entries will be printed in 8x10 for display.</li><li>Photographs that fail to comply with the rules and regulations will not be considered.</li><li>The top photograph and runner-up in each category will be announced on Tuesday, April 8.</li><li>By entering the contest, all entrants grant the Duke University Libraries permission to use the photographs in promotional, informational and display activities, both in print and online. Photos will be credited to the photographer named in the entry form.&nbsp;</li><li>Entries (including non-winning entries) will be displayed on the contest's online site.&nbsp;</li><li>The Duke University Libraries is not responsible for late, lost, incomplete, illegible, or misdirected emails or for any technical/computer related malfunctions.</li><li>The contest organizers reserve the right to disqualify entries which do not conform to the stated Official Rules and Guidelines and/or violate Duke policies.&nbsp;</li><li>The Duke University Libraries reserves the right to reject entries for consideration in the competition at its sole discretion.</li></ul>",
      "bundle" : "page"
   },
   "node_field_data" : {
      "changed" : null,
      "langcode" : "und",
      "status" : 0,
      "type" : "page",
      "created" : 1392827328,
      "promote" : 0,
      "sticky" : 0,
      "title" : "Duke: 175 Years of Blue Devilish Images Photo Contest",
      "default_langcode" : 1,
      "uid" : 1,
      "revision_translation_affected" : 1
   },
   "asidebox" : null,
   "vid" : 2988,
   "path_alias" : {
      "language" : "und",
      "pid" : 191,
      "alias" : "/lilly/duke-photo-contest",
      "langcode" : "und",
      "status" : 0
   },
   "revisions" : [
      {
         "timestamp" : 1612813089,
         "log" : "",
         "field_revision" : {
            "created" : null,
            "sticky" : 0,
            "title" : "Duke: 175 Years of Blue Devilish Images Photo Contest",
            "revision_translation_affected" : 1,
            "default_langcode" : 1,
            "changed" : null,
            "langcode" : null,
            "status" : 0,
            "uid" : 1
         },
         "uid" : 8,
         "node_revision__field_tags" : [],
         "promote" : 0,
         "vuuid" : "b7c1081a-20e2-4a63-818e-24e27e78916f",
         "sticky" : 0,
         "title" : "Duke: 175 Years of Blue Devilish Images Photo Contest",
         "comment" : 1,
         "status" : 0,
         "node_revision__body" : {
            "langcode" : "und",
            "body_value" : "<p style=\"text-align: center;\"><img src=\"/east/sites/default/files/east/users/kelley%20lawton/Blue-Devilish-Postcard-Photo-webpage.jpg\" alt=\"Photo Contest\" width=\"400\" height=\"269\" class=\"image-right img-responsive\"></p><p></p><p>The Duke University Libraries wants to celebrate Duke past and present through your photos. Choose a historic photo from the <a href=\"https://www.flickr.com/photos/dukeyearlook/collections/72157634757831327/\" target=\"_blank\">University Archives</a> in one of the following categories: Academics, Athletics, Campus Scenes and Student Life. &nbsp;Use that photo as an inspiration for your new photographic creation.</p><h2>Who?&nbsp;</h2><p>The contest is open to any currently enrolled Duke student. You can enter one photograph in each category.</p><h2>When?</h2><p>Deadline is Thursday, March 27th&nbsp; at midnight.</p><h2>Prizes?</h2><p>The winning photograph in each category will receive $200. &nbsp;Runners-up will receive $50. &nbsp;The Awards Ceremony will be held on April 8 in Lilly Library’s Thomas Room. Winning photographs will be displayed in Lilly.</p><h2>Judging</h2><p>Judging will be completed by a panel made up of faculty and students. &nbsp;Entries will be evaluated based on the following criteria:</p><ul><li>Photograph’s overall effectiveness in communicating the theme of the contest</li><li>Creativity</li><li>Originality</li><li>Quality of photo</li></ul><p>Please submit your entries using our online form linked below.</p><p><a href=\"https://duke.qualtrics.com/SE/?SID=SV_5uKMPT72EXLw3iJ\" target=\"_blank\" class=\"btn btn-primary\">Submit your entry</a></p><p></p><hr class=\"dashed\"><p></p><h2><a id=\"rules\"></a>Official Contest Rules and Regulations</h2><ul><li>Contest begins February 24 and ends March 23 by midnight.</li><li>The contest is open to all current Duke University students.</li><li>All photographs must be the individual’s original work.</li><li>Individuals may submit 1 photograph per category, a maximum of 4 photographs.</li><li>Images can be in color or black and white and must be at least 300 dpi. TIFF or JPEG format. The winning entries will be printed in 8x10 for display.</li><li>Photographs that fail to comply with the rules and regulations will not be considered.</li><li>The top photograph and runner-up in each category will be announced on Tuesday, April 8.</li><li>By entering the contest, all entrants grant the Duke University Libraries permission to use the photographs in promotional, informational and display activities, both in print and online. Photos will be credited to the photographer named in the entry form.&nbsp;</li><li>Entries (including non-winning entries) will be displayed on the contest's online site.&nbsp;</li><li>The Duke University Libraries is not responsible for late, lost, incomplete, illegible, or misdirected emails or for any technical/computer related malfunctions.</li><li>The contest organizers reserve the right to disqualify entries which do not conform to the stated Official Rules and Guidelines and/or violate Duke policies.&nbsp;</li><li>The Duke University Libraries reserves the right to reject entries for consideration in the competition at its sole discretion.</li></ul>",
            "delta" : 0,
            "deleted" : 0,
            "bundle" : "page",
            "body_format" : "full_html",
            "revision_id" : 2988,
            "entity_id" : 157,
            "body_summary" : ""
         }
      }
   ],
   "type" : "page",
   "langcode" : "und",
   "nid" : "157",
   "uuid" : "e7897b43-3fa4-413d-bec3-7f32d401ba2f",
   "field_tags" : [],
   "node_access" : null,
   "field_image" : null
}

