{
   "field_image" : null,
   "node_access" : null,
   "field_tags" : [],
   "uuid" : "f4835074-7110-4a94-9f01-2a9267616876",
   "nid" : "55",
   "langcode" : "und",
   "type" : "about_lilly_library_page",
   "revisions" : [
      {
         "status" : 1,
         "comment" : 1,
         "node_revision__body" : {
            "bundle" : "about_lilly_library_page",
            "deleted" : 0,
            "delta" : 0,
            "langcode" : "und",
            "body_value" : "<p align=\"justify\"><strong><a href=\"https://search.library.duke.edu/search?id=DUKE003847187\">Andy Warhol: A Documentary Film</a> -</strong> A riveting and often deepl moving portrait of the most famous and controversial artist of the second half of the twentieth century.&nbsp; Warhol's life is presented&nbsp;through interviews and rare footage.&nbsp;<strong>(DVD 8147)</strong></p><p align=\"justify\"><strong><a href=\"https://search.library.duke.edu/search?id=DUKE003401929\">Chelsea Girls</a> -</strong> One of the first \"underground\" films of the 1960's to achieve a degree of mainstream acceptance, the film offers a long, unblinking look into the lives of Andy Warhol's retinue of \"superstars\" as they showed off for the camera in their various rooms in the notorious Chelsea Hotel, long a favored New York hangout for writers, artists and bohemians. <strong>(DVD 3538)</strong></p><p align=\"justify\"><strong><a href=\"https://search.library.duke.edu/search?id=DUKE004085623\">13 Most Beautiful... Songs for Andy Warhol's Screen Tests</a></strong> - Warhol's Screen Tests, which number approximately 500, are beautiful and revealing portraits of hundreds of different individuals, shot between 1964 and 1966.&nbsp;Thirteen are presented here for the first time on DVD. <strong>(DVD 13702)</strong></p><p align=\"justify\"><strong><a href=\"https://search.library.duke.edu/search?id=DUKE003300618\">Nico Icon</a> -</strong> Documentary about Christa Paffgen, German model, singer and occasional actress who became the pop icon Nico and a regular at Warhol's Factory. <strong>(DVD 3018)</strong></p><p align=\"justify\"><strong><a href=\"https://search.library.duke.edu/search?id=DUKE003353528\">Cocaine Cowboys</a> -</strong>&nbsp;A band of rock musicians want to get out of their sideline business of cocaine smuggling. Warhol appears as himself. <strong>(DVD 3919)</strong></p><p align=\"justify\"><strong><a href=\"https://search.library.duke.edu/search?id=DUKE003094829\">Trash</a> -</strong> The story of Joe and his lover-protector, Holly who try to make a go of things in their Lower East Side basement, from which Holly goes forth from time to time to cruise Fillmore East and to scavenge garbage cans, while Joe's journeys are in search of real junk. This Warhol production was directed by Paul Morrissey. <strong>(DVD 717)</strong></p><p align=\"justify\"><strong><a href=\"https://search.library.duke.edu/search?id=DUKE003401494\">Pie in the Sky: The Brigid Berlin Story</a>&nbsp;-</strong> As an Andy Warhol bad-girl, Brigid Berlin takes us on a ride through the Factory era. She creates unique performance pieces and incorporates Polaroid pictures and audiotapes into her works. <strong>(DVD 3356)</strong></p><p align=\"justify\"><strong><a href=\"https://search.library.duke.edu/search?id=DUKE003932019\">The Nude Restaurant</a> -</strong>&nbsp;In this experimental film Warhol that satirizes pornography in film and American culture. A group of Warhol's regular \"Superstars,\" wearing only G-strings, improvise monologues and dialogues in a restaurant. <strong>(DVD 10033)</strong></p><p align=\"justify\"><strong><a href=\"https://search.library.duke.edu/search?id=DUKE003932017\">My Hustler</a> -</strong> Experimental film in which an aging \"queen\" on Fire Island has rented a weekend companion from \"Dial-a-Hustler,\" only to compete with his male and female neighbors for the young man's attention.&nbsp; <strong>(DVD 10031)</strong></p><p align=\"justify\"><strong><a href=\"https://search.library.duke.edu/search?id=DUKE003932018\">Lonsome Cowboys</a> -</strong> Warhol's film&nbsp;satirizes the Hollywood western. Actors Viva, Taylor Mead, Joe Dallesandro, and others, clothed and unclothed, improvise a parody of standard cowboy behavior around the set of an \"old west\" town. <strong>(DVD 10030)</strong></p><p align=\"justify\"><strong><a href=\"https://search.library.duke.edu/search?id=DUKE004086685\">A Walk Into the Sea: Danny Williams and the Warhol Factory</a> -</strong> An examination disappearance of Danny Williams, a young filmmaker, Andy Warhol's lover. Includes astonishing footage from recently discovered films. <strong>(DVD 12888)</strong></p><p align=\"justify\"><strong><a href=\"https://search.library.duke.edu/search?id=DUKE003300614\">Women in Revolt</a> -</strong> Three girls from different walks of life have different problems relating to men. They decide to give up men and become lesbians and attempt careers, only to end up either exploited, derelict or abandoned. Produced by Warhol and directed by Paul Morrissey. <strong>(DVD 3014)</strong></p>",
            "body_summary" : "",
            "revision_id" : 2733,
            "entity_id" : 55,
            "body_format" : "full_html"
         },
         "vuuid" : "30706ef7-2dce-4d10-a257-164e8bf14f34",
         "node_revision__field_tags" : [],
         "promote" : 0,
         "sticky" : 0,
         "title" : "Warhol and His Circle",
         "uid" : 3,
         "field_revision" : {
            "created" : null,
            "title" : "Warhol and His Circle",
            "sticky" : 0,
            "revision_translation_affected" : 1,
            "default_langcode" : 1,
            "uid" : 1,
            "status" : 1,
            "langcode" : null,
            "changed" : null
         },
         "log" : "",
         "timestamp" : 1507577086
      }
   ],
   "path_alias" : {
      "language" : "und",
      "pid" : 72,
      "alias" : "/lilly/film-video/spotlight/archives/warhol",
      "langcode" : "und",
      "status" : 0
   },
   "vid" : 2733,
   "asidebox" : {
      "nid" : 55,
      "body_title" : "",
      "vid" : 2733,
      "bid" : null,
      "block_delta" : null,
      "body_value" : "<p style=\"text-align: center;\"><img src=\"/east/sites/default/files/east/lilly-video-images/nico-icon_0.jpg\" alt=\"nico-icon\" width=\"200\" height=\"131\"><br><em>Nico Icon</em></p><p style=\"text-align: center;\"><em><img src=\"/east/sites/default/files/east/lilly-video-images/trash_0.jpg\" alt=\"trash\" width=\"200\" height=\"148\"></em><br><em>Trash</em></p><p style=\"text-align: center;\"><em><img src=\"/east/sites/default/files/east/lilly-video-images/lonesome-cowboys_0.jpg\" alt=\"lonesome-cowboys\" width=\"200\" height=\"279\"></em><br><em>Lonesome Cowboys</em></p><p style=\"text-align: center;\"><em><img src=\"/east/sites/default/files/east/lilly-video-images/walk-into-the-sea_0.jpg\" alt=\"walk-into-the-sea\" width=\"200\" height=\"150\"></em><br><em>A Walk Into the Sea</em></p>",
      "body_format" : "full_html",
      "status" : "html",
      "block_module" : null
   },
   "node_field_data" : {
      "changed" : null,
      "langcode" : "und",
      "status" : 1,
      "type" : "about_lilly_library_page",
      "created" : 1374164029,
      "promote" : 0,
      "sticky" : 0,
      "title" : "Warhol and His Circle",
      "default_langcode" : 1,
      "uid" : 1,
      "revision_translation_affected" : 1
   },
   "node__body" : {
      "langcode" : "und",
      "body_value" : "<p align=\"justify\"><strong><a href=\"https://search.library.duke.edu/search?id=DUKE003847187\">Andy Warhol: A Documentary Film</a> -</strong> A riveting and often deepl moving portrait of the most famous and controversial artist of the second half of the twentieth century.&nbsp; Warhol's life is presented&nbsp;through interviews and rare footage.&nbsp;<strong>(DVD 8147)</strong></p><p align=\"justify\"><strong><a href=\"https://search.library.duke.edu/search?id=DUKE003401929\">Chelsea Girls</a> -</strong> One of the first \"underground\" films of the 1960's to achieve a degree of mainstream acceptance, the film offers a long, unblinking look into the lives of Andy Warhol's retinue of \"superstars\" as they showed off for the camera in their various rooms in the notorious Chelsea Hotel, long a favored New York hangout for writers, artists and bohemians. <strong>(DVD 3538)</strong></p><p align=\"justify\"><strong><a href=\"https://search.library.duke.edu/search?id=DUKE004085623\">13 Most Beautiful... Songs for Andy Warhol's Screen Tests</a></strong> - Warhol's Screen Tests, which number approximately 500, are beautiful and revealing portraits of hundreds of different individuals, shot between 1964 and 1966.&nbsp;Thirteen are presented here for the first time on DVD. <strong>(DVD 13702)</strong></p><p align=\"justify\"><strong><a href=\"https://search.library.duke.edu/search?id=DUKE003300618\">Nico Icon</a> -</strong> Documentary about Christa Paffgen, German model, singer and occasional actress who became the pop icon Nico and a regular at Warhol's Factory. <strong>(DVD 3018)</strong></p><p align=\"justify\"><strong><a href=\"https://search.library.duke.edu/search?id=DUKE003353528\">Cocaine Cowboys</a> -</strong>&nbsp;A band of rock musicians want to get out of their sideline business of cocaine smuggling. Warhol appears as himself. <strong>(DVD 3919)</strong></p><p align=\"justify\"><strong><a href=\"https://search.library.duke.edu/search?id=DUKE003094829\">Trash</a> -</strong> The story of Joe and his lover-protector, Holly who try to make a go of things in their Lower East Side basement, from which Holly goes forth from time to time to cruise Fillmore East and to scavenge garbage cans, while Joe's journeys are in search of real junk. This Warhol production was directed by Paul Morrissey. <strong>(DVD 717)</strong></p><p align=\"justify\"><strong><a href=\"https://search.library.duke.edu/search?id=DUKE003401494\">Pie in the Sky: The Brigid Berlin Story</a>&nbsp;-</strong> As an Andy Warhol bad-girl, Brigid Berlin takes us on a ride through the Factory era. She creates unique performance pieces and incorporates Polaroid pictures and audiotapes into her works. <strong>(DVD 3356)</strong></p><p align=\"justify\"><strong><a href=\"https://search.library.duke.edu/search?id=DUKE003932019\">The Nude Restaurant</a> -</strong>&nbsp;In this experimental film Warhol that satirizes pornography in film and American culture. A group of Warhol's regular \"Superstars,\" wearing only G-strings, improvise monologues and dialogues in a restaurant. <strong>(DVD 10033)</strong></p><p align=\"justify\"><strong><a href=\"https://search.library.duke.edu/search?id=DUKE003932017\">My Hustler</a> -</strong> Experimental film in which an aging \"queen\" on Fire Island has rented a weekend companion from \"Dial-a-Hustler,\" only to compete with his male and female neighbors for the young man's attention.&nbsp; <strong>(DVD 10031)</strong></p><p align=\"justify\"><strong><a href=\"https://search.library.duke.edu/search?id=DUKE003932018\">Lonsome Cowboys</a> -</strong> Warhol's film&nbsp;satirizes the Hollywood western. Actors Viva, Taylor Mead, Joe Dallesandro, and others, clothed and unclothed, improvise a parody of standard cowboy behavior around the set of an \"old west\" town. <strong>(DVD 10030)</strong></p><p align=\"justify\"><strong><a href=\"https://search.library.duke.edu/search?id=DUKE004086685\">A Walk Into the Sea: Danny Williams and the Warhol Factory</a> -</strong> An examination disappearance of Danny Williams, a young filmmaker, Andy Warhol's lover. Includes astonishing footage from recently discovered films. <strong>(DVD 12888)</strong></p><p align=\"justify\"><strong><a href=\"https://search.library.duke.edu/search?id=DUKE003300614\">Women in Revolt</a> -</strong> Three girls from different walks of life have different problems relating to men. They decide to give up men and become lesbians and attempt careers, only to end up either exploited, derelict or abandoned. Produced by Warhol and directed by Paul Morrissey. <strong>(DVD 3014)</strong></p>",
      "deleted" : 0,
      "delta" : 0,
      "bundle" : "about_lilly_library_page",
      "body_format" : "full_html",
      "entity_id" : 55,
      "revision_id" : 2733,
      "body_summary" : ""
   }
}

