{
   "status" : 1,
   "uuid" : "1272de7d-d256-4230-911d-a29c69fb70c5",
   "fid" : 207,
   "filemime" : "application/zip",
   "filename" : "Into_Rv2b.zip",
   "uri" : "public://store/Into_Rv2b.zip",
   "filesize" : 1407318,
   "uid" : 7,
   "timestamp" : 1443633197
}
