{
   "filesize" : 7762,
   "uri" : "public://users/John.Little/R.jpg",
   "timestamp" : 1468611517,
   "uid" : 17,
   "status" : 1,
   "filename" : "R.jpg",
   "filemime" : "image/jpeg",
   "uuid" : "13e76903-3ee9-4c43-b8c8-d9b55da631e0",
   "fid" : 217
}
