{
   "filename" : "jjd_headshot.jpg",
   "filemime" : "image/jpeg",
   "uuid" : "15785786-1239-49e7-853f-4fec0bf57c77",
   "fid" : 423,
   "status" : 1,
   "timestamp" : 1501764639,
   "uid" : 69,
   "uri" : "public://users/Jen Darragh/jjd_headshot.jpg",
   "filesize" : 73936
}
