{
   "fid" : 519,
   "uuid" : "1ed68075-2971-4b0c-a966-376f0be661b8",
   "filemime" : "image/png",
   "filename" : "CDVS-logo_sm_Spring2020_0.png",
   "status" : 1,
   "uid" : 8,
   "timestamp" : 1611153136,
   "filesize" : 20594,
   "uri" : "public://images/CDVS-logo_sm_Spring2020_0.png"
}
