{
   "filesize" : 104336,
   "uri" : "public://users/Drew Keener/photo_drew.jpg",
   "timestamp" : 1510858456,
   "uid" : 85,
   "status" : 1,
   "filemime" : "image/jpeg",
   "filename" : "photo_drew.jpg",
   "fid" : 451,
   "uuid" : "216c56b4-253c-4416-b450-88547f5c88bc"
}
