{
   "filename" : "iconmonstr-calendar-5-icon-01.png",
   "filemime" : "image/png",
   "uuid" : "23a606e3-6750-4f32-a1bf-6c354c2faf7c",
   "fid" : 169,
   "status" : 1,
   "timestamp" : 1409076684,
   "uid" : 6,
   "uri" : "public://users/angela.zoss/iconmonstr-calendar-5-icon-01.png",
   "filesize" : 3165
}
