{
   "timestamp" : 1408332910,
   "uid" : 6,
   "uri" : "public://carousel_images/data3_1.jpg",
   "filesize" : 150272,
   "filename" : "data3.jpg",
   "filemime" : "image/jpeg",
   "uuid" : "2a5bc11f-104e-49cc-b69d-87b8b15575a5",
   "fid" : 95,
   "status" : 1
}
