{
   "uuid" : "2d73f492-e222-4b8e-816b-4f73936e5a5d",
   "fid" : 233,
   "filename" : "Google_Earth_logo.png",
   "filemime" : "image/png",
   "status" : 1,
   "uid" : 17,
   "timestamp" : 1468611600,
   "uri" : "public://users/John.Little/Google_Earth_logo.png",
   "filesize" : 32884
}
