{
   "filename" : "Globus_dual_pane_view.png",
   "filemime" : "image/png",
   "uuid" : "2e6a19a4-2d51-44e8-8aad-958271736231",
   "fid" : 547,
   "status" : 1,
   "timestamp" : 1611714513,
   "uid" : 125,
   "filesize" : 26346,
   "uri" : "public://images/Globus_dual_pane_view.png"
}
