{
   "filesize" : 63875,
   "uri" : "public://carousel_images/FallWorkshops-01.png",
   "uid" : 6,
   "timestamp" : 1408367888,
   "status" : 1,
   "uuid" : "30ebe72a-1e1e-4222-b256-9f1c8707f42b",
   "fid" : 121,
   "filename" : "FallWorkshops-01.png",
   "filemime" : "image/png"
}
