{
   "timestamp" : 1618597675,
   "uid" : 67,
   "uri" : "public://images/rdr-help/RDR_CurationChecklist_2021.pdf",
   "filesize" : 243975,
   "filename" : "RDR_CurationChecklist_2021.pdf",
   "filemime" : "application/pdf",
   "uuid" : "3cd16cf8-a8f5-4095-8a4d-6059c38b35e2",
   "fid" : 548,
   "status" : 1
}
