{
   "status" : 1,
   "uuid" : "3df2d516-5a62-4d41-8b3d-1d3effaae279",
   "fid" : 35,
   "filename" : "data7.jpg",
   "filemime" : "image/jpeg",
   "uri" : "public://carousel_images/data7.jpg",
   "filesize" : 132728,
   "uid" : 8,
   "timestamp" : 1400686550
}
