{
   "uuid" : "51e94a05-8cab-4e31-b4d8-c9a32ef1e3c8",
   "fid" : 269,
   "filename" : "Jun_Yoon_small.JPG",
   "filemime" : "image/jpeg",
   "status" : 1,
   "uid" : 4,
   "timestamp" : 1473444795,
   "filesize" : 34413,
   "uri" : "public://users/markt@duke.edu/Jun_Yoon_small.JPG"
}
