{
   "uid" : 8,
   "timestamp" : 1611260293,
   "filesize" : 22438,
   "uri" : "public://images/GlobusRDRNode.png",
   "uuid" : "51fe0305-0008-4135-be0c-d0f1eb882f87",
   "fid" : 535,
   "filemime" : "image/png",
   "filename" : "GlobusRDRNode.png",
   "status" : 1
}
