{
   "uuid" : "597438df-4735-468d-b64a-3ce63bd9373b",
   "fid" : 3,
   "filemime" : "image/jpeg",
   "filename" : "bloomberg_icon.jpg",
   "status" : 1,
   "uid" : 4,
   "timestamp" : 1371651959,
   "uri" : "public://bloomberg_icon.jpg",
   "filesize" : 2455
}
