{
   "uuid" : "5bfa9212-8cf9-4aed-8e8f-f5dc7f9021aa",
   "fid" : 521,
   "filename" : "Globus_active_destination.png",
   "filemime" : "image/png",
   "status" : 1,
   "uid" : 8,
   "timestamp" : 1611260213,
   "filesize" : 21666,
   "uri" : "public://images/Globus_active_destination.png"
}
