{
   "filename" : "data_analysis_icon-01.png",
   "filemime" : "image/png",
   "uuid" : "63444235-945a-474f-8d06-55ecbfd34936",
   "fid" : 199,
   "status" : 1,
   "timestamp" : 1440291199,
   "uid" : 6,
   "uri" : "public://users/angela.zoss/data_analysis_icon-01.png",
   "filesize" : 32007
}
