{
   "status" : 1,
   "filemime" : "image/png",
   "filename" : "Review.png",
   "uuid" : "679e9e4c-4c88-4b61-81df-316c05767120",
   "fid" : 411,
   "uri" : "public://users/Sophia Lafferty-Hess/Review.png",
   "filesize" : 20846,
   "timestamp" : 1500579531,
   "uid" : 67
}
