{
   "status" : 1,
   "fid" : 245,
   "uuid" : "6d3affd5-9124-43e1-9b46-bfbd1711f869",
   "filename" : "nvivo.jpg",
   "filemime" : "image/jpeg",
   "uri" : "public://users/John.Little/nvivo.jpg",
   "filesize" : 4411,
   "uid" : 17,
   "timestamp" : 1468612460
}
