{
   "uid" : 67,
   "timestamp" : 1484746357,
   "uri" : "public://users/Sophia Lafferty-Hess/small_laffertyhess_headshot.jpg",
   "filesize" : 2374,
   "uuid" : "7f728e79-3c18-450d-93a5-81153006f593",
   "fid" : 305,
   "filename" : "small_laffertyhess_headshot.jpg",
   "filemime" : "image/jpeg",
   "status" : 1
}
