{
   "uid" : 17,
   "timestamp" : 1468611771,
   "uri" : "public://users/John.Little/stata.png",
   "filesize" : 759,
   "uuid" : "822c5baa-c4c8-4eba-91d2-17b07f20b4b7",
   "fid" : 239,
   "filename" : "stata.png",
   "filemime" : "image/png",
   "status" : 1
}
