{
   "status" : 1,
   "filename" : "Globus_transfer_file_select.png",
   "filemime" : "image/png",
   "fid" : 531,
   "uuid" : "89d72dbc-e83e-49cd-8903-6398293dbbcb",
   "uri" : "public://images/Globus_transfer_file_select.png",
   "filesize" : 310928,
   "timestamp" : 1611260273,
   "uid" : 8
}
