{
   "filemime" : "image/jpeg",
   "filename" : "Patel_Nirav.JPG",
   "fid" : 496,
   "uuid" : "912e394e-6577-4da6-bf1d-3ee24ac3df13",
   "status" : 1,
   "timestamp" : 1598905095,
   "uid" : 4,
   "uri" : "public://users/markt@duke.edu/Patel_Nirav.JPG",
   "filesize" : 180610
}
