{
   "uid" : 6,
   "timestamp" : 1409076827,
   "uri" : "public://users/angela.zoss/iconmonstr-id-card-2-icon-01.png",
   "filesize" : 3393,
   "uuid" : "9d1be2fe-bf26-4f4e-b1ed-5b890a68c6a8",
   "fid" : 171,
   "filemime" : "image/png",
   "filename" : "iconmonstr-id-card-2-icon-01.png",
   "status" : 1
}
