{
   "filesize" : 35125,
   "uri" : "public://images/pic44367.jpg",
   "uid" : 7,
   "timestamp" : 1376420255,
   "status" : 1,
   "uuid" : "a5c10ea2-3ae9-43b5-a13f-af68f226524d",
   "fid" : 12,
   "filename" : "pic44367.jpg",
   "filemime" : "image/jpeg"
}
