{
   "status" : 1,
   "filemime" : "image/png",
   "filename" : "Globus_download_button_0.png",
   "fid" : 525,
   "uuid" : "a69d4f1f-de82-4ca7-bd33-f2e2508676a2",
   "filesize" : 157324,
   "uri" : "public://images/Globus_download_button_0.png",
   "timestamp" : 1611260237,
   "uid" : 8
}
