{
   "uri" : "public://carousel_images/blog_banner2-01_4.png",
   "filesize" : 65707,
   "uid" : 6,
   "timestamp" : 1408368888,
   "status" : 1,
   "uuid" : "a72dcf33-0095-43dd-a8b7-304d1a29cb4a",
   "fid" : 149,
   "filename" : "blog_banner2-01.png",
   "filemime" : "image/png"
}
