{
   "uid" : 7,
   "timestamp" : 1377276208,
   "uri" : "public://users/Ryan Denniston/Markandmark2.jpg",
   "filesize" : 6115,
   "fid" : 20,
   "uuid" : "ba1e57a9-cdd2-40db-a1ca-1c53220c26e1",
   "filemime" : "image/jpeg",
   "filename" : "Markandmark2.jpg",
   "status" : 1
}
