{
   "status" : 1,
   "filename" : "rstudio_icon.png",
   "filemime" : "image/png",
   "uuid" : "bfa74ae2-f3cc-4df9-a050-83df48811967",
   "fid" : 237,
   "filesize" : 200475,
   "uri" : "public://users/John.Little/rstudio_icon.png",
   "timestamp" : 1468611614,
   "uid" : 17
}
