{
   "status" : 1,
   "uuid" : "c0437845-ef5e-4740-b904-b55886d099b0",
   "fid" : 528,
   "filename" : "globus_logon.png",
   "filemime" : "image/png",
   "filesize" : 58176,
   "uri" : "public://images/globus_logon.png",
   "uid" : 8,
   "timestamp" : 1611260255
}
