{
   "filemime" : "image/jpeg",
   "filename" : "WayneGao.jpeg",
   "uuid" : "c5cb20b6-abb5-4b98-98dc-c859f36418bd",
   "fid" : 26,
   "status" : 1,
   "timestamp" : 1378300411,
   "uid" : 6,
   "filesize" : 36752,
   "uri" : "public://users/angela.zoss/WayneGao.jpeg"
}
