{
   "fid" : 323,
   "uuid" : "c72d6378-5139-4e95-a743-3e2a8792160f",
   "filemime" : "image/jpeg",
   "filename" : "LoveData2.jpg",
   "status" : 1,
   "uid" : 5,
   "timestamp" : 1486751699,
   "filesize" : 618423,
   "uri" : "public://carousel_images/LoveData2.jpg"
}
