{
   "status" : 1,
   "uuid" : "ce0b473f-cf2c-4621-bbdf-2e932f13d52d",
   "fid" : 155,
   "filemime" : "image/png",
   "filename" : "sources_0.png",
   "uri" : "public://users/angela.zoss/sources_0.png",
   "filesize" : 394,
   "uid" : 6,
   "timestamp" : 1408459059
}
