{
   "uuid" : "d17cbb42-70a3-4292-ad3e-d8ee5380b34a",
   "fid" : 18,
   "filename" : "little_john.jpg",
   "filemime" : "image/jpeg",
   "status" : 1,
   "uid" : 7,
   "timestamp" : 1377276195,
   "filesize" : 17711,
   "uri" : "public://users/Ryan Denniston/little_john.jpg"
}
