{
   "status" : 1,
   "filemime" : "image/jpeg",
   "filename" : "Portrait_from_Angela.jpg",
   "uuid" : "d3e6ca32-53f3-4f01-8c19-16b27739234a",
   "fid" : 271,
   "uri" : "public://users/markt@duke.edu/Portrait_from_Angela.jpg",
   "filesize" : 25507,
   "timestamp" : 1473448388,
   "uid" : 4
}
