{
   "timestamp" : 1468611591,
   "uid" : 17,
   "filesize" : 34815,
   "uri" : "public://users/John.Little/gephi.png",
   "filename" : "gephi.png",
   "filemime" : "image/png",
   "uuid" : "d596c687-1e12-4e5a-a311-8489b81525b3",
   "fid" : 231,
   "status" : 1
}
