{
   "status" : 1,
   "filename" : "stata_14b.zip",
   "filemime" : "application/zip",
   "fid" : 279,
   "uuid" : "d5f1cd54-0563-42b3-aaa2-9a5cf6edc476",
   "uri" : "public://store/stata_14b.zip",
   "filesize" : 3305954,
   "timestamp" : 1476902014,
   "uid" : 7
}
