{
   "status" : 1,
   "fid" : 24,
   "uuid" : "d821d85a-7297-42a2-b81a-713947606131",
   "filemime" : "image/jpeg",
   "filename" : "41399_1309842_6036_n.jpg",
   "filesize" : 5783,
   "uri" : "public://images/41399_1309842_6036_n.jpg",
   "uid" : 7,
   "timestamp" : 1377276265
}
