{
   "timestamp" : 1408333893,
   "uid" : 6,
   "filesize" : 132728,
   "uri" : "public://carousel_images/data7_2.jpg",
   "filemime" : "image/jpeg",
   "filename" : "data7.jpg",
   "uuid" : "dcb9fae1-284a-41c8-b26d-78fd8b930b2c",
   "fid" : 117,
   "status" : 1
}
