{
   "status" : 1,
   "filemime" : "image/png",
   "filename" : "Globus_download_login.png",
   "fid" : 526,
   "uuid" : "e017f5d3-1312-4e00-9fea-4af1c186b81c",
   "uri" : "public://images/Globus_download_login.png",
   "filesize" : 85386,
   "timestamp" : 1611260243,
   "uid" : 8
}
