{
   "uuid" : "e7f9fe70-ff40-4828-9420-bf61e0977a9d",
   "fid" : 45,
   "filename" : "girma.jpg",
   "filemime" : "image/jpeg",
   "status" : 1,
   "uid" : 4,
   "timestamp" : 1389718570,
   "filesize" : 47595,
   "uri" : "public://users/markt@duke.edu/girma.jpg"
}
