{
   "status" : 1,
   "uuid" : "e96191a0-4313-434e-9665-68cdf393699a",
   "fid" : 123,
   "filename" : "Meet_DVS-01.png",
   "filemime" : "image/png",
   "uri" : "public://carousel_images/Meet_DVS-01_1.png",
   "filesize" : 17797,
   "uid" : 6,
   "timestamp" : 1408367888
}
