{
   "uri" : "public://users/John.Little/Matlab_Logo.png",
   "filesize" : 24623,
   "uid" : 17,
   "timestamp" : 1468611606,
   "status" : 1,
   "uuid" : "ed43d87c-3629-437d-8a8f-26c31b91476e",
   "fid" : 235,
   "filemime" : "image/png",
   "filename" : "Matlab_Logo.png"
}
