{
   "status" : 1,
   "uuid" : "f75e7b69-718a-4136-985f-69db4a50f470",
   "fid" : 265,
   "filename" : "lab_carousel-01.png",
   "filemime" : "image/png",
   "filesize" : 985483,
   "uri" : "public://carousel_images/lab_carousel-01.png",
   "uid" : 6,
   "timestamp" : 1524762742
}
