{
   "filemime" : "image/png",
   "filename" : "versioned-dataset-versions.png",
   "uuid" : "f8906c2c-55bc-4fd3-aead-7ffab79ac277",
   "fid" : 543,
   "status" : 1,
   "timestamp" : 1611260362,
   "uid" : 8,
   "uri" : "public://images/versioned-dataset-versions.png",
   "filesize" : 122056
}
