{
   "uuid" : "ffd19af6-651b-49f6-a8c0-77ab7c21e502",
   "fid" : 275,
   "filename" : "stata_14.zip",
   "filemime" : "application/zip",
   "status" : 1,
   "uid" : 7,
   "timestamp" : 1474464627,
   "filesize" : 3461629,
   "uri" : "public://store/stata_14.zip"
}
