{
   "field_image" : null,
   "type" : "page",
   "vid" : 29818,
   "node__body" : {
      "body_summary" : "",
      "entity_id" : 815,
      "langcode" : "und",
      "deleted" : 0,
      "delta" : 0,
      "body_format" : "full_html",
      "bundle" : "page",
      "body_value" : "<h2>The Rudolph William Rosati Visiting Writer Program</h2><p>The Rosati Fellowship provides support for a creative writer to conduct research during a 3-week residency in the Duke University Libraries, which include the <a href=\"/\" target=\"_blank\"> Perkins &amp; Bostock Libraries </a> (our primary research library); the <a href=\"/lilly\" target=\"_blank\"> Lilly Library </a> (art, film, and performing arts); the <a href=\"/music\" target=\"_blank\"> Biddle Music Library </a> ; and the <a href=\"/rubenstein/\" target=\"_blank\"> David M. Rubenstein Rare Book &amp; Manuscript Library </a> . The Rosati Fellowship is awarded biennially, and was awarded for the first time in 2015-16.</p><h3 style=\"text-align: center;\"><strong> The 2019-20 Rosati Visiting Writer: </strong> <br> <strong> Harrison David Rivers </strong></h3><p>We are very pleased to welcome St. Paul, Minnesota-based playwright <a href=\"http://www.harrisondavidrivers.com/\" target=\"_blank\"> Harrison David Rivers </a> to the Libraries and to Duke. Mr. Rivers is the recipient of Relentless and GLAAD Media Awards, McKnight, Jerome, and Van Lier Fellowships and numerous residencies. His award-winning plays have been produced at theaters around the country and he is an alum of the Public Theater's Emerging Writers' Group, NAMT, and The Lincoln Center Director's Lab.</p><p>Mr. Rivers will be in residence at Duke University January 30-February 20, 2020 and will be giving a <strong>public reading at 4:00pm on Wednesday, February 5th in the Holsti Family Assembly Room, Rubenstein Library 153</strong>; a master class for undergraduate creative writers on playwrighting and adaptation; and will also be available to meet with students by appointment (please contact <a href=\"mailto:sara@duke.edu\" target=\"_blank\"> sara@duke.edu </a> to schedule).&nbsp;</p><p></p><table style=\"width: 580px; height: 382px;\" align=\"center\" border=\"0\"><tbody><tr valign=\"middle\"><th style=\"text-align: left;\"><img src=\"/sites/default/files/dul/users/sara.berghausen/harrison_david_rivers.jpg\" alt=\"Harrison David Rivers\" width=\"295\" height=\"207\"></th><td style=\"text-align: left;\"><p style=\"text-align: left;\"></p><p style=\"text-align: left;\"></p><p></p><p></p><p><span size=\"2\" style=\"font-size: small;\"> </span> I write for the theater because theater is the most human thing I know. <br> I write to assert my humanity in a country that tells me <br> [and others who look like me] <br> that our lives don’t matter. <br> I write to assert that my black queer body <br> [and other black queer bodies] <br> are worthy of narrative space.... <sub> (from artistic statement) </sub></p><p></p></td></tr></tbody></table><p></p><p></p><p>The Rosati Fellowship encourages the creative use of the Duke University Libraries’ world-class collections and fosters undergraduate creative writing by creating new learning opportunities for Duke University students. The Rosati Fellow will be given significant time to conduct research in our collections as well as dedicated space for writing. Additionally, the Rosati Fellow will have the opportunity to give a public reading of his or her work at Duke University and to conduct a master class for Duke University undergraduates.</p><p></p><p>We welcome applications from writers who work in a wide variety of creative forms. These will include, but are not limited to, fiction, drama, poetry, screenwriting, and creative non-fiction. Forms of writing that will not be considered for this fellowship are academic writing (such as scholarly articles and monographs), journalism, and technical writing.</p><h3>Fellowship Includes</h3><ul style=\"list-style-type: square;\"><li>$7,500, plus the cost of travel within the U.S., for a 3-week residency at Duke. Accommodations are not included.</li><li>Access to the rich resources of the Duke University Libraries, including one-on-one research consultations with our subject librarians and curators.</li><li>An individual study office in the Rubenstein Library, which is immediately adjacent to Perkins &amp; Bostock Libraries on Duke’s beautiful West Campus.&nbsp;</li></ul><h3>Fellowship Requirements</h3><ul style=\"list-style-type: square;\"><li>The Rosati Fellow will give a single master class in writing for creative writing students (or other relevant student group). A description of this class should be included in the application materials.</li><li>The Rosati Fellow will give a public reading of his/her work at Duke University, to be arranged by the Rosati Committee.</li><li>The Rosati Fellow must live more than 100 miles outside of Durham, NC. &nbsp;</li></ul><h3>Judging and Criteria</h3><ul style=\"list-style-type: square;\"><li>Applicants will be reviewed by the Rosati Committee, a committee comprised of two Duke faculty members and two Duke librarians. Faculty membership on this committee rotates biennially.</li><li>Applicants will be evaluated on their past achievements as well as the strengths of both the research proposal and master class proposal.</li><li>Applicants should provide some evidence of the ability to lead a classroom discussion.</li></ul><h3>Application Process</h3><p>The complete application package includes:</p><ul style=\"list-style-type: square;\"><li>Current resume or CV, including a list of any publications, awards, scholarships, or grants received, in PDF format.</li><li>Research Proposal: a one-page description of your current writing project and how your time in the Duke University Libraries will be spent. Please note which library collections will be most useful for your project.</li><li>Master Class Proposal: a one-page description of a single session for Duke University undergraduates interested in creative writing.</li><li>Name and contact information for at least one professional reference.</li></ul><p>Please submit completed applications <a href=\"https://duke.qualtrics.com/jfe/form/SV_bwQXE78METDoTYx\"> <strong> here </strong> </a> .</p><h3>Deadlines and Dates</h3><ul style=\"list-style-type: square;\"><li>Fellowship posted April 2021, Duke campus access and NC public health policies permitting.</li><li>Applications due by May 15, 2021.</li><li>Review of applications May-June 2021.</li><li>Recipient will be notified by July 1, 2021.</li><li>Fellowship is to take place no earlier than September 1, 2021 and should be completed by May 1, 2022, with final dates to be negotiated with the Libraries, and in accordance with current COVID-related policies for non-Duke visitors to campus.</li></ul><h3>For More Information</h3><p>Contact Sara Seten Berghausen, Associate Curator of Collections, Rubenstein Library (sara@duke.edu).</p><h3>About</h3><p>The Rudolph William Rosati endowment was established at Duke in 1978 “to encourage, advance and reward creative writing among students at the University and particularly among undergraduate students,\" and was funded by Walter McGowan Upchurch, a former member of the Duke University Board of Trustees, to honor his friend.&nbsp;</p>",
      "revision_id" : 29818
   },
   "uuid" : "0199d358-d9bd-46ee-81b1-a85331894484",
   "langcode" : "und",
   "revisions" : [
      {
         "node_revision__body" : {
            "entity_id" : 815,
            "body_summary" : "",
            "langcode" : "und",
            "revision_id" : 29818,
            "body_value" : "<h2>The Rudolph William Rosati Visiting Writer Program</h2><p>The Rosati Fellowship provides support for a creative writer to conduct research during a 3-week residency in the Duke University Libraries, which include the <a href=\"/\" target=\"_blank\"> Perkins &amp; Bostock Libraries </a> (our primary research library); the <a href=\"/lilly\" target=\"_blank\"> Lilly Library </a> (art, film, and performing arts); the <a href=\"/music\" target=\"_blank\"> Biddle Music Library </a> ; and the <a href=\"/rubenstein/\" target=\"_blank\"> David M. Rubenstein Rare Book &amp; Manuscript Library </a> . The Rosati Fellowship is awarded biennially, and was awarded for the first time in 2015-16.</p><h3 style=\"text-align: center;\"><strong> The 2019-20 Rosati Visiting Writer: </strong> <br> <strong> Harrison David Rivers </strong></h3><p>We are very pleased to welcome St. Paul, Minnesota-based playwright <a href=\"http://www.harrisondavidrivers.com/\" target=\"_blank\"> Harrison David Rivers </a> to the Libraries and to Duke. Mr. Rivers is the recipient of Relentless and GLAAD Media Awards, McKnight, Jerome, and Van Lier Fellowships and numerous residencies. His award-winning plays have been produced at theaters around the country and he is an alum of the Public Theater's Emerging Writers' Group, NAMT, and The Lincoln Center Director's Lab.</p><p>Mr. Rivers will be in residence at Duke University January 30-February 20, 2020 and will be giving a <strong>public reading at 4:00pm on Wednesday, February 5th in the Holsti Family Assembly Room, Rubenstein Library 153</strong>; a master class for undergraduate creative writers on playwrighting and adaptation; and will also be available to meet with students by appointment (please contact <a href=\"mailto:sara@duke.edu\" target=\"_blank\"> sara@duke.edu </a> to schedule).&nbsp;</p><p></p><table style=\"width: 580px; height: 382px;\" align=\"center\" border=\"0\"><tbody><tr valign=\"middle\"><th style=\"text-align: left;\"><img src=\"/sites/default/files/dul/users/sara.berghausen/harrison_david_rivers.jpg\" alt=\"Harrison David Rivers\" width=\"295\" height=\"207\"></th><td style=\"text-align: left;\"><p style=\"text-align: left;\"></p><p style=\"text-align: left;\"></p><p></p><p></p><p><span size=\"2\" style=\"font-size: small;\"> </span> I write for the theater because theater is the most human thing I know. <br> I write to assert my humanity in a country that tells me <br> [and others who look like me] <br> that our lives don’t matter. <br> I write to assert that my black queer body <br> [and other black queer bodies] <br> are worthy of narrative space.... <sub> (from artistic statement) </sub></p><p></p></td></tr></tbody></table><p></p><p></p><p>The Rosati Fellowship encourages the creative use of the Duke University Libraries’ world-class collections and fosters undergraduate creative writing by creating new learning opportunities for Duke University students. The Rosati Fellow will be given significant time to conduct research in our collections as well as dedicated space for writing. Additionally, the Rosati Fellow will have the opportunity to give a public reading of his or her work at Duke University and to conduct a master class for Duke University undergraduates.</p><p></p><p>We welcome applications from writers who work in a wide variety of creative forms. These will include, but are not limited to, fiction, drama, poetry, screenwriting, and creative non-fiction. Forms of writing that will not be considered for this fellowship are academic writing (such as scholarly articles and monographs), journalism, and technical writing.</p><h3>Fellowship Includes</h3><ul style=\"list-style-type: square;\"><li>$7,500, plus the cost of travel within the U.S., for a 3-week residency at Duke. Accommodations are not included.</li><li>Access to the rich resources of the Duke University Libraries, including one-on-one research consultations with our subject librarians and curators.</li><li>An individual study office in the Rubenstein Library, which is immediately adjacent to Perkins &amp; Bostock Libraries on Duke’s beautiful West Campus.&nbsp;</li></ul><h3>Fellowship Requirements</h3><ul style=\"list-style-type: square;\"><li>The Rosati Fellow will give a single master class in writing for creative writing students (or other relevant student group). A description of this class should be included in the application materials.</li><li>The Rosati Fellow will give a public reading of his/her work at Duke University, to be arranged by the Rosati Committee.</li><li>The Rosati Fellow must live more than 100 miles outside of Durham, NC. &nbsp;</li></ul><h3>Judging and Criteria</h3><ul style=\"list-style-type: square;\"><li>Applicants will be reviewed by the Rosati Committee, a committee comprised of two Duke faculty members and two Duke librarians. Faculty membership on this committee rotates biennially.</li><li>Applicants will be evaluated on their past achievements as well as the strengths of both the research proposal and master class proposal.</li><li>Applicants should provide some evidence of the ability to lead a classroom discussion.</li></ul><h3>Application Process</h3><p>The complete application package includes:</p><ul style=\"list-style-type: square;\"><li>Current resume or CV, including a list of any publications, awards, scholarships, or grants received, in PDF format.</li><li>Research Proposal: a one-page description of your current writing project and how your time in the Duke University Libraries will be spent. Please note which library collections will be most useful for your project.</li><li>Master Class Proposal: a one-page description of a single session for Duke University undergraduates interested in creative writing.</li><li>Name and contact information for at least one professional reference.</li></ul><p>Please submit completed applications <a href=\"https://duke.qualtrics.com/jfe/form/SV_bwQXE78METDoTYx\"> <strong> here </strong> </a> .</p><h3>Deadlines and Dates</h3><ul style=\"list-style-type: square;\"><li>Fellowship posted April 2021, Duke campus access and NC public health policies permitting.</li><li>Applications due by May 15, 2021.</li><li>Review of applications May-June 2021.</li><li>Recipient will be notified by July 1, 2021.</li><li>Fellowship is to take place no earlier than September 1, 2021 and should be completed by May 1, 2022, with final dates to be negotiated with the Libraries, and in accordance with current COVID-related policies for non-Duke visitors to campus.</li></ul><h3>For More Information</h3><p>Contact Sara Seten Berghausen, Associate Curator of Collections, Rubenstein Library (sara@duke.edu).</p><h3>About</h3><p>The Rudolph William Rosati endowment was established at Duke in 1978 “to encourage, advance and reward creative writing among students at the University and particularly among undergraduate students,\" and was funded by Walter McGowan Upchurch, a former member of the Duke University Board of Trustees, to honor his friend.&nbsp;</p>",
            "body_format" : "full_html",
            "delta" : 0,
            "bundle" : "page",
            "deleted" : 0
         },
         "node_revision__field_tags" : [],
         "title" : "The Rudolph William Rosati Visiting Writer Program",
         "vuuid" : "2c70a3ed-e717-4c4e-bf35-5eb8468b2e47",
         "comment" : 1,
         "sticky" : 0,
         "log" : "",
         "field_revision" : {
            "uid" : 1,
            "langcode" : null,
            "status" : 1,
            "created" : null,
            "revision_translation_affected" : 1,
            "sticky" : 0,
            "default_langcode" : 1,
            "title" : "The Rudolph William Rosati Visiting Writer Program",
            "changed" : null
         },
         "status" : 1,
         "promote" : 0,
         "timestamp" : 1603917066,
         "uid" : 111
      }
   ],
   "asidebox" : {
      "status" : "html",
      "block_delta" : null,
      "body_format" : "full_html",
      "block_module" : null,
      "body_value" : "<p>The inaugural Rosati Visiting Fellow was <strong><a href=\"https://www.roxanarobinson.com/\">Roxana Robinson</a></strong>, in residence at Duke January 28-February 18, 2016. Ms. Robinson is the acclaimed author of numerous novels and short stories, including <strong>Dawson's Fall</strong>, her most recent novel, as well as the definitive biography of Georgia O'Keeffe. Her work has appeared in&nbsp;<strong>The New Yorker</strong>,&nbsp;<strong>The Atlantic</strong>,&nbsp;<strong>Harper's Magazine</strong>, and elsewhere. She teaches in the Hunter College/CUNY MFA Program, has received NEA and Guggenheim fellowships, and is President of the Authors' Guild.&nbsp;</p><p>The 2017-2018 Rosati Visiting Writer Fellowship was awarded to <strong><a href=\"https://www.sylvanoswald.xyz/\">Sylvan Oswald</a></strong><a href=\"http://www.sylvanoswald.xyz/\"></a>, who was in residence at Duke in March 2018. Mr. Oswald is an interdisciplinary artist originally from Philadelphia who creates plays, texts, publications, and video. His work has appeared in <strong>Audience (R)Evolution</strong> (TCG), <strong>The Best American Non-Required Reading 2014</strong>, and <strong>The Brooklyn Rail</strong>.&nbsp; He is the author of <em>Trainers</em>, the artist's book <strong>High Winds</strong>, and the web series&nbsp;<strong><a href=\"https://urldefense.proofpoint.com/v2/url?u=http-3A__outtakestv.com_&amp;d=DwMGaQ&amp;c=imBPVzF25OnBgGmVOlcsiEgHoG1i6YHLR0Sj_gZ4adc&amp;r=cwLGj0Z9TcWXZbMA9jtlcQ&amp;m=CQAwkziDKD8YnXkWsiM14xKWyTr16ecLES_4orvOQ6Q&amp;s=ofCXRMWCNlbmZhXxeFEma-362Pc_pQlqawWl7ft049s&amp;e=\">Outtakes</a></strong>. Mr. Oswald is an assistant professor of playwriting at UCLA's School of Theater, Film &amp; Television, and is the recipient of numerous awards and residencies, including Yaddo, The MacDowell Colony, and The Bau Institute/Carnargo Foundation.</p><p>&nbsp;</p>",
      "nid" : 815,
      "body_title" : "Past Fellows",
      "vid" : 29818,
      "bid" : null
   },
   "node_access" : null,
   "field_tags" : [],
   "node_field_data" : {
      "created" : 1428075461,
      "status" : 1,
      "default_langcode" : 1,
      "sticky" : 0,
      "title" : "The Rudolph William Rosati Visiting Writer Program",
      "uid" : 1,
      "langcode" : "und",
      "revision_translation_affected" : 1,
      "type" : "page",
      "promote" : 0,
      "changed" : null
   },
   "path_alias" : {
      "pid" : 1279,
      "alias" : "/research/grants-and-fellowships/rosati",
      "language" : "und",
      "status" : 0,
      "langcode" : "und"
   },
   "nid" : "815"
}

