{
   "node_field_data" : {
      "type" : "support_page",
      "changed" : null,
      "promote" : 0,
      "langcode" : "und",
      "uid" : 1,
      "revision_translation_affected" : 1,
      "title" : "Friends of the Duke University Libraries",
      "status" : 1,
      "created" : 1376926187,
      "sticky" : 0,
      "default_langcode" : 1
   },
   "path_alias" : {
      "pid" : 447,
      "alias" : "/support/friends",
      "language" : "und",
      "langcode" : "und",
      "status" : 0
   },
   "field_tags" : [],
   "nid" : "273",
   "asidebox" : {
      "block_module" : "menu",
      "body_value" : "<p><img src=\"/sites/default/files/dul/users/megan.crain/Friends_Duke_Libraries_Logo_Page_3.jpg\" alt=\"Friends of the Duke University Libraries\" width=\"250\" height=\"193\"></p><p><a href=\"support/friends\" title=\"Friends of the Duke University Libraries \">Friends of the Duke University Libraries&nbsp;</a></p><p><a href=\"support/friends/membership-benefits\" title=\"Friends Membership Benefits\">Membership Benefits</a></p><p><a href=\"support/friends/among-friends\" title=\"Among Friends Newsletter\">Among Friends Newsletter</a></p><p><a href=\"support/friends/annual-dinner\" title=\"Friends Annual Dinner\">Friends Annual Dinner</a></p><p><a href=\"support/friends/book-collectors-contest\" title=\"Book Collectors Contest\">Book Collectors Contest</a></p><p><a href=\"https://www.gifts.duke.edu/library\" title=\"Join the Friends\">Join the Friends</a></p>",
      "body_format" : "full_html",
      "vid" : 19081,
      "bid" : 690,
      "nid" : 273,
      "body_title" : "",
      "status" : "block",
      "block_delta" : "menu-friends-of-the-libraries"
   },
   "node_access" : null,
   "revisions" : [
      {
         "promote" : 0,
         "uid" : 67,
         "timestamp" : 1508532439,
         "node_revision__field_tags" : [],
         "vuuid" : "de86e421-0e52-4d7b-9262-e40e1b2a5bda",
         "title" : "Friends of the Duke University Libraries",
         "node_revision__body" : {
            "revision_id" : 19081,
            "body_value" : "<p>Founded in 1930 by William K. Boyd, the Friends of the Duke University Libraries are dedicated to supporting and promoting library services. &nbsp;For more than 80 years, the Friends have strengthened the Libraries by supporting and enriching our collections. &nbsp;Through annual gifts, donations of books and other materials, and bequests, the Friends have been essential to our growth over the years from a small but respected institution to one of the nation's top ten private academic research library systems.</p><p>But we could not have achieved this distinction without the help of our Friends, who provide financial support and advocacy for the Libraries and the entire Duke community. We invite you to show your support and join the Friends of the Duke University Libraries.</p><p><strong>Join the Friends!</strong></p><p>A contribution of at least $50 confers <a href=\"/support/friends/membership-benefits\">membership</a> to the Friends of the Duke University Libraries (a minimum gift of <strong>$100</strong> is required to obtain a <a href=\"/services/donors\">borrowing card</a>).&nbsp; Membership in the Friends giving club is renewable annually. &nbsp;</p><p><a href=\"https://www.gifts.duke.edu/library\">Join online</a>, or visit our <a href=\"https://library.duke.edu/support/ways-give\">Ways to Give</a>&nbsp;page for additional giving options.&nbsp;</p><p><strong>Please note:</strong> For specific questions regarding the processing of your gift, please contact the Alumni &amp; Development Records office at <a href=\"tel:9196842338\">(919) 684-2338</a>.&nbsp;</p><p><a href=\"/support/friends/questions\" title=\"Comments or Questions? \">Comments or Questions?&nbsp;</a></p>",
            "deleted" : 0,
            "body_format" : "full_html",
            "delta" : 0,
            "bundle" : "support_page",
            "langcode" : "und",
            "entity_id" : 273,
            "body_summary" : ""
         },
         "field_revision" : {
            "created" : null,
            "langcode" : null,
            "uid" : 1,
            "status" : 1,
            "default_langcode" : 1,
            "revision_translation_affected" : 1,
            "sticky" : 0,
            "title" : "Friends of the Duke University Libraries",
            "changed" : null
         },
         "status" : 1,
         "log" : "",
         "comment" : 1,
         "sticky" : 0
      }
   ],
   "langcode" : "und",
   "uuid" : "031b1ca4-29d6-43a1-830e-de59ccff2b49",
   "vid" : 19081,
   "node__body" : {
      "langcode" : "und",
      "body_summary" : "",
      "entity_id" : 273,
      "bundle" : "support_page",
      "body_format" : "full_html",
      "delta" : 0,
      "deleted" : 0,
      "revision_id" : 19081,
      "body_value" : "<p>Founded in 1930 by William K. Boyd, the Friends of the Duke University Libraries are dedicated to supporting and promoting library services. &nbsp;For more than 80 years, the Friends have strengthened the Libraries by supporting and enriching our collections. &nbsp;Through annual gifts, donations of books and other materials, and bequests, the Friends have been essential to our growth over the years from a small but respected institution to one of the nation's top ten private academic research library systems.</p><p>But we could not have achieved this distinction without the help of our Friends, who provide financial support and advocacy for the Libraries and the entire Duke community. We invite you to show your support and join the Friends of the Duke University Libraries.</p><p><strong>Join the Friends!</strong></p><p>A contribution of at least $50 confers <a href=\"/support/friends/membership-benefits\">membership</a> to the Friends of the Duke University Libraries (a minimum gift of <strong>$100</strong> is required to obtain a <a href=\"/services/donors\">borrowing card</a>).&nbsp; Membership in the Friends giving club is renewable annually. &nbsp;</p><p><a href=\"https://www.gifts.duke.edu/library\">Join online</a>, or visit our <a href=\"https://library.duke.edu/support/ways-give\">Ways to Give</a>&nbsp;page for additional giving options.&nbsp;</p><p><strong>Please note:</strong> For specific questions regarding the processing of your gift, please contact the Alumni &amp; Development Records office at <a href=\"tel:9196842338\">(919) 684-2338</a>.&nbsp;</p><p><a href=\"/support/friends/questions\" title=\"Comments or Questions? \">Comments or Questions?&nbsp;</a></p>"
   },
   "type" : "support_page",
   "field_image" : null
}

