{
   "vid" : 10579,
   "node__body" : {
      "langcode" : "und",
      "body_summary" : "",
      "entity_id" : 909,
      "delta" : 0,
      "body_format" : "full_html",
      "bundle" : "exhibit",
      "deleted" : 0,
      "body_value" : "<p>This exhibit features \"body maps\" made by students at WISER school in Muhuru Bay, Kenya. Hung alongside photos from the school, the exhibit is a testament to the impact education can have on empowering and increasing opportunities for young girls.</p>",
      "revision_id" : 10579
   },
   "field_image" : {
      "field_image_alt" : "",
      "field_image_width" : 800,
      "delta" : 0,
      "bundle" : "exhibit",
      "entity_type" : "node",
      "field_image_height" : 600,
      "langcode" : "und",
      "file_uuid" : "80e95ed3-32cd-45e1-a9a5-359584aaf3b4",
      "language" : "und",
      "deleted" : 0,
      "field_image_fid" : 1477,
      "revision_id" : 10579,
      "field_image_target_id" : 1477,
      "entity_id" : 909,
      "field_image_title" : ""
   },
   "revisions" : [
      {
         "status" : 1,
         "field_revision" : {
            "default_langcode" : 1,
            "revision_translation_affected" : 1,
            "sticky" : 0,
            "created" : null,
            "uid" : 1,
            "langcode" : null,
            "status" : 1,
            "changed" : null,
            "title" : "Wiser-Women's Institute of Secondary Education"
         },
         "log" : "",
         "sticky" : 0,
         "comment" : 1,
         "vuuid" : "f6fe6f57-14b9-4cc1-9b0e-11d36bd577db",
         "title" : "Wiser-Women's Institute of Secondary Education",
         "node_revision__field_tags" : [],
         "node_revision__body" : {
            "revision_id" : 10579,
            "body_value" : "<p>This exhibit features \"body maps\" made by students at WISER school in Muhuru Bay, Kenya. Hung alongside photos from the school, the exhibit is a testament to the impact education can have on empowering and increasing opportunities for young girls.</p>",
            "deleted" : 0,
            "body_format" : "full_html",
            "bundle" : "exhibit",
            "delta" : 0,
            "langcode" : "und",
            "entity_id" : 909,
            "body_summary" : ""
         },
         "uid" : 3,
         "timestamp" : 1538399494,
         "promote" : 0
      }
   ],
   "nid" : "909",
   "asidebox" : null,
   "uuid" : "03c414a8-71cd-4a75-a4a7-dd64f75d9b83",
   "type" : "exhibit",
   "langcode" : "und",
   "node_field_data" : {
      "promote" : 0,
      "changed" : null,
      "type" : "exhibit",
      "revision_translation_affected" : 1,
      "uid" : 1,
      "langcode" : "und",
      "title" : "Wiser-Women's Institute of Secondary Education",
      "default_langcode" : 1,
      "sticky" : 0,
      "created" : 1435179906,
      "status" : 1
   },
   "path_alias" : {
      "langcode" : "und",
      "status" : 0,
      "alias" : "/exhibits/2014/wiser-women",
      "pid" : 1389,
      "language" : "und"
   },
   "field_tags" : [],
   "node_access" : null,
   "node__field_image" : {}
}

