{
   "uuid" : "0513297a-fe66-49af-87d1-0a17ae17d5ab",
   "node__body" : {
      "langcode" : "und",
      "body_summary" : "",
      "entity_id" : 2341,
      "deleted" : 0,
      "body_format" : "full_html",
      "delta" : 0,
      "bundle" : "support_page",
      "body_value" : "<p>The Duke University Libraries are committed to providing exceptional collections and research support for Chemistry and related disciplines.&nbsp; Our Chemistry collections are historic, comprehensive, and broad in nature due to the diligent work of past Duke librarians.&nbsp; In print and electronic formats, a researcher can find chemical information, written in original German, from 1771 alongside current research available by searching SciFinder and Reaxys, the major chemical information databases.&nbsp; Researchers are able to read about cutting-edge research in scientific journals published by the American Chemical Society and the Royal Society of Chemistry, or explore innovation in research by watching lab protocols videos published by a new “visual” journal.&nbsp;</p><p>Traditional library collections have long focused on the major chemistry disciplines of Organic, Inorganic, Physical, and Analytical Chemistry.&nbsp; As noted by Chemist George Whitesides, in an <i>Angewandte Chemie International Edition</i> essay, chemistry research is at “the end of one era and the beginning of another.” Research in traditional core chemical disciplines is focused more on improvement rather than new discoveries.&nbsp; Whitesides argues that new chemical research opportunities are “broader in scope and greater in complexity” and “greater-both in terms of intellectual challenge and in terms of potential impact on society.”&nbsp; Today’s chemistry collections need to preserve the past while simultaneously expanding to support the research and discovery of the future. &nbsp;To support this new generation of Chemistry research, Duke Libraries must expand its collections in the areas of Biochemistry, Organometallic Chemistry, Biophysical Chemistry, Chemical Physics, Materials Science, Chemical Engineering, Toxicology, and Pharmacology.&nbsp;</p><h2>Establish a restricted Collection Endowment ($300,000)</h2><p>&nbsp;A collection endowment that is restricted for Chemistry that is broad in scope and format will allow the library to purchase resources that support Duke’s research where chemistry intersects with other disciplines and global collaborations.&nbsp; Duke Libraries will purchase resources across STEM disciplines, in a variety of formats, to support the original research output of the Duke University Department of Chemistry.&nbsp; Establishing a restricted endowment will fund collection growth to support the research and teaching mission of the University, while continuing to increase the reputation of Duke research worldwide.</p>",
      "revision_id" : 26491
   },
   "vid" : 26491,
   "type" : "support_page",
   "field_image" : null,
   "revisions" : [
      {
         "uid" : 3,
         "timestamp" : 1565980887,
         "promote" : 0,
         "status" : 1,
         "field_revision" : {
            "revision_translation_affected" : 1,
            "sticky" : 0,
            "default_langcode" : 1,
            "langcode" : null,
            "uid" : 1,
            "status" : 1,
            "created" : null,
            "changed" : null,
            "title" : "Funding Opportunities for Chemistry at Duke University Libraries"
         },
         "log" : "",
         "sticky" : 0,
         "comment" : 1,
         "title" : "Funding Opportunities for Chemistry at Duke University Libraries",
         "vuuid" : "59f2b2d9-3095-4302-afde-db7f86a25c18",
         "node_revision__field_tags" : [],
         "node_revision__body" : {
            "entity_id" : 2341,
            "body_summary" : "",
            "langcode" : "und",
            "body_value" : "<p>The Duke University Libraries are committed to providing exceptional collections and research support for Chemistry and related disciplines.&nbsp; Our Chemistry collections are historic, comprehensive, and broad in nature due to the diligent work of past Duke librarians.&nbsp; In print and electronic formats, a researcher can find chemical information, written in original German, from 1771 alongside current research available by searching SciFinder and Reaxys, the major chemical information databases.&nbsp; Researchers are able to read about cutting-edge research in scientific journals published by the American Chemical Society and the Royal Society of Chemistry, or explore innovation in research by watching lab protocols videos published by a new “visual” journal.&nbsp;</p><p>Traditional library collections have long focused on the major chemistry disciplines of Organic, Inorganic, Physical, and Analytical Chemistry.&nbsp; As noted by Chemist George Whitesides, in an <i>Angewandte Chemie International Edition</i> essay, chemistry research is at “the end of one era and the beginning of another.” Research in traditional core chemical disciplines is focused more on improvement rather than new discoveries.&nbsp; Whitesides argues that new chemical research opportunities are “broader in scope and greater in complexity” and “greater-both in terms of intellectual challenge and in terms of potential impact on society.”&nbsp; Today’s chemistry collections need to preserve the past while simultaneously expanding to support the research and discovery of the future. &nbsp;To support this new generation of Chemistry research, Duke Libraries must expand its collections in the areas of Biochemistry, Organometallic Chemistry, Biophysical Chemistry, Chemical Physics, Materials Science, Chemical Engineering, Toxicology, and Pharmacology.&nbsp;</p><h2>Establish a restricted Collection Endowment ($300,000)</h2><p>&nbsp;A collection endowment that is restricted for Chemistry that is broad in scope and format will allow the library to purchase resources that support Duke’s research where chemistry intersects with other disciplines and global collaborations.&nbsp; Duke Libraries will purchase resources across STEM disciplines, in a variety of formats, to support the original research output of the Duke University Department of Chemistry.&nbsp; Establishing a restricted endowment will fund collection growth to support the research and teaching mission of the University, while continuing to increase the reputation of Duke research worldwide.</p>",
            "revision_id" : 26491,
            "bundle" : "support_page",
            "body_format" : "full_html",
            "delta" : 0,
            "deleted" : 0
         }
      }
   ],
   "langcode" : "und",
   "nid" : "2341",
   "node_field_data" : {
      "revision_translation_affected" : 1,
      "uid" : 1,
      "langcode" : "und",
      "changed" : null,
      "promote" : 0,
      "type" : "support_page",
      "sticky" : 0,
      "default_langcode" : 1,
      "status" : 1,
      "created" : 1565980868,
      "title" : "Funding Opportunities for Chemistry at Duke University Libraries"
   },
   "path_alias" : {
      "langcode" : "und",
      "status" : 0,
      "language" : "und",
      "alias" : "/support/giving-opportunities/collection-endowments/chemistry",
      "pid" : 4513
   },
   "field_tags" : [],
   "node_access" : null,
   "asidebox" : {
      "nid" : 2341,
      "body_title" : "",
      "vid" : 26491,
      "bid" : null,
      "body_format" : "full_html",
      "body_value" : "<p style=\"text-align: center;\"><a href=\"/sites/default/files/dul/support/Chemistry.pdf\">View PDF Version (62KB)</a></p>",
      "block_module" : null,
      "block_delta" : null,
      "status" : "html"
   }
}

