{
   "nid" : "1127",
   "asidebox" : null,
   "revisions" : [
      {
         "field_revision" : {
            "created" : null,
            "uid" : 1,
            "langcode" : null,
            "status" : 1,
            "default_langcode" : 1,
            "revision_translation_affected" : 1,
            "sticky" : 0,
            "title" : "Photographs by Amy Cotter",
            "changed" : null
         },
         "status" : 1,
         "log" : "",
         "comment" : 1,
         "sticky" : 0,
         "node_revision__field_tags" : [],
         "vuuid" : "d54e91e1-bbac-4c47-9f3f-40ecd3b07a93",
         "title" : "Photographs by Amy Cotter",
         "node_revision__body" : {
            "bundle" : "exhibit",
            "body_format" : "full_html",
            "delta" : 0,
            "deleted" : 0,
            "revision_id" : 11115,
            "body_value" : "<p><strong>This student exhibit investigates the environmental impacts of local merchants as well as a natural habitat for animals.</strong></p><p>Amy Cotter's photography portrays subjects particular to North Carolina.&nbsp; Both subjects thrive as a result of the climate, people, and general attitude of the state.&nbsp; One section of her work focuses on the Conservator's Center in Mebane.&nbsp; This center is a sanctuary to otherwise unwanted large and small cats, and it survives primarily off grants and the work of volunteers.&nbsp; The other portion of Amy's work focuses on the new Durham brewery, Full Steam.&nbsp; Full Steam produces beer from local produce such as basil and sweet potatoes.&nbsp; Both establishments are full of life and offered a great place to document.&nbsp;&nbsp;</p>",
            "langcode" : "und",
            "body_summary" : "",
            "entity_id" : 1127
         },
         "uid" : 2213,
         "timestamp" : 1587430666,
         "promote" : 0
      }
   ],
   "vid" : 11115,
   "node__body" : {
      "langcode" : "und",
      "body_summary" : "",
      "entity_id" : 1127,
      "deleted" : 0,
      "body_format" : "full_html",
      "bundle" : "exhibit",
      "delta" : 0,
      "revision_id" : 11115,
      "body_value" : "<p><strong>This student exhibit investigates the environmental impacts of local merchants as well as a natural habitat for animals.</strong></p><p>Amy Cotter's photography portrays subjects particular to North Carolina.&nbsp; Both subjects thrive as a result of the climate, people, and general attitude of the state.&nbsp; One section of her work focuses on the Conservator's Center in Mebane.&nbsp; This center is a sanctuary to otherwise unwanted large and small cats, and it survives primarily off grants and the work of volunteers.&nbsp; The other portion of Amy's work focuses on the new Durham brewery, Full Steam.&nbsp; Full Steam produces beer from local produce such as basil and sweet potatoes.&nbsp; Both establishments are full of life and offered a great place to document.&nbsp;&nbsp;</p>"
   },
   "field_image" : {
      "field_image_height" : 600,
      "entity_type" : "node",
      "langcode" : "und",
      "field_image_width" : 750,
      "field_image_alt" : "",
      "bundle" : "exhibit",
      "delta" : 0,
      "entity_id" : 1127,
      "field_image_target_id" : 1701,
      "field_image_title" : "",
      "file_uuid" : "c73b4785-27f5-4378-9cc6-fdd034f7a403",
      "language" : "und",
      "field_image_fid" : 1701,
      "revision_id" : 11115,
      "deleted" : 0
   },
   "node__field_image" : {},
   "node_field_data" : {
      "title" : "Photographs by Amy Cotter",
      "sticky" : 0,
      "default_langcode" : 1,
      "status" : 1,
      "created" : 1439237242,
      "promote" : 0,
      "changed" : null,
      "type" : "exhibit",
      "revision_translation_affected" : 1,
      "uid" : 1,
      "langcode" : "und"
   },
   "path_alias" : {
      "status" : 0,
      "langcode" : "und",
      "language" : "und",
      "pid" : 1617,
      "alias" : "/exhibits/2010/amy-cotter"
   },
   "field_tags" : [],
   "node_access" : null,
   "langcode" : "und",
   "uuid" : "06032971-8d3c-44eb-91aa-9391525346f0",
   "type" : "exhibit"
}

