{
   "langcode" : "und",
   "revisions" : [
      {
         "promote" : 0,
         "uid" : 3,
         "timestamp" : 1566564837,
         "node_revision__field_tags" : [],
         "title" : "Film title index of Chinese filmscript and advertisement collection",
         "vuuid" : "3ae79c55-e8f9-41b6-a022-3eace89d222e",
         "node_revision__body" : {
            "body_format" : "full_html_no_wysiwyg",
            "delta" : 0,
            "bundle" : "page",
            "deleted" : 0,
            "body_value" : "<div class=\"row\">\r\n  <div class=\"col-md-6\">\r\n    <h2>About the Collection</h2>\r\n    <p>This is a collection of film advertisements and transcripts of Chinese\r\n    documentary films and newsreels that spans the years 1946-1985. The bulk of the\r\n    items are transcripts of documentary films and newsreels from the Cultural\r\n    Revolution (1966-1976). Topics include:</p>\r\n\r\n      <ul>\r\n        <li>agriculture</li>\r\n\r\n        <li>cultural & sporting events</li>\r\n\r\n        <li>education</li>\r\n\r\n        <li>foreign relations</li>\r\n\r\n        <li>industry</li>\r\n\r\n        <li>medicine & science</li>\r\n\r\n        <li>military matters</li>\r\n\r\n        <li>political movements</li>\r\n\r\n        <li>public health care & the economy</li>\r\n      </ul>\r\n\r\n <p>Our collection also contains printed advertisements and other publicity for:</p>   \r\n  <ul>\r\n     <li>Chinese & foreign films</li>\r\n\r\n     <li>local performances</li>\r\n\r\n     <li>operas</li>\r\n\r\n     <li>plays</li>\r\n   </ul>  \r\n </div>\r\n <div class=\"col-md-6\">\r\n   \r\n   <h2>About the Index</h2>\r\n\r\n     <p>This index lists the 655 film titles included in the collection (following the\r\n     arrangment of the <a href=\r\n     \"/rubenstein/findingaids/chinesefilms\"></a><a href=\r\n     \"http://www.primarysourcesonline.nl/ead/archdesc.php?faid=511toc.xml\">digitized\r\n     collection</a>). You can browse film titles or sort them by:</p>\r\n\r\n     <ul>\r\n       <li>category</li>\r\n\r\n       <li>subcategory</li>\r\n\r\n       <li>date</li>\r\n\r\n       <li>title number</li>\r\n\r\n       <li>film director</li>\r\n\r\n       <li>production year</li>\r\n     </ul>   \r\n      <p>To view details about each film, click on the title name. Then, use the index\r\n      information to access the full text document of that film in the <a href=\r\n      \"http://www.primarysourcesonline.nl/ead/archdesc.php?faid=511toc.xml\">digitized\r\n      collection</a></p>      \r\n    </div>\r\n  </div>\r\n\r\n  <hr/>\r\n    \r\n    \r\n  <div class=\"simile-content\">      \r\n    <div data-ex-role=\"viewPanel\">\r\n      <div data-ex-role=\"view\" data-ex-orders=\".category, .subcategory\" data-ex-possibleorders=\r\n      \".category,.subcategory,.label,.dates,.source-date,.production-year,.film-director\">\r\n      </div>\r\n\r\n\r\n      <div data-ex-role=\"lens\" class=\"projects\">\r\n        <div data-ex-content=\".label\" class=\"title\"></div>\r\n\r\n        <div class=\"details\">\r\n          <div class=\"allMetadata\">\r\n            <div class=\"metadataTable\">\r\n              <table class=\"metadataTable\">\r\n                <tbody>\r\n                  <tr>\r\n                    <td class=\"field\">Category:</td>\r\n\r\n                    <td>\r\n                      <div data-ex-content=\".category\"></div>\r\n                    </td>\r\n                  </tr>\r\n\r\n                  <tr>\r\n                    <td class=\"field\">Subcategory:</td>\r\n\r\n                    <td>\r\n                      <div data-ex-content=\".subcategory\"></div>\r\n                    </td>\r\n                  </tr>\r\n\r\n                  <tr data-ex-if-exists=\".dates\">\r\n                    <td class=\"field\">Dates:</td>\r\n\r\n                    <td>\r\n                      <div data-ex-content=\".dates\"></div>\r\n                    </td>\r\n                  </tr>\r\n\r\n                  <tr data-ex-if-exists=\".source-date\">\r\n                    <td class=\"field\">Source Date:</td>\r\n\r\n                    <td>\r\n                      <div data-ex-content=\".source-date\" data-ex-formats=\r\n                      \"date{mode:medium; show:date}\" class=\"semester\"></div>\r\n                    </td>\r\n                  </tr>\r\n\r\n                  <tr data-ex-if-exists=\".title-number\">\r\n                    <td class=\"field\">Title Number:</td>\r\n\r\n                    <td>\r\n                      <div data-ex-content=\".title-number\"></div>\r\n                    </td>\r\n                  </tr>\r\n\r\n                  <tr data-ex-if-exists=\".film-director\">\r\n                    <td class=\"field\">Film Director:</td>\r\n\r\n                    <td>\r\n                      <div data-ex-content=\".film-director\"></div>\r\n                    </td>\r\n                  </tr>\r\n\r\n                  <tr data-ex-if-exists=\".production-year\">\r\n                    <td class=\"field\">Production Year</td>\r\n\r\n                    <td>\r\n                      <div data-ex-content=\".production-year\"></div>\r\n                    </td>\r\n                  </tr>\r\n                </tbody>\r\n              </table>\r\n            </div>\r\n          </div>\r\n        </div>\r\n      </div>\r\n    </div>\r\n  </div>\r\n\r\n\r\n  </div>\r\n  \r\n  \r\n\r\n\r\n  <div class=\"facets feature-box-pane\">\r\n  <ul>\r\n    <li><a href=\r\n    \"http://www.primarysourcesonline.nl/ead/archdesc.php?faid=511toc.xml\">Access the\r\n    digitized Chinese filmscript & advertisement collection</a></li>\r\n  </ul>\r\n\r\n\r\n\r\n    <div class=\"exhibit-facet-header\">\r\n      <b>Type a search term...</b>\r\n    </div>\r\n\r\n    <div data-ex-role=\"facet\" data-ex-facetclass=\"TextSearch\"></div>\r\n\r\n    <div data-ex-role=\"facet\" data-ex-expression=\".category\" data-ex-facetlabel=\"Category\"></div>\r\n\r\n    <div data-ex-role=\"facet\" data-ex-expression=\".subcategory\" data-ex-facetlabel=\"Subcategory\"></div>\r\n\r\n    <div data-ex-role=\"facet\" data-ex-expression=\".dates\" data-ex-facetlabel=\"Dates\"></div>\r\n\r\n    <div data-ex-role=\"facet\" data-ex-expression=\".production-year\" data-ex-facetlabel=\r\n    \"Production Year\"></div>\r\n\r\n    <div data-ex-role=\"facet\" data-ex-expression=\".film-director\" data-ex-facetlabel=\"Film Director\">\r\n    </div>\r\n  </div>\r\n\r\n\r\n  <style media=\"screen\" title=\"text/css\" type=\"text/css\">\r\n\r\ndiv.simile-content div.title { font-weight: bold; }\r\n\r\n.facets {\r\n\twidth: 25%;\r\n\tfloat: left;\r\n}\r\n\r\n.simile-content {\r\n\twidth: 70%;\r\n\tfloat: left;\r\n}\r\n\r\n  </style>",
            "revision_id" : 26735,
            "langcode" : "und",
            "body_summary" : "",
            "entity_id" : 403
         },
         "field_revision" : {
            "changed" : null,
            "title" : "Film title index of Chinese filmscript and advertisement collection",
            "sticky" : 0,
            "revision_translation_affected" : 1,
            "default_langcode" : 1,
            "status" : 1,
            "uid" : 1,
            "langcode" : null,
            "created" : null
         },
         "status" : 1,
         "log" : "",
         "comment" : 1,
         "sticky" : 0
      }
   ],
   "type" : "page",
   "field_image" : null,
   "uuid" : "07f0858a-1c05-497f-94e2-86e99614ab30",
   "node__body" : {
      "deleted" : 0,
      "bundle" : "page",
      "body_format" : "full_html_no_wysiwyg",
      "delta" : 0,
      "body_value" : "<div class=\"row\">\r\n  <div class=\"col-md-6\">\r\n    <h2>About the Collection</h2>\r\n    <p>This is a collection of film advertisements and transcripts of Chinese\r\n    documentary films and newsreels that spans the years 1946-1985. The bulk of the\r\n    items are transcripts of documentary films and newsreels from the Cultural\r\n    Revolution (1966-1976). Topics include:</p>\r\n\r\n      <ul>\r\n        <li>agriculture</li>\r\n\r\n        <li>cultural & sporting events</li>\r\n\r\n        <li>education</li>\r\n\r\n        <li>foreign relations</li>\r\n\r\n        <li>industry</li>\r\n\r\n        <li>medicine & science</li>\r\n\r\n        <li>military matters</li>\r\n\r\n        <li>political movements</li>\r\n\r\n        <li>public health care & the economy</li>\r\n      </ul>\r\n\r\n <p>Our collection also contains printed advertisements and other publicity for:</p>   \r\n  <ul>\r\n     <li>Chinese & foreign films</li>\r\n\r\n     <li>local performances</li>\r\n\r\n     <li>operas</li>\r\n\r\n     <li>plays</li>\r\n   </ul>  \r\n </div>\r\n <div class=\"col-md-6\">\r\n   \r\n   <h2>About the Index</h2>\r\n\r\n     <p>This index lists the 655 film titles included in the collection (following the\r\n     arrangment of the <a href=\r\n     \"/rubenstein/findingaids/chinesefilms\"></a><a href=\r\n     \"http://www.primarysourcesonline.nl/ead/archdesc.php?faid=511toc.xml\">digitized\r\n     collection</a>). You can browse film titles or sort them by:</p>\r\n\r\n     <ul>\r\n       <li>category</li>\r\n\r\n       <li>subcategory</li>\r\n\r\n       <li>date</li>\r\n\r\n       <li>title number</li>\r\n\r\n       <li>film director</li>\r\n\r\n       <li>production year</li>\r\n     </ul>   \r\n      <p>To view details about each film, click on the title name. Then, use the index\r\n      information to access the full text document of that film in the <a href=\r\n      \"http://www.primarysourcesonline.nl/ead/archdesc.php?faid=511toc.xml\">digitized\r\n      collection</a></p>      \r\n    </div>\r\n  </div>\r\n\r\n  <hr/>\r\n    \r\n    \r\n  <div class=\"simile-content\">      \r\n    <div data-ex-role=\"viewPanel\">\r\n      <div data-ex-role=\"view\" data-ex-orders=\".category, .subcategory\" data-ex-possibleorders=\r\n      \".category,.subcategory,.label,.dates,.source-date,.production-year,.film-director\">\r\n      </div>\r\n\r\n\r\n      <div data-ex-role=\"lens\" class=\"projects\">\r\n        <div data-ex-content=\".label\" class=\"title\"></div>\r\n\r\n        <div class=\"details\">\r\n          <div class=\"allMetadata\">\r\n            <div class=\"metadataTable\">\r\n              <table class=\"metadataTable\">\r\n                <tbody>\r\n                  <tr>\r\n                    <td class=\"field\">Category:</td>\r\n\r\n                    <td>\r\n                      <div data-ex-content=\".category\"></div>\r\n                    </td>\r\n                  </tr>\r\n\r\n                  <tr>\r\n                    <td class=\"field\">Subcategory:</td>\r\n\r\n                    <td>\r\n                      <div data-ex-content=\".subcategory\"></div>\r\n                    </td>\r\n                  </tr>\r\n\r\n                  <tr data-ex-if-exists=\".dates\">\r\n                    <td class=\"field\">Dates:</td>\r\n\r\n                    <td>\r\n                      <div data-ex-content=\".dates\"></div>\r\n                    </td>\r\n                  </tr>\r\n\r\n                  <tr data-ex-if-exists=\".source-date\">\r\n                    <td class=\"field\">Source Date:</td>\r\n\r\n                    <td>\r\n                      <div data-ex-content=\".source-date\" data-ex-formats=\r\n                      \"date{mode:medium; show:date}\" class=\"semester\"></div>\r\n                    </td>\r\n                  </tr>\r\n\r\n                  <tr data-ex-if-exists=\".title-number\">\r\n                    <td class=\"field\">Title Number:</td>\r\n\r\n                    <td>\r\n                      <div data-ex-content=\".title-number\"></div>\r\n                    </td>\r\n                  </tr>\r\n\r\n                  <tr data-ex-if-exists=\".film-director\">\r\n                    <td class=\"field\">Film Director:</td>\r\n\r\n                    <td>\r\n                      <div data-ex-content=\".film-director\"></div>\r\n                    </td>\r\n                  </tr>\r\n\r\n                  <tr data-ex-if-exists=\".production-year\">\r\n                    <td class=\"field\">Production Year</td>\r\n\r\n                    <td>\r\n                      <div data-ex-content=\".production-year\"></div>\r\n                    </td>\r\n                  </tr>\r\n                </tbody>\r\n              </table>\r\n            </div>\r\n          </div>\r\n        </div>\r\n      </div>\r\n    </div>\r\n  </div>\r\n\r\n\r\n  </div>\r\n  \r\n  \r\n\r\n\r\n  <div class=\"facets feature-box-pane\">\r\n  <ul>\r\n    <li><a href=\r\n    \"http://www.primarysourcesonline.nl/ead/archdesc.php?faid=511toc.xml\">Access the\r\n    digitized Chinese filmscript & advertisement collection</a></li>\r\n  </ul>\r\n\r\n\r\n\r\n    <div class=\"exhibit-facet-header\">\r\n      <b>Type a search term...</b>\r\n    </div>\r\n\r\n    <div data-ex-role=\"facet\" data-ex-facetclass=\"TextSearch\"></div>\r\n\r\n    <div data-ex-role=\"facet\" data-ex-expression=\".category\" data-ex-facetlabel=\"Category\"></div>\r\n\r\n    <div data-ex-role=\"facet\" data-ex-expression=\".subcategory\" data-ex-facetlabel=\"Subcategory\"></div>\r\n\r\n    <div data-ex-role=\"facet\" data-ex-expression=\".dates\" data-ex-facetlabel=\"Dates\"></div>\r\n\r\n    <div data-ex-role=\"facet\" data-ex-expression=\".production-year\" data-ex-facetlabel=\r\n    \"Production Year\"></div>\r\n\r\n    <div data-ex-role=\"facet\" data-ex-expression=\".film-director\" data-ex-facetlabel=\"Film Director\">\r\n    </div>\r\n  </div>\r\n\r\n\r\n  <style media=\"screen\" title=\"text/css\" type=\"text/css\">\r\n\r\ndiv.simile-content div.title { font-weight: bold; }\r\n\r\n.facets {\r\n\twidth: 25%;\r\n\tfloat: left;\r\n}\r\n\r\n.simile-content {\r\n\twidth: 70%;\r\n\tfloat: left;\r\n}\r\n\r\n  </style>",
      "revision_id" : 26735,
      "body_summary" : "",
      "entity_id" : 403,
      "langcode" : "und"
   },
   "vid" : 26735,
   "node_access" : null,
   "asidebox" : {
      "status" : "disabled",
      "block_delta" : null,
      "block_module" : null,
      "body_value" : "<ul><li><a href=\"http://www.primarysourcesonline.nl/ead/archdesc.php?faid=511toc.xml\">Access the digitized Chinese filmscript &amp; advertisement collection</a></li></ul><div class=\"facets\"><p><a href=\"#\" class=\"masterToggle\">Expand/collapse all »</a></p><div class=\"exhibit-facet-header\"><b>Type a search term...</b></div><div ex:role=\"facet\" ex:facetclass=\"TextSearch\"></div><div ex:role=\"facet\" ex:expression=\".category\" ex:facetlabel=\"Category\"></div><div ex:role=\"facet\" ex:expression=\".subcategory\" ex:facetlabel=\"Subcategory\"></div><div ex:role=\"facet\" ex:expression=\".dates\" ex:facetlabel=\"Dates\"></div><div ex:role=\"facet\" ex:expression=\".production-year\" ex:facetlabel=\"Production Year\"></div><div ex:role=\"facet\" ex:expression=\".film-director\" ex:facetlabel=\"Film Director\"></div></div>",
      "body_format" : "full_html_no_wysiwyg",
      "vid" : 26735,
      "bid" : null,
      "nid" : 403,
      "body_title" : "More Information "
   },
   "nid" : "403",
   "path_alias" : {
      "status" : 0,
      "langcode" : "und",
      "pid" : 600,
      "alias" : "/research/subject/guides/chinese-studies/research-guide/film-studies/chinese-filmscript-and-advertisement-collection",
      "language" : "und"
   },
   "node_field_data" : {
      "revision_translation_affected" : 1,
      "langcode" : "und",
      "uid" : 1,
      "changed" : null,
      "promote" : 0,
      "type" : "page",
      "sticky" : 0,
      "default_langcode" : 1,
      "status" : 1,
      "created" : 1379345492,
      "title" : "Film title index of Chinese filmscript and advertisement collection"
   },
   "field_tags" : []
}

