{
   "asidebox" : {
      "status" : "html",
      "block_delta" : null,
      "body_format" : "full_html",
      "body_value" : "<p><span class=\"menuitem\"><a href=\"http://www.nicholas.duke.edu/marinelab/about/\">About the Duke University Marine Lab</a></span></p><p><span class=\"menuitem\"><a href=\"http://library.duke.edu/\">Duke University Libraries</a></span></p><p><span class=\"menuitem\"><a href=\"http://www.visit.duke.edu/\">Visiting Duke University</a></span></p>",
      "block_module" : null,
      "body_title" : "",
      "nid" : 286,
      "vid" : 13037,
      "bid" : null
   },
   "node_access" : {
      "gid" : 0,
      "grant_delete" : 0,
      "langcode" : "und",
      "realm" : "all",
      "nid" : 286,
      "grant_view" : 1,
      "grant_update" : 0
   },
   "field_tags" : [],
   "node_field_data" : {
      "langcode" : "und",
      "uid" : 1,
      "revision_translation_affected" : 1,
      "type" : "marine_library_page",
      "changed" : null,
      "promote" : 0,
      "status" : 1,
      "created" : 1377024157,
      "sticky" : 0,
      "default_langcode" : 1,
      "title" : "Directions and Maps for the Marine Lab Library"
   },
   "path_alias" : {
      "language" : "und",
      "pid" : 462,
      "alias" : "/marine/directions",
      "status" : 0,
      "langcode" : "und"
   },
   "nid" : "286",
   "field_image" : null,
   "type" : "marine_library_page",
   "node__body" : {
      "body_format" : "full_html",
      "bundle" : "marine_library_page",
      "delta" : 0,
      "deleted" : 0,
      "body_value" : "<p>Directions &amp; Map</p>\r\n\r\n<p>The Pearse Memorial Library at the Duke Marine Lab is housed in the I.E. Gray Library-Auditorium on the <a href=\"https://nicholas.duke.edu/marinelab\">Duke University Marine Laboratory </a>campus.</p>\r\n\r\n<ul>\r\n\t<li>\r\n\t<p><a href=\"https://myatlascms.com/map/?id=21&amp;mrkId=4509\">View a map and get directions</a>&nbsp;to the Duke University Marine Laboratory campus.</p>\r\n\t</li>\r\n\t<li>\r\n\t<p>Lost? please <a href=\"/about/directory/dept/281\">Call us</a>,&nbsp;and we&#39;ll be glad to help.</p>\r\n\t</li>\r\n</ul>\r\n",
      "revision_id" : 13037,
      "body_summary" : "",
      "entity_id" : 286,
      "langcode" : "und"
   },
   "vid" : 13037,
   "uuid" : "098e0b76-94df-47e9-81ef-72bc5686fd00",
   "langcode" : "und",
   "revisions" : [
      {
         "promote" : 0,
         "timestamp" : 1458157141,
         "uid" : 85,
         "node_revision__body" : {
            "body_summary" : "",
            "entity_id" : 286,
            "langcode" : "und",
            "deleted" : 0,
            "body_format" : "full_html",
            "bundle" : "marine_library_page",
            "delta" : 0,
            "body_value" : "<p>Directions &amp; Map</p>\r\n\r\n<p>The Pearse Memorial Library at the Duke Marine Lab is housed in the I.E. Gray Library-Auditorium on the <a href=\"https://nicholas.duke.edu/marinelab\">Duke University Marine Laboratory </a>campus.</p>\r\n\r\n<ul>\r\n\t<li>\r\n\t<p><a href=\"https://myatlascms.com/map/?id=21&amp;mrkId=4509\">View a map and get directions</a>&nbsp;to the Duke University Marine Laboratory campus.</p>\r\n\t</li>\r\n\t<li>\r\n\t<p>Lost? please <a href=\"/about/directory/dept/281\">Call us</a>,&nbsp;and we&#39;ll be glad to help.</p>\r\n\t</li>\r\n</ul>\r\n",
            "revision_id" : 13037
         },
         "node_revision__field_tags" : [],
         "vuuid" : "e23530d8-c198-468c-bb54-78e316d688dc",
         "title" : "Directions and Maps for the Marine Lab Library",
         "comment" : 1,
         "sticky" : 0,
         "log" : "",
         "field_revision" : {
            "revision_translation_affected" : 1,
            "sticky" : 0,
            "default_langcode" : 1,
            "uid" : 1,
            "status" : 1,
            "langcode" : null,
            "created" : null,
            "changed" : null,
            "title" : "Directions and Maps for the Marine Lab Library"
         },
         "status" : 1
      }
   ]
}

