{
   "node_field_data" : {
      "revision_translation_affected" : 1,
      "langcode" : "und",
      "uid" : 1,
      "promote" : 0,
      "changed" : null,
      "type" : "about_page",
      "sticky" : 0,
      "default_langcode" : 1,
      "status" : 1,
      "created" : 1377893903,
      "title" : "Searching OCLC and Aleph"
   },
   "path_alias" : {
      "status" : 0,
      "langcode" : "und",
      "language" : "und",
      "alias" : "/about/depts/cataloging/documentation/searching-OCLC-and-Aleph",
      "pid" : 524
   },
   "field_tags" : [],
   "nid" : "345",
   "asidebox" : {
      "block_delta" : null,
      "status" : "disabled",
      "bid" : null,
      "vid" : 2424,
      "nid" : 345,
      "body_title" : "",
      "body_value" : null,
      "block_module" : null,
      "body_format" : null
   },
   "node_access" : {
      "grant_view" : 1,
      "grant_update" : 0,
      "nid" : 345,
      "grant_delete" : 0,
      "langcode" : "und",
      "realm" : "all",
      "gid" : 0
   },
   "uuid" : "0a2b2dcb-0e13-4fd1-8484-607149e956ca",
   "node__body" : {
      "body_format" : "full_html",
      "bundle" : "about_page",
      "delta" : 0,
      "deleted" : 0,
      "body_value" : "<h2>1.&nbsp; General (including link to OCLC authorization information)</h2><h2>2. <span style=\"text-decoration: underline;\"><span style=\"color: rgb(0, 102, 204);\" color=\"#0066cc\"><a href=\"#CCLDUK01\">Aleph CCL codes for DUK01</a>&nbsp;</span></span><br><br>3.<a href=\"#CCLDUK60\"> <span style=\"text-decoration: underline;\"><span style=\"color: rgb(0, 102, 204);\" color=\"#0066cc\">Aleph CCL codes for DUK60</span></span></a></h2><h2>4.<a href=\"#moreOCLC\">&nbsp;<span style=\"text-decoration: underline;\"><span style=\"color: rgb(0, 102, 204);\" color=\"#0066cc\">More detail about&nbsp;OCLC searching</span></span></a></h2><p>##########################</p><h2>1. General (including link to OCLC login and export information)</h2><p dir=\"ltr\">This is not a comprehensive document on searching, which is better demonstrated and learned through practice than written about extensively. It is just a few hints on effective searching.</p><p dir=\"ltr\">Information on&nbsp;OCLC login and export&nbsp;is found on Sharepoint: <a href=\"https://sharepoint.oit.duke.edu/sites/perkins/catS/_layouts/WordViewer.aspx?id=/sites/perkins/catS/Shared Documents/Login and export information for OCLC.docx&amp;Source=https%3A%2F%2Fsharepoint%2Eoit%2Eduke%2Eedu%2Fsites%2Fperkins%2FcatS%2FShared%2520Documents%2FForms%2FAllItems%2Easpx%3FInitialTabId%3DRibbon%252EDocument%26VisibilityContext%3DWSSTabPersistence&amp;DefaultItemOpen=1&amp;DefaultItemOpen=1\"><span style=\"text-decoration: underline;\"><span style=\"color: rgb(0, 102, 204);\" color=\"#0066cc\">click here</span></span></a></p><p dir=\"ltr\">For items already barcoded in Aleph, searching by scanning the Duke barcode is the quickest way to retrieve the record. HOWEVER, be aware of the possibility of duplicate records, especially for items that are part of a set or series</p><p dir=\"ltr\">Especially for current imprints the ISBN number is usually the quickest and most accurate initial search. This is especially true now that ISBNs are often printed in barcode form on book covers. These can be scanned into either Aleph or OCLC for very quick searching.</p><p dir=\"ltr\">HOWEVER, be aware that records in OCLC and Aleph may lack ISBNs, so if the ISBN search turns up either no results or only unacceptable copy, try another search. Also, be aware that though ISBNs are theoretically unique identifiers, publishers may use them for more than one edition, and sometimes even for more than one title. Always check that the item in hand matches the record found.</p><p dir=\"ltr\">In both Aleph and OCLC, there are two types of search, one (\"find\" or \"search\") for keywords and unique identifiers and one (\"browse\") for browsing index screens.</p><p dir=\"ltr\">In Aleph, an ISBN may be entered as either a \"find\" or a \"browse\" search. Using \"find\" will take you to the desired record with fewer clicks.</p><p dir=\"ltr\">In OCLC, ISBN is not a \"browse\" option.</p><p dir=\"ltr\">Unless the title is very generic, a title browse is usually the most effective second search.</p><p dir=\"ltr\"><a name=\"CCLDUK01\"></a></p><p dir=\"ltr\"></p><h2 dir=\"ltr\">2. Aleph CCL codes for DUK01&nbsp;</h2><p dir=\"ltr\">Index codes from the DUK01 for use in CCL searches, and service retrieval. Not all of these indexes work. Some of them are dependent on the data that is available within them.</p><h3><a name=\"SearchingandIndexing-DirectIndexes\"></a>Direct Indexes</h3><p dir=\"ltr\"></p><table><tbody><tr><th>code</th><th>type</th><th>name</th><th>fields</th><th>subfields</th></tr><tr><td>MTC</td><td>IND</td><td>Match</td><td>035</td><td></td></tr><tr><td></td><td></td><td></td><td>DRA</td><td></td></tr><tr><td>SYS</td><td>IND</td><td>System Number</td><td>SYSID</td><td></td></tr><tr><td>BAR</td><td>IND</td><td>Barcode</td><td>z30-barcode</td><td></td></tr><tr><td>010</td><td>IND</td><td>LCCN</td><td>010</td><td>az</td></tr><tr><td>ISBN</td><td>IND</td><td>ISBN</td><td>020</td><td>az</td></tr><tr><td>ISSN</td><td>IND</td><td>ISSN</td><td>022</td><td>ayz</td></tr><tr><td>SICI</td><td>IND</td><td>SICI Code</td><td>024</td><td>de</td></tr><tr><td>ISMN</td><td>IND</td><td>ISMN (Music)</td><td>024</td><td>bc</td></tr><tr><td>028</td><td>IND</td><td>Music Publ. Number</td><td>262</td><td>ce</td></tr><tr><td>035</td><td>IND</td><td>Utility Number</td><td>035</td><td>az</td></tr><tr><td></td><td></td><td></td><td>019</td><td>a</td></tr><tr><td>STIDN</td><td>IND</td><td>Standard Identifiers</td><td>010</td><td>az</td></tr><tr><td></td><td></td><td></td><td>019</td><td>a</td></tr><tr><td></td><td></td><td></td><td>020</td><td>az</td></tr><tr><td></td><td></td><td></td><td>022</td><td>ayz</td></tr><tr><td></td><td></td><td></td><td>024</td><td>az</td></tr><tr><td></td><td></td><td></td><td>035</td><td>az</td></tr><tr><td></td><td></td><td></td><td>027</td><td>az</td></tr><tr><td></td><td></td><td></td><td>262</td><td>ce</td></tr><tr><td>BVL</td><td>IND</td><td>BVL (for print_09)</td><td>999</td><td></td></tr><tr><td>III</td><td>IND</td><td>III Bib. No.</td><td>III</td><td>a</td></tr><tr><td>IIO</td><td>IND</td><td>III Order No.</td><td>IIO</td><td>a</td></tr><tr><td>IIC</td><td>IND</td><td>III Checkin No.</td><td>IIC</td><td>a</td></tr><tr><td>DRA</td><td>IND</td><td>DRA DBCN</td><td>DRA</td><td>a</td></tr><tr><td>SCLID</td><td>IND</td><td>RBMSCL Accession ID</td><td>R01</td><td>a</td></tr><tr><td>901</td><td>IND</td><td>Acq Vendor Matching No.</td><td>901</td><td></td></tr><tr><td>909</td><td>IND</td><td>Marcive Temp No.</td><td>019</td><td>a</td></tr><tr><td></td><td></td><td></td><td>909</td><td>a</td></tr></tbody></table><h3><a name=\"SearchingandIndexing-BrowseIndexes\"></a></h3><h3>&nbsp;</h3><h3>Browse Indexes</h3><p dir=\"ltr\"></p><table><tbody><tr><th>code</th><th>type</th><th>name</th><th>fields</th><th>subfields</th></tr><tr><td>TIT</td><td>ACC</td><td>Titles</td><td></td><td></td></tr><tr><td>TRT</td><td>ACC</td><td>Titles/Related Title</td><td></td><td></td></tr><tr><td>AUT</td><td>ACC</td><td>Authors</td><td></td><td></td></tr><tr><td>AWT</td><td>ACC</td><td>Authors+Titles</td><td></td><td></td></tr><tr><td>SRS1</td><td>ACC</td><td>Traced Series</td><td></td><td></td></tr><tr><td>SRS2</td><td>ACC</td><td>Non traced Series</td><td></td><td></td></tr><tr><td>SUB</td><td>ACC</td><td>General Subjects</td><td></td><td></td></tr><tr><td>SUL</td><td>ACC</td><td>LC Subjects</td><td></td><td></td></tr><tr><td>SUM</td><td>ACC</td><td>MeSH Subjects</td><td></td><td></td></tr><tr><td>SGN</td><td>ACC</td><td>Genre Subjects</td><td></td><td></td></tr><tr><td>SUS</td><td>ACC</td><td>Local Subjects</td><td></td><td></td></tr><tr><td>PLA</td><td>ACC</td><td>Place</td><td></td><td></td></tr><tr><td>PUB</td><td>ACC</td><td>Publisher</td><td></td><td></td></tr><tr><td>SUD</td><td>ACC</td><td>Gov't Doc. No.</td><td></td><td></td></tr><tr><td>SHL</td><td>ACC</td><td>Shelf List All</td><td></td><td></td></tr><tr><td>SLC</td><td>ACC</td><td>Shelf List LC</td><td></td><td></td></tr><tr><td>SLD</td><td>ACC</td><td>Shelf List Dewey</td><td></td><td></td></tr><tr><td>SLM</td><td>ACC</td><td>Shelf List NLM</td><td></td><td></td></tr><tr><td>SLP</td><td>ACC</td><td>Shelf List Per.</td><td></td><td></td></tr><tr><td>SLG</td><td>ACC</td><td>Shelf List SuDocs</td><td></td><td></td></tr><tr><td>SLA</td><td>ACC</td><td>SL Accession No.</td><td></td><td></td></tr><tr><td>SLS</td><td>ACC</td><td>Shelf List RBMSCL</td><td></td><td></td></tr><tr><td>URL</td><td>ACC</td><td>URL</td><td></td><td></td></tr><tr><td>XYZ</td><td>ACC</td><td>Subjects -vxyz</td><td></td><td></td></tr><tr><td>SULX</td><td>ACC</td><td>LC Subjects -vxyz</td><td></td><td></td></tr><tr><td>SUMX</td><td>ACC</td><td>Medical Subjects -vxyz</td><td></td><td></td></tr><tr><td>TIJR</td><td>ACC</td><td>Journal Titles</td><td></td><td></td></tr><tr><td>TISE</td><td>ACC</td><td>Serial Titles</td><td></td><td></td></tr><tr><td>MPN</td><td>ACC</td><td>Music Publisher No.</td><td></td><td></td></tr><tr><td>HPN</td><td>ACC</td><td>Hierch. Place Name</td><td></td><td></td></tr><tr><td>TII</td><td>ACC</td><td>Titles, III alternate</td><td></td><td></td></tr><tr><td>AUI</td><td>ACC</td><td>Authors, III alternate</td><td></td><td></td></tr><tr><td>LCI</td><td>ACC</td><td>LC Call numbers</td><td></td><td></td></tr><tr><td>LDC</td><td>ACC</td><td>DDC Call Number</td><td></td><td></td></tr><tr><td>MSH</td><td>ACC</td><td>NLM Call Number</td><td></td><td></td></tr><tr><td>GVD</td><td>ACC</td><td>Gov. Doc. Number</td><td></td><td></td></tr><tr><td>GPO</td><td>ACC</td><td>GPO Item Number</td><td></td><td></td></tr><tr><td>CNL</td><td>ACC</td><td>Accession Call Nos.</td><td></td><td></td></tr><tr><td>PER</td><td>ACC</td><td>Textual Call Numbers</td><td></td><td></td></tr><tr><td>CNS</td><td>ACC</td><td>Call Nos. Spec.Coll.</td><td></td><td></td></tr><tr><td>CNA</td><td>ACC</td><td>Call Nos. All</td><td></td><td></td></tr><tr><td>NWD</td><td>ACC</td><td>New to Duke</td><td></td><td></td></tr><tr><td>NWI</td><td>ACC</td><td>New to Independent Library</td><td></td><td></td></tr><tr><td>NWS</td><td>ACC</td><td>New to Sublib</td><td></td><td></td></tr></tbody></table><h3><a name=\"SearchingandIndexing-WordIndexes\"></a></h3><h3>&nbsp;</h3><h3>Word Indexes</h3><table><tbody><tr><th>code</th><th>type</th><th>name</th><th>fields</th><th>subfields</th></tr><tr><td>WRD</td><td>W-001</td><td>Keywords</td><td></td><td></td></tr><tr><td>WTI</td><td>W-002</td><td>Title Keywords</td><td></td><td></td></tr><tr><td>WRT</td><td>W-003</td><td>W-Related Titles</td><td></td><td></td></tr><tr><td>WAU</td><td>W-004</td><td>Authors Keywords</td><td></td><td></td></tr><tr><td>WSU</td><td>W-005</td><td>Subjects Keywords</td><td></td><td></td></tr><tr><td>WUT</td><td>W-006</td><td>W-Unif .Titles</td><td></td><td></td></tr><tr><td>WSM</td><td>W-007</td><td>W-MeSH Subj.</td><td></td><td></td></tr><tr><td>WNO</td><td>W-008</td><td>W-Notes</td><td></td><td></td></tr><tr><td>WNC</td><td>W-009</td><td>W-Contents Notes</td><td></td><td></td></tr><tr><td>WPU</td><td>W-011</td><td>W-publishers</td><td></td><td></td></tr><tr><td>WYR</td><td>W-012</td><td>W-year</td><td></td><td></td></tr><tr><td>WFM</td><td>W-013</td><td>W-format</td><td></td><td></td></tr><tr><td>WST</td><td>W-014</td><td>W-status</td><td></td><td></td></tr><tr><td>WSL</td><td>W-016</td><td>W-Sublibrary</td><td></td><td></td></tr><tr><td>WCL</td><td>W-017</td><td>W-Collections</td><td></td><td></td></tr><tr><td>WLN</td><td>W-018</td><td>W-language code</td><td></td><td></td></tr><tr><td>WPL</td><td>W-019</td><td>W-place of publ.</td><td></td><td></td></tr><tr><td>WGA</td><td>W-020</td><td>W-geo area</td><td></td><td></td></tr><tr><td>WUR</td><td>W-021</td><td>W-URL</td><td></td><td></td></tr><tr><td>WS1</td><td>W-023</td><td>W-Series1</td><td></td><td></td></tr><tr><td>WS2</td><td>W-024</td><td>W-Series2</td><td></td><td></td></tr><tr><td>WQS</td><td>W-025</td><td>Journals/Serials KWD</td><td></td><td></td></tr><tr><td>WQR</td><td>W-026</td><td>W-Recordings</td><td></td><td></td></tr><tr><td>WCF</td><td>W-031</td><td>Conferences Keywords</td><td></td><td></td></tr><tr><td>WTP</td><td>W-032</td><td>W-Type</td><td></td><td></td></tr><tr><td>WJR</td><td>W-033</td><td>W-Journal Title</td><td></td><td></td></tr><tr><td>WEJ</td><td>W-034</td><td>W-E-Journals</td><td></td><td></td></tr><tr><td>WDB</td><td>W-035</td><td>W-Research Databases</td><td></td><td></td></tr><tr><td>WTH</td><td>W-036</td><td>W-Duke Theses</td><td></td><td></td></tr><tr><td>WQJ</td><td>W-037</td><td>W-Journal Title</td><td></td><td></td></tr><tr><td>WIT</td><td>W-038</td><td>W-Item Material Type</td><td></td><td></td></tr><tr><td>WTA</td><td>W-039</td><td>W-Titles, III alternate</td><td></td><td></td></tr><tr><td>WAI</td><td>W-040</td><td>W-Authors, III alternate</td><td></td><td></td></tr><tr><td>TXT</td><td>W-041</td><td>Full Text</td><td></td><td></td></tr><tr><td>BASE</td><td>W-042</td><td>Base</td><td></td><td></td></tr></tbody></table><h3><a name=\"SearchingandIndexing-CJKIndexes\"></a>CJK Indexes</h3><p dir=\"ltr\"></p><table><tbody><tr><th>code</th><th>type</th><th>name</th><th>fields</th><th>subfields</th></tr><tr><td>TITC</td><td>ACC</td><td>Titles Chinese</td><td></td><td></td></tr><tr><td>TITJ</td><td>ACC</td><td>Titles Japanese</td><td></td><td></td></tr><tr><td>TITK</td><td>ACC</td><td>Titles Korean</td><td></td><td></td></tr><tr><td>AUTC</td><td>ACC</td><td>Authors Chinese</td><td></td><td></td></tr><tr><td>AUTJ</td><td>ACC</td><td>Authors Japanese</td><td></td><td></td></tr><tr><td>AUTK</td><td>ACC</td><td>Authors Korean</td><td></td><td></td></tr><tr><td>TRTC</td><td>ACC</td><td>Titles/Related Title CHI</td><td></td><td></td></tr><tr><td>TRTJ</td><td>ACC</td><td>Titles/Related Title JPN</td><td></td><td></td></tr><tr><td>TRTK</td><td>ACC</td><td>Titles/Related Title KOR</td><td></td><td></td></tr><tr><td>SRS1C</td><td>ACC</td><td>Traced Series CHI</td><td></td><td></td></tr><tr><td>SRS1J</td><td>ACC</td><td>Traced Series JPN</td><td></td><td></td></tr><tr><td>SRS1K</td><td>ACC</td><td>Traced Series KOR</td><td></td><td></td></tr><tr><td>SRS2C</td><td>ACC</td><td>Non traced Series CHI</td><td></td><td></td></tr><tr><td>SRS2J</td><td>ACC</td><td>Non traces Series JPN</td><td></td><td></td></tr><tr><td>SRS2K</td><td>ACC</td><td>Non traces Series KOR</td><td></td></tr></tbody></table><h2 dir=\"ltr\"><a name=\"CCLDUK60\"></a></h2><h2 dir=\"ltr\">&nbsp;</h2><h2 dir=\"ltr\">3.&nbsp; CCL Codes for DUK60</h2><p dir=\"ltr\">&nbsp;This is the complete list of index codes for CCL searching in the DUK60 Holdings Library.</p><p>To search these indexes the DUK60 base must be selected within the GUI. These will retrieve the holding records directly rather than the associated bibliographic records.</p><p>If the bibliographic records were what were needed, execute the search with the ret-03 service on the DUK60 and then use the records key conversion (manage-70) service to retrieve the associated bibliographic records.</p><h3>Direct indexes</h3><p dir=\"ltr\"></p><table><tbody><tr><th>code</th><th>type</th><th>name</th><th>field</th><th>subfield</th></tr><tr><td>SYS</td><td>IND</td><td>System Number</td><td>SYS</td><td></td></tr><tr><td>LKR</td><td>IND</td><td>Bib System Number</td><td>LKR</td><td>b</td></tr><tr><td>DRA</td><td>IND</td><td>DRA MFHD</td><td>DRA</td><td>a</td></tr><tr><td>CON</td><td>IND</td><td>DRA DBCN</td><td>CON</td><td>a</td></tr><tr><td>XPR</td><td>IND</td><td>Export Record</td><td>XPR</td><td></td></tr></tbody></table><h3><a name=\"SearchingandIndexing-Browseindexes\"></a></h3><p></p><h3>Browse indexes</h3><p dir=\"ltr\"></p><table><tbody><tr><th>code</th><th>type</th><th>name</th><th>field</th><th>subfield</th></tr><tr><td>HSL</td><td>ACC</td><td>SL LC</td><td>852 0#</td><td>bchi</td></tr><tr><td>HSD</td><td>ACC</td><td>SL Dewey</td><td>852 1#</td><td>bchi</td></tr><tr><td>HSM</td><td>ACC</td><td>SL NLM</td><td>852 2#</td><td>bchi</td></tr><tr><td>HSG</td><td>ACC</td><td>SL SuDocs</td><td>852 3#</td><td>bchi</td></tr><tr><td>HSN</td><td>ACC</td><td>SL Accession No.</td><td>852 4#</td><td>bchi</td></tr><tr><td>HSP</td><td>ACC</td><td>SL Cuttered Pers.</td><td>852 5#</td><td>bchi</td></tr><tr><td>HSS</td><td>ACC</td><td>SL RBMSCL</td><td>852 8#</td><td>bchi</td></tr><tr><td>HSA</td><td>ACC</td><td>SL All</td><td>852 ##</td><td>bchi</td></tr><tr><td>HLC</td><td>ACC</td><td>LC Call Numbers</td><td>852 0#</td><td>hi</td></tr><tr><td>HDC</td><td>ACC</td><td>Dewey Call Numbers</td><td>852 1#</td><td>hi</td></tr><tr><td>HNL</td><td>ACC</td><td>NLM Call Numbers</td><td>852 2#</td><td>hi</td></tr><tr><td>HGV</td><td>ACC</td><td>SuDocs Numbers</td><td>852 3#</td><td>hi</td></tr><tr><td>HAC</td><td>ACC</td><td>Accession Numbers</td><td>852 4#</td><td>hi</td></tr><tr><td>HPR</td><td>ACC</td><td>Cuttered Per. Nos.</td><td>852 5#</td><td>hi</td></tr><tr><td>HSC</td><td>ACC</td><td>RBMSCL Call Numbers</td><td>852 8#</td><td>hi</td></tr><tr><td>HCA</td><td>ACC</td><td>Call Numbers All</td><td>852 ##</td><td>hi</td></tr><tr><td>FDN</td><td>ACC</td><td>Former Dewey Number</td><td>DEW ##</td><td>hi</td></tr></tbody></table><h3><a name=\"SearchingandIndexing-Keywordindexes\"></a></h3><h3>&nbsp;</h3><h3>Keyword indexes</h3><table><tbody><tr><th>code</th><th>type</th><th>name</th><th>field</th><th>subfield</th></tr><tr><td>WHT</td><td>W-001</td><td>W-Hol. Record Type</td><td>LDR/06</td><td></td></tr><tr><td>WHA</td><td>W-002</td><td>W-Acq. Status</td><td>008/06</td><td></td></tr><tr><td>WHM</td><td>W-003</td><td>W-Acq. Method</td><td>008/07</td><td></td></tr><tr><td>WHG</td><td>W-004</td><td>W-Gen. Retention</td><td>008/12</td><td></td></tr><tr><td>WHR</td><td>W-005</td><td>W-Specific Retention</td><td>008/13-15</td><td></td></tr><tr><td>WHL</td><td>W-006</td><td>W-No. of Copies</td><td>008/17-19</td><td></td></tr><tr><td>WHS</td><td>W-007</td><td>W-Sublibrary</td><td>852 ##</td><td>b</td></tr><tr><td>WHC</td><td>W-008</td><td>W-Collection</td><td>852 ##</td><td>c</td></tr><tr><td>WHN</td><td>W-009</td><td>W-Holding Notes</td><td>852 ##</td><td>xze</td></tr><tr><td></td><td></td><td></td><td>863 ##</td><td>xz</td></tr><tr><td></td><td></td><td></td><td>856 ##</td><td>uxyz3</td></tr><tr><td></td><td></td><td></td><td>866 ##</td><td>axz</td></tr><tr><td>WST</td><td>W-010</td><td>W-Status</td><td>STA</td><td>a</td></tr></tbody></table><h2 dir=\"ltr\"><a name=\"moreOCLC\"></a></h2><h2 dir=\"ltr\">&nbsp;</h2><h2 dir=\"ltr\">4. More detail about OCLC searching</h2><p dir=\"ltr\">For OCLC's searching documentation see the client help in Connexion, under Cataloging/Search World Cat</p><p dir=\"ltr\">A local summary follows:</p><p dir=\"ltr\">created by Cheryl Thomas, last revised 10/26/2010</p><p><strong>Derived Searching in OCLC Connexion </strong></p><p>&nbsp;<strong>Title </strong><strong>3,2,2,1</strong></p><p>Gone with the Wind gon,wi,th,w</p><p>42<sup><span style=\"font-size: small;\" size=\"2\">nd</span></sup> Street 42n,st,,</p><p>I am the walrus i,am,th,w</p><p>&nbsp;</p><p><strong>Name/Title 4,4</strong></p><p>Mitchell/Gone with the wind mitc,gone</p><p>Hershey Foods Corp/The winning spirit hers,winn</p><p>&nbsp;</p><p><strong>Personal name 4,3,1</strong></p><p>Mitchell, Margaret mitc,mar,</p><p>Tolkien, J. R. R. tolk,j,r</p><p>&nbsp;</p><p><strong>Corporate name =4,3,1</strong></p><p>Hershey Foods Corporation =hers,foo,c</p><p>National Audubon Society =audu,soc,</p><p>&nbsp;</p><p>&nbsp;</p><p><strong>Numbered Searches</strong></p><p>ISBN 0-85109-130-x 085109130x (Complete number without hyphens)</p><p>ISSN 1234-5678 in:1234-5678 (Complete number with hyphen)</p><p>&nbsp;</p><p>LCCN map32-14 ln:32-14</p><p>2002-580246 ln:2002-580246 or 2002580246</p><p>&nbsp;</p><p>OCLC number *2</p><p>&nbsp;</p><p>Government document number</p><p>A 1.2:R 31/14/984 gn:a12r3114984</p><p>NAS 1.2:SP1/46 gn:nas12sp146</p><p>&nbsp;</p><p>Music publisher number mn: followed by the publisher number</p><p>CO 1979-AB5-1 mn:co1979ab51</p><p dir=\"ltr\"></p><table border=\"0\" cellspacing=\"0\" cellpadding=\"0\"><tbody><tr><td><p>&nbsp;</p><p><strong>To find this data ... </strong></p></td><td><p>&nbsp;</p><p><strong>Enter this search ... </strong></p></td></tr><tr><td><p>Mozart, Wolfgang Amadeus</p></td><td><p>moza,wol,a</p></td></tr><tr><td><p>De Groot, Adriaan</p></td><td><p>degr,adr,</p></td></tr><tr><td><p>Kübler-Ross, Elisabeth</p></td><td><p>kubl,eli,</p></td></tr><tr><td><p>American Rock Garden Society</p></td><td><p>=rock,gar,s</p></td></tr><tr><td><p>World Energy Conference</p></td><td><p>=worl,ene,c</p></td></tr><tr><td><p>Bergson, The creative mind</p></td><td><p>berg,crea</p></td></tr><tr><td><p>Clarke, 2001 : a space odyssey</p></td><td><p>clar,2001</p></td></tr><tr><td><p>Realism in our time</p></td><td><p>rea,in,ou,t</p></td></tr></tbody></table><p>&nbsp;</p><p dir=\"ltr\"></p><table border=\"0\" cellspacing=\"0\" cellpadding=\"0\"><tbody><tr><td><p>Hotel</p></td><td><p>hot,,,</p></td></tr><tr><td><p>Miracle on 34th street</p></td><td><p>mir,on,34,s</p></td></tr></tbody></table><p>&nbsp;</p><p>&nbsp;</p><p><strong>Qualifiers:</strong></p><p>For more precise search results you can qualify most of these searches by date, form, source, and language. Some examples:</p><p>bach,bran/1832 (an 1832 imprint of Bach's Brandenburg Concerti)</p><p>bach,bran/sco (a score of Bach's Brandenburg Concerti, not a recording)</p><p>gre,ex,,/bks (records for monograph editions of Great Expectations, not films, videos, recordings, or microfilm, etc.)</p><p>&nbsp;</p><p><strong>Format qualifiers:</strong></p><p>/bks, /map, /vis, /com, /sco, /rec, /ser, /mf, /nm</p><p>&nbsp;</p><p><strong>Date qualifiers: </strong></p><p>Single year /1980</p><p>Decade /198?</p><p>Century /19??</p><p>Single year and following: 1980-</p><p>&nbsp;</p><p><strong>Source:</strong></p><p>/dlc</p><p>&nbsp;</p><p dir=\"ltr\"></p><table border=\"0\" cellspacing=\"0\" cellpadding=\"0\"><tbody><tr><td colspan=\"3\"><p><strong>Corporate and Conference Name Stopwords</strong></p></td></tr><tr><td colspan=\"3\"><p>Names of all states in the U.S. and the following:</p></td></tr><tr><td><p>a</p></td><td><p>East</p></td><td><p>Seminar</p></td></tr><tr><td><p>A.</p></td><td><p>for</p></td><td><p>Senate</p></td></tr><tr><td><p>American</p></td><td><p>France</p></td><td><p>Society</p></td></tr><tr><td><p>an</p></td><td><p>Great Britain</p></td><td><p>South</p></td></tr><tr><td><p>Association</p></td><td><p>Gt. Brit.</p></td><td><p>State</p></td></tr><tr><td><p>Australia</p></td><td><p>Gt.Brit.</p></td><td><p>Subcommittee</p></td></tr><tr><td><p>Bureau</p></td><td><p>House</p></td><td><p>Symposium</p></td></tr><tr><td><p>Canada</p></td><td><p>India</p></td><td><p>the</p></td></tr><tr><td><p>Colloquium</p></td><td><p>Institute</p></td><td><p>U.N.</p></td></tr><tr><td><p>Commission</p></td><td><p>Institution</p></td><td><p>U. N.</p></td></tr><tr><td><p>Committee</p></td><td><p>International</p></td><td><p>United Nations</p></td></tr><tr><td><p>Conference</p></td><td><p>Joint</p></td><td><p>United States</p></td></tr><tr><td><p>Congress</p></td><td><p>National</p></td><td><p>University</p></td></tr><tr><td><p>Council</p></td><td><p>North</p></td><td><p>U. S.</p></td></tr><tr><td><p>Department</p></td><td><p>of</p></td><td><p>U.S.</p></td></tr><tr><td><p>Dept.</p></td><td><p>on</p></td><td><p>West</p><p></p></td></tr></tbody></table>",
      "revision_id" : 2424,
      "langcode" : "und",
      "body_summary" : "",
      "entity_id" : 345
   },
   "vid" : 2424,
   "type" : "about_page",
   "field_image" : null,
   "revisions" : [
      {
         "promote" : 0,
         "uid" : 56,
         "timestamp" : 1378754864,
         "vuuid" : "b159a54f-df12-4856-b0d8-82b42b568b70",
         "title" : "Searching OCLC and Aleph",
         "node_revision__field_tags" : [],
         "node_revision__body" : {
            "delta" : 0,
            "body_format" : "full_html",
            "bundle" : "about_page",
            "deleted" : 0,
            "revision_id" : 2424,
            "body_value" : "<h2>1.&nbsp; General (including link to OCLC authorization information)</h2><h2>2. <span style=\"text-decoration: underline;\"><span style=\"color: rgb(0, 102, 204);\" color=\"#0066cc\"><a href=\"#CCLDUK01\">Aleph CCL codes for DUK01</a>&nbsp;</span></span><br><br>3.<a href=\"#CCLDUK60\"> <span style=\"text-decoration: underline;\"><span style=\"color: rgb(0, 102, 204);\" color=\"#0066cc\">Aleph CCL codes for DUK60</span></span></a></h2><h2>4.<a href=\"#moreOCLC\">&nbsp;<span style=\"text-decoration: underline;\"><span style=\"color: rgb(0, 102, 204);\" color=\"#0066cc\">More detail about&nbsp;OCLC searching</span></span></a></h2><p>##########################</p><h2>1. General (including link to OCLC login and export information)</h2><p dir=\"ltr\">This is not a comprehensive document on searching, which is better demonstrated and learned through practice than written about extensively. It is just a few hints on effective searching.</p><p dir=\"ltr\">Information on&nbsp;OCLC login and export&nbsp;is found on Sharepoint: <a href=\"https://sharepoint.oit.duke.edu/sites/perkins/catS/_layouts/WordViewer.aspx?id=/sites/perkins/catS/Shared Documents/Login and export information for OCLC.docx&amp;Source=https%3A%2F%2Fsharepoint%2Eoit%2Eduke%2Eedu%2Fsites%2Fperkins%2FcatS%2FShared%2520Documents%2FForms%2FAllItems%2Easpx%3FInitialTabId%3DRibbon%252EDocument%26VisibilityContext%3DWSSTabPersistence&amp;DefaultItemOpen=1&amp;DefaultItemOpen=1\"><span style=\"text-decoration: underline;\"><span style=\"color: rgb(0, 102, 204);\" color=\"#0066cc\">click here</span></span></a></p><p dir=\"ltr\">For items already barcoded in Aleph, searching by scanning the Duke barcode is the quickest way to retrieve the record. HOWEVER, be aware of the possibility of duplicate records, especially for items that are part of a set or series</p><p dir=\"ltr\">Especially for current imprints the ISBN number is usually the quickest and most accurate initial search. This is especially true now that ISBNs are often printed in barcode form on book covers. These can be scanned into either Aleph or OCLC for very quick searching.</p><p dir=\"ltr\">HOWEVER, be aware that records in OCLC and Aleph may lack ISBNs, so if the ISBN search turns up either no results or only unacceptable copy, try another search. Also, be aware that though ISBNs are theoretically unique identifiers, publishers may use them for more than one edition, and sometimes even for more than one title. Always check that the item in hand matches the record found.</p><p dir=\"ltr\">In both Aleph and OCLC, there are two types of search, one (\"find\" or \"search\") for keywords and unique identifiers and one (\"browse\") for browsing index screens.</p><p dir=\"ltr\">In Aleph, an ISBN may be entered as either a \"find\" or a \"browse\" search. Using \"find\" will take you to the desired record with fewer clicks.</p><p dir=\"ltr\">In OCLC, ISBN is not a \"browse\" option.</p><p dir=\"ltr\">Unless the title is very generic, a title browse is usually the most effective second search.</p><p dir=\"ltr\"><a name=\"CCLDUK01\"></a></p><p dir=\"ltr\"></p><h2 dir=\"ltr\">2. Aleph CCL codes for DUK01&nbsp;</h2><p dir=\"ltr\">Index codes from the DUK01 for use in CCL searches, and service retrieval. Not all of these indexes work. Some of them are dependent on the data that is available within them.</p><h3><a name=\"SearchingandIndexing-DirectIndexes\"></a>Direct Indexes</h3><p dir=\"ltr\"></p><table><tbody><tr><th>code</th><th>type</th><th>name</th><th>fields</th><th>subfields</th></tr><tr><td>MTC</td><td>IND</td><td>Match</td><td>035</td><td></td></tr><tr><td></td><td></td><td></td><td>DRA</td><td></td></tr><tr><td>SYS</td><td>IND</td><td>System Number</td><td>SYSID</td><td></td></tr><tr><td>BAR</td><td>IND</td><td>Barcode</td><td>z30-barcode</td><td></td></tr><tr><td>010</td><td>IND</td><td>LCCN</td><td>010</td><td>az</td></tr><tr><td>ISBN</td><td>IND</td><td>ISBN</td><td>020</td><td>az</td></tr><tr><td>ISSN</td><td>IND</td><td>ISSN</td><td>022</td><td>ayz</td></tr><tr><td>SICI</td><td>IND</td><td>SICI Code</td><td>024</td><td>de</td></tr><tr><td>ISMN</td><td>IND</td><td>ISMN (Music)</td><td>024</td><td>bc</td></tr><tr><td>028</td><td>IND</td><td>Music Publ. Number</td><td>262</td><td>ce</td></tr><tr><td>035</td><td>IND</td><td>Utility Number</td><td>035</td><td>az</td></tr><tr><td></td><td></td><td></td><td>019</td><td>a</td></tr><tr><td>STIDN</td><td>IND</td><td>Standard Identifiers</td><td>010</td><td>az</td></tr><tr><td></td><td></td><td></td><td>019</td><td>a</td></tr><tr><td></td><td></td><td></td><td>020</td><td>az</td></tr><tr><td></td><td></td><td></td><td>022</td><td>ayz</td></tr><tr><td></td><td></td><td></td><td>024</td><td>az</td></tr><tr><td></td><td></td><td></td><td>035</td><td>az</td></tr><tr><td></td><td></td><td></td><td>027</td><td>az</td></tr><tr><td></td><td></td><td></td><td>262</td><td>ce</td></tr><tr><td>BVL</td><td>IND</td><td>BVL (for print_09)</td><td>999</td><td></td></tr><tr><td>III</td><td>IND</td><td>III Bib. No.</td><td>III</td><td>a</td></tr><tr><td>IIO</td><td>IND</td><td>III Order No.</td><td>IIO</td><td>a</td></tr><tr><td>IIC</td><td>IND</td><td>III Checkin No.</td><td>IIC</td><td>a</td></tr><tr><td>DRA</td><td>IND</td><td>DRA DBCN</td><td>DRA</td><td>a</td></tr><tr><td>SCLID</td><td>IND</td><td>RBMSCL Accession ID</td><td>R01</td><td>a</td></tr><tr><td>901</td><td>IND</td><td>Acq Vendor Matching No.</td><td>901</td><td></td></tr><tr><td>909</td><td>IND</td><td>Marcive Temp No.</td><td>019</td><td>a</td></tr><tr><td></td><td></td><td></td><td>909</td><td>a</td></tr></tbody></table><h3><a name=\"SearchingandIndexing-BrowseIndexes\"></a></h3><h3>&nbsp;</h3><h3>Browse Indexes</h3><p dir=\"ltr\"></p><table><tbody><tr><th>code</th><th>type</th><th>name</th><th>fields</th><th>subfields</th></tr><tr><td>TIT</td><td>ACC</td><td>Titles</td><td></td><td></td></tr><tr><td>TRT</td><td>ACC</td><td>Titles/Related Title</td><td></td><td></td></tr><tr><td>AUT</td><td>ACC</td><td>Authors</td><td></td><td></td></tr><tr><td>AWT</td><td>ACC</td><td>Authors+Titles</td><td></td><td></td></tr><tr><td>SRS1</td><td>ACC</td><td>Traced Series</td><td></td><td></td></tr><tr><td>SRS2</td><td>ACC</td><td>Non traced Series</td><td></td><td></td></tr><tr><td>SUB</td><td>ACC</td><td>General Subjects</td><td></td><td></td></tr><tr><td>SUL</td><td>ACC</td><td>LC Subjects</td><td></td><td></td></tr><tr><td>SUM</td><td>ACC</td><td>MeSH Subjects</td><td></td><td></td></tr><tr><td>SGN</td><td>ACC</td><td>Genre Subjects</td><td></td><td></td></tr><tr><td>SUS</td><td>ACC</td><td>Local Subjects</td><td></td><td></td></tr><tr><td>PLA</td><td>ACC</td><td>Place</td><td></td><td></td></tr><tr><td>PUB</td><td>ACC</td><td>Publisher</td><td></td><td></td></tr><tr><td>SUD</td><td>ACC</td><td>Gov't Doc. No.</td><td></td><td></td></tr><tr><td>SHL</td><td>ACC</td><td>Shelf List All</td><td></td><td></td></tr><tr><td>SLC</td><td>ACC</td><td>Shelf List LC</td><td></td><td></td></tr><tr><td>SLD</td><td>ACC</td><td>Shelf List Dewey</td><td></td><td></td></tr><tr><td>SLM</td><td>ACC</td><td>Shelf List NLM</td><td></td><td></td></tr><tr><td>SLP</td><td>ACC</td><td>Shelf List Per.</td><td></td><td></td></tr><tr><td>SLG</td><td>ACC</td><td>Shelf List SuDocs</td><td></td><td></td></tr><tr><td>SLA</td><td>ACC</td><td>SL Accession No.</td><td></td><td></td></tr><tr><td>SLS</td><td>ACC</td><td>Shelf List RBMSCL</td><td></td><td></td></tr><tr><td>URL</td><td>ACC</td><td>URL</td><td></td><td></td></tr><tr><td>XYZ</td><td>ACC</td><td>Subjects -vxyz</td><td></td><td></td></tr><tr><td>SULX</td><td>ACC</td><td>LC Subjects -vxyz</td><td></td><td></td></tr><tr><td>SUMX</td><td>ACC</td><td>Medical Subjects -vxyz</td><td></td><td></td></tr><tr><td>TIJR</td><td>ACC</td><td>Journal Titles</td><td></td><td></td></tr><tr><td>TISE</td><td>ACC</td><td>Serial Titles</td><td></td><td></td></tr><tr><td>MPN</td><td>ACC</td><td>Music Publisher No.</td><td></td><td></td></tr><tr><td>HPN</td><td>ACC</td><td>Hierch. Place Name</td><td></td><td></td></tr><tr><td>TII</td><td>ACC</td><td>Titles, III alternate</td><td></td><td></td></tr><tr><td>AUI</td><td>ACC</td><td>Authors, III alternate</td><td></td><td></td></tr><tr><td>LCI</td><td>ACC</td><td>LC Call numbers</td><td></td><td></td></tr><tr><td>LDC</td><td>ACC</td><td>DDC Call Number</td><td></td><td></td></tr><tr><td>MSH</td><td>ACC</td><td>NLM Call Number</td><td></td><td></td></tr><tr><td>GVD</td><td>ACC</td><td>Gov. Doc. Number</td><td></td><td></td></tr><tr><td>GPO</td><td>ACC</td><td>GPO Item Number</td><td></td><td></td></tr><tr><td>CNL</td><td>ACC</td><td>Accession Call Nos.</td><td></td><td></td></tr><tr><td>PER</td><td>ACC</td><td>Textual Call Numbers</td><td></td><td></td></tr><tr><td>CNS</td><td>ACC</td><td>Call Nos. Spec.Coll.</td><td></td><td></td></tr><tr><td>CNA</td><td>ACC</td><td>Call Nos. All</td><td></td><td></td></tr><tr><td>NWD</td><td>ACC</td><td>New to Duke</td><td></td><td></td></tr><tr><td>NWI</td><td>ACC</td><td>New to Independent Library</td><td></td><td></td></tr><tr><td>NWS</td><td>ACC</td><td>New to Sublib</td><td></td><td></td></tr></tbody></table><h3><a name=\"SearchingandIndexing-WordIndexes\"></a></h3><h3>&nbsp;</h3><h3>Word Indexes</h3><table><tbody><tr><th>code</th><th>type</th><th>name</th><th>fields</th><th>subfields</th></tr><tr><td>WRD</td><td>W-001</td><td>Keywords</td><td></td><td></td></tr><tr><td>WTI</td><td>W-002</td><td>Title Keywords</td><td></td><td></td></tr><tr><td>WRT</td><td>W-003</td><td>W-Related Titles</td><td></td><td></td></tr><tr><td>WAU</td><td>W-004</td><td>Authors Keywords</td><td></td><td></td></tr><tr><td>WSU</td><td>W-005</td><td>Subjects Keywords</td><td></td><td></td></tr><tr><td>WUT</td><td>W-006</td><td>W-Unif .Titles</td><td></td><td></td></tr><tr><td>WSM</td><td>W-007</td><td>W-MeSH Subj.</td><td></td><td></td></tr><tr><td>WNO</td><td>W-008</td><td>W-Notes</td><td></td><td></td></tr><tr><td>WNC</td><td>W-009</td><td>W-Contents Notes</td><td></td><td></td></tr><tr><td>WPU</td><td>W-011</td><td>W-publishers</td><td></td><td></td></tr><tr><td>WYR</td><td>W-012</td><td>W-year</td><td></td><td></td></tr><tr><td>WFM</td><td>W-013</td><td>W-format</td><td></td><td></td></tr><tr><td>WST</td><td>W-014</td><td>W-status</td><td></td><td></td></tr><tr><td>WSL</td><td>W-016</td><td>W-Sublibrary</td><td></td><td></td></tr><tr><td>WCL</td><td>W-017</td><td>W-Collections</td><td></td><td></td></tr><tr><td>WLN</td><td>W-018</td><td>W-language code</td><td></td><td></td></tr><tr><td>WPL</td><td>W-019</td><td>W-place of publ.</td><td></td><td></td></tr><tr><td>WGA</td><td>W-020</td><td>W-geo area</td><td></td><td></td></tr><tr><td>WUR</td><td>W-021</td><td>W-URL</td><td></td><td></td></tr><tr><td>WS1</td><td>W-023</td><td>W-Series1</td><td></td><td></td></tr><tr><td>WS2</td><td>W-024</td><td>W-Series2</td><td></td><td></td></tr><tr><td>WQS</td><td>W-025</td><td>Journals/Serials KWD</td><td></td><td></td></tr><tr><td>WQR</td><td>W-026</td><td>W-Recordings</td><td></td><td></td></tr><tr><td>WCF</td><td>W-031</td><td>Conferences Keywords</td><td></td><td></td></tr><tr><td>WTP</td><td>W-032</td><td>W-Type</td><td></td><td></td></tr><tr><td>WJR</td><td>W-033</td><td>W-Journal Title</td><td></td><td></td></tr><tr><td>WEJ</td><td>W-034</td><td>W-E-Journals</td><td></td><td></td></tr><tr><td>WDB</td><td>W-035</td><td>W-Research Databases</td><td></td><td></td></tr><tr><td>WTH</td><td>W-036</td><td>W-Duke Theses</td><td></td><td></td></tr><tr><td>WQJ</td><td>W-037</td><td>W-Journal Title</td><td></td><td></td></tr><tr><td>WIT</td><td>W-038</td><td>W-Item Material Type</td><td></td><td></td></tr><tr><td>WTA</td><td>W-039</td><td>W-Titles, III alternate</td><td></td><td></td></tr><tr><td>WAI</td><td>W-040</td><td>W-Authors, III alternate</td><td></td><td></td></tr><tr><td>TXT</td><td>W-041</td><td>Full Text</td><td></td><td></td></tr><tr><td>BASE</td><td>W-042</td><td>Base</td><td></td><td></td></tr></tbody></table><h3><a name=\"SearchingandIndexing-CJKIndexes\"></a>CJK Indexes</h3><p dir=\"ltr\"></p><table><tbody><tr><th>code</th><th>type</th><th>name</th><th>fields</th><th>subfields</th></tr><tr><td>TITC</td><td>ACC</td><td>Titles Chinese</td><td></td><td></td></tr><tr><td>TITJ</td><td>ACC</td><td>Titles Japanese</td><td></td><td></td></tr><tr><td>TITK</td><td>ACC</td><td>Titles Korean</td><td></td><td></td></tr><tr><td>AUTC</td><td>ACC</td><td>Authors Chinese</td><td></td><td></td></tr><tr><td>AUTJ</td><td>ACC</td><td>Authors Japanese</td><td></td><td></td></tr><tr><td>AUTK</td><td>ACC</td><td>Authors Korean</td><td></td><td></td></tr><tr><td>TRTC</td><td>ACC</td><td>Titles/Related Title CHI</td><td></td><td></td></tr><tr><td>TRTJ</td><td>ACC</td><td>Titles/Related Title JPN</td><td></td><td></td></tr><tr><td>TRTK</td><td>ACC</td><td>Titles/Related Title KOR</td><td></td><td></td></tr><tr><td>SRS1C</td><td>ACC</td><td>Traced Series CHI</td><td></td><td></td></tr><tr><td>SRS1J</td><td>ACC</td><td>Traced Series JPN</td><td></td><td></td></tr><tr><td>SRS1K</td><td>ACC</td><td>Traced Series KOR</td><td></td><td></td></tr><tr><td>SRS2C</td><td>ACC</td><td>Non traced Series CHI</td><td></td><td></td></tr><tr><td>SRS2J</td><td>ACC</td><td>Non traces Series JPN</td><td></td><td></td></tr><tr><td>SRS2K</td><td>ACC</td><td>Non traces Series KOR</td><td></td></tr></tbody></table><h2 dir=\"ltr\"><a name=\"CCLDUK60\"></a></h2><h2 dir=\"ltr\">&nbsp;</h2><h2 dir=\"ltr\">3.&nbsp; CCL Codes for DUK60</h2><p dir=\"ltr\">&nbsp;This is the complete list of index codes for CCL searching in the DUK60 Holdings Library.</p><p>To search these indexes the DUK60 base must be selected within the GUI. These will retrieve the holding records directly rather than the associated bibliographic records.</p><p>If the bibliographic records were what were needed, execute the search with the ret-03 service on the DUK60 and then use the records key conversion (manage-70) service to retrieve the associated bibliographic records.</p><h3>Direct indexes</h3><p dir=\"ltr\"></p><table><tbody><tr><th>code</th><th>type</th><th>name</th><th>field</th><th>subfield</th></tr><tr><td>SYS</td><td>IND</td><td>System Number</td><td>SYS</td><td></td></tr><tr><td>LKR</td><td>IND</td><td>Bib System Number</td><td>LKR</td><td>b</td></tr><tr><td>DRA</td><td>IND</td><td>DRA MFHD</td><td>DRA</td><td>a</td></tr><tr><td>CON</td><td>IND</td><td>DRA DBCN</td><td>CON</td><td>a</td></tr><tr><td>XPR</td><td>IND</td><td>Export Record</td><td>XPR</td><td></td></tr></tbody></table><h3><a name=\"SearchingandIndexing-Browseindexes\"></a></h3><p></p><h3>Browse indexes</h3><p dir=\"ltr\"></p><table><tbody><tr><th>code</th><th>type</th><th>name</th><th>field</th><th>subfield</th></tr><tr><td>HSL</td><td>ACC</td><td>SL LC</td><td>852 0#</td><td>bchi</td></tr><tr><td>HSD</td><td>ACC</td><td>SL Dewey</td><td>852 1#</td><td>bchi</td></tr><tr><td>HSM</td><td>ACC</td><td>SL NLM</td><td>852 2#</td><td>bchi</td></tr><tr><td>HSG</td><td>ACC</td><td>SL SuDocs</td><td>852 3#</td><td>bchi</td></tr><tr><td>HSN</td><td>ACC</td><td>SL Accession No.</td><td>852 4#</td><td>bchi</td></tr><tr><td>HSP</td><td>ACC</td><td>SL Cuttered Pers.</td><td>852 5#</td><td>bchi</td></tr><tr><td>HSS</td><td>ACC</td><td>SL RBMSCL</td><td>852 8#</td><td>bchi</td></tr><tr><td>HSA</td><td>ACC</td><td>SL All</td><td>852 ##</td><td>bchi</td></tr><tr><td>HLC</td><td>ACC</td><td>LC Call Numbers</td><td>852 0#</td><td>hi</td></tr><tr><td>HDC</td><td>ACC</td><td>Dewey Call Numbers</td><td>852 1#</td><td>hi</td></tr><tr><td>HNL</td><td>ACC</td><td>NLM Call Numbers</td><td>852 2#</td><td>hi</td></tr><tr><td>HGV</td><td>ACC</td><td>SuDocs Numbers</td><td>852 3#</td><td>hi</td></tr><tr><td>HAC</td><td>ACC</td><td>Accession Numbers</td><td>852 4#</td><td>hi</td></tr><tr><td>HPR</td><td>ACC</td><td>Cuttered Per. Nos.</td><td>852 5#</td><td>hi</td></tr><tr><td>HSC</td><td>ACC</td><td>RBMSCL Call Numbers</td><td>852 8#</td><td>hi</td></tr><tr><td>HCA</td><td>ACC</td><td>Call Numbers All</td><td>852 ##</td><td>hi</td></tr><tr><td>FDN</td><td>ACC</td><td>Former Dewey Number</td><td>DEW ##</td><td>hi</td></tr></tbody></table><h3><a name=\"SearchingandIndexing-Keywordindexes\"></a></h3><h3>&nbsp;</h3><h3>Keyword indexes</h3><table><tbody><tr><th>code</th><th>type</th><th>name</th><th>field</th><th>subfield</th></tr><tr><td>WHT</td><td>W-001</td><td>W-Hol. Record Type</td><td>LDR/06</td><td></td></tr><tr><td>WHA</td><td>W-002</td><td>W-Acq. Status</td><td>008/06</td><td></td></tr><tr><td>WHM</td><td>W-003</td><td>W-Acq. Method</td><td>008/07</td><td></td></tr><tr><td>WHG</td><td>W-004</td><td>W-Gen. Retention</td><td>008/12</td><td></td></tr><tr><td>WHR</td><td>W-005</td><td>W-Specific Retention</td><td>008/13-15</td><td></td></tr><tr><td>WHL</td><td>W-006</td><td>W-No. of Copies</td><td>008/17-19</td><td></td></tr><tr><td>WHS</td><td>W-007</td><td>W-Sublibrary</td><td>852 ##</td><td>b</td></tr><tr><td>WHC</td><td>W-008</td><td>W-Collection</td><td>852 ##</td><td>c</td></tr><tr><td>WHN</td><td>W-009</td><td>W-Holding Notes</td><td>852 ##</td><td>xze</td></tr><tr><td></td><td></td><td></td><td>863 ##</td><td>xz</td></tr><tr><td></td><td></td><td></td><td>856 ##</td><td>uxyz3</td></tr><tr><td></td><td></td><td></td><td>866 ##</td><td>axz</td></tr><tr><td>WST</td><td>W-010</td><td>W-Status</td><td>STA</td><td>a</td></tr></tbody></table><h2 dir=\"ltr\"><a name=\"moreOCLC\"></a></h2><h2 dir=\"ltr\">&nbsp;</h2><h2 dir=\"ltr\">4. More detail about OCLC searching</h2><p dir=\"ltr\">For OCLC's searching documentation see the client help in Connexion, under Cataloging/Search World Cat</p><p dir=\"ltr\">A local summary follows:</p><p dir=\"ltr\">created by Cheryl Thomas, last revised 10/26/2010</p><p><strong>Derived Searching in OCLC Connexion </strong></p><p>&nbsp;<strong>Title </strong><strong>3,2,2,1</strong></p><p>Gone with the Wind gon,wi,th,w</p><p>42<sup><span style=\"font-size: small;\" size=\"2\">nd</span></sup> Street 42n,st,,</p><p>I am the walrus i,am,th,w</p><p>&nbsp;</p><p><strong>Name/Title 4,4</strong></p><p>Mitchell/Gone with the wind mitc,gone</p><p>Hershey Foods Corp/The winning spirit hers,winn</p><p>&nbsp;</p><p><strong>Personal name 4,3,1</strong></p><p>Mitchell, Margaret mitc,mar,</p><p>Tolkien, J. R. R. tolk,j,r</p><p>&nbsp;</p><p><strong>Corporate name =4,3,1</strong></p><p>Hershey Foods Corporation =hers,foo,c</p><p>National Audubon Society =audu,soc,</p><p>&nbsp;</p><p>&nbsp;</p><p><strong>Numbered Searches</strong></p><p>ISBN 0-85109-130-x 085109130x (Complete number without hyphens)</p><p>ISSN 1234-5678 in:1234-5678 (Complete number with hyphen)</p><p>&nbsp;</p><p>LCCN map32-14 ln:32-14</p><p>2002-580246 ln:2002-580246 or 2002580246</p><p>&nbsp;</p><p>OCLC number *2</p><p>&nbsp;</p><p>Government document number</p><p>A 1.2:R 31/14/984 gn:a12r3114984</p><p>NAS 1.2:SP1/46 gn:nas12sp146</p><p>&nbsp;</p><p>Music publisher number mn: followed by the publisher number</p><p>CO 1979-AB5-1 mn:co1979ab51</p><p dir=\"ltr\"></p><table border=\"0\" cellspacing=\"0\" cellpadding=\"0\"><tbody><tr><td><p>&nbsp;</p><p><strong>To find this data ... </strong></p></td><td><p>&nbsp;</p><p><strong>Enter this search ... </strong></p></td></tr><tr><td><p>Mozart, Wolfgang Amadeus</p></td><td><p>moza,wol,a</p></td></tr><tr><td><p>De Groot, Adriaan</p></td><td><p>degr,adr,</p></td></tr><tr><td><p>Kübler-Ross, Elisabeth</p></td><td><p>kubl,eli,</p></td></tr><tr><td><p>American Rock Garden Society</p></td><td><p>=rock,gar,s</p></td></tr><tr><td><p>World Energy Conference</p></td><td><p>=worl,ene,c</p></td></tr><tr><td><p>Bergson, The creative mind</p></td><td><p>berg,crea</p></td></tr><tr><td><p>Clarke, 2001 : a space odyssey</p></td><td><p>clar,2001</p></td></tr><tr><td><p>Realism in our time</p></td><td><p>rea,in,ou,t</p></td></tr></tbody></table><p>&nbsp;</p><p dir=\"ltr\"></p><table border=\"0\" cellspacing=\"0\" cellpadding=\"0\"><tbody><tr><td><p>Hotel</p></td><td><p>hot,,,</p></td></tr><tr><td><p>Miracle on 34th street</p></td><td><p>mir,on,34,s</p></td></tr></tbody></table><p>&nbsp;</p><p>&nbsp;</p><p><strong>Qualifiers:</strong></p><p>For more precise search results you can qualify most of these searches by date, form, source, and language. Some examples:</p><p>bach,bran/1832 (an 1832 imprint of Bach's Brandenburg Concerti)</p><p>bach,bran/sco (a score of Bach's Brandenburg Concerti, not a recording)</p><p>gre,ex,,/bks (records for monograph editions of Great Expectations, not films, videos, recordings, or microfilm, etc.)</p><p>&nbsp;</p><p><strong>Format qualifiers:</strong></p><p>/bks, /map, /vis, /com, /sco, /rec, /ser, /mf, /nm</p><p>&nbsp;</p><p><strong>Date qualifiers: </strong></p><p>Single year /1980</p><p>Decade /198?</p><p>Century /19??</p><p>Single year and following: 1980-</p><p>&nbsp;</p><p><strong>Source:</strong></p><p>/dlc</p><p>&nbsp;</p><p dir=\"ltr\"></p><table border=\"0\" cellspacing=\"0\" cellpadding=\"0\"><tbody><tr><td colspan=\"3\"><p><strong>Corporate and Conference Name Stopwords</strong></p></td></tr><tr><td colspan=\"3\"><p>Names of all states in the U.S. and the following:</p></td></tr><tr><td><p>a</p></td><td><p>East</p></td><td><p>Seminar</p></td></tr><tr><td><p>A.</p></td><td><p>for</p></td><td><p>Senate</p></td></tr><tr><td><p>American</p></td><td><p>France</p></td><td><p>Society</p></td></tr><tr><td><p>an</p></td><td><p>Great Britain</p></td><td><p>South</p></td></tr><tr><td><p>Association</p></td><td><p>Gt. Brit.</p></td><td><p>State</p></td></tr><tr><td><p>Australia</p></td><td><p>Gt.Brit.</p></td><td><p>Subcommittee</p></td></tr><tr><td><p>Bureau</p></td><td><p>House</p></td><td><p>Symposium</p></td></tr><tr><td><p>Canada</p></td><td><p>India</p></td><td><p>the</p></td></tr><tr><td><p>Colloquium</p></td><td><p>Institute</p></td><td><p>U.N.</p></td></tr><tr><td><p>Commission</p></td><td><p>Institution</p></td><td><p>U. N.</p></td></tr><tr><td><p>Committee</p></td><td><p>International</p></td><td><p>United Nations</p></td></tr><tr><td><p>Conference</p></td><td><p>Joint</p></td><td><p>United States</p></td></tr><tr><td><p>Congress</p></td><td><p>National</p></td><td><p>University</p></td></tr><tr><td><p>Council</p></td><td><p>North</p></td><td><p>U. S.</p></td></tr><tr><td><p>Department</p></td><td><p>of</p></td><td><p>U.S.</p></td></tr><tr><td><p>Dept.</p></td><td><p>on</p></td><td><p>West</p><p></p></td></tr></tbody></table>",
            "langcode" : "und",
            "body_summary" : "",
            "entity_id" : 345
         },
         "status" : 1,
         "field_revision" : {
            "sticky" : 0,
            "revision_translation_affected" : 1,
            "default_langcode" : 1,
            "langcode" : null,
            "uid" : 1,
            "status" : 1,
            "created" : null,
            "changed" : null,
            "title" : "Searching OCLC and Aleph"
         },
         "sticky" : 0,
         "comment" : 1,
         "log" : ""
      }
   ],
   "langcode" : "und"
}

