{
   "field_image" : {
      "deleted" : 0,
      "field_image_fid" : 2121,
      "revision_id" : 14151,
      "file_uuid" : "19708a6d-ac6b-4425-bf5e-5590dc418beb",
      "language" : "und",
      "field_image_title" : "",
      "field_image_target_id" : 2121,
      "entity_id" : 1429,
      "bundle" : "exhibit",
      "delta" : 0,
      "field_image_alt" : "",
      "field_image_width" : 800,
      "langcode" : "und",
      "entity_type" : "node",
      "field_image_height" : 361
   },
   "node__body" : {
      "langcode" : "und",
      "entity_id" : 1429,
      "body_summary" : "",
      "body_value" : "<p>Exploring the Lemur Center of Duke University this exhibition includes images and video of the Lemurs, as well as information about research at the center such as brain science, &nbsp;genomics, biomechanics, and communication. And just <em>what</em> are they doing in Madagascar?&nbsp;</p><p></p><p class=\"MsoNormal\" style=\"margin-left: .5in;\"><span style=\"color: #1f497d;\">OPENING EVENT: </span></p><p class=\"MsoNormal\" style=\"margin-left: .5in;\"><span style=\"color: #1f497d;\">October 27, 2:00-4:00 P.M. Chappell Gallery</span></p><p class=\"MsoNormal\" style=\"margin-left: .5in;\"><span style=\"color: #1f497d;\">Come join the Duke Lemur Center and the Duke University Libraries at an event celebrating the 50<sup>th</sup> anniversary of the Lemur Center. The event will include short introductory remarks at 4:05 from Anne Yoder, Director of the Lemur Center, followed by a drop-in reception with light refreshments to view <i>50 Years of Lemurs at Duke</i>,<i> </i>an exhibition curated by staff from the Lemur Center. The exhibition explores different facets of the Center, including ways in which it has always supported research both locally and around the world. Most importantly, it shows you some lemurs, in pictures and on film! Members of the Lemur Center staff will be available to answer questions and share stories. Free and open to the public. All are welcome!<o:p></o:p></span></p>",
      "revision_id" : 14151,
      "deleted" : 0,
      "body_format" : "full_html",
      "delta" : 0,
      "bundle" : "exhibit"
   },
   "vid" : 14151,
   "revisions" : [
      {
         "comment" : 1,
         "sticky" : 0,
         "log" : "",
         "field_revision" : {
            "changed" : null,
            "title" : "50 Years of Lemurs at Duke",
            "sticky" : 0,
            "revision_translation_affected" : 1,
            "default_langcode" : 1,
            "status" : 1,
            "uid" : 1,
            "langcode" : null,
            "created" : null
         },
         "status" : 1,
         "node_revision__body" : {
            "langcode" : "und",
            "entity_id" : 1429,
            "body_summary" : "",
            "revision_id" : 14151,
            "body_value" : "<p>Exploring the Lemur Center of Duke University this exhibition includes images and video of the Lemurs, as well as information about research at the center such as brain science, &nbsp;genomics, biomechanics, and communication. And just <em>what</em> are they doing in Madagascar?&nbsp;</p><p></p><p class=\"MsoNormal\" style=\"margin-left: .5in;\"><span style=\"color: #1f497d;\">OPENING EVENT: </span></p><p class=\"MsoNormal\" style=\"margin-left: .5in;\"><span style=\"color: #1f497d;\">October 27, 2:00-4:00 P.M. Chappell Gallery</span></p><p class=\"MsoNormal\" style=\"margin-left: .5in;\"><span style=\"color: #1f497d;\">Come join the Duke Lemur Center and the Duke University Libraries at an event celebrating the 50<sup>th</sup> anniversary of the Lemur Center. The event will include short introductory remarks at 4:05 from Anne Yoder, Director of the Lemur Center, followed by a drop-in reception with light refreshments to view <i>50 Years of Lemurs at Duke</i>,<i> </i>an exhibition curated by staff from the Lemur Center. The exhibition explores different facets of the Center, including ways in which it has always supported research both locally and around the world. Most importantly, it shows you some lemurs, in pictures and on film! Members of the Lemur Center staff will be available to answer questions and share stories. Free and open to the public. All are welcome!<o:p></o:p></span></p>",
            "delta" : 0,
            "body_format" : "full_html",
            "bundle" : "exhibit",
            "deleted" : 0
         },
         "node_revision__field_tags" : [],
         "title" : "50 Years of Lemurs at Duke",
         "vuuid" : "723df8be-f7ac-4f5f-92c1-0d9349caa7ea",
         "timestamp" : 1538401667,
         "uid" : 3,
         "promote" : 0
      }
   ],
   "asidebox" : null,
   "nid" : "1429",
   "type" : "exhibit",
   "uuid" : "0a5b191f-dcfe-4f47-90d7-89622b0bc8cf",
   "langcode" : "und",
   "node_access" : null,
   "field_tags" : [],
   "node_field_data" : {
      "sticky" : 0,
      "default_langcode" : 1,
      "status" : 1,
      "created" : 1471639147,
      "title" : "50 Years of Lemurs at Duke",
      "revision_translation_affected" : 1,
      "langcode" : "und",
      "uid" : 1,
      "promote" : 0,
      "changed" : null,
      "type" : "exhibit"
   },
   "path_alias" : {
      "alias" : "/exhibits/2016/lemur",
      "pid" : 2023,
      "language" : "und",
      "status" : 0,
      "langcode" : "und"
   },
   "node__field_image" : {}
}

