{
   "path_alias" : {
      "language" : "und",
      "alias" : "/research/student-activism/documents/liberal-club-debuts",
      "pid" : 3987,
      "langcode" : "und",
      "status" : 0
   },
   "node_field_data" : {
      "sticky" : 0,
      "default_langcode" : 1,
      "status" : 1,
      "created" : 1519400526,
      "title" : "McDougall Separates Liberals Into Groups",
      "revision_translation_affected" : 1,
      "uid" : 1,
      "langcode" : "und",
      "changed" : null,
      "promote" : 0,
      "type" : "page"
   },
   "field_tags" : [],
   "nid" : "1919",
   "asidebox" : {
      "bid" : null,
      "vid" : 22349,
      "body_title" : "",
      "nid" : 1919,
      "block_module" : null,
      "body_value" : null,
      "body_format" : null,
      "block_delta" : null,
      "status" : "disabled"
   },
   "node_access" : null,
   "revisions" : [
      {
         "field_revision" : {
            "changed" : null,
            "title" : "McDougall Separates Liberals Into Groups",
            "default_langcode" : 1,
            "sticky" : 0,
            "revision_translation_affected" : 1,
            "created" : null,
            "status" : 1,
            "uid" : 1,
            "langcode" : null
         },
         "status" : 1,
         "log" : "",
         "comment" : 1,
         "sticky" : 0,
         "node_revision__field_tags" : [],
         "title" : "McDougall Separates Liberals Into Groups",
         "vuuid" : "df5beb50-5d7d-406f-89b2-122bc54abb4a",
         "node_revision__body" : {
            "body_value" : "<h2>Chronicle Articles</h2><ul><li><a href=\"https://library.duke.edu/sites/default/files/dul/research/student-activism/liberalclubopt.pdf\" target=\"_blank\"> October 23, 1929 </a> (PDF, 1MB) |&nbsp;<a href=\"https://library.duke.edu/digitalcollections/dukechronicle_dchnp51005/\" target=\"_blank\">Full issue</a></li><li><a href=\"https://libcms.oit.duke.edu/sites/default/files/dul/research/student-activism/chronicleoct301929liberalclubedp2.pdf\" target=\"_blank\">October 30, 1929</a> (PDF, 1MB) |&nbsp;<a href=\"https://library.duke.edu/digitalcollections/dukechronicle_dchnp51006/\" target=\"_blank\"> Full issue</a></li></ul>",
            "revision_id" : 22349,
            "deleted" : 0,
            "delta" : 0,
            "body_format" : "full_html",
            "bundle" : "page",
            "entity_id" : 1919,
            "body_summary" : "",
            "langcode" : "und"
         },
         "uid" : 73,
         "timestamp" : 1526339308,
         "promote" : 0
      }
   ],
   "langcode" : "und",
   "uuid" : "0d957698-a9e6-4567-afb8-f6ba78ec05f0",
   "node__body" : {
      "deleted" : 0,
      "body_format" : "full_html",
      "delta" : 0,
      "bundle" : "page",
      "revision_id" : 22349,
      "body_value" : "<h2>Chronicle Articles</h2><ul><li><a href=\"https://library.duke.edu/sites/default/files/dul/research/student-activism/liberalclubopt.pdf\" target=\"_blank\"> October 23, 1929 </a> (PDF, 1MB) |&nbsp;<a href=\"https://library.duke.edu/digitalcollections/dukechronicle_dchnp51005/\" target=\"_blank\">Full issue</a></li><li><a href=\"https://libcms.oit.duke.edu/sites/default/files/dul/research/student-activism/chronicleoct301929liberalclubedp2.pdf\" target=\"_blank\">October 30, 1929</a> (PDF, 1MB) |&nbsp;<a href=\"https://library.duke.edu/digitalcollections/dukechronicle_dchnp51006/\" target=\"_blank\"> Full issue</a></li></ul>",
      "langcode" : "und",
      "body_summary" : "",
      "entity_id" : 1919
   },
   "vid" : 22349,
   "type" : "page",
   "field_image" : null
}

