{
   "type" : "library_services_page",
   "field_image" : null,
   "uuid" : "0ef031dc-fd13-42fb-b482-5d0b6d12303c",
   "node__body" : {
      "body_value" : "<p class=\"well\"><strong> Spring 2021- </strong> Due to campus restrictions, alumni are unable to visit the libraries or borrow materials.</p><h2>Borrow Items</h2><p>In spring 2021, borrowing of physical materials is limited to faculty, students, and staff until further notice.</p><p>Typically, the <a href=\"https://alumni.duke.edu/benefits/alumni-card\" title=\"Duke Alumni Card\"> Duke Alumni Card </a> provides borrowing privileges to the following libraries:</p><ul><li><a href=\"/\" title=\"Duke Libraries Home page\"> Perkins and Bostock Libraries </a></li><li><a href=\"https://library.divinity.duke.edu/\" title=\"Divinity School Library\"> Divinity School Library </a></li><li><a href=\"/lilly\" title=\"Lilly Library\"> Lilly Library </a></li><li><a href=\"/music\" title=\"Music Library\"> Music Library </a></li></ul><p>For access, please bring your Duke Alumni Card to the circulation desk at Perkins Library.</p><p><strong> PLEASE NOTE: </strong> Materials may not be removed from the Rubenstein Rare Book &amp; Manuscript Library, but visitors can view materials in the Rubenstein&nbsp; <a href=\"/rubenstein/research/readingroom\" title=\"Rubenstein Reading Room\"> reading room </a> .</p><h2>Other Resources</h2><p>Duke alumni have access to many of the services used by students, such as:</p><ul><li><a href=\"/research/ask\" title=\"Ask Us\"> Ask questions of reference librarians </a></li><li><a href=\"/digitalcollections\" title=\"Duke University Libraries Digital Collections\"> Browse digital collections </a></li><li><a href=\"https://library.duke.edu/about/newsletter\" title=\"Sign Up for Our Newsletter\"> Catch up on library news&nbsp; </a></li><li><a href=\"https://guides.library.duke.edu/c.php?g=949492\" title=\"Freely Available Databases and Search Tools: Get Started\"> Access freely available databases and search tools </a></li></ul><h2>Friends of the Duke University Libraries</h2><ul><li><a href=\"/support/friends\"> Learn more about </a> Friends of the Duke University Libraries, an association of alumni, faculty, staff and other bibliophiles who are dedicated to promoting the interests of the Duke University Libraries.</li></ul><h2>Access Online Databases</h2><p>Duke University Libraries provides access to online databases for all alumni. Alumni must first register with the <a href=\"https://accounts.oit.duke.edu/onelink\"> Duke Alumni Directory. </a></p><p><a href=\"https://alumni.duke.edu/benefits/library-resources\" class=\"btn btn-primary\"> Access Databases </a></p><hr><div class=\"row\"><div class=\"col-md-6\"><h4>American Culture</h4><ul><li>Everyday Life &amp; Women in America, 1800–1920</li><li>Popular Culture in Britain and America, 1950–1975</li><li>The Sixties: Primary Documents and Personal Narratives, 1960–1974</li></ul><h4>Business/Economics</h4><ul><li>Business Expert Press</li></ul><h4>Citation Management</h4><ul><li>RefWorks</li></ul><h4>Dance</h4><ul><li>Dance in Video</li></ul><h4>Drama</h4><ul><li>Asian American Drama</li><li>Audio Drama: The LA Theatre Works Collection</li><li>Black Drama: 1850–Present</li><li>Filmakers Library Online</li><li>Theatre in Video</li></ul><h4>Exploration</h4><ul><li>Empire Online</li><li>Medieval Travel Writing</li></ul><h4>Historical Journals &amp; Newspapers</h4><ul><li>Eighteenth Century Journals</li><li>Harper's Weekly, 1857–1912</li></ul><h4>History</h4><ul><li>First World War: Personal Experiences</li><li>Literary Manuscripts: Victorian Manuscripts</li><li>Medieval Family Life</li><li>Slavery, Abolition and Social Justice, 1490–2007</li></ul><h4>Humanities</h4><ul><li>Black Short Fiction and Folklore</li><li>Black Thought and Culture</li></ul><h4>International</h4><ul><li>China: Culture and Society</li><li>China: Trade, Politics and Culture, 1793–1980</li><li>Confidential Print: Middle East, 1839–1969</li><li>Foreign Office Files for China, 1949–1980</li><li>Foreign Office Files for India, Pakistan and Afghanistan</li><li>India, Raj and Empire</li><li>Meiji Japan</li></ul><h4>Interdisciplinary &amp; General Resources</h4><ul><li>EBSCO Academic Search Alumni Edition</li><li>In The First Person</li><li>JSTOR: The Scholarly Journal Archive</li><li>ProQuest ABI INform Complete</li><li>University Press Scholarship Online</li></ul></div><div class=\"col-md-6\"><h4>Judaica</h4><ul><li>Jewish Life in America, 1654–1954</li></ul><h4>Latino Studies</h4><ul><li>Latino Literature: Poetry, Drama and Fiction</li></ul><h4>Music</h4><ul><li>Garland Encyclopedia of World Music</li><li>Jazz Music Library</li><li>Music Online</li><li>Smithsonian Global Sound</li></ul><h4>Religion</h4><ul><li>ATLA</li><li>ATLA Catholic Periodical and Literature Index</li><li>Digital Karl Barth Library</li><li>Digital Library of Classical Protestant Texts</li></ul><h4>Social Sciences</h4><ul><li>Anthropology Online</li><li>Ethnographic Video Online</li><li>Social History</li><li>London Low Life</li><li>Mass Observation Online</li><li>Romanticism: Life, Literature and Landscape</li><li>Victorian Popular Culture: Spiritualism, Sensation and Magic</li><li>Victorian Popular Culture: Circuses, Sideshows and Freaks</li><li>Victorian Popular Culture: Music Hall, Theatre and Popular Entertainment</li><li>Victorian Popular Culture: Moving Pictures, Optical Entertainments and the Advent of Cinema</li><li>British and Irish Women's Letters and Diaries</li></ul><h4>US History</h4><ul><li>American West</li><li>Virginia Company Archives</li><li>American Civil War: Letters and Diaries</li><li>American History in Video</li><li>North American Immigrant Letters and Diaries</li><li>North American Women's Letters and Diaries</li><li>Women and Social Movements in the United States, 1600–2000</li></ul><h4>Video</h4><ul><li>Academic Video Online</li></ul></div></div>",
      "revision_id" : 30116,
      "body_format" : "full_html",
      "delta" : 0,
      "bundle" : "library_services_page",
      "deleted" : 0,
      "entity_id" : 247,
      "body_summary" : "",
      "langcode" : "und"
   },
   "vid" : 30116,
   "langcode" : "und",
   "revisions" : [
      {
         "timestamp" : 1609971467,
         "uid" : 2433,
         "promote" : 0,
         "log" : "",
         "sticky" : 0,
         "comment" : 1,
         "status" : 1,
         "field_revision" : {
            "default_langcode" : 1,
            "sticky" : 0,
            "revision_translation_affected" : 1,
            "created" : null,
            "status" : 1,
            "uid" : 1,
            "langcode" : null,
            "changed" : null,
            "title" : "Services for Alumni"
         },
         "node_revision__body" : {
            "langcode" : "und",
            "body_summary" : "",
            "entity_id" : 247,
            "bundle" : "library_services_page",
            "body_format" : "full_html",
            "delta" : 0,
            "deleted" : 0,
            "revision_id" : 30116,
            "body_value" : "<p class=\"well\"><strong> Spring 2021- </strong> Due to campus restrictions, alumni are unable to visit the libraries or borrow materials.</p><h2>Borrow Items</h2><p>In spring 2021, borrowing of physical materials is limited to faculty, students, and staff until further notice.</p><p>Typically, the <a href=\"https://alumni.duke.edu/benefits/alumni-card\" title=\"Duke Alumni Card\"> Duke Alumni Card </a> provides borrowing privileges to the following libraries:</p><ul><li><a href=\"/\" title=\"Duke Libraries Home page\"> Perkins and Bostock Libraries </a></li><li><a href=\"https://library.divinity.duke.edu/\" title=\"Divinity School Library\"> Divinity School Library </a></li><li><a href=\"/lilly\" title=\"Lilly Library\"> Lilly Library </a></li><li><a href=\"/music\" title=\"Music Library\"> Music Library </a></li></ul><p>For access, please bring your Duke Alumni Card to the circulation desk at Perkins Library.</p><p><strong> PLEASE NOTE: </strong> Materials may not be removed from the Rubenstein Rare Book &amp; Manuscript Library, but visitors can view materials in the Rubenstein&nbsp; <a href=\"/rubenstein/research/readingroom\" title=\"Rubenstein Reading Room\"> reading room </a> .</p><h2>Other Resources</h2><p>Duke alumni have access to many of the services used by students, such as:</p><ul><li><a href=\"/research/ask\" title=\"Ask Us\"> Ask questions of reference librarians </a></li><li><a href=\"/digitalcollections\" title=\"Duke University Libraries Digital Collections\"> Browse digital collections </a></li><li><a href=\"https://library.duke.edu/about/newsletter\" title=\"Sign Up for Our Newsletter\"> Catch up on library news&nbsp; </a></li><li><a href=\"https://guides.library.duke.edu/c.php?g=949492\" title=\"Freely Available Databases and Search Tools: Get Started\"> Access freely available databases and search tools </a></li></ul><h2>Friends of the Duke University Libraries</h2><ul><li><a href=\"/support/friends\"> Learn more about </a> Friends of the Duke University Libraries, an association of alumni, faculty, staff and other bibliophiles who are dedicated to promoting the interests of the Duke University Libraries.</li></ul><h2>Access Online Databases</h2><p>Duke University Libraries provides access to online databases for all alumni. Alumni must first register with the <a href=\"https://accounts.oit.duke.edu/onelink\"> Duke Alumni Directory. </a></p><p><a href=\"https://alumni.duke.edu/benefits/library-resources\" class=\"btn btn-primary\"> Access Databases </a></p><hr><div class=\"row\"><div class=\"col-md-6\"><h4>American Culture</h4><ul><li>Everyday Life &amp; Women in America, 1800–1920</li><li>Popular Culture in Britain and America, 1950–1975</li><li>The Sixties: Primary Documents and Personal Narratives, 1960–1974</li></ul><h4>Business/Economics</h4><ul><li>Business Expert Press</li></ul><h4>Citation Management</h4><ul><li>RefWorks</li></ul><h4>Dance</h4><ul><li>Dance in Video</li></ul><h4>Drama</h4><ul><li>Asian American Drama</li><li>Audio Drama: The LA Theatre Works Collection</li><li>Black Drama: 1850–Present</li><li>Filmakers Library Online</li><li>Theatre in Video</li></ul><h4>Exploration</h4><ul><li>Empire Online</li><li>Medieval Travel Writing</li></ul><h4>Historical Journals &amp; Newspapers</h4><ul><li>Eighteenth Century Journals</li><li>Harper's Weekly, 1857–1912</li></ul><h4>History</h4><ul><li>First World War: Personal Experiences</li><li>Literary Manuscripts: Victorian Manuscripts</li><li>Medieval Family Life</li><li>Slavery, Abolition and Social Justice, 1490–2007</li></ul><h4>Humanities</h4><ul><li>Black Short Fiction and Folklore</li><li>Black Thought and Culture</li></ul><h4>International</h4><ul><li>China: Culture and Society</li><li>China: Trade, Politics and Culture, 1793–1980</li><li>Confidential Print: Middle East, 1839–1969</li><li>Foreign Office Files for China, 1949–1980</li><li>Foreign Office Files for India, Pakistan and Afghanistan</li><li>India, Raj and Empire</li><li>Meiji Japan</li></ul><h4>Interdisciplinary &amp; General Resources</h4><ul><li>EBSCO Academic Search Alumni Edition</li><li>In The First Person</li><li>JSTOR: The Scholarly Journal Archive</li><li>ProQuest ABI INform Complete</li><li>University Press Scholarship Online</li></ul></div><div class=\"col-md-6\"><h4>Judaica</h4><ul><li>Jewish Life in America, 1654–1954</li></ul><h4>Latino Studies</h4><ul><li>Latino Literature: Poetry, Drama and Fiction</li></ul><h4>Music</h4><ul><li>Garland Encyclopedia of World Music</li><li>Jazz Music Library</li><li>Music Online</li><li>Smithsonian Global Sound</li></ul><h4>Religion</h4><ul><li>ATLA</li><li>ATLA Catholic Periodical and Literature Index</li><li>Digital Karl Barth Library</li><li>Digital Library of Classical Protestant Texts</li></ul><h4>Social Sciences</h4><ul><li>Anthropology Online</li><li>Ethnographic Video Online</li><li>Social History</li><li>London Low Life</li><li>Mass Observation Online</li><li>Romanticism: Life, Literature and Landscape</li><li>Victorian Popular Culture: Spiritualism, Sensation and Magic</li><li>Victorian Popular Culture: Circuses, Sideshows and Freaks</li><li>Victorian Popular Culture: Music Hall, Theatre and Popular Entertainment</li><li>Victorian Popular Culture: Moving Pictures, Optical Entertainments and the Advent of Cinema</li><li>British and Irish Women's Letters and Diaries</li></ul><h4>US History</h4><ul><li>American West</li><li>Virginia Company Archives</li><li>American Civil War: Letters and Diaries</li><li>American History in Video</li><li>North American Immigrant Letters and Diaries</li><li>North American Women's Letters and Diaries</li><li>Women and Social Movements in the United States, 1600–2000</li></ul><h4>Video</h4><ul><li>Academic Video Online</li></ul></div></div>"
         },
         "title" : "Services for Alumni",
         "vuuid" : "522a70d4-f001-400d-9680-4d65ee3c31f3",
         "node_revision__field_tags" : []
      }
   ],
   "node_access" : null,
   "asidebox" : {
      "status" : "html",
      "block_delta" : "14",
      "body_value" : "<p><img src=\"/sites/default/files/dul/users/megan.crain/6235370806_d596dd17de.jpg\" alt=\"Stacks\" width=\"300\" height=\"243\"></p><p><a href=\"https://www.gifts.duke.edu/library\" target=\"_blank\"><button style=\"width: 100%;\" class=\"btn btn-primary\">Give Now</button></a></p><p>Donate materials to:</p><ul><li><a href=\"http://library.duke.edu/about/depts/colldev/gifts-in-kind.html\" title=\"Donating Materials to DUL\" style=\"line-height: 1.538em;\">Duke University Libraries</a></li><li><a href=\"http://library.duke.edu/rubenstein/about/support.html\" title=\"Donating Materials to Rubenstein Library\">Rubenstein Library</a></li><li><a href=\"http://library.duke.edu/uarchives/\" title=\"University Archives\">University Archives</a></li></ul><p></p>",
      "block_module" : "block",
      "body_format" : "full_html",
      "bid" : 467,
      "vid" : 30116,
      "body_title" : "More Information ",
      "nid" : 247
   },
   "nid" : "247",
   "node_field_data" : {
      "created" : 1376506002,
      "status" : 1,
      "default_langcode" : 1,
      "sticky" : 0,
      "title" : "Services for Alumni",
      "uid" : 1,
      "langcode" : "und",
      "revision_translation_affected" : 1,
      "type" : "library_services_page",
      "promote" : 0,
      "changed" : null
   },
   "path_alias" : {
      "status" : 0,
      "langcode" : "und",
      "alias" : "/services/alumni",
      "pid" : 421,
      "language" : "und"
   },
   "field_tags" : []
}

