{
   "revisions" : [
      {
         "promote" : 0,
         "timestamp" : 1618925232,
         "uid" : 64,
         "node_revision__body" : {
            "body_summary" : "",
            "entity_id" : 1464,
            "langcode" : "und",
            "deleted" : 0,
            "delta" : 0,
            "body_format" : "full_html",
            "bundle" : "support_page",
            "revision_id" : 30522,
            "body_value" : "<h2><a href=\"https://library.duke.edu/support/2021-andrew-t-nadell-prize-book-collecting\">2021 Prize Winners</a></h2><ul><li>Olivia Votava: <a href=\"/sites/default/files/dul/users/kurt.cumiskey/votava_nadellprize_app.pdf\" title=\"Olivia Votava\">Murder, Mystery, and Serial Magazines: The Evolution of Detective Stories to Tales of International Crime</a>.&nbsp;</li><li>Joseph Hiller: <a href=\"/sites/default/files/dul/users/kurt.cumiskey/hiller_nadell_prize_submission_materials.pdf\" title=\"Joseph Hiller\">Como un detective salvaje: Gathering Small Press, Experimental, and Untranslated Latin American Literature.</a></li></ul><p></p><h2>2017 Prize Winners</h2><ul><li>Jason Todd: <a href=\"/sites/default/files/dul/users/megan.crain/Todd.pdf\">Century of Upheaval: War and Revolution in China and Around the World</a></li><li>Colin O'Leary: <a href=\"/sites/default/files/dul/users/megan.crain/O%27Leary.pdf\">The \"Library of Forking Paths\": Jorge Luis Borges, His Literary Antecedents &amp; His Descendents</a></li><li>Jessica Lee: <a href=\"/sites/default/files/dul/users/megan.crain/Lee.pdf\">Hamilton to Homer: A Mythoholic's Journey to Becoming a Classicist</a></li></ul><p style=\"text-align: center;\"><img src=\"/sites/default/files/dul/users/megan.crain/33169411246_1c80d8973f_o.jpg\" alt=\"2017 Andrew T. Nadell Prize for Book Collecting\" title=\"2017 Andrew T. Nadell Prize for Book Collecting\" width=\"500\" height=\"267\" style=\"margin-top: 10px; margin-bottom: 10px;\"></p><p style=\"text-align: center;\"></p><h2>2015 Prize Winners</h2><ul><li>Anne Steptoe: <a href=\"/sites/default/files/dul/users/megan.crain/Steptoe.pdf\">Look Homeward: Journeying Home through 20th Century Southern Literature</a>&nbsp;<br><strong>&nbsp; &nbsp; &nbsp;(Winner, Essay Prize--2015 National Collegiate Book Collecting Contest)</strong></li><li>Andrew Patty: <a href=\"/sites/default/files/dul/users/megan.crain/Patty.pdf\">Masculinity, Race, and a Southern University: An Exploration of the Role of Fraternities in College Life</a></li><li>Claudia Dantoin: <a href=\"/sites/default/files/dul/users/megan.crain/Dantoin.pdf\">A British Homecoming: Growing Up Alongside Austen, Dickens, and Daul</a></li></ul><h2><img src=\"/sites/default/files/dul/support/Steptoe_Display.jpg\" alt=\"Steptoe Display\" width=\"400\" height=\"288\" style=\"margin-left: auto; margin-right: auto; display: block; vertical-align: text-top;\"></h2><h2></h2><h2>2013 Prize Winners</h2><ul><li>Ashley Young: <a href=\"/sites/default/files/dul/users/megan.crain/Young.pdf\">New Orleans' Nourishing Networks: Foodways and Municipal Markets in the Nineteenth Century Global South</a>&nbsp;<br><strong>&nbsp; &nbsp; &nbsp;(Winner, 2nd Prize--2013 National Collegiate Book Collecting Contest)</strong></li><li>Kenny Gould: <a href=\"/sites/default/files/dul/users/megan.crain/Gould.pdf\">Oxford University: Two Centuries of Magical History</a></li></ul><h2><img src=\"/sites/default/files/dul/support/Group.jpg\" alt=\"Group Image\" width=\"400\" height=\"307\" style=\"font-size: 13.008px; font-weight: normal; display: block; margin-left: auto; margin-right: auto; vertical-align: text-top;\"></h2><h2></h2><h2>2011 Prize Winners</h2><ul><li>Mitch Fraas: <a href=\"/sites/default/files/dul/users/megan.crain/Mitch%20Frass%20-%20grad%20biblio.pdf\">Anglo-American Legal Printing 1702 to the Present</a>&nbsp;<br><strong>&nbsp; &nbsp; &nbsp;(Winner, 1st Prize--2011 National Collegiate Book Collecting Contest)</strong></li><li>Orion Teal: <a href=\"/sites/default/files/dul/users/megan.crain/Teal.pdf\">The Life of the Party: Experiencing American Communism</a></li><li>Jacob Golan: <a href=\"/sites/default/files/dul/users/megan.crain/Oral%20Fixation.pdf\">Oral Fixation</a></li></ul><h2></h2><h2>2009 Prize Winners</h2><ul><li>Cynthia Greenlee-Donnell: African Voices</li><li>Tyler Huffman: Islam and the Middle East</li></ul><h2></h2><h2>2007 Prize Winners</h2><ul><li>Jennifer Welsh: Perspectives on Medieval and Early Modern Europe</li><li>Elizabeth Boudreau: Tracing My Emergence</li></ul>"
         },
         "node_revision__field_tags" : [],
         "title" : "Past Nadell Prize Winners",
         "vuuid" : "cf4a7e72-21da-44c1-ac5f-85299f607e4d",
         "comment" : 1,
         "sticky" : 0,
         "log" : "",
         "field_revision" : {
            "revision_translation_affected" : 1,
            "sticky" : 0,
            "default_langcode" : 1,
            "uid" : 1,
            "status" : 1,
            "langcode" : null,
            "created" : null,
            "changed" : null,
            "title" : "Past Nadell Prize Winners"
         },
         "status" : 1
      }
   ],
   "langcode" : "und",
   "uuid" : "0f40849b-0380-405f-972d-fa0e84d6d05f",
   "vid" : 30522,
   "node__body" : {
      "revision_id" : 30522,
      "body_value" : "<h2><a href=\"https://library.duke.edu/support/2021-andrew-t-nadell-prize-book-collecting\">2021 Prize Winners</a></h2><ul><li>Olivia Votava: <a href=\"/sites/default/files/dul/users/kurt.cumiskey/votava_nadellprize_app.pdf\" title=\"Olivia Votava\">Murder, Mystery, and Serial Magazines: The Evolution of Detective Stories to Tales of International Crime</a>.&nbsp;</li><li>Joseph Hiller: <a href=\"/sites/default/files/dul/users/kurt.cumiskey/hiller_nadell_prize_submission_materials.pdf\" title=\"Joseph Hiller\">Como un detective salvaje: Gathering Small Press, Experimental, and Untranslated Latin American Literature.</a></li></ul><p></p><h2>2017 Prize Winners</h2><ul><li>Jason Todd: <a href=\"/sites/default/files/dul/users/megan.crain/Todd.pdf\">Century of Upheaval: War and Revolution in China and Around the World</a></li><li>Colin O'Leary: <a href=\"/sites/default/files/dul/users/megan.crain/O%27Leary.pdf\">The \"Library of Forking Paths\": Jorge Luis Borges, His Literary Antecedents &amp; His Descendents</a></li><li>Jessica Lee: <a href=\"/sites/default/files/dul/users/megan.crain/Lee.pdf\">Hamilton to Homer: A Mythoholic's Journey to Becoming a Classicist</a></li></ul><p style=\"text-align: center;\"><img src=\"/sites/default/files/dul/users/megan.crain/33169411246_1c80d8973f_o.jpg\" alt=\"2017 Andrew T. Nadell Prize for Book Collecting\" title=\"2017 Andrew T. Nadell Prize for Book Collecting\" width=\"500\" height=\"267\" style=\"margin-top: 10px; margin-bottom: 10px;\"></p><p style=\"text-align: center;\"></p><h2>2015 Prize Winners</h2><ul><li>Anne Steptoe: <a href=\"/sites/default/files/dul/users/megan.crain/Steptoe.pdf\">Look Homeward: Journeying Home through 20th Century Southern Literature</a>&nbsp;<br><strong>&nbsp; &nbsp; &nbsp;(Winner, Essay Prize--2015 National Collegiate Book Collecting Contest)</strong></li><li>Andrew Patty: <a href=\"/sites/default/files/dul/users/megan.crain/Patty.pdf\">Masculinity, Race, and a Southern University: An Exploration of the Role of Fraternities in College Life</a></li><li>Claudia Dantoin: <a href=\"/sites/default/files/dul/users/megan.crain/Dantoin.pdf\">A British Homecoming: Growing Up Alongside Austen, Dickens, and Daul</a></li></ul><h2><img src=\"/sites/default/files/dul/support/Steptoe_Display.jpg\" alt=\"Steptoe Display\" width=\"400\" height=\"288\" style=\"margin-left: auto; margin-right: auto; display: block; vertical-align: text-top;\"></h2><h2></h2><h2>2013 Prize Winners</h2><ul><li>Ashley Young: <a href=\"/sites/default/files/dul/users/megan.crain/Young.pdf\">New Orleans' Nourishing Networks: Foodways and Municipal Markets in the Nineteenth Century Global South</a>&nbsp;<br><strong>&nbsp; &nbsp; &nbsp;(Winner, 2nd Prize--2013 National Collegiate Book Collecting Contest)</strong></li><li>Kenny Gould: <a href=\"/sites/default/files/dul/users/megan.crain/Gould.pdf\">Oxford University: Two Centuries of Magical History</a></li></ul><h2><img src=\"/sites/default/files/dul/support/Group.jpg\" alt=\"Group Image\" width=\"400\" height=\"307\" style=\"font-size: 13.008px; font-weight: normal; display: block; margin-left: auto; margin-right: auto; vertical-align: text-top;\"></h2><h2></h2><h2>2011 Prize Winners</h2><ul><li>Mitch Fraas: <a href=\"/sites/default/files/dul/users/megan.crain/Mitch%20Frass%20-%20grad%20biblio.pdf\">Anglo-American Legal Printing 1702 to the Present</a>&nbsp;<br><strong>&nbsp; &nbsp; &nbsp;(Winner, 1st Prize--2011 National Collegiate Book Collecting Contest)</strong></li><li>Orion Teal: <a href=\"/sites/default/files/dul/users/megan.crain/Teal.pdf\">The Life of the Party: Experiencing American Communism</a></li><li>Jacob Golan: <a href=\"/sites/default/files/dul/users/megan.crain/Oral%20Fixation.pdf\">Oral Fixation</a></li></ul><h2></h2><h2>2009 Prize Winners</h2><ul><li>Cynthia Greenlee-Donnell: African Voices</li><li>Tyler Huffman: Islam and the Middle East</li></ul><h2></h2><h2>2007 Prize Winners</h2><ul><li>Jennifer Welsh: Perspectives on Medieval and Early Modern Europe</li><li>Elizabeth Boudreau: Tracing My Emergence</li></ul>",
      "deleted" : 0,
      "delta" : 0,
      "body_format" : "full_html",
      "bundle" : "support_page",
      "langcode" : "und",
      "entity_id" : 1464,
      "body_summary" : ""
   },
   "type" : "support_page",
   "field_image" : null,
   "nid" : "1464",
   "path_alias" : {
      "status" : 0,
      "langcode" : "und",
      "pid" : 2074,
      "alias" : "/support/friends/book-collectors-contest/winners",
      "language" : "und"
   },
   "node_field_data" : {
      "title" : "Past Nadell Prize Winners",
      "created" : 1478270649,
      "status" : 1,
      "default_langcode" : 1,
      "sticky" : 0,
      "type" : "support_page",
      "changed" : null,
      "promote" : 0,
      "langcode" : "und",
      "uid" : 1,
      "revision_translation_affected" : 1
   },
   "field_tags" : [],
   "node_access" : null,
   "asidebox" : {
      "status" : "disabled",
      "block_delta" : null,
      "body_value" : null,
      "block_module" : null,
      "body_format" : null,
      "bid" : null,
      "vid" : 30522,
      "body_title" : "",
      "nid" : 1464
   }
}

