{
   "asidebox" : null,
   "node_access" : null,
   "field_tags" : [],
   "path_alias" : {
      "pid" : 4383,
      "alias" : "/about/jobs/lilly-student-2019",
      "language" : "und",
      "langcode" : "und",
      "status" : 0
   },
   "node_field_data" : {
      "title" : "Lilly Library Student Assistant (Summer 2019)",
      "status" : 0,
      "created" : 1557766753,
      "sticky" : 0,
      "default_langcode" : 1,
      "type" : "jobs_student",
      "changed" : null,
      "promote" : 1,
      "uid" : 1,
      "langcode" : "und",
      "revision_translation_affected" : 1
   },
   "nid" : "2225",
   "langcode" : "und",
   "revisions" : [
      {
         "promote" : 1,
         "timestamp" : 1558627010,
         "uid" : 2275,
         "node_revision__body" : {
            "body_format" : "full_html",
            "bundle" : "jobs_student",
            "delta" : 0,
            "deleted" : 0,
            "revision_id" : 25009,
            "body_value" : "<p>Lilly Library is looking for responsible and dependable stacks Assistants in the summer of 2019. Stacks Assistants perform stacks maintenance activities, including shelving and shifting books, delivering books to East Campus departments, searching for missing books, retrieving requested books, and etc. A few hours working at circulation desk might be needed.&nbsp;</p><p>Lilly Stacks Assistant need to perform some heavy lifting.&nbsp;</p><p>The starting pay of this position is $11 per hour.&nbsp;</p><h2>To apply:&nbsp;</h2><p>Email your resume to <a href=\"mailto:yunyi.wang@duke.edu\">yunyi.wang@duke.edu</a></p>",
            "body_summary" : "",
            "entity_id" : 2225,
            "langcode" : "und"
         },
         "node_revision__field_tags" : [],
         "title" : "Lilly Library Student Assistant (Summer 2019)",
         "vuuid" : "ee11223b-52bb-400d-a59c-8bdc4aaf3c14",
         "comment" : 1,
         "sticky" : 0,
         "log" : "",
         "field_revision" : {
            "title" : "Lilly Library Student Assistant (Summer 2019)",
            "changed" : null,
            "created" : null,
            "uid" : 1,
            "langcode" : null,
            "status" : 0,
            "default_langcode" : 1,
            "revision_translation_affected" : 1,
            "sticky" : 0
         },
         "status" : 0
      }
   ],
   "field_image" : null,
   "type" : "jobs_student",
   "vid" : 25009,
   "node__body" : {
      "langcode" : "und",
      "body_summary" : "",
      "entity_id" : 2225,
      "deleted" : 0,
      "bundle" : "jobs_student",
      "body_format" : "full_html",
      "delta" : 0,
      "body_value" : "<p>Lilly Library is looking for responsible and dependable stacks Assistants in the summer of 2019. Stacks Assistants perform stacks maintenance activities, including shelving and shifting books, delivering books to East Campus departments, searching for missing books, retrieving requested books, and etc. A few hours working at circulation desk might be needed.&nbsp;</p><p>Lilly Stacks Assistant need to perform some heavy lifting.&nbsp;</p><p>The starting pay of this position is $11 per hour.&nbsp;</p><h2>To apply:&nbsp;</h2><p>Email your resume to <a href=\"mailto:yunyi.wang@duke.edu\">yunyi.wang@duke.edu</a></p>",
      "revision_id" : 25009
   },
   "uuid" : "11379eec-c645-40be-92b9-a8b660b365d7"
}

