{
   "revisions" : [
      {
         "timestamp" : 1578590558,
         "uid" : 25,
         "promote" : 0,
         "sticky" : 0,
         "comment" : 1,
         "log" : "",
         "status" : 1,
         "field_revision" : {
            "created" : null,
            "status" : 1,
            "uid" : 1,
            "langcode" : null,
            "default_langcode" : 1,
            "revision_translation_affected" : 1,
            "sticky" : 0,
            "title" : "End of semester survival guide, Fall 2019 ",
            "changed" : null
         },
         "node_revision__body" : {
            "body_summary" : "",
            "entity_id" : 823,
            "langcode" : "und",
            "deleted" : 0,
            "body_format" : "full_html_no_wysiwyg",
            "bundle" : "research_page",
            "delta" : 0,
            "revision_id" : 27541,
            "body_value" : "<p><img src=\"/sites/default/files/dul/research-support/survival-study.jpg\" alt=\"Student studying at a table\" width=\"250\" height=\"507\" class=\"img-thumbnail img-responsive image-right\"></p>\r\n<h2>Extended library hours</h2>\r\n<ul>\r\n<li><a href=\"/about/hours\">Lilly and Perkins & Bostock Libraries will stay open 24/7</a> Sunday, December 8 through Sunday, December 15.</li>\r\n</ul>\r\n<hr>\r\n<h2>Quiet study areas</h2>\r\n<ul>\r\n<li><strong>Quiet spaces (snacks permitted):</strong> Nicholas Reading Room on the second floor of Bostock or the fourth floor of Perkins &amp; Bostock — the entire fourth floor is devoted to quiet study.</li>\r\n<li><strong>Quiet spaces (food-free):</strong> Thomas Room in Lilly Library, the Carpenter Reading Room in Bostock Library, or the Gothic Reading Room in Rubenstein Library.</li>\r\n<li>Make any space in the library a little quieter by asking for a <strong>free pair of ear plugs</strong> at the Perkins, Lilly or Music Service Desks.</li>\r\n</ul>\r\n<h3>Exclusively during finals</h3>\r\n<ul>\r\n<li><strong>Rubenstein 350</strong>, <strong>Rubenstein 351</strong>, <strong>Bostock 127 (The Edge Workshop Room)</strong> and <strong>Bostock 225</strong> are open for students on a first-come, first-accommodated basis from 5 p.m. to 8 a.m. from Saturday, December 7 through Monday, December 16.</li>\r\n<li>Students may request the following meeting rooms for study purposes <strong>Bostock 039 and 042</strong>, <strong>Perkins 118, 217 (Korman Assembly Room), and 218</strong>. Contact Lenora Gilbert for more information: <a href=\"mailto:lenora.gilbert@duke.edu\">lenora.gilbert@duke.edu</a>.</li>\r\n</ul>\r\n<hr>\r\n<h2>Group study and project spaces</h2>\r\n<ul>\r\n<li>Looking for a group study room? <a href=\"/using/library-spaces\">Reserve a space</a> for 3 hours at a time.</li>\r\n</ul>\r\n<hr>\r\n<h2>Research Help</h2>\r\n<ul>\r\n<li>Any of our <a href=\"/about/directory/subject-specialists/\">librarians</a> can help you get started — check out the <a href=\"https://guides.library.duke.edu/\">research guides</a> librarians have created on topics from <a href=\"https://guides.library.duke.edu/arthistory\">art history</a> to <a href=\"https://guides.library.duke.edu/global_health\">global health</a>, or <a href=\"https://duke.qualtrics.com/jfe/form/SV_6osqxk8Xh1NEIRL\">schedule a one-on-one consultation</a>.</li>\r\n<li>If you are a first-year student, your <a href=\"/residence-hall-librarian\">Residence Hall Librarian</a> is available to help with projects and papers.</li>\r\n<li><a href=\"/research/ask\">Live chat with a librarian</a> between 9 a.m. and midnight during the week (and on weekend afternoons, too!).</li>\r\n<li>Need help citing sources? Check out <a href=\"/research/citing\">guides to using APA, MLA, CSE and Turabian</a>.</li>\r\n</ul>\r\n<hr>\r\n<p><img src=\"/sites/default/files/dul/research-support/lilly-break.jpg\" alt=\"Student in need of a break\" width=\"265\" height=\"197\" class=\"img-thumbnail image-right img-responsive\"></p>\r\n<h2>Take a break!</h2>\r\n<ul>\r\n<li><strong>Wednesday, December 4:</strong> <a href=\"https://duke.libcal.com/event/6074337\">Long Night Against Procrastination.</a> Spend an evening getting on top of everything you have to do - or just come and de-stress with our soothing activities, door prizes, and free coffee and snacks! Bostock Library, 7-11 p.m.</li>\r\n<li><strong>Thursday, December 5:</strong> Papercrafts in Lilly’s CoLab. Take a few minutes to make cards, a collage or a fantastic origami figure.  All supplies provided. Lilly’s CoLab, 4 to 5:30 PM.</li>\r\n<li><strong>Saturday, December 7:</strong> Stampede of Love: Miniature Therapy Horses at Lilly. Finals have you feeling stressed? Miniature therapy horses are coming to help! <a href=\"https://www.stampedeoflove.org/photos\">Stampede of Love</a> will be at Lilly Library, Saturday, December 7th from Noon to 2 PM.</li>\r\n<li><strong>Monday, December 9:</strong> Lilly Study Break. Need to re-charge while studying? Free event with savory, sweet, and healthy snacks. Lilly Library, 8 PM.</li>\r\n<li><strong> Tuesday, December 10 to Monday, December 16:</strong> Lilly Relaxation Station with games puzzles, crafts, and more!</li>\r\n</ul>\r\n<hr>\r\n<h2>Finished with your papers and projects?</h2>\r\n<ul>\r\n<li><a href=\"/research/awards\">Earn $1000 for your research paper</a> by submitting it for one of the Duke University Library’s Library Research Awards. <a href=\"https://library.duke.edu/research/awards\">Check out the list of awards and guidelines.</a></li>\r\n<li>Return books to any of Duke's libraries. Now you can also return CDs and DVDs you check out at Lilly or Music to any campus library service desk!</li>\r\n</ul>\r\n"
         },
         "title" : "End of semester survival guide, Fall 2019 ",
         "vuuid" : "7c08349f-5241-4b53-9112-fa0b6b89dcdb",
         "node_revision__field_tags" : []
      }
   ],
   "langcode" : "und",
   "node__body" : {
      "langcode" : "und",
      "body_summary" : "",
      "entity_id" : 823,
      "deleted" : 0,
      "body_format" : "full_html_no_wysiwyg",
      "delta" : 0,
      "bundle" : "research_page",
      "revision_id" : 27541,
      "body_value" : "<p><img src=\"/sites/default/files/dul/research-support/survival-study.jpg\" alt=\"Student studying at a table\" width=\"250\" height=\"507\" class=\"img-thumbnail img-responsive image-right\"></p>\r\n<h2>Extended library hours</h2>\r\n<ul>\r\n<li><a href=\"/about/hours\">Lilly and Perkins & Bostock Libraries will stay open 24/7</a> Sunday, December 8 through Sunday, December 15.</li>\r\n</ul>\r\n<hr>\r\n<h2>Quiet study areas</h2>\r\n<ul>\r\n<li><strong>Quiet spaces (snacks permitted):</strong> Nicholas Reading Room on the second floor of Bostock or the fourth floor of Perkins &amp; Bostock — the entire fourth floor is devoted to quiet study.</li>\r\n<li><strong>Quiet spaces (food-free):</strong> Thomas Room in Lilly Library, the Carpenter Reading Room in Bostock Library, or the Gothic Reading Room in Rubenstein Library.</li>\r\n<li>Make any space in the library a little quieter by asking for a <strong>free pair of ear plugs</strong> at the Perkins, Lilly or Music Service Desks.</li>\r\n</ul>\r\n<h3>Exclusively during finals</h3>\r\n<ul>\r\n<li><strong>Rubenstein 350</strong>, <strong>Rubenstein 351</strong>, <strong>Bostock 127 (The Edge Workshop Room)</strong> and <strong>Bostock 225</strong> are open for students on a first-come, first-accommodated basis from 5 p.m. to 8 a.m. from Saturday, December 7 through Monday, December 16.</li>\r\n<li>Students may request the following meeting rooms for study purposes <strong>Bostock 039 and 042</strong>, <strong>Perkins 118, 217 (Korman Assembly Room), and 218</strong>. Contact Lenora Gilbert for more information: <a href=\"mailto:lenora.gilbert@duke.edu\">lenora.gilbert@duke.edu</a>.</li>\r\n</ul>\r\n<hr>\r\n<h2>Group study and project spaces</h2>\r\n<ul>\r\n<li>Looking for a group study room? <a href=\"/using/library-spaces\">Reserve a space</a> for 3 hours at a time.</li>\r\n</ul>\r\n<hr>\r\n<h2>Research Help</h2>\r\n<ul>\r\n<li>Any of our <a href=\"/about/directory/subject-specialists/\">librarians</a> can help you get started — check out the <a href=\"https://guides.library.duke.edu/\">research guides</a> librarians have created on topics from <a href=\"https://guides.library.duke.edu/arthistory\">art history</a> to <a href=\"https://guides.library.duke.edu/global_health\">global health</a>, or <a href=\"https://duke.qualtrics.com/jfe/form/SV_6osqxk8Xh1NEIRL\">schedule a one-on-one consultation</a>.</li>\r\n<li>If you are a first-year student, your <a href=\"/residence-hall-librarian\">Residence Hall Librarian</a> is available to help with projects and papers.</li>\r\n<li><a href=\"/research/ask\">Live chat with a librarian</a> between 9 a.m. and midnight during the week (and on weekend afternoons, too!).</li>\r\n<li>Need help citing sources? Check out <a href=\"/research/citing\">guides to using APA, MLA, CSE and Turabian</a>.</li>\r\n</ul>\r\n<hr>\r\n<p><img src=\"/sites/default/files/dul/research-support/lilly-break.jpg\" alt=\"Student in need of a break\" width=\"265\" height=\"197\" class=\"img-thumbnail image-right img-responsive\"></p>\r\n<h2>Take a break!</h2>\r\n<ul>\r\n<li><strong>Wednesday, December 4:</strong> <a href=\"https://duke.libcal.com/event/6074337\">Long Night Against Procrastination.</a> Spend an evening getting on top of everything you have to do - or just come and de-stress with our soothing activities, door prizes, and free coffee and snacks! Bostock Library, 7-11 p.m.</li>\r\n<li><strong>Thursday, December 5:</strong> Papercrafts in Lilly’s CoLab. Take a few minutes to make cards, a collage or a fantastic origami figure.  All supplies provided. Lilly’s CoLab, 4 to 5:30 PM.</li>\r\n<li><strong>Saturday, December 7:</strong> Stampede of Love: Miniature Therapy Horses at Lilly. Finals have you feeling stressed? Miniature therapy horses are coming to help! <a href=\"https://www.stampedeoflove.org/photos\">Stampede of Love</a> will be at Lilly Library, Saturday, December 7th from Noon to 2 PM.</li>\r\n<li><strong>Monday, December 9:</strong> Lilly Study Break. Need to re-charge while studying? Free event with savory, sweet, and healthy snacks. Lilly Library, 8 PM.</li>\r\n<li><strong> Tuesday, December 10 to Monday, December 16:</strong> Lilly Relaxation Station with games puzzles, crafts, and more!</li>\r\n</ul>\r\n<hr>\r\n<h2>Finished with your papers and projects?</h2>\r\n<ul>\r\n<li><a href=\"/research/awards\">Earn $1000 for your research paper</a> by submitting it for one of the Duke University Library’s Library Research Awards. <a href=\"https://library.duke.edu/research/awards\">Check out the list of awards and guidelines.</a></li>\r\n<li>Return books to any of Duke's libraries. Now you can also return CDs and DVDs you check out at Lilly or Music to any campus library service desk!</li>\r\n</ul>\r\n"
   },
   "vid" : 27541,
   "uuid" : "11a8890c-1301-4704-b998-7a7bfdee81f4",
   "field_image" : null,
   "type" : "research_page",
   "field_tags" : [],
   "path_alias" : {
      "langcode" : "und",
      "status" : 0,
      "language" : "und",
      "pid" : 1289,
      "alias" : "/research/end-of-semester-guide"
   },
   "node_field_data" : {
      "revision_translation_affected" : 1,
      "langcode" : "und",
      "uid" : 1,
      "changed" : null,
      "promote" : 0,
      "type" : "research_page",
      "sticky" : 0,
      "default_langcode" : 1,
      "status" : 1,
      "created" : 1428951474,
      "title" : "End of semester survival guide, Fall 2019 "
   },
   "nid" : "823",
   "asidebox" : {
      "body_title" : "",
      "nid" : 823,
      "bid" : null,
      "vid" : 27541,
      "body_format" : null,
      "body_value" : null,
      "block_module" : null,
      "block_delta" : null,
      "status" : "disabled"
   },
   "node_access" : null
}

