{
   "node_access" : null,
   "asidebox" : {
      "status" : "disabled",
      "block_delta" : null,
      "body_value" : null,
      "block_module" : null,
      "body_format" : null,
      "vid" : 22037,
      "bid" : null,
      "nid" : 344,
      "body_title" : ""
   },
   "nid" : "344",
   "path_alias" : {
      "langcode" : "und",
      "status" : 0,
      "pid" : 523,
      "alias" : "/about/depts/cataloging/documentation/past-practices",
      "language" : "und"
   },
   "node_field_data" : {
      "uid" : 1,
      "langcode" : "und",
      "revision_translation_affected" : 1,
      "type" : "about_page",
      "changed" : null,
      "promote" : 0,
      "status" : 1,
      "created" : 1377893466,
      "sticky" : 0,
      "default_langcode" : 1,
      "title" : "Past practices"
   },
   "field_tags" : [],
   "type" : "about_page",
   "field_image" : null,
   "uuid" : "153e1349-a251-495b-8a32-4fc271c66156",
   "vid" : 22037,
   "node__body" : {
      "delta" : 0,
      "body_format" : "full_html",
      "bundle" : "about_page",
      "deleted" : 0,
      "revision_id" : 22037,
      "body_value" : "<p>Reminders of a few things we no longer do.</p><p><strong>Classed together series and sets<br></strong></p><p>Historically, DUL classified many monographic series and analyzed sets together.&nbsp; Sometimes there were more than two levels of cataloging, with sets within series or within other sets.&nbsp; Gradually, we have moved towards having only one level of cataloging--either a single volume classed as a monograph or a unanalyzed set/series.</p><p>In 2002, we began to follow LC policy for sets, classifying set volumes with distinctive titles as single monographs.&nbsp; However, we continued the old policy for ongoing sets that had been classed together.</p><p>At this time, LC still classed some series together, but in 2007 they made almost all set and series volumes classed separately.&nbsp; The exceptions are rare and often ignored.</p><p>In April 2017, we began to follow LC policy of classifying series separately.&nbsp; The exceptions are scores and ongoing sets in series.&nbsp; In the second case, we make exceptions to the exception when keeping the set together becomes too complicated.&nbsp; As open sets are closed, fewer and fewer volumes are processed as classed together.</p><p>If a received currently series is for a branch or for a collection such as Reference, continue to send all volumes to the location that the series was ordered for.&nbsp; However, formerly classed together series ordered for Perkins Stacks will have some volumes go to Lilly or Music, according to the special cases for certain ranges of call numbers in the <a href=\"https://library.duke.edu/about/depts/cataloging/documentation/aleph-collections-chart\">Aleph Collections Chart.</a></p><h3>Judging copy by 040 field or ELVL&nbsp;</h3><ul><li>The source and encoding level of a record can say something about the expertise and the intent of the staff that created it. &nbsp;However, mistakes can be made on any record, and ELVL is very inconsistently applied.</li><li>There&nbsp;are no instructions for judging or sorting by these elements in the current documentation, except to remember that&nbsp;LC cataloging is considered to be high-quality and should be preferred when there are duplicate records.&nbsp;</li></ul><h3>Location based on subject</h3><ul><li>When we classified under Dewey, certain ranges of call numbers went to certain libraries. This practice was eliminated with the switch to LC classification. It then was revived for N (fine arts) and PN1990-PN1999 (motion pictures, online drama, radio, television &amp; videorecordings), and M (Music)&nbsp; Books in these ranges ordered for the Perkins Library stacks are cataloged for Lilly.</li><li>Locations other than the Perkins Library stacks (e.g. Reference, EAC, Divinity) can have books in these ranges.&nbsp;</li><li>A similar instruction was later added for M (Music).&nbsp; Books with M call numbers ordered for Perkins go to Music.</li></ul><h3>Pamphlet Collections&nbsp;</h3><ul><li>For years, books smaller than a certain size were given accession numbers rather than classificaiton numbers and housed in the pamphlet collections.&nbsp;</li><li>The largest pamphlet collection is Lilly Library.&nbsp;&nbsp;</li><li>None of the pamplet collections are used for current cataloging.&nbsp;</li></ul><h3>Binding consecutive volumes</h3><ul><li>Linking together the records for multiple bibliographic entities that were bound together always has been difficult and confusing to the public.</li><li>We no longer bind consecutive volumes of classed-together series.</li><li>If other titles have been bound together, try to find a way to catalog them as a unit. For example, catalog the most important and make note of the others. Make up a collective title and put individual titles in a contents note.&nbsp;&nbsp;</li></ul><p><strong>Z Call numbers</strong></p><p><strong></strong>From the time we started classifying in LC until Sept. 12, 2016, we did not use call numbers <span style=\"font-size: 9.5pt; font-family: 'Lucida Sans Unicode',sans-serif; color: black; mso-fareast-font-family: Calibri; mso-fareast-theme-font: minor-latin; mso-ansi-language: EN-US; mso-fareast-language: EN-US; mso-bidi-language: AR-SA;\">in the ranges Z5051-Z6620 or Z6626-Z8999.&nbsp; These subject bibliograpahies were reclassified with the subject.&nbsp; This policy was changed to expand our general policy of using LC and other acceptable copy without modification. </span></p><p><strong><span style=\"font-size: 9.5pt; font-family: 'Lucida Sans Unicode',sans-serif; color: black; mso-fareast-font-family: Calibri; mso-fareast-theme-font: minor-latin; mso-ansi-language: EN-US; mso-fareast-language: EN-US; mso-bidi-language: AR-SA;\">Physical gift plates</span></strong></p><p><strong><span style=\"font-size: 9.5pt; font-family: 'Lucida Sans Unicode',sans-serif; color: black; mso-fareast-font-family: Calibri; mso-fareast-theme-font: minor-latin; mso-ansi-language: EN-US; mso-fareast-language: EN-US; mso-bidi-language: AR-SA;\"></span></strong><span style=\"font-size: 9.5pt; font-family: 'Lucida Sans Unicode',sans-serif; color: black; mso-fareast-font-family: Calibri; mso-fareast-theme-font: minor-latin; mso-ansi-language: EN-US; mso-fareast-language: EN-US; mso-bidi-language: AR-SA;\">Physical gift plates have been completely replaced by electronic ones.&nbsp; The library no longer pastes plates into books.</span></p>",
      "langcode" : "und",
      "body_summary" : "",
      "entity_id" : 344
   },
   "langcode" : "und",
   "revisions" : [
      {
         "promote" : 0,
         "uid" : 56,
         "timestamp" : 1524158417,
         "title" : "Past practices",
         "vuuid" : "c0a09f49-40a9-45fb-b40c-683abe17616f",
         "node_revision__field_tags" : [],
         "node_revision__body" : {
            "body_summary" : "",
            "entity_id" : 344,
            "langcode" : "und",
            "deleted" : 0,
            "body_format" : "full_html",
            "delta" : 0,
            "bundle" : "about_page",
            "revision_id" : 22037,
            "body_value" : "<p>Reminders of a few things we no longer do.</p><p><strong>Classed together series and sets<br></strong></p><p>Historically, DUL classified many monographic series and analyzed sets together.&nbsp; Sometimes there were more than two levels of cataloging, with sets within series or within other sets.&nbsp; Gradually, we have moved towards having only one level of cataloging--either a single volume classed as a monograph or a unanalyzed set/series.</p><p>In 2002, we began to follow LC policy for sets, classifying set volumes with distinctive titles as single monographs.&nbsp; However, we continued the old policy for ongoing sets that had been classed together.</p><p>At this time, LC still classed some series together, but in 2007 they made almost all set and series volumes classed separately.&nbsp; The exceptions are rare and often ignored.</p><p>In April 2017, we began to follow LC policy of classifying series separately.&nbsp; The exceptions are scores and ongoing sets in series.&nbsp; In the second case, we make exceptions to the exception when keeping the set together becomes too complicated.&nbsp; As open sets are closed, fewer and fewer volumes are processed as classed together.</p><p>If a received currently series is for a branch or for a collection such as Reference, continue to send all volumes to the location that the series was ordered for.&nbsp; However, formerly classed together series ordered for Perkins Stacks will have some volumes go to Lilly or Music, according to the special cases for certain ranges of call numbers in the <a href=\"https://library.duke.edu/about/depts/cataloging/documentation/aleph-collections-chart\">Aleph Collections Chart.</a></p><h3>Judging copy by 040 field or ELVL&nbsp;</h3><ul><li>The source and encoding level of a record can say something about the expertise and the intent of the staff that created it. &nbsp;However, mistakes can be made on any record, and ELVL is very inconsistently applied.</li><li>There&nbsp;are no instructions for judging or sorting by these elements in the current documentation, except to remember that&nbsp;LC cataloging is considered to be high-quality and should be preferred when there are duplicate records.&nbsp;</li></ul><h3>Location based on subject</h3><ul><li>When we classified under Dewey, certain ranges of call numbers went to certain libraries. This practice was eliminated with the switch to LC classification. It then was revived for N (fine arts) and PN1990-PN1999 (motion pictures, online drama, radio, television &amp; videorecordings), and M (Music)&nbsp; Books in these ranges ordered for the Perkins Library stacks are cataloged for Lilly.</li><li>Locations other than the Perkins Library stacks (e.g. Reference, EAC, Divinity) can have books in these ranges.&nbsp;</li><li>A similar instruction was later added for M (Music).&nbsp; Books with M call numbers ordered for Perkins go to Music.</li></ul><h3>Pamphlet Collections&nbsp;</h3><ul><li>For years, books smaller than a certain size were given accession numbers rather than classificaiton numbers and housed in the pamphlet collections.&nbsp;</li><li>The largest pamphlet collection is Lilly Library.&nbsp;&nbsp;</li><li>None of the pamplet collections are used for current cataloging.&nbsp;</li></ul><h3>Binding consecutive volumes</h3><ul><li>Linking together the records for multiple bibliographic entities that were bound together always has been difficult and confusing to the public.</li><li>We no longer bind consecutive volumes of classed-together series.</li><li>If other titles have been bound together, try to find a way to catalog them as a unit. For example, catalog the most important and make note of the others. Make up a collective title and put individual titles in a contents note.&nbsp;&nbsp;</li></ul><p><strong>Z Call numbers</strong></p><p><strong></strong>From the time we started classifying in LC until Sept. 12, 2016, we did not use call numbers <span style=\"font-size: 9.5pt; font-family: 'Lucida Sans Unicode',sans-serif; color: black; mso-fareast-font-family: Calibri; mso-fareast-theme-font: minor-latin; mso-ansi-language: EN-US; mso-fareast-language: EN-US; mso-bidi-language: AR-SA;\">in the ranges Z5051-Z6620 or Z6626-Z8999.&nbsp; These subject bibliograpahies were reclassified with the subject.&nbsp; This policy was changed to expand our general policy of using LC and other acceptable copy without modification. </span></p><p><strong><span style=\"font-size: 9.5pt; font-family: 'Lucida Sans Unicode',sans-serif; color: black; mso-fareast-font-family: Calibri; mso-fareast-theme-font: minor-latin; mso-ansi-language: EN-US; mso-fareast-language: EN-US; mso-bidi-language: AR-SA;\">Physical gift plates</span></strong></p><p><strong><span style=\"font-size: 9.5pt; font-family: 'Lucida Sans Unicode',sans-serif; color: black; mso-fareast-font-family: Calibri; mso-fareast-theme-font: minor-latin; mso-ansi-language: EN-US; mso-fareast-language: EN-US; mso-bidi-language: AR-SA;\"></span></strong><span style=\"font-size: 9.5pt; font-family: 'Lucida Sans Unicode',sans-serif; color: black; mso-fareast-font-family: Calibri; mso-fareast-theme-font: minor-latin; mso-ansi-language: EN-US; mso-fareast-language: EN-US; mso-bidi-language: AR-SA;\">Physical gift plates have been completely replaced by electronic ones.&nbsp; The library no longer pastes plates into books.</span></p>"
         },
         "status" : 1,
         "field_revision" : {
            "revision_translation_affected" : 1,
            "sticky" : 0,
            "default_langcode" : 1,
            "status" : 1,
            "uid" : 1,
            "langcode" : null,
            "created" : null,
            "changed" : null,
            "title" : "Past practices"
         },
         "log" : "",
         "sticky" : 0,
         "comment" : 1
      }
   ]
}

