{
   "nid" : "383",
   "field_tags" : [],
   "path_alias" : {
      "pid" : 574,
      "alias" : "/research/awards/holsti/application-guidelines",
      "language" : "und",
      "status" : 0,
      "langcode" : "und"
   },
   "node_field_data" : {
      "default_langcode" : 1,
      "sticky" : 0,
      "created" : 1378921003,
      "status" : 0,
      "title" : "Holsti Prize Application Guidelines",
      "revision_translation_affected" : 1,
      "uid" : 1,
      "langcode" : "und",
      "promote" : 0,
      "changed" : null,
      "type" : "research_page"
   },
   "node_access" : null,
   "asidebox" : null,
   "vid" : 24819,
   "node__body" : {
      "revision_id" : 24819,
      "body_value" : "<h2>Preparing your application</h2><p><b>To be considered for a 2019 Holsti Prize, email the following as a SINGLE FILE to Ryan Denniston (ryan.denniston@duke.edu)&nbsp;</b><b>by May 15, 2019:</b></p><ul><li>application cover sheet <a href=\"https://duke.box.com/holsti\" target=\"_blank\" title=\"Holsti Prize application cover sheet\">(see form)</a></li><li>paper including bibliography and appendices</li><li>faculty letter of support <a href=\"https://duke.box.com/holsti\" target=\"_blank\" title=\"Holsti Prize application faculty letter\">(see form)</a>.&nbsp;A faculty member or the applicant may send this form.</li></ul><h2>Guidelines</h2><h3>Political Science or Public Policy</h3><p>For your paper to be considered for the Holsti Prize, you must write it for a Duke course, thesis or independent study designated as political science or public policy.</p><h3>Primary Sources</h3><p>You must use primary sources in your paper. You may use primary sources in any format (print, microform, digitized, in a database).</p><p>Examples:</p><ul><li>data sets</li><li>first-person accounts</li><li>government documents</li><li>public opinion polls</li><li>contemporaneous news</li></ul><p>Ask your professor or librarian for help with primary sources.</p><h3>Undergraduate</h3><p>All authors must be Duke undergraduates during the current academic year (Summer 2014, Fall 2014, Spring 2015)</p><h3>Citations</h3><p>Include internal citations and bibliographies that are formatted according to the style manual that your instructor requests or your discipline prefers.&nbsp;</p><h3>Multiple submissions</h3><ul><li>You may submit more than one paper in an academic year.</li><li>You must submit each paper individually with a cover sheet and a faculty letter of support that is specific to the paper.</li></ul><h3>Global Education eligibility</h3><p>If you write a paper during a term abroad, you can submit it for the Holsti Prize as long as the paper was written for a Duke course.</p><h3>Deadline</h3><ul><li>Email all of your materials in a single file by May 15.</li><li>If preferred, faculty may email letters of support separately.</li></ul>",
      "bundle" : "research_page",
      "body_format" : "full_html",
      "delta" : 0,
      "deleted" : 0,
      "langcode" : "und",
      "entity_id" : 383,
      "body_summary" : ""
   },
   "uuid" : "1a025bc7-146d-4eb6-b9ad-85d39e559a19",
   "field_image" : null,
   "type" : "research_page",
   "revisions" : [
      {
         "node_revision__field_tags" : [],
         "title" : "Holsti Prize Application Guidelines",
         "vuuid" : "a75f347b-060a-4bb8-ba3f-cf6453fa38fa",
         "node_revision__body" : {
            "delta" : 0,
            "body_format" : "full_html",
            "bundle" : "research_page",
            "deleted" : 0,
            "revision_id" : 24819,
            "body_value" : "<h2>Preparing your application</h2><p><b>To be considered for a 2019 Holsti Prize, email the following as a SINGLE FILE to Ryan Denniston (ryan.denniston@duke.edu)&nbsp;</b><b>by May 15, 2019:</b></p><ul><li>application cover sheet <a href=\"https://duke.box.com/holsti\" target=\"_blank\" title=\"Holsti Prize application cover sheet\">(see form)</a></li><li>paper including bibliography and appendices</li><li>faculty letter of support <a href=\"https://duke.box.com/holsti\" target=\"_blank\" title=\"Holsti Prize application faculty letter\">(see form)</a>.&nbsp;A faculty member or the applicant may send this form.</li></ul><h2>Guidelines</h2><h3>Political Science or Public Policy</h3><p>For your paper to be considered for the Holsti Prize, you must write it for a Duke course, thesis or independent study designated as political science or public policy.</p><h3>Primary Sources</h3><p>You must use primary sources in your paper. You may use primary sources in any format (print, microform, digitized, in a database).</p><p>Examples:</p><ul><li>data sets</li><li>first-person accounts</li><li>government documents</li><li>public opinion polls</li><li>contemporaneous news</li></ul><p>Ask your professor or librarian for help with primary sources.</p><h3>Undergraduate</h3><p>All authors must be Duke undergraduates during the current academic year (Summer 2014, Fall 2014, Spring 2015)</p><h3>Citations</h3><p>Include internal citations and bibliographies that are formatted according to the style manual that your instructor requests or your discipline prefers.&nbsp;</p><h3>Multiple submissions</h3><ul><li>You may submit more than one paper in an academic year.</li><li>You must submit each paper individually with a cover sheet and a faculty letter of support that is specific to the paper.</li></ul><h3>Global Education eligibility</h3><p>If you write a paper during a term abroad, you can submit it for the Holsti Prize as long as the paper was written for a Duke course.</p><h3>Deadline</h3><ul><li>Email all of your materials in a single file by May 15.</li><li>If preferred, faculty may email letters of support separately.</li></ul>",
            "body_summary" : "",
            "entity_id" : 383,
            "langcode" : "und"
         },
         "field_revision" : {
            "uid" : 1,
            "langcode" : null,
            "status" : 0,
            "created" : null,
            "revision_translation_affected" : 1,
            "sticky" : 0,
            "default_langcode" : 1,
            "title" : "Holsti Prize Application Guidelines",
            "changed" : null
         },
         "status" : 0,
         "log" : "",
         "comment" : 1,
         "sticky" : 0,
         "promote" : 0,
         "uid" : 147,
         "timestamp" : 1554493038
      }
   ],
   "langcode" : "und"
}

