{
   "uuid" : "1a30d178-5080-4075-bf89-cca0f6c092e7",
   "vid" : 18521,
   "node__body" : {
      "langcode" : "und",
      "body_summary" : "",
      "entity_id" : 619,
      "body_format" : "full_html",
      "delta" : 0,
      "bundle" : "page",
      "deleted" : 0,
      "revision_id" : 18521,
      "body_value" : "<p>Duke University Libraries and Ford Library at the Fuqua School of Business are pleased to partner with OverDrive to offer downloadable eBooks and audiobooks that patrons can enjoy on all major computers and devices, including iPhones®, iPads®, Nooks®, Android™ phones and tablets, and Kindles®.</p><p>To get started enjoying our collection, visit <a href=\"https://duke.overdrive.com\" target=\"_blank\">Duke OverDrive</a>. Browse our current selection of titles, and check them out with your NetID. eBooks can be read immediately on any device with an internet browser, and audiobooks can be streamed using the free <a href=\"https://omc.overdrive.com/\" target=\"_blank\">OverDrive Media Console</a>. If you don’t find a title you’re looking for, submit a request directly from any search page using the&nbsp;<img src=\"/sites/default/files/dul/search-find/overdrive-additional-recommend.png\" alt=\"'Additional Titles to Recommend' button\" width=\"176\" height=\"25\"> option. &nbsp;Due to budget considerations, the libraries are not able to purchase every OverDrive request.</p><p><a href=\"https://duke.overdrive.com\" target=\"_blank\" class=\"btn btn-default\">Browse Duke's Collection on OverDrive</a></p>"
   },
   "type" : "page",
   "field_image" : null,
   "revisions" : [
      {
         "node_revision__body" : {
            "deleted" : 0,
            "body_format" : "full_html",
            "delta" : 0,
            "bundle" : "page",
            "body_value" : "<p>Duke University Libraries and Ford Library at the Fuqua School of Business are pleased to partner with OverDrive to offer downloadable eBooks and audiobooks that patrons can enjoy on all major computers and devices, including iPhones®, iPads®, Nooks®, Android™ phones and tablets, and Kindles®.</p><p>To get started enjoying our collection, visit <a href=\"https://duke.overdrive.com\" target=\"_blank\">Duke OverDrive</a>. Browse our current selection of titles, and check them out with your NetID. eBooks can be read immediately on any device with an internet browser, and audiobooks can be streamed using the free <a href=\"https://omc.overdrive.com/\" target=\"_blank\">OverDrive Media Console</a>. If you don’t find a title you’re looking for, submit a request directly from any search page using the&nbsp;<img src=\"/sites/default/files/dul/search-find/overdrive-additional-recommend.png\" alt=\"'Additional Titles to Recommend' button\" width=\"176\" height=\"25\"> option. &nbsp;Due to budget considerations, the libraries are not able to purchase every OverDrive request.</p><p><a href=\"https://duke.overdrive.com\" target=\"_blank\" class=\"btn btn-default\">Browse Duke's Collection on OverDrive</a></p>",
            "revision_id" : 18521,
            "body_summary" : "",
            "entity_id" : 619,
            "langcode" : "und"
         },
         "node_revision__field_tags" : [],
         "vuuid" : "3392260f-254a-47aa-8900-073db5417140",
         "title" : "About OverDrive",
         "log" : "",
         "comment" : 1,
         "sticky" : 0,
         "field_revision" : {
            "default_langcode" : 1,
            "sticky" : 0,
            "revision_translation_affected" : 1,
            "created" : null,
            "uid" : 1,
            "status" : 1,
            "langcode" : null,
            "changed" : null,
            "title" : "About OverDrive"
         },
         "status" : 1,
         "promote" : 0,
         "timestamp" : 1506714446,
         "uid" : 3
      }
   ],
   "langcode" : "und",
   "path_alias" : {
      "langcode" : "und",
      "status" : 0,
      "alias" : "/find/ebooks/overdrive",
      "pid" : 943,
      "language" : "und"
   },
   "node_field_data" : {
      "sticky" : 0,
      "default_langcode" : 1,
      "status" : 1,
      "created" : 1398890108,
      "title" : "About OverDrive",
      "revision_translation_affected" : 1,
      "uid" : 1,
      "langcode" : "und",
      "changed" : null,
      "promote" : 0,
      "type" : "page"
   },
   "field_tags" : [],
   "nid" : "619",
   "asidebox" : {
      "body_value" : "<p>For helpful tools and more information:</p><ul><li><a href=\"http://duke.lib.overdrive.com/Help.htm\">OverDrive Help</a></li><li><a href=\"http://library.duke.edu/research/ask\">Ask a Librarian</a></li></ul>",
      "block_module" : null,
      "body_format" : "full_html",
      "vid" : 18521,
      "bid" : null,
      "nid" : 619,
      "body_title" : "",
      "status" : "html",
      "block_delta" : null
   },
   "node_access" : null
}

