{
   "asidebox" : {
      "status" : "html",
      "block_delta" : null,
      "body_value" : "<p><a href=\"http://library.duke.edu/data/guides\" target=\"_blank\">Data and Visualization Guides</a></p><p><a href=\"https://mclibrary.duke.edu/subject-guides-tool-sets\" target=\"_blank\">Health and Medical Sciences</a></p><p><a href=\"http://guides.library.duke.edu/history-science-technology\" target=\"_blank\">History of Science &amp; Technology</a></p>",
      "block_module" : null,
      "body_format" : "full_html",
      "bid" : null,
      "vid" : 21419,
      "body_title" : "Other Helpful Guides",
      "nid" : 705
   },
   "node_access" : null,
   "field_tags" : [],
   "node_field_data" : {
      "type" : "research_page",
      "promote" : 0,
      "changed" : null,
      "uid" : 1,
      "langcode" : "und",
      "revision_translation_affected" : 1,
      "title" : "Science Research Guides",
      "status" : 1,
      "created" : 1413303549,
      "sticky" : 0,
      "default_langcode" : 1
   },
   "path_alias" : {
      "language" : "und",
      "pid" : 1083,
      "alias" : "/research/science/science-guides",
      "langcode" : "und",
      "status" : 0
   },
   "nid" : "705",
   "langcode" : "und",
   "revisions" : [
      {
         "node_revision__body" : {
            "bundle" : "research_page",
            "body_format" : "full_html",
            "delta" : 0,
            "deleted" : 0,
            "body_value" : "<h3>Brain &amp; Behaviour</h3><div><a href=\"https://guides.library.duke.edu/neuroscience\" target=\"_blank\"> Neuroscience </a></div><div><a href=\"https://guides.library.duke.edu/psychology\" target=\"_blank\"> Psychology </a></div><h3>Engineering</h3><div><a href=\"https://guides.library.duke.edu/biomed\" target=\"_blank\"> Biomedical Engineering </a></div><div><a href=\"https://guides.library.duke.edu/civil\" target=\"_blank\"> Civil &amp; Environmental Engineering </a></div><div><a href=\"https://guides.library.duke.edu/elec\" target=\"_blank\"> Electrical &amp; Computer Engineering </a></div><div><a href=\"https://guides.library.duke.edu/engr\" target=\"_blank\"> Engineering Resources </a> &nbsp;</div><div><a href=\"https://guides.library.duke.edu/mech\" target=\"_blank\"> Mechanical Engineering and Materials Science </a></div><h3>Life Sciences</h3><div><a href=\"https://guides.library.duke.edu/biology\" target=\"_blank\"> Biology </a></div><div><a href=\"https://guides.library.duke.edu/environment\" target=\"_blank\"> Environmental Sciences </a></div><div><a href=\"https://guides.library.duke.edu/evolutionary\" target=\"_blank\"> Evolutionary Anthropology </a></div><div><a href=\"https://guides.library.duke.edu/marinescience\" target=\"_blank\"> Marine Science </a></div><div></div><h3>Mathematics &amp; Statistical Science</h3><div><a href=\"https://guides.library.duke.edu/cs\" target=\"_blank\"> Computer Science </a></div><div><a href=\"https://guides.library.duke.edu/math\" target=\"_blank\"> Mathematics </a></div><div><a href=\"https://guides.library.duke.edu/stats\" target=\"_blank\"> Statistical Science </a></div><h3>Physical Sciences</h3><div><a href=\"https://guides.library.duke.edu/astro\" target=\"_blank\"> Astronomy and Astrophysics </a></div><div><a href=\"https://guides.library.duke.edu/chemistry\" target=\"_blank\"> Chemistry </a></div><div><a href=\"https://guides.library.duke.edu/eos\" target=\"_blank\"> Earth and Ocean Sciences </a></div><div><a href=\"https://guides.library.duke.edu/physics\" target=\"_blank\"> Physics </a></div><h2></h2>",
            "revision_id" : 21419,
            "body_summary" : "",
            "entity_id" : 705,
            "langcode" : "und"
         },
         "vuuid" : "37681f07-2051-4bd2-b1d6-9d2d93ea585d",
         "title" : "Science Research Guides",
         "node_revision__field_tags" : [],
         "log" : "",
         "sticky" : 0,
         "comment" : 1,
         "status" : 1,
         "field_revision" : {
            "status" : 1,
            "uid" : 1,
            "langcode" : null,
            "created" : null,
            "sticky" : 0,
            "revision_translation_affected" : 1,
            "default_langcode" : 1,
            "title" : "Science Research Guides",
            "changed" : null
         },
         "promote" : 0,
         "timestamp" : 1520876710,
         "uid" : 2045
      }
   ],
   "field_image" : null,
   "type" : "research_page",
   "node__body" : {
      "bundle" : "research_page",
      "body_format" : "full_html",
      "delta" : 0,
      "deleted" : 0,
      "body_value" : "<h3>Brain &amp; Behaviour</h3><div><a href=\"https://guides.library.duke.edu/neuroscience\" target=\"_blank\"> Neuroscience </a></div><div><a href=\"https://guides.library.duke.edu/psychology\" target=\"_blank\"> Psychology </a></div><h3>Engineering</h3><div><a href=\"https://guides.library.duke.edu/biomed\" target=\"_blank\"> Biomedical Engineering </a></div><div><a href=\"https://guides.library.duke.edu/civil\" target=\"_blank\"> Civil &amp; Environmental Engineering </a></div><div><a href=\"https://guides.library.duke.edu/elec\" target=\"_blank\"> Electrical &amp; Computer Engineering </a></div><div><a href=\"https://guides.library.duke.edu/engr\" target=\"_blank\"> Engineering Resources </a> &nbsp;</div><div><a href=\"https://guides.library.duke.edu/mech\" target=\"_blank\"> Mechanical Engineering and Materials Science </a></div><h3>Life Sciences</h3><div><a href=\"https://guides.library.duke.edu/biology\" target=\"_blank\"> Biology </a></div><div><a href=\"https://guides.library.duke.edu/environment\" target=\"_blank\"> Environmental Sciences </a></div><div><a href=\"https://guides.library.duke.edu/evolutionary\" target=\"_blank\"> Evolutionary Anthropology </a></div><div><a href=\"https://guides.library.duke.edu/marinescience\" target=\"_blank\"> Marine Science </a></div><div></div><h3>Mathematics &amp; Statistical Science</h3><div><a href=\"https://guides.library.duke.edu/cs\" target=\"_blank\"> Computer Science </a></div><div><a href=\"https://guides.library.duke.edu/math\" target=\"_blank\"> Mathematics </a></div><div><a href=\"https://guides.library.duke.edu/stats\" target=\"_blank\"> Statistical Science </a></div><h3>Physical Sciences</h3><div><a href=\"https://guides.library.duke.edu/astro\" target=\"_blank\"> Astronomy and Astrophysics </a></div><div><a href=\"https://guides.library.duke.edu/chemistry\" target=\"_blank\"> Chemistry </a></div><div><a href=\"https://guides.library.duke.edu/eos\" target=\"_blank\"> Earth and Ocean Sciences </a></div><div><a href=\"https://guides.library.duke.edu/physics\" target=\"_blank\"> Physics </a></div><h2></h2>",
      "revision_id" : 21419,
      "langcode" : "und",
      "body_summary" : "",
      "entity_id" : 705
   },
   "vid" : 21419,
   "uuid" : "1a49c879-5065-444c-a36c-b3b856ac27f6"
}

