{
   "revisions" : [
      {
         "promote" : 0,
         "uid" : 2213,
         "timestamp" : 1587429624,
         "node_revision__field_tags" : [],
         "title" : "Beyond Cities",
         "vuuid" : "f2da9596-fe59-4df6-986d-64baec5de4e4",
         "node_revision__body" : {
            "revision_id" : 11089,
            "body_value" : "<p><strong>An exhibit of photographs exploring the urban environment by student Michal Koszycki, class of 2010. Meaning and form intersect at different levels of intensity from road signs and billboards to piers supporting a highway.</strong></p><p>Michal Koszycki, class of 2010</p><p>It excites me to explore the urban environment. The Camera allows me to document the first impression, the first interaction with the urban form. On that level I am mute. I don't fully participate in the city.&nbsp; I am foreign. I visit it for the first time. From behind the lens I can resist being pulled into its internal life and operations. This perspective frames the city:&nbsp; it both reduces and enhances my experience.</p><p>I pass through cities. I move along like a foreign particle through the organism's bloodstream.&nbsp; I am pushed through, together with the many people that seem to think that the city concerns them in some internal way.&nbsp; As I pass I see an overwhelming variety of surprises.&nbsp; Meaning and form intersect at different levels of intensity from road signs and billboards to piers supporting a highway.&nbsp; The result is a complicated medium that becomes a total living environment.&nbsp; My photographs are an evidence of wonder at the material presence of the city as well as an attempt to capture how the forms necessarily mean things.&nbsp; I necessarily conceive of the city that faces me.&nbsp;</p><p></p><p>The networks of material form and meaning are never complete. The fanatic excitement feeds of accident-a bird passing by.</p>",
            "delta" : 0,
            "body_format" : "full_html",
            "bundle" : "exhibit",
            "deleted" : 0,
            "langcode" : "und",
            "entity_id" : 1101,
            "body_summary" : ""
         },
         "field_revision" : {
            "changed" : null,
            "title" : "Beyond Cities",
            "sticky" : 0,
            "revision_translation_affected" : 1,
            "default_langcode" : 1,
            "uid" : 1,
            "status" : 1,
            "langcode" : null,
            "created" : null
         },
         "status" : 1,
         "comment" : 1,
         "sticky" : 0,
         "log" : ""
      }
   ],
   "vid" : 11089,
   "node__body" : {
      "langcode" : "und",
      "entity_id" : 1101,
      "body_summary" : "",
      "body_value" : "<p><strong>An exhibit of photographs exploring the urban environment by student Michal Koszycki, class of 2010. Meaning and form intersect at different levels of intensity from road signs and billboards to piers supporting a highway.</strong></p><p>Michal Koszycki, class of 2010</p><p>It excites me to explore the urban environment. The Camera allows me to document the first impression, the first interaction with the urban form. On that level I am mute. I don't fully participate in the city.&nbsp; I am foreign. I visit it for the first time. From behind the lens I can resist being pulled into its internal life and operations. This perspective frames the city:&nbsp; it both reduces and enhances my experience.</p><p>I pass through cities. I move along like a foreign particle through the organism's bloodstream.&nbsp; I am pushed through, together with the many people that seem to think that the city concerns them in some internal way.&nbsp; As I pass I see an overwhelming variety of surprises.&nbsp; Meaning and form intersect at different levels of intensity from road signs and billboards to piers supporting a highway.&nbsp; The result is a complicated medium that becomes a total living environment.&nbsp; My photographs are an evidence of wonder at the material presence of the city as well as an attempt to capture how the forms necessarily mean things.&nbsp; I necessarily conceive of the city that faces me.&nbsp;</p><p></p><p>The networks of material form and meaning are never complete. The fanatic excitement feeds of accident-a bird passing by.</p>",
      "revision_id" : 11089,
      "deleted" : 0,
      "body_format" : "full_html",
      "bundle" : "exhibit",
      "delta" : 0
   },
   "field_image" : {
      "field_image_title" : "",
      "entity_id" : 1101,
      "field_image_target_id" : 1677,
      "revision_id" : 11089,
      "field_image_fid" : 1677,
      "deleted" : 0,
      "file_uuid" : "190b3a04-c1b0-472d-ab07-e2628280e64b",
      "language" : "und",
      "langcode" : "und",
      "field_image_height" : 453,
      "entity_type" : "node",
      "delta" : 0,
      "bundle" : "exhibit",
      "field_image_width" : 604,
      "field_image_alt" : ""
   },
   "nid" : "1101",
   "asidebox" : null,
   "langcode" : "und",
   "uuid" : "1c891cbf-9cdd-447e-ae11-9921ae343e6d",
   "type" : "exhibit",
   "node__field_image" : {},
   "path_alias" : {
      "langcode" : "und",
      "status" : 0,
      "pid" : 1591,
      "alias" : "/exhibits/2010/beyond-cities",
      "language" : "und"
   },
   "node_field_data" : {
      "promote" : 0,
      "changed" : null,
      "type" : "exhibit",
      "revision_translation_affected" : 1,
      "langcode" : "und",
      "uid" : 1,
      "title" : "Beyond Cities",
      "sticky" : 0,
      "default_langcode" : 1,
      "status" : 1,
      "created" : 1439231562
   },
   "field_tags" : [],
   "node_access" : null
}

