{
   "nid" : "461",
   "path_alias" : {
      "alias" : "/about/strategic-plan-2010-2015/spaces",
      "pid" : 664,
      "language" : "und",
      "status" : 0,
      "langcode" : "und"
   },
   "node_field_data" : {
      "langcode" : "und",
      "uid" : 1,
      "revision_translation_affected" : 1,
      "type" : "about_page",
      "promote" : 0,
      "changed" : null,
      "created" : 1381438942,
      "status" : 1,
      "default_langcode" : 1,
      "sticky" : 0,
      "title" : "Enhance Library Spaces"
   },
   "field_tags" : [],
   "node_access" : null,
   "asidebox" : {
      "block_delta" : "38",
      "status" : "block",
      "nid" : 461,
      "body_title" : "",
      "bid" : 718,
      "vid" : 18497,
      "body_format" : null,
      "body_value" : null,
      "block_module" : "block"
   },
   "uuid" : "2021e81e-6a12-432f-bbb2-cfa105474cb2",
   "node__body" : {
      "langcode" : "und",
      "body_summary" : "",
      "entity_id" : 461,
      "delta" : 0,
      "body_format" : "full_html_no_wysiwyg",
      "bundle" : "about_page",
      "deleted" : 0,
      "body_value" : "<style type=\"text/css\">\r\nul.nav-tabs {background:none;}\r\n.spnavig {border-bottom:rgb(221, 221, 221) 1px solid !important}\r\n</style>\r\n\r\n\r\n<p>\r\n    <img src=\"/sites/default/files/dul/about/libraryspaces1.jpg\" alt=\"Ensure that the Libraries' use of physical space develops in coordination with the evolution of the teaching and research needs of the University.\"\r\n    class=\"img-rounded img-responsive\" height=\"300\" width=\"700\">\r\n</p>\r\n<p>\r\n</p>\r\n<p>\r\n</p>\r\n<div class=\"img-rounded\" style=\"display: block; padding-top: 10px; width: 680px; height: 50px; text-align: left; padding-left: 20px; color: #333333; text-shadow: 0px 1px 1px rgba(255, 255, 255, 0.75); background-color: #f5f5f5; background-image: linear-gradient(to bottom, #ffffff, #e6e6e6); background-repeat: repeat-x; border-width: 1px; border-style: solid; border-color: #cccccc #cccccc #b3b3b3; -moz-border-top-colors: none; -moz-border-right-colors: none; -moz-border-bottom-colors: none; -moz-border-left-colors: none; border-image: none; box-shadow: 0px 1px 0px rgba(255, 255, 255, 0.2) inset, 0px 1px 2px rgba(0, 0, 0, 0.05);\" id=\"nav\">\r\n    \r\n<ul class=\"nav nav-tabs\">\r\n\r\n<li><a href=\"#goals\" data-toggle=\"tab\" class=\"spnavig\">\r\n            Goals\r\n        </a></li><li>\r\n    <a a href=\"#activities\" data-toggle=\"tab\" class=\"spnavig\">\r\n            Activities\r\n        </a></li></ul>\r\n\r\n</div>\r\n<p>\r\n</p>\r\n<div class=\"tab-content\">\r\n    <div class=\"tab-pane active\" id=\"goals\">\r\n        <h2>\r\n            Goals for Enhancing Library Spaces\r\n        </h2>\r\n        <h5 style=\"margin-bottom: 25px;\">\r\n            Ensure that the Libraries’ physical space develops in coordination with the evolution of the teaching and research needs\r\n            of the University.\r\n        </h5>\r\n        <ul class=\"list-unstyled spacing-xl\">\r\n            <li>\r\n                <span class=\"badge badge-info\">\r\n                    5.1\r\n                </span>\r\n                <strong>\r\n                    Complete the Perkins Project, a way of continuing to adapt Libraries spaces to user needs.\r\n                </strong>\r\n                <ul class=\"bullet-green\">\r\n                    <li>\r\n                        Initiate the renovation of the 1928 and 1948 portions of the Perkins Library to provide enhanced spaces for instruction,\r\n                        research, exhibition and curation of Special Collections materials.\r\n                    </li>\r\n                    <li>\r\n                        Create humanities labs and other collaborative spaces for faculty and students.\r\n                    </li>\r\n                </ul>\r\n            </li>\r\n            <li>\r\n                <span class=\"badge badge-info\">\r\n                    5.2\r\n                </span>\r\n                <strong>\r\n                    Regularly assess space usage in all Libraries locations and align space planning with evolving user needs.\r\n                </strong>\r\n                <ul class=\"bullet-green\">\r\n                    <li>\r\n                        Implement a plan to assess on a regular basis how effectively Libraries spaces serve the needs of different user populations\r\n                        and how resources should be allocated in those spaces.\r\n                    </li>\r\n                </ul>\r\n            </li>\r\n        </ul>\r\n    </div>\r\n    <div class=\"tab-pane\" id=\"activities\">\r\n        <h2>\r\n            Activities Pertaining to Enhancing Library Spaces\r\n        </h2>\r\n        <ul>\r\n            <li>\r\n                Raising funds for the completion of the\r\n                <a href=\"https://blogs.library.duke.edu/renovation/\">\r\n                    Perkins Project\r\n                </a>\r\n                .\r\n            </li>\r\n            <li>\r\n                Planning new spaces to support student multimedia development.\r\n            </li>\r\n        </ul>\r\n    </div>\r\n    <p>\r\n        <br>\r\n        <br>\r\n        <br>\r\n        <a href=\"/support\" class=\"btn btn-primary\">\r\n            Support the Duke Libraries »\r\n        </a>\r\n    </p>\r\n</div>",
      "revision_id" : 18497
   },
   "vid" : 18497,
   "type" : "about_page",
   "field_image" : null,
   "revisions" : [
      {
         "uid" : 3,
         "timestamp" : 1506712412,
         "promote" : 0,
         "field_revision" : {
            "sticky" : 0,
            "revision_translation_affected" : 1,
            "default_langcode" : 1,
            "status" : 1,
            "uid" : 1,
            "langcode" : null,
            "created" : null,
            "changed" : null,
            "title" : "Enhance Library Spaces"
         },
         "status" : 1,
         "comment" : 1,
         "sticky" : 0,
         "log" : "",
         "node_revision__field_tags" : [],
         "vuuid" : "bf0e67c3-5ded-4f3b-99fa-508daff2c8a4",
         "title" : "Enhance Library Spaces",
         "node_revision__body" : {
            "entity_id" : 461,
            "body_summary" : "",
            "langcode" : "und",
            "revision_id" : 18497,
            "body_value" : "<style type=\"text/css\">\r\nul.nav-tabs {background:none;}\r\n.spnavig {border-bottom:rgb(221, 221, 221) 1px solid !important}\r\n</style>\r\n\r\n\r\n<p>\r\n    <img src=\"/sites/default/files/dul/about/libraryspaces1.jpg\" alt=\"Ensure that the Libraries' use of physical space develops in coordination with the evolution of the teaching and research needs of the University.\"\r\n    class=\"img-rounded img-responsive\" height=\"300\" width=\"700\">\r\n</p>\r\n<p>\r\n</p>\r\n<p>\r\n</p>\r\n<div class=\"img-rounded\" style=\"display: block; padding-top: 10px; width: 680px; height: 50px; text-align: left; padding-left: 20px; color: #333333; text-shadow: 0px 1px 1px rgba(255, 255, 255, 0.75); background-color: #f5f5f5; background-image: linear-gradient(to bottom, #ffffff, #e6e6e6); background-repeat: repeat-x; border-width: 1px; border-style: solid; border-color: #cccccc #cccccc #b3b3b3; -moz-border-top-colors: none; -moz-border-right-colors: none; -moz-border-bottom-colors: none; -moz-border-left-colors: none; border-image: none; box-shadow: 0px 1px 0px rgba(255, 255, 255, 0.2) inset, 0px 1px 2px rgba(0, 0, 0, 0.05);\" id=\"nav\">\r\n    \r\n<ul class=\"nav nav-tabs\">\r\n\r\n<li><a href=\"#goals\" data-toggle=\"tab\" class=\"spnavig\">\r\n            Goals\r\n        </a></li><li>\r\n    <a a href=\"#activities\" data-toggle=\"tab\" class=\"spnavig\">\r\n            Activities\r\n        </a></li></ul>\r\n\r\n</div>\r\n<p>\r\n</p>\r\n<div class=\"tab-content\">\r\n    <div class=\"tab-pane active\" id=\"goals\">\r\n        <h2>\r\n            Goals for Enhancing Library Spaces\r\n        </h2>\r\n        <h5 style=\"margin-bottom: 25px;\">\r\n            Ensure that the Libraries’ physical space develops in coordination with the evolution of the teaching and research needs\r\n            of the University.\r\n        </h5>\r\n        <ul class=\"list-unstyled spacing-xl\">\r\n            <li>\r\n                <span class=\"badge badge-info\">\r\n                    5.1\r\n                </span>\r\n                <strong>\r\n                    Complete the Perkins Project, a way of continuing to adapt Libraries spaces to user needs.\r\n                </strong>\r\n                <ul class=\"bullet-green\">\r\n                    <li>\r\n                        Initiate the renovation of the 1928 and 1948 portions of the Perkins Library to provide enhanced spaces for instruction,\r\n                        research, exhibition and curation of Special Collections materials.\r\n                    </li>\r\n                    <li>\r\n                        Create humanities labs and other collaborative spaces for faculty and students.\r\n                    </li>\r\n                </ul>\r\n            </li>\r\n            <li>\r\n                <span class=\"badge badge-info\">\r\n                    5.2\r\n                </span>\r\n                <strong>\r\n                    Regularly assess space usage in all Libraries locations and align space planning with evolving user needs.\r\n                </strong>\r\n                <ul class=\"bullet-green\">\r\n                    <li>\r\n                        Implement a plan to assess on a regular basis how effectively Libraries spaces serve the needs of different user populations\r\n                        and how resources should be allocated in those spaces.\r\n                    </li>\r\n                </ul>\r\n            </li>\r\n        </ul>\r\n    </div>\r\n    <div class=\"tab-pane\" id=\"activities\">\r\n        <h2>\r\n            Activities Pertaining to Enhancing Library Spaces\r\n        </h2>\r\n        <ul>\r\n            <li>\r\n                Raising funds for the completion of the\r\n                <a href=\"https://blogs.library.duke.edu/renovation/\">\r\n                    Perkins Project\r\n                </a>\r\n                .\r\n            </li>\r\n            <li>\r\n                Planning new spaces to support student multimedia development.\r\n            </li>\r\n        </ul>\r\n    </div>\r\n    <p>\r\n        <br>\r\n        <br>\r\n        <br>\r\n        <a href=\"/support\" class=\"btn btn-primary\">\r\n            Support the Duke Libraries »\r\n        </a>\r\n    </p>\r\n</div>",
            "deleted" : 0,
            "body_format" : "full_html_no_wysiwyg",
            "bundle" : "about_page",
            "delta" : 0
         }
      }
   ],
   "langcode" : "und"
}

