{
   "uuid" : "20bf711b-2029-42d7-bc9e-16970d488c33",
   "vid" : 19535,
   "node__body" : null,
   "type" : "exhibit",
   "field_image" : null,
   "revisions" : [
      {
         "node_revision__field_tags" : [],
         "vuuid" : "29b706a0-b219-48a9-9b09-c2d4e24b108c",
         "title" : "August 2018 (available)",
         "node_revision__body" : {
            "langcode" : null
         },
         "field_revision" : {
            "changed" : null,
            "title" : "August 2018 (available)",
            "revision_translation_affected" : 1,
            "sticky" : 0,
            "default_langcode" : 1,
            "uid" : 1,
            "langcode" : null,
            "status" : 1,
            "created" : null
         },
         "status" : 1,
         "log" : "",
         "comment" : 1,
         "sticky" : 0,
         "promote" : 0,
         "uid" : 3,
         "timestamp" : 1538401297
      }
   ],
   "langcode" : "und",
   "node_field_data" : {
      "changed" : null,
      "promote" : 0,
      "type" : "exhibit",
      "revision_translation_affected" : 1,
      "langcode" : "und",
      "uid" : 1,
      "title" : "August 2018 (available)",
      "default_langcode" : 1,
      "sticky" : 0,
      "created" : 1510609145,
      "status" : 1
   },
   "path_alias" : {
      "alias" : "/content/august-2018-available",
      "pid" : 4047,
      "language" : "und",
      "status" : 0,
      "langcode" : "und"
   },
   "field_tags" : [],
   "nid" : "1797",
   "asidebox" : null,
   "node_access" : null
}

