{
   "node__field_image" : {},
   "field_tags" : [],
   "path_alias" : {
      "langcode" : "und",
      "status" : 0,
      "language" : "und",
      "alias" : "/exhibits/2010/conservation",
      "pid" : 1613
   },
   "node_field_data" : {
      "revision_translation_affected" : 1,
      "uid" : 1,
      "langcode" : "und",
      "promote" : 0,
      "changed" : null,
      "type" : "exhibit",
      "default_langcode" : 1,
      "sticky" : 0,
      "created" : 1439236825,
      "status" : 1,
      "title" : "10 Years, 10 Treatments"
   },
   "node_access" : null,
   "langcode" : "und",
   "uuid" : "215f3bea-62f6-434c-a6c3-7c9f9771f1f2",
   "type" : "exhibit",
   "nid" : "1123",
   "asidebox" : null,
   "revisions" : [
      {
         "timestamp" : 1587056502,
         "uid" : 3,
         "promote" : 0,
         "log" : "",
         "sticky" : 0,
         "comment" : 1,
         "status" : 1,
         "field_revision" : {
            "created" : null,
            "uid" : 1,
            "langcode" : null,
            "status" : 1,
            "default_langcode" : 1,
            "sticky" : 0,
            "revision_translation_affected" : 1,
            "title" : "10 Years, 10 Treatments",
            "changed" : null
         },
         "node_revision__body" : {
            "revision_id" : 11111,
            "body_value" : "<p>This year marks the Preservation Department's tenth year serving the Duke University Libraries. This exhibit celebrates the work of the conservation laboratory by displaying a variety of different treatments from the libraries collections. &nbsp;The department is planning several events to mark the occasion which includes this exhibit, an open house, and interviews with staff members; for more information visit their blog Preservation Underground .</p>",
            "deleted" : 0,
            "body_format" : "full_html",
            "bundle" : "exhibit",
            "delta" : 0,
            "langcode" : "und",
            "entity_id" : 1123,
            "body_summary" : ""
         },
         "title" : "10 Years, 10 Treatments",
         "vuuid" : "798988e7-486b-477f-8814-a32dec95d8e6",
         "node_revision__field_tags" : []
      }
   ],
   "node__body" : {
      "body_summary" : "",
      "entity_id" : 1123,
      "langcode" : "und",
      "body_format" : "full_html",
      "delta" : 0,
      "bundle" : "exhibit",
      "deleted" : 0,
      "revision_id" : 11111,
      "body_value" : "<p>This year marks the Preservation Department's tenth year serving the Duke University Libraries. This exhibit celebrates the work of the conservation laboratory by displaying a variety of different treatments from the libraries collections. &nbsp;The department is planning several events to mark the occasion which includes this exhibit, an open house, and interviews with staff members; for more information visit their blog Preservation Underground .</p>"
   },
   "vid" : 11111,
   "field_image" : {
      "field_image_height" : 516,
      "entity_type" : "node",
      "langcode" : "und",
      "field_image_alt" : "",
      "field_image_width" : 645,
      "bundle" : "exhibit",
      "delta" : 0,
      "entity_id" : 1123,
      "field_image_target_id" : 1697,
      "field_image_title" : "",
      "language" : "und",
      "file_uuid" : "d792dd8f-c2ee-4f81-adf3-ec6bb072d951",
      "revision_id" : 11111,
      "field_image_fid" : 1697,
      "deleted" : 0
   }
}

