{
   "asidebox" : {
      "status" : "disabled",
      "block_delta" : null,
      "block_module" : null,
      "body_value" : null,
      "body_format" : null,
      "vid" : 4037,
      "bid" : null,
      "nid" : 453,
      "body_title" : ""
   },
   "node_access" : {
      "grant_view" : 1,
      "grant_update" : 0,
      "nid" : 453,
      "grant_delete" : 0,
      "realm" : "all",
      "langcode" : "und",
      "gid" : 0
   },
   "node_field_data" : {
      "default_langcode" : 1,
      "sticky" : 0,
      "created" : 1381429489,
      "status" : 1,
      "title" : "Request a Search for Missing Book: Thanks",
      "revision_translation_affected" : 1,
      "uid" : 1,
      "langcode" : "und",
      "promote" : 0,
      "changed" : null,
      "type" : "page"
   },
   "path_alias" : {
      "alias" : "/services/forms/booksearch-thanks",
      "pid" : 655,
      "language" : "und",
      "langcode" : "und",
      "status" : 0
   },
   "field_tags" : [],
   "nid" : "453",
   "type" : "page",
   "field_image" : null,
   "uuid" : "21f2f9b5-c414-4af4-85e1-81532822bd5b",
   "vid" : 4037,
   "node__body" : {
      "langcode" : "und",
      "body_summary" : "",
      "entity_id" : 453,
      "delta" : 0,
      "body_format" : "full_html",
      "bundle" : "page",
      "deleted" : 0,
      "revision_id" : 4037,
      "body_value" : "<p>Your request will be processed within one business day.</p>"
   },
   "langcode" : "und",
   "revisions" : [
      {
         "log" : "",
         "sticky" : 0,
         "comment" : 1,
         "status" : 1,
         "field_revision" : {
            "revision_translation_affected" : 1,
            "sticky" : 0,
            "default_langcode" : 1,
            "uid" : 1,
            "status" : 1,
            "langcode" : null,
            "created" : null,
            "changed" : null,
            "title" : "Request a Search for Missing Book: Thanks"
         },
         "node_revision__body" : {
            "body_value" : "<p>Your request will be processed within one business day.</p>",
            "revision_id" : 4037,
            "body_format" : "full_html",
            "delta" : 0,
            "bundle" : "page",
            "deleted" : 0,
            "entity_id" : 453,
            "body_summary" : "",
            "langcode" : "und"
         },
         "vuuid" : "25ce15ae-7c48-4953-b2a0-d58e151f2f7b",
         "title" : "Request a Search for Missing Book: Thanks",
         "node_revision__field_tags" : [],
         "timestamp" : 1381429621,
         "uid" : 25,
         "promote" : 0
      }
   ]
}

