{
   "asidebox" : null,
   "nid" : "1047",
   "revisions" : [
      {
         "node_revision__field_tags" : [],
         "vuuid" : "7aee13cf-ec87-4faa-969d-61d51ec2b313",
         "title" : "Chinese Paintings from the Kingdom of Min",
         "node_revision__body" : {
            "body_summary" : "",
            "entity_id" : 1047,
            "langcode" : "und",
            "body_format" : "full_html",
            "delta" : 0,
            "bundle" : "exhibit",
            "deleted" : 0,
            "body_value" : "<p>Paintings from the collection of Professor Paul Wang.</p><p></p><hr><p></p><p><a href=\"https://guides.library.duke.edu/chinesepainting\" target=\"_blank\"></a>The online exhibit is no longer available, but an archived version <a href=\"https://web.archive.org/web/20091019081151/http:/library.duke.edu/exhibits/chinesepaintings/index.html\">can be viewed at the Internet Archive</a>.<a href=\"https://web.archive.org/web/20091019081151/http:/library.duke.edu/exhibits/chinesepaintings/index.html\" target=\"_blank\"><br></a></p><p>For more bibliographic information,&nbsp;<a href=\"https://guides.library.duke.edu/chinesepainting\">view the research guide</a>.</p>",
            "revision_id" : 11031
         },
         "field_revision" : {
            "sticky" : 0,
            "revision_translation_affected" : 1,
            "default_langcode" : 1,
            "langcode" : null,
            "uid" : 1,
            "status" : 1,
            "created" : null,
            "changed" : null,
            "title" : "Chinese Paintings from the Kingdom of Min"
         },
         "status" : 1,
         "log" : "",
         "comment" : 1,
         "sticky" : 0,
         "promote" : 0,
         "uid" : 3,
         "timestamp" : 1612551153
      }
   ],
   "field_image" : {
      "field_image_target_id" : 1623,
      "entity_id" : 1047,
      "field_image_title" : "",
      "language" : "und",
      "file_uuid" : "998c99b4-0f3c-42c6-b70f-b12dde498f28",
      "deleted" : 0,
      "revision_id" : 11031,
      "field_image_fid" : 1623,
      "entity_type" : "node",
      "field_image_height" : 600,
      "langcode" : "und",
      "field_image_width" : 460,
      "field_image_alt" : "",
      "delta" : 0,
      "bundle" : "exhibit"
   },
   "vid" : 11031,
   "node__body" : {
      "langcode" : "und",
      "entity_id" : 1047,
      "body_summary" : "",
      "body_value" : "<p>Paintings from the collection of Professor Paul Wang.</p><p></p><hr><p></p><p><a href=\"https://guides.library.duke.edu/chinesepainting\" target=\"_blank\"></a>The online exhibit is no longer available, but an archived version <a href=\"https://web.archive.org/web/20091019081151/http:/library.duke.edu/exhibits/chinesepaintings/index.html\">can be viewed at the Internet Archive</a>.<a href=\"https://web.archive.org/web/20091019081151/http:/library.duke.edu/exhibits/chinesepaintings/index.html\" target=\"_blank\"><br></a></p><p>For more bibliographic information,&nbsp;<a href=\"https://guides.library.duke.edu/chinesepainting\">view the research guide</a>.</p>",
      "revision_id" : 11031,
      "deleted" : 0,
      "bundle" : "exhibit",
      "body_format" : "full_html",
      "delta" : 0
   },
   "node__field_image" : {},
   "node_access" : null,
   "node_field_data" : {
      "changed" : null,
      "promote" : 0,
      "type" : "exhibit",
      "revision_translation_affected" : 1,
      "langcode" : "und",
      "uid" : 1,
      "title" : "Chinese Paintings from the Kingdom of Min",
      "default_langcode" : 1,
      "sticky" : 0,
      "created" : 1438873859,
      "status" : 1
   },
   "path_alias" : {
      "alias" : "/exhibits/2009/chinese-paintings",
      "pid" : 1537,
      "language" : "und",
      "status" : 0,
      "langcode" : "und"
   },
   "field_tags" : [],
   "langcode" : "und",
   "type" : "exhibit",
   "uuid" : "22df678c-596f-4a4e-8b60-22f1d877985c"
}

