{
   "node_access" : null,
   "asidebox" : {
      "nid" : 2321,
      "body_title" : "",
      "vid" : 26585,
      "bid" : null,
      "body_format" : null,
      "body_value" : null,
      "block_module" : null,
      "block_delta" : null,
      "status" : "disabled"
   },
   "nid" : "2321",
   "node_field_data" : {
      "revision_translation_affected" : 1,
      "uid" : 1,
      "langcode" : "und",
      "changed" : null,
      "promote" : 0,
      "type" : "about_page",
      "sticky" : 0,
      "default_langcode" : 1,
      "status" : 1,
      "created" : 1565968377,
      "title" : "Digital Swag / Physician Engraving"
   },
   "path_alias" : {
      "pid" : 4493,
      "alias" : "/about/digital-swag/physician-engraving",
      "language" : "und",
      "status" : 0,
      "langcode" : "und"
   },
   "field_tags" : [],
   "langcode" : "und",
   "revisions" : [
      {
         "uid" : 60,
         "timestamp" : 1566238818,
         "promote" : 0,
         "field_revision" : {
            "default_langcode" : 1,
            "revision_translation_affected" : 1,
            "sticky" : 0,
            "created" : null,
            "uid" : 1,
            "langcode" : null,
            "status" : 1,
            "changed" : null,
            "title" : "Digital Swag / Physician Engraving"
         },
         "status" : 1,
         "log" : "",
         "comment" : 1,
         "sticky" : 0,
         "node_revision__field_tags" : [],
         "vuuid" : "64db9154-ae8e-4c6b-aa61-15bea39cc367",
         "title" : "Digital Swag / Physician Engraving",
         "node_revision__body" : {
            "langcode" : "und",
            "body_summary" : "",
            "entity_id" : 2321,
            "deleted" : 0,
            "body_format" : "full_html_no_wysiwyg",
            "delta" : 0,
            "bundle" : "about_page",
            "body_value" : "<p><a href=\"https://library.duke.edu/about/digital-swag\"><button type=\"button\" class=\"btn btn-info btn-sm\">← Digital Swag Themes</button></a></p><h4>Clemens Kohl was a a prolific illustrator and engraver from the eighteenth century. This engraving of a physician and his collection of medical curiosities comes from <em>Die Welt in Bildern (The World in Pictures)</em> by Joseph Edlem von Baumeister. From the Rubenstein Library's History of Medicine Collections.</h4><br/><h4><em>Click the thumbnail to view the full-size image. Then right-click to save to your computer, or press and hold to save to your mobile device.</em></h4><hr><div class=\"row\"><div class=\"col-sm-12\"><h2>Mobile</h2></div><div class=\"col-sm-4\"><h4>Phone</h4><a href=\"https://blogs.library.duke.edu/wp-content/uploads/2019/08/Kohl-Engraving-Phone-1080-x-1920.jpg\" target=\"_blank\"> <img src=\"/sites/default/files/dul/users/aaron.welborn/Kohl%20Engraving%20Phone%201080%20x%201920.jpg\" alt=\"Physician Engraving\" width=\"200\" height=\"356\" class=\"img-responsive\"> </a></div><div class=\"col-sm-4\"><h4>Tablet</h4><a href=\"https://blogs.library.duke.edu/wp-content/uploads/2019/08/Kohl-Engraving-Tablet-1536-x-2048.jpg\" target=\"_blank\"> <img src=\"/sites/default/files/dul/users/aaron.welborn/Kohl%20Engraving%20Tablet%201536%20x%202048.jpg\" alt=\"Physician Engraving\" width=\"300\" height=\"400\" class=\"img-responsive\"> </a></div></div><div class=\"row\"><div class=\"col-sm-12\"><h2>Desktop</h2></div><div class=\"col-sm-5\"><h4>16 x 9</h4><a href=\"https://blogs.library.duke.edu/wp-content/uploads/2019/08/Kohl-Engraving-Desktop-1920-x-1080.jpg\" target=\"_blank\"> <img src=\"/sites/default/files/dul/users/aaron.welborn/Kohl%20Engraving%20Desktop%201920%20x%201080.jpg\" alt=\"Physician Engraving\" width=\"400\" height=\"225\" class=\"img-responsive\"> </a></div><div class=\"col-sm-5\"><h4>16 x 10</h4><a href=\"https://blogs.library.duke.edu/wp-content/uploads/2019/08/Kohl-Engraving-Desktop-1920-x-1200.jpg\" target=\"_blank\"> <img src=\"/sites/default/files/dul/users/aaron.welborn/Kohl%20Engraving%20Desktop%201920%20x%201200.jpg\" alt=\"Physician Engraving\" width=\"400\" height=\"250\" class=\"img-responsive\"> </a></div></div><div class=\"row\"><div class=\"col-sm-12\"><h2>Social Media</h2></div><div class=\"col-sm-5\"><h4>Facebook Cover</h4><a href=\"https://blogs.library.duke.edu/wp-content/uploads/2019/08/Kohl-Engraving-Facebook-820-x-312.jpg\" target=\"_blank\"> <img src=\"/sites/default/files/dul/users/aaron.welborn/Kohl%20Engraving%20Facebook%20820%20x%20312.jpg\" alt=\"Physician Engraving\" width=\"400\" height=\"152\" class=\"img-responsive\"> </a></div><div class=\"col-sm-5\"><h4>Twitter Header</h4><a href=\"https://blogs.library.duke.edu/wp-content/uploads/2019/08/Kohl-Engraving-Twitter-1500-x-500.jpg\" target=\"_blank\"> <img src=\"/sites/default/files/dul/users/aaron.welborn/Kohl%20Engraving%20Twitter%201500%20x%20500.jpg\" alt=\"Physician Engraving\" width=\"400\" height=\"133\" class=\"img-responsive\"> </a></div></div>",
            "revision_id" : 26585
         }
      }
   ],
   "type" : "about_page",
   "field_image" : null,
   "uuid" : "26047e03-3f2b-44d3-8897-ff116d6389ae",
   "vid" : 26585,
   "node__body" : {
      "langcode" : "und",
      "body_summary" : "",
      "entity_id" : 2321,
      "body_format" : "full_html_no_wysiwyg",
      "bundle" : "about_page",
      "delta" : 0,
      "deleted" : 0,
      "body_value" : "<p><a href=\"https://library.duke.edu/about/digital-swag\"><button type=\"button\" class=\"btn btn-info btn-sm\">← Digital Swag Themes</button></a></p><h4>Clemens Kohl was a a prolific illustrator and engraver from the eighteenth century. This engraving of a physician and his collection of medical curiosities comes from <em>Die Welt in Bildern (The World in Pictures)</em> by Joseph Edlem von Baumeister. From the Rubenstein Library's History of Medicine Collections.</h4><br/><h4><em>Click the thumbnail to view the full-size image. Then right-click to save to your computer, or press and hold to save to your mobile device.</em></h4><hr><div class=\"row\"><div class=\"col-sm-12\"><h2>Mobile</h2></div><div class=\"col-sm-4\"><h4>Phone</h4><a href=\"https://blogs.library.duke.edu/wp-content/uploads/2019/08/Kohl-Engraving-Phone-1080-x-1920.jpg\" target=\"_blank\"> <img src=\"/sites/default/files/dul/users/aaron.welborn/Kohl%20Engraving%20Phone%201080%20x%201920.jpg\" alt=\"Physician Engraving\" width=\"200\" height=\"356\" class=\"img-responsive\"> </a></div><div class=\"col-sm-4\"><h4>Tablet</h4><a href=\"https://blogs.library.duke.edu/wp-content/uploads/2019/08/Kohl-Engraving-Tablet-1536-x-2048.jpg\" target=\"_blank\"> <img src=\"/sites/default/files/dul/users/aaron.welborn/Kohl%20Engraving%20Tablet%201536%20x%202048.jpg\" alt=\"Physician Engraving\" width=\"300\" height=\"400\" class=\"img-responsive\"> </a></div></div><div class=\"row\"><div class=\"col-sm-12\"><h2>Desktop</h2></div><div class=\"col-sm-5\"><h4>16 x 9</h4><a href=\"https://blogs.library.duke.edu/wp-content/uploads/2019/08/Kohl-Engraving-Desktop-1920-x-1080.jpg\" target=\"_blank\"> <img src=\"/sites/default/files/dul/users/aaron.welborn/Kohl%20Engraving%20Desktop%201920%20x%201080.jpg\" alt=\"Physician Engraving\" width=\"400\" height=\"225\" class=\"img-responsive\"> </a></div><div class=\"col-sm-5\"><h4>16 x 10</h4><a href=\"https://blogs.library.duke.edu/wp-content/uploads/2019/08/Kohl-Engraving-Desktop-1920-x-1200.jpg\" target=\"_blank\"> <img src=\"/sites/default/files/dul/users/aaron.welborn/Kohl%20Engraving%20Desktop%201920%20x%201200.jpg\" alt=\"Physician Engraving\" width=\"400\" height=\"250\" class=\"img-responsive\"> </a></div></div><div class=\"row\"><div class=\"col-sm-12\"><h2>Social Media</h2></div><div class=\"col-sm-5\"><h4>Facebook Cover</h4><a href=\"https://blogs.library.duke.edu/wp-content/uploads/2019/08/Kohl-Engraving-Facebook-820-x-312.jpg\" target=\"_blank\"> <img src=\"/sites/default/files/dul/users/aaron.welborn/Kohl%20Engraving%20Facebook%20820%20x%20312.jpg\" alt=\"Physician Engraving\" width=\"400\" height=\"152\" class=\"img-responsive\"> </a></div><div class=\"col-sm-5\"><h4>Twitter Header</h4><a href=\"https://blogs.library.duke.edu/wp-content/uploads/2019/08/Kohl-Engraving-Twitter-1500-x-500.jpg\" target=\"_blank\"> <img src=\"/sites/default/files/dul/users/aaron.welborn/Kohl%20Engraving%20Twitter%201500%20x%20500.jpg\" alt=\"Physician Engraving\" width=\"400\" height=\"133\" class=\"img-responsive\"> </a></div></div>",
      "revision_id" : 26585
   }
}

