{
   "type" : "page",
   "field_image" : null,
   "uuid" : "2838bfe4-86d3-4aa4-8c70-aa735b5b26a2",
   "vid" : 24927,
   "node__body" : {
      "langcode" : "und",
      "entity_id" : 426,
      "body_summary" : "",
      "body_value" : "<p>This form is for the <strong> <a href=\"/\"> Duke University Libraries </a> </strong> , which includes <strong> Lilly Library and the Music Library </strong> , but does not include...</p><ul><li>Divinity School Library</li><li>Ford Library, Fuqua School of Business</li><li>Goodson Law School Library</li><li>Medical Center Library</li></ul><p>Search requests should be submitted only after you have been unable to locate an item. Please fill out the form below if you weren't able to find the material you were looking for in the stacks.</p><p class=\"text-muted small\"><span class=\"fa fa-exclamation-triangle\"> </span> Problems with this form? View the form at <a href=\"https://duke.qualtrics.com/jfe/form/SV_dbP5I9nyiqCTdwo\"> this page </a> and/or turn off your browser's ad blocker.</p><hr><p><span class=\"label label-warning\"> Important </span> &nbsp;Questions marked with an asterisk (*) are required.</p><div style=\"margin-top: 1em;\"><iframe width=\"100%\" height=\"1700\" src=\"https://duke.qualtrics.com/jfe/form/SV_dbP5I9nyiqCTdwo\" scrolling=\"no\" frameborder=\"0\"></iframe></div>",
      "revision_id" : 24927,
      "delta" : 0,
      "body_format" : "full_html",
      "bundle" : "page",
      "deleted" : 0
   },
   "langcode" : "und",
   "revisions" : [
      {
         "promote" : 0,
         "timestamp" : 1556294683,
         "uid" : 2077,
         "node_revision__body" : {
            "body_value" : "<p>This form is for the <strong> <a href=\"/\"> Duke University Libraries </a> </strong> , which includes <strong> Lilly Library and the Music Library </strong> , but does not include...</p><ul><li>Divinity School Library</li><li>Ford Library, Fuqua School of Business</li><li>Goodson Law School Library</li><li>Medical Center Library</li></ul><p>Search requests should be submitted only after you have been unable to locate an item. Please fill out the form below if you weren't able to find the material you were looking for in the stacks.</p><p class=\"text-muted small\"><span class=\"fa fa-exclamation-triangle\"> </span> Problems with this form? View the form at <a href=\"https://duke.qualtrics.com/jfe/form/SV_dbP5I9nyiqCTdwo\"> this page </a> and/or turn off your browser's ad blocker.</p><hr><p><span class=\"label label-warning\"> Important </span> &nbsp;Questions marked with an asterisk (*) are required.</p><div style=\"margin-top: 1em;\"><iframe width=\"100%\" height=\"1700\" src=\"https://duke.qualtrics.com/jfe/form/SV_dbP5I9nyiqCTdwo\" scrolling=\"no\" frameborder=\"0\"></iframe></div>",
            "revision_id" : 24927,
            "bundle" : "page",
            "body_format" : "full_html",
            "delta" : 0,
            "deleted" : 0,
            "entity_id" : 426,
            "body_summary" : "",
            "langcode" : "und"
         },
         "node_revision__field_tags" : [],
         "vuuid" : "d3798651-bfe0-42a1-9ce4-151244932cd9",
         "title" : "Request a Search for Missing Book",
         "comment" : 1,
         "sticky" : 0,
         "log" : "",
         "field_revision" : {
            "changed" : null,
            "title" : "Request a Search for Missing Book",
            "default_langcode" : 1,
            "revision_translation_affected" : 1,
            "sticky" : 0,
            "created" : null,
            "langcode" : null,
            "uid" : 1,
            "status" : 1
         },
         "status" : 1
      }
   ],
   "asidebox" : {
      "block_delta" : null,
      "status" : "disabled",
      "vid" : 24927,
      "bid" : null,
      "nid" : 426,
      "body_title" : "",
      "body_value" : null,
      "block_module" : null,
      "body_format" : null
   },
   "node_access" : null,
   "node_field_data" : {
      "title" : "Request a Search for Missing Book",
      "status" : 1,
      "created" : 1380306235,
      "sticky" : 0,
      "default_langcode" : 1,
      "type" : "page",
      "promote" : 0,
      "changed" : null,
      "langcode" : "und",
      "uid" : 1,
      "revision_translation_affected" : 1
   },
   "path_alias" : {
      "language" : "und",
      "alias" : "/services/forms/booksearch",
      "pid" : 624,
      "status" : 0,
      "langcode" : "und"
   },
   "field_tags" : [],
   "nid" : "426"
}

