{
   "revisions" : [
      {
         "node_revision__field_tags" : [],
         "vuuid" : "941fb6b4-c562-4805-ab80-b2f85c46518a",
         "title" : "American Student Union Forms",
         "node_revision__body" : {
            "langcode" : "und",
            "body_summary" : "",
            "entity_id" : 1761,
            "body_format" : "full_html",
            "bundle" : "page",
            "delta" : 0,
            "deleted" : 0,
            "body_value" : "<h2><em>Chronicle</em> Articles</h2><ul><li><a href=\"/sites/default/files/dul/research/student-activism/chroniclenov131936asu.pdf\" target=\"_blank\" title=\"Chronicle Article, November 13, 1936\">November 13, 1936</a> (PDF, 1 MB) | <a href=\"https://library.duke.edu/digitalcollections/dukechronicle_dchnp58018/\" target=\"_blank\">Full issue</a></li><li><a href=\"/sites/default/files/dul/research/student-activism/chroniclenov241936asueditorial.pdf\" target=\"_blank\" title=\"Chronicle Article, November 24, 1936\">November 24, 1936</a> (PDF, 1 MB) | <a href=\"https://library.duke.edu/digitalcollections/dukechronicle_dchnp58021/\" target=\"_blank\">Full issue</a></li><li><a href=\"/sites/default/files/dul/research/student-activism/Chronicledec11936marxismasu.pdf\" target=\"_blank\" title=\"Chronicle Article, December 1, 1936\">December 1, 1936</a> (PDF, 1 MB) | <a href=\"https://library.duke.edu/digitalcollections/dukechronicle_dchnp58022/\" target=\"_blank\">Full issue</a></li></ul>",
            "revision_id" : 22367
         },
         "field_revision" : {
            "created" : null,
            "uid" : 1,
            "status" : 1,
            "langcode" : null,
            "default_langcode" : 1,
            "sticky" : 0,
            "revision_translation_affected" : 1,
            "title" : "American Student Union Forms",
            "changed" : null
         },
         "status" : 1,
         "log" : "",
         "comment" : 1,
         "sticky" : 0,
         "promote" : 0,
         "uid" : 73,
         "timestamp" : 1526340579
      }
   ],
   "langcode" : "und",
   "node__body" : {
      "body_value" : "<h2><em>Chronicle</em> Articles</h2><ul><li><a href=\"/sites/default/files/dul/research/student-activism/chroniclenov131936asu.pdf\" target=\"_blank\" title=\"Chronicle Article, November 13, 1936\">November 13, 1936</a> (PDF, 1 MB) | <a href=\"https://library.duke.edu/digitalcollections/dukechronicle_dchnp58018/\" target=\"_blank\">Full issue</a></li><li><a href=\"/sites/default/files/dul/research/student-activism/chroniclenov241936asueditorial.pdf\" target=\"_blank\" title=\"Chronicle Article, November 24, 1936\">November 24, 1936</a> (PDF, 1 MB) | <a href=\"https://library.duke.edu/digitalcollections/dukechronicle_dchnp58021/\" target=\"_blank\">Full issue</a></li><li><a href=\"/sites/default/files/dul/research/student-activism/Chronicledec11936marxismasu.pdf\" target=\"_blank\" title=\"Chronicle Article, December 1, 1936\">December 1, 1936</a> (PDF, 1 MB) | <a href=\"https://library.duke.edu/digitalcollections/dukechronicle_dchnp58022/\" target=\"_blank\">Full issue</a></li></ul>",
      "revision_id" : 22367,
      "delta" : 0,
      "body_format" : "full_html",
      "bundle" : "page",
      "deleted" : 0,
      "entity_id" : 1761,
      "body_summary" : "",
      "langcode" : "und"
   },
   "vid" : 22367,
   "uuid" : "287d6036-98d7-403e-a4a7-3f8d36862f84",
   "field_image" : null,
   "type" : "page",
   "field_tags" : [],
   "path_alias" : {
      "language" : "und",
      "pid" : 3813,
      "alias" : "/research/student-activism/documents/asu",
      "langcode" : "und",
      "status" : 0
   },
   "node_field_data" : {
      "type" : "page",
      "promote" : 0,
      "changed" : null,
      "uid" : 1,
      "langcode" : "und",
      "revision_translation_affected" : 1,
      "title" : "American Student Union Forms",
      "created" : 1509995832,
      "status" : 1,
      "default_langcode" : 1,
      "sticky" : 0
   },
   "nid" : "1761",
   "asidebox" : {
      "body_format" : null,
      "block_module" : null,
      "body_value" : null,
      "nid" : 1761,
      "body_title" : "",
      "vid" : 22367,
      "bid" : null,
      "status" : "disabled",
      "block_delta" : null
   },
   "node_access" : null
}

