{
   "langcode" : "und",
   "revisions" : [
      {
         "node_revision__body" : {
            "entity_id" : 1393,
            "body_summary" : "",
            "langcode" : "und",
            "body_value" : "<p>Use the dashboards and instructions below to explore data from the 2016 Student Survey conducted by the Assessment and User Experience department. If you have questions, contact <a href=\"mailto:joyce.chapman@duke.edu\">joyce.chapman@duke.edu</a>. Data for the professional school libraries is not included in these dashboards.</p><p></p>\r\n<ul>\r\n<li><a href=\"/sites/default/files/dul/users/Joyce%20Chapman/DUL-2016-student-survey-instrument.zip\" target=\"_blank\">Survey instrument (zip file)</a>: Microsoft Word versions of the survey instrument used at four DUL libraries. The survey was built and distributed in Qualtrics.</li>\r\n<li><a href=\"/sites/default/files/dul/users/Joyce%20Chapman/Instructions-tableau-dashboards_0.pdf\" target=\"_blank\">Instructions (PDF)</a>: how to use the Tableau dashboards</li>\r\n<li><a href=\"#maindashboard\">Main dashboard</a>: Explore every survey question by library and demographics facet</li><li><a href=\"#commentsdashboard\">Comments dashboard</a>: Explore the topical categories of 1500+ comments by demographics facet <a href=\"https://tableau.oit.duke.edu/#/site/prod/views/DULstudentsurvey2016-comments/commentsdashboard\">(For DUL staff only - full comment version)</a></li>\r\n<li><a href=\"#universaldashboard\">Universal questions dashboard</a>: Explore the smaller subset of questions asked to all survey participants. Compare ranked responses based on demographics facets </li>\r\n</ul><p></p>\r\n\r\n<h2><a name=\"maindashboard\"></a>Main dashboard</h2>\r\n<p>Note: if the embedded dashboard does not appear, <a href=\"https://public.tableau.com/views/DULstudentsurvey2016_0/Dashboard?:embed=y&:display_count=yes\">view it here</a></p>\r\n\r\n<div class='tableauPlaceholder' id='viz1527852101548' style='position: relative'><noscript><a href='#'><img alt='Dashboard ' src='https:&#47;&#47;public.tableau.com&#47;static&#47;images&#47;DU&#47;DULstudentsurvey2016_0&#47;Dashboard&#47;1_rss.png' style='border: none' /></a></noscript><object class='tableauViz'  style='display:none;'><param name='host_url' value='https%3A%2F%2Fpublic.tableau.com%2F' /> <param name='embed_code_version' value='3' /> <param name='site_root' value='' /><param name='name' value='DULstudentsurvey2016_0&#47;Dashboard' /><param name='tabs' value='no' /><param name='toolbar' value='yes' /><param name='static_image' value='https:&#47;&#47;public.tableau.com&#47;static&#47;images&#47;DU&#47;DULstudentsurvey2016_0&#47;Dashboard&#47;1.png' /> <param name='animate_transition' value='yes' /><param name='display_static_image' value='yes' /><param name='display_spinner' value='yes' /><param name='display_overlay' value='yes' /><param name='display_count' value='yes' /></object></div>                <script type='text/javascript'>                    var divElement = document.getElementById('viz1527852101548');                    var vizElement = divElement.getElementsByTagName('object')[0];                    vizElement.style.width='1000px';vizElement.style.height='827px';                    var scriptElement = document.createElement('script');                    scriptElement.src = 'https://public.tableau.com/javascripts/api/viz_v1.js';                    vizElement.parentNode.insertBefore(scriptElement, vizElement);                </script>\r\n\r\n<h2><a name=\"commentsdashboard\"></a>Comments dashboard</h2>\r\n<p>Note: if the embedded dashboard does not appear, <a href=\"https://public.tableau.com/views/2016bienniallibrarysurveycomments/commentsdashboard?:display_count=y&publish=yes&:origin=viz_share_link\">view it here</a></p>\r\n<div class='tableauPlaceholder' id='viz1582729076309' style='position: relative'><noscript><a href='#'><img alt=' ' src='https:&#47;&#47;public.tableau.com&#47;static&#47;images&#47;20&#47;2016bienniallibrarysurveycomments&#47;commentsdashboard&#47;1_rss.png' style='border: none' /></a></noscript><object class='tableauViz'  style='display:none;'><param name='host_url' value='https%3A%2F%2Fpublic.tableau.com%2F' /> <param name='embed_code_version' value='3' /> <param name='site_root' value='' /><param name='name' value='2016bienniallibrarysurveycomments&#47;commentsdashboard' /><param name='tabs' value='no' /><param name='toolbar' value='yes' /><param name='static_image' value='https:&#47;&#47;public.tableau.com&#47;static&#47;images&#47;20&#47;2016bienniallibrarysurveycomments&#47;commentsdashboard&#47;1.png' /> <param name='animate_transition' value='yes' /><param name='display_static_image' value='yes' /><param name='display_spinner' value='yes' /><param name='display_overlay' value='yes' /><param name='display_count' value='yes' /><param name='filter' value='publish=yes' /></object></div>                <script type='text/javascript'>                    var divElement = document.getElementById('viz1582729076309');                    var vizElement = divElement.getElementsByTagName('object')[0];                    vizElement.style.width='1000px';vizElement.style.height='827px';                    var scriptElement = document.createElement('script');                    scriptElement.src = 'https://public.tableau.com/javascripts/api/viz_v1.js';                    vizElement.parentNode.insertBefore(scriptElement, vizElement);                </script>\r\n\r\n<h2><a name=\"universaldashboard\"></a>Universal questions dashboard</h2>\r\n<p>Note: if the embedded dashboard does not appear, <a href=\"https://public.tableau.com/views/2016bienniallibrarysurveycomments/commentsdashboard?:embed=y&:display_count=yes\">view it here</a></p>\r\n\r\n<div class='tableauPlaceholder' id='viz1527851221945' style='position: relative'><noscript><a href='#'><img alt='Select a question and a facet to the right, then click an item in the list to see details ' src='https:&#47;&#47;public.tableau.com&#47;static&#47;images&#47;DU&#47;DULstudentsurvey2016-universalquestions_0&#47;Universalquestions&#47;1_rss.png' style='border: none' /></a></noscript><object class='tableauViz'  style='display:none;'><param name='host_url' value='https%3A%2F%2Fpublic.tableau.com%2F' /> <param name='embed_code_version' value='3' /> <param name='site_root' value='' /><param name='name' value='DULstudentsurvey2016-universalquestions_0&#47;Universalquestions' /><param name='tabs' value='no' /><param name='toolbar' value='yes' /><param name='static_image' value='https:&#47;&#47;public.tableau.com&#47;static&#47;images&#47;DU&#47;DULstudentsurvey2016-universalquestions_0&#47;Universalquestions&#47;1.png' /> <param name='animate_transition' value='yes' /><param name='display_static_image' value='yes' /><param name='display_spinner' value='yes' /><param name='display_overlay' value='yes' /><param name='display_count' value='yes' /><param name='filter' value='publish=yes' /></object></div>                <script type='text/javascript'>                    var divElement = document.getElementById('viz1527851221945');                    var vizElement = divElement.getElementsByTagName('object')[0];                    vizElement.style.width='1000px';vizElement.style.height='1027px';                    var scriptElement = document.createElement('script');                    scriptElement.src = 'https://public.tableau.com/javascripts/api/viz_v1.js';                    vizElement.parentNode.insertBefore(scriptElement, vizElement);                </script>\r\n",
            "revision_id" : 28061,
            "deleted" : 0,
            "bundle" : "about_page",
            "body_format" : "full_html_no_wysiwyg",
            "delta" : 0
         },
         "title" : "2016 Student Survey",
         "vuuid" : "26cf58c2-2a68-40c3-9161-6c541be00083",
         "node_revision__field_tags" : [],
         "sticky" : 0,
         "comment" : 1,
         "log" : "",
         "status" : 1,
         "field_revision" : {
            "status" : 1,
            "uid" : 1,
            "langcode" : null,
            "created" : null,
            "revision_translation_affected" : 1,
            "sticky" : 0,
            "default_langcode" : 1,
            "title" : "2016 Student Survey",
            "changed" : null
         },
         "promote" : 0,
         "timestamp" : 1582827601,
         "uid" : 313
      }
   ],
   "field_image" : null,
   "type" : "about_page",
   "vid" : 28061,
   "node__body" : {
      "body_summary" : "",
      "entity_id" : 1393,
      "langcode" : "und",
      "deleted" : 0,
      "body_format" : "full_html_no_wysiwyg",
      "bundle" : "about_page",
      "delta" : 0,
      "body_value" : "<p>Use the dashboards and instructions below to explore data from the 2016 Student Survey conducted by the Assessment and User Experience department. If you have questions, contact <a href=\"mailto:joyce.chapman@duke.edu\">joyce.chapman@duke.edu</a>. Data for the professional school libraries is not included in these dashboards.</p><p></p>\r\n<ul>\r\n<li><a href=\"/sites/default/files/dul/users/Joyce%20Chapman/DUL-2016-student-survey-instrument.zip\" target=\"_blank\">Survey instrument (zip file)</a>: Microsoft Word versions of the survey instrument used at four DUL libraries. The survey was built and distributed in Qualtrics.</li>\r\n<li><a href=\"/sites/default/files/dul/users/Joyce%20Chapman/Instructions-tableau-dashboards_0.pdf\" target=\"_blank\">Instructions (PDF)</a>: how to use the Tableau dashboards</li>\r\n<li><a href=\"#maindashboard\">Main dashboard</a>: Explore every survey question by library and demographics facet</li><li><a href=\"#commentsdashboard\">Comments dashboard</a>: Explore the topical categories of 1500+ comments by demographics facet <a href=\"https://tableau.oit.duke.edu/#/site/prod/views/DULstudentsurvey2016-comments/commentsdashboard\">(For DUL staff only - full comment version)</a></li>\r\n<li><a href=\"#universaldashboard\">Universal questions dashboard</a>: Explore the smaller subset of questions asked to all survey participants. Compare ranked responses based on demographics facets </li>\r\n</ul><p></p>\r\n\r\n<h2><a name=\"maindashboard\"></a>Main dashboard</h2>\r\n<p>Note: if the embedded dashboard does not appear, <a href=\"https://public.tableau.com/views/DULstudentsurvey2016_0/Dashboard?:embed=y&:display_count=yes\">view it here</a></p>\r\n\r\n<div class='tableauPlaceholder' id='viz1527852101548' style='position: relative'><noscript><a href='#'><img alt='Dashboard ' src='https:&#47;&#47;public.tableau.com&#47;static&#47;images&#47;DU&#47;DULstudentsurvey2016_0&#47;Dashboard&#47;1_rss.png' style='border: none' /></a></noscript><object class='tableauViz'  style='display:none;'><param name='host_url' value='https%3A%2F%2Fpublic.tableau.com%2F' /> <param name='embed_code_version' value='3' /> <param name='site_root' value='' /><param name='name' value='DULstudentsurvey2016_0&#47;Dashboard' /><param name='tabs' value='no' /><param name='toolbar' value='yes' /><param name='static_image' value='https:&#47;&#47;public.tableau.com&#47;static&#47;images&#47;DU&#47;DULstudentsurvey2016_0&#47;Dashboard&#47;1.png' /> <param name='animate_transition' value='yes' /><param name='display_static_image' value='yes' /><param name='display_spinner' value='yes' /><param name='display_overlay' value='yes' /><param name='display_count' value='yes' /></object></div>                <script type='text/javascript'>                    var divElement = document.getElementById('viz1527852101548');                    var vizElement = divElement.getElementsByTagName('object')[0];                    vizElement.style.width='1000px';vizElement.style.height='827px';                    var scriptElement = document.createElement('script');                    scriptElement.src = 'https://public.tableau.com/javascripts/api/viz_v1.js';                    vizElement.parentNode.insertBefore(scriptElement, vizElement);                </script>\r\n\r\n<h2><a name=\"commentsdashboard\"></a>Comments dashboard</h2>\r\n<p>Note: if the embedded dashboard does not appear, <a href=\"https://public.tableau.com/views/2016bienniallibrarysurveycomments/commentsdashboard?:display_count=y&publish=yes&:origin=viz_share_link\">view it here</a></p>\r\n<div class='tableauPlaceholder' id='viz1582729076309' style='position: relative'><noscript><a href='#'><img alt=' ' src='https:&#47;&#47;public.tableau.com&#47;static&#47;images&#47;20&#47;2016bienniallibrarysurveycomments&#47;commentsdashboard&#47;1_rss.png' style='border: none' /></a></noscript><object class='tableauViz'  style='display:none;'><param name='host_url' value='https%3A%2F%2Fpublic.tableau.com%2F' /> <param name='embed_code_version' value='3' /> <param name='site_root' value='' /><param name='name' value='2016bienniallibrarysurveycomments&#47;commentsdashboard' /><param name='tabs' value='no' /><param name='toolbar' value='yes' /><param name='static_image' value='https:&#47;&#47;public.tableau.com&#47;static&#47;images&#47;20&#47;2016bienniallibrarysurveycomments&#47;commentsdashboard&#47;1.png' /> <param name='animate_transition' value='yes' /><param name='display_static_image' value='yes' /><param name='display_spinner' value='yes' /><param name='display_overlay' value='yes' /><param name='display_count' value='yes' /><param name='filter' value='publish=yes' /></object></div>                <script type='text/javascript'>                    var divElement = document.getElementById('viz1582729076309');                    var vizElement = divElement.getElementsByTagName('object')[0];                    vizElement.style.width='1000px';vizElement.style.height='827px';                    var scriptElement = document.createElement('script');                    scriptElement.src = 'https://public.tableau.com/javascripts/api/viz_v1.js';                    vizElement.parentNode.insertBefore(scriptElement, vizElement);                </script>\r\n\r\n<h2><a name=\"universaldashboard\"></a>Universal questions dashboard</h2>\r\n<p>Note: if the embedded dashboard does not appear, <a href=\"https://public.tableau.com/views/2016bienniallibrarysurveycomments/commentsdashboard?:embed=y&:display_count=yes\">view it here</a></p>\r\n\r\n<div class='tableauPlaceholder' id='viz1527851221945' style='position: relative'><noscript><a href='#'><img alt='Select a question and a facet to the right, then click an item in the list to see details ' src='https:&#47;&#47;public.tableau.com&#47;static&#47;images&#47;DU&#47;DULstudentsurvey2016-universalquestions_0&#47;Universalquestions&#47;1_rss.png' style='border: none' /></a></noscript><object class='tableauViz'  style='display:none;'><param name='host_url' value='https%3A%2F%2Fpublic.tableau.com%2F' /> <param name='embed_code_version' value='3' /> <param name='site_root' value='' /><param name='name' value='DULstudentsurvey2016-universalquestions_0&#47;Universalquestions' /><param name='tabs' value='no' /><param name='toolbar' value='yes' /><param name='static_image' value='https:&#47;&#47;public.tableau.com&#47;static&#47;images&#47;DU&#47;DULstudentsurvey2016-universalquestions_0&#47;Universalquestions&#47;1.png' /> <param name='animate_transition' value='yes' /><param name='display_static_image' value='yes' /><param name='display_spinner' value='yes' /><param name='display_overlay' value='yes' /><param name='display_count' value='yes' /><param name='filter' value='publish=yes' /></object></div>                <script type='text/javascript'>                    var divElement = document.getElementById('viz1527851221945');                    var vizElement = divElement.getElementsByTagName('object')[0];                    vizElement.style.width='1000px';vizElement.style.height='1027px';                    var scriptElement = document.createElement('script');                    scriptElement.src = 'https://public.tableau.com/javascripts/api/viz_v1.js';                    vizElement.parentNode.insertBefore(scriptElement, vizElement);                </script>\r\n",
      "revision_id" : 28061
   },
   "uuid" : "292c13f3-18d1-432d-a6f9-4444e381b1ff",
   "asidebox" : {
      "vid" : 28061,
      "bid" : null,
      "body_title" : "",
      "nid" : 1393,
      "block_module" : null,
      "body_value" : null,
      "body_format" : null,
      "block_delta" : null,
      "status" : "disabled"
   },
   "node_access" : null,
   "field_tags" : [],
   "path_alias" : {
      "language" : "und",
      "pid" : 1963,
      "alias" : "/about/depts/assessment-user-experience/student-survey",
      "langcode" : "und",
      "status" : 0
   },
   "node_field_data" : {
      "uid" : 1,
      "langcode" : "und",
      "revision_translation_affected" : 1,
      "type" : "about_page",
      "changed" : null,
      "promote" : 0,
      "status" : 1,
      "created" : 1465222725,
      "sticky" : 0,
      "default_langcode" : 1,
      "title" : "2016 Student Survey"
   },
   "nid" : "1393"
}

