{
   "uuid" : "295d05c8-038e-4091-9496-f46c6420cf6c",
   "node__body" : {
      "revision_id" : 30457,
      "body_value" : "<h2>Service Changes for Fall 2020</h2><ul><li>Oasis Perkins and the Prayer &amp; Meditation Room are closed for the semester</li><li>The Perk Cafe is closed for the semester</li></ul><h2>First-Year Students</h2><ul><li><a href=\"/services/firstyear\"> Library Services </a></li></ul><h2>Research</h2><ul><li><a href=\"/research/ask\"> Ask a Librarian </a></li><li><a href=\"https://duke.qualtrics.com/SE/?SID=SV_6osqxk8Xh1NEIRL\"> Research Consultations </a></li><li><a href=\"https://guides.library.duke.edu\"> Research Guides </a></li><li><a href=\"/course-support/guides\"> Course Guides </a></li><li><a href=\"/residence-hall-librarian\"> Residence Hall Librarian Program </a></li><li><a href=\"/services/undergraduate/honors\"> Honors Researchers </a></li><li><a href=\"https://colldev.lib.duke.edu/request\"> Suggest a Purchase </a></li></ul><h2>Writing Help</h2><ul><li><a href=\"/research/citing\"> Citing Sources </a></li><li><a href=\"https://twp.duke.edu/twp-writing-studio\"> Writing Studio </a></li></ul><h2>Wellness</h2><p>Need a break? There are several spaces around the Libaries to relax and take a moment to re-center yourself.</p><ul><li>You'll find yoga mats, coloring books, puzzles, and more at <a href=\"https://library.duke.edu/using/oasis-perkins\">Oasis Perkins</a>&nbsp;<strong>(temporarily closed)</strong></li><li>Our <a href=\"https://blogs.library.duke.edu/blog/2016/09/30/prayer-meditation-room-open/\">Prayer and Meditation Room</a> is a small but mighty resource&nbsp;<strong>(temporarily closed)</strong></li><li>Grab a tea, coffee, or snack at <a href=\"https://studentaffairs.duke.edu/dining/venues-and-menus/perk\">The Perk</a>&nbsp;<strong>(temporarily closed)</strong></li></ul><h2>Additional Services</h2><ul><li><a href=\"/using/room-reservations\"> Reserve a study space</a></li><li>You can check out textbooks for Duke's 100 largest classes for up to 3 hours at a time through <a href=\"https://library.duke.edu/course-support/course-reserves/textbooks/about\">Top Textbooks</a></li><li><a href=\"/course-support/course-reserves\"> Access course reserves </a></li><li>The Link<ul><li><a href=\"https://link.duke.edu/\"> Get answers to your computer questions </a></li><li><a href=\"https://oit.duke.edu/what-we-do/services/link-equipment\"> Check out equipment</a>, from computer chargers to video cameras</li></ul></li><li><a href=\"https://oit.duke.edu/what-we-do/services/multimedia-project-studio\"> Multimedia Project Studio </a></li></ul><h2>Get Involved</h2><ul><li><a href=\"/about/advisory-boards/undergraduate\"> Undergraduate Library Advisory Board </a></li><li><a href=\"/about/advisory-boards/first-year\"> First-Year Library Advisory Board </a></li></ul><h2>Awards</h2><ul><li><a href=\"/research/awards/aptman\"> Lowell Aptman Prizes </a></li><li><a href=\"/research/awards/middlesworth\"> Chester P. Middlesworth Awards </a></li><li><a href=\"/research/awards/holsti\"> Ole R. Holsti Prize </a></li></ul>",
      "body_format" : "full_html",
      "bundle" : "about_page",
      "delta" : 0,
      "deleted" : 0,
      "langcode" : "und",
      "entity_id" : 314,
      "body_summary" : ""
   },
   "vid" : 30457,
   "type" : "about_page",
   "field_image" : null,
   "revisions" : [
      {
         "node_revision__body" : {
            "deleted" : 0,
            "delta" : 0,
            "body_format" : "full_html",
            "bundle" : "about_page",
            "body_value" : "<h2>Service Changes for Fall 2020</h2><ul><li>Oasis Perkins and the Prayer &amp; Meditation Room are closed for the semester</li><li>The Perk Cafe is closed for the semester</li></ul><h2>First-Year Students</h2><ul><li><a href=\"/services/firstyear\"> Library Services </a></li></ul><h2>Research</h2><ul><li><a href=\"/research/ask\"> Ask a Librarian </a></li><li><a href=\"https://duke.qualtrics.com/SE/?SID=SV_6osqxk8Xh1NEIRL\"> Research Consultations </a></li><li><a href=\"https://guides.library.duke.edu\"> Research Guides </a></li><li><a href=\"/course-support/guides\"> Course Guides </a></li><li><a href=\"/residence-hall-librarian\"> Residence Hall Librarian Program </a></li><li><a href=\"/services/undergraduate/honors\"> Honors Researchers </a></li><li><a href=\"https://colldev.lib.duke.edu/request\"> Suggest a Purchase </a></li></ul><h2>Writing Help</h2><ul><li><a href=\"/research/citing\"> Citing Sources </a></li><li><a href=\"https://twp.duke.edu/twp-writing-studio\"> Writing Studio </a></li></ul><h2>Wellness</h2><p>Need a break? There are several spaces around the Libaries to relax and take a moment to re-center yourself.</p><ul><li>You'll find yoga mats, coloring books, puzzles, and more at <a href=\"https://library.duke.edu/using/oasis-perkins\">Oasis Perkins</a>&nbsp;<strong>(temporarily closed)</strong></li><li>Our <a href=\"https://blogs.library.duke.edu/blog/2016/09/30/prayer-meditation-room-open/\">Prayer and Meditation Room</a> is a small but mighty resource&nbsp;<strong>(temporarily closed)</strong></li><li>Grab a tea, coffee, or snack at <a href=\"https://studentaffairs.duke.edu/dining/venues-and-menus/perk\">The Perk</a>&nbsp;<strong>(temporarily closed)</strong></li></ul><h2>Additional Services</h2><ul><li><a href=\"/using/room-reservations\"> Reserve a study space</a></li><li>You can check out textbooks for Duke's 100 largest classes for up to 3 hours at a time through <a href=\"https://library.duke.edu/course-support/course-reserves/textbooks/about\">Top Textbooks</a></li><li><a href=\"/course-support/course-reserves\"> Access course reserves </a></li><li>The Link<ul><li><a href=\"https://link.duke.edu/\"> Get answers to your computer questions </a></li><li><a href=\"https://oit.duke.edu/what-we-do/services/link-equipment\"> Check out equipment</a>, from computer chargers to video cameras</li></ul></li><li><a href=\"https://oit.duke.edu/what-we-do/services/multimedia-project-studio\"> Multimedia Project Studio </a></li></ul><h2>Get Involved</h2><ul><li><a href=\"/about/advisory-boards/undergraduate\"> Undergraduate Library Advisory Board </a></li><li><a href=\"/about/advisory-boards/first-year\"> First-Year Library Advisory Board </a></li></ul><h2>Awards</h2><ul><li><a href=\"/research/awards/aptman\"> Lowell Aptman Prizes </a></li><li><a href=\"/research/awards/middlesworth\"> Chester P. Middlesworth Awards </a></li><li><a href=\"/research/awards/holsti\"> Ole R. Holsti Prize </a></li></ul>",
            "revision_id" : 30457,
            "langcode" : "und",
            "body_summary" : "",
            "entity_id" : 314
         },
         "node_revision__field_tags" : [],
         "title" : "Services for Undergraduates",
         "vuuid" : "3a98e951-45a3-4061-a2b1-2765ac8ab7c1",
         "log" : "",
         "comment" : 1,
         "sticky" : 0,
         "field_revision" : {
            "changed" : null,
            "title" : "Services for Undergraduates",
            "default_langcode" : 1,
            "revision_translation_affected" : 1,
            "sticky" : 0,
            "created" : null,
            "status" : 1,
            "uid" : 1,
            "langcode" : null
         },
         "status" : 1,
         "promote" : 0,
         "timestamp" : 1617806179,
         "uid" : 25
      }
   ],
   "langcode" : "und",
   "node_field_data" : {
      "title" : "Services for Undergraduates",
      "sticky" : 0,
      "default_langcode" : 1,
      "status" : 1,
      "created" : 1377468727,
      "changed" : null,
      "promote" : 0,
      "type" : "about_page",
      "revision_translation_affected" : 1,
      "uid" : 1,
      "langcode" : "und"
   },
   "path_alias" : {
      "langcode" : "und",
      "status" : 0,
      "language" : "und",
      "pid" : 493,
      "alias" : "/services/undergraduate"
   },
   "field_tags" : [],
   "nid" : "314",
   "asidebox" : {
      "status" : "html",
      "block_delta" : null,
      "body_format" : "full_html",
      "body_value" : "<p><img src=\"/sites/default/files/dul/users/kelley%20lawton/Fall-Break-Week-2013_400.jpg\" alt=\"Research Consultation\" width=\"533\" height=\"400\"></p><p>Duke University Libraries staff specialize in diverse academic disciplines.</p><ul><li><span style=\"line-height: 1.538em;\">Find a </span><a href=\"/about/directory/subject-specialists/\"><span style=\"line-height: 1.538em;\">Subject Specialist</span></a></li><li><span style=\"line-height: 1.538em;\">Schedule a <a href=\"https://duke.qualtrics.com/SE/?SID=SV_6osqxk8Xh1NEIRL\">research </a></span><a href=\"https://duke.qualtrics.com/SE/?SID=SV_6osqxk8Xh1NEIRL\"><span style=\"line-height: 1.538em;\">consultation</span></a><a href=\"https://duke.qualtrics.com/SE/?SID=SV_6osqxk8Xh1NEIRL\"><span style=\"line-height: 1.538em;\"></span></a><span style=\"line-height: 1.538em;\"> to receive personalized help</span></li></ul>",
      "block_module" : null,
      "nid" : 314,
      "body_title" : "More Information",
      "bid" : null,
      "vid" : 30457
   },
   "node_access" : null
}

