{
   "langcode" : "und",
   "revisions" : [
      {
         "node_revision__body" : {
            "langcode" : null
         },
         "vuuid" : "ad707a05-867c-47b3-b69e-5edc46ad08d1",
         "title" : "Life Stories",
         "node_revision__field_tags" : [],
         "log" : "",
         "sticky" : 0,
         "comment" : 1,
         "status" : 1,
         "field_revision" : {
            "sticky" : 0,
            "revision_translation_affected" : 1,
            "default_langcode" : 1,
            "uid" : 1,
            "status" : 1,
            "langcode" : null,
            "created" : null,
            "changed" : null,
            "title" : "Life Stories"
         },
         "promote" : 0,
         "timestamp" : 1538401652,
         "uid" : 3
      }
   ],
   "type" : "exhibit",
   "field_image" : null,
   "uuid" : "2b0a54a5-b562-47fa-a78f-54fe80faa6aa",
   "node__body" : null,
   "vid" : 15417,
   "asidebox" : null,
   "node_access" : null,
   "node_field_data" : {
      "uid" : 1,
      "langcode" : "und",
      "revision_translation_affected" : 1,
      "type" : "exhibit",
      "changed" : null,
      "promote" : 0,
      "created" : 1487864489,
      "status" : 1,
      "default_langcode" : 1,
      "sticky" : 0,
      "title" : "Life Stories"
   },
   "path_alias" : {
      "alias" : "/exhibits/2016/studentwall/lifestories",
      "pid" : 3481,
      "language" : "und",
      "langcode" : "und",
      "status" : 0
   },
   "field_tags" : [],
   "nid" : "1515"
}

