{
   "node__field_image" : {},
   "path_alias" : {
      "status" : 0,
      "langcode" : "und",
      "pid" : 1639,
      "alias" : "/exhibits/2010/on-the-migrant-trail",
      "language" : "und"
   },
   "node_field_data" : {
      "revision_translation_affected" : 1,
      "uid" : 1,
      "langcode" : "und",
      "promote" : 0,
      "changed" : null,
      "type" : "exhibit",
      "default_langcode" : 1,
      "sticky" : 0,
      "created" : 1439387903,
      "status" : 1,
      "title" : "On the Migrant Trail"
   },
   "field_tags" : [],
   "node_access" : null,
   "langcode" : "und",
   "uuid" : "2b185f7b-5770-4528-8b6a-350bc4bbd29c",
   "type" : "exhibit",
   "nid" : "1149",
   "asidebox" : null,
   "revisions" : [
      {
         "promote" : 0,
         "uid" : 2213,
         "timestamp" : 1587430526,
         "node_revision__field_tags" : [],
         "vuuid" : "a9964d48-b9cd-4514-8029-02450519a78a",
         "title" : "On the Migrant Trail",
         "node_revision__body" : {
            "bundle" : "exhibit",
            "body_format" : "full_html",
            "delta" : 0,
            "deleted" : 0,
            "revision_id" : 11137,
            "body_value" : "<p>The exhibit documents the experiences of migrants, as seen through the eyes of DukeEngage Tucson participants. This collection depicts the harsh desert and landmarks immigrants encounter in journeying from Mexico to southern Arizona, but also presents the more personal, human elements of the experience--the found objects, the water jugs set out by humanitarian organizations, the desert shrine to Josselina, a young girl who lost her life on the trail.&nbsp;&nbsp;</p><p>This gallery, we hope, will serve as an awakening to the flawed political system that neglects such suffering, but also, a testament to the strength and efforts on both sides of the border.&nbsp; &nbsp;</p><p>Sponsored by the Department of Latino/a Studies in the Global South&nbsp;&nbsp;</p>",
            "body_summary" : "",
            "entity_id" : 1149,
            "langcode" : "und"
         },
         "field_revision" : {
            "langcode" : null,
            "uid" : 1,
            "status" : 1,
            "created" : null,
            "sticky" : 0,
            "revision_translation_affected" : 1,
            "default_langcode" : 1,
            "title" : "On the Migrant Trail",
            "changed" : null
         },
         "status" : 1,
         "comment" : 1,
         "sticky" : 0,
         "log" : ""
      }
   ],
   "node__body" : {
      "body_value" : "<p>The exhibit documents the experiences of migrants, as seen through the eyes of DukeEngage Tucson participants. This collection depicts the harsh desert and landmarks immigrants encounter in journeying from Mexico to southern Arizona, but also presents the more personal, human elements of the experience--the found objects, the water jugs set out by humanitarian organizations, the desert shrine to Josselina, a young girl who lost her life on the trail.&nbsp;&nbsp;</p><p>This gallery, we hope, will serve as an awakening to the flawed political system that neglects such suffering, but also, a testament to the strength and efforts on both sides of the border.&nbsp; &nbsp;</p><p>Sponsored by the Department of Latino/a Studies in the Global South&nbsp;&nbsp;</p>",
      "revision_id" : 11137,
      "delta" : 0,
      "body_format" : "full_html",
      "bundle" : "exhibit",
      "deleted" : 0,
      "entity_id" : 1149,
      "body_summary" : "",
      "langcode" : "und"
   },
   "vid" : 11137,
   "field_image" : {
      "langcode" : "und",
      "field_image_height" : 480,
      "entity_type" : "node",
      "delta" : 0,
      "bundle" : "exhibit",
      "field_image_alt" : "",
      "field_image_width" : 640,
      "field_image_title" : "",
      "entity_id" : 1149,
      "field_image_target_id" : 1723,
      "field_image_fid" : 1723,
      "revision_id" : 11137,
      "deleted" : 0,
      "language" : "und",
      "file_uuid" : "c9f6746d-7695-4679-9e9d-ea4c96bdf749"
   }
}

