{
   "revisions" : [
      {
         "node_revision__field_tags" : [],
         "title" : "Duke University Libraries Summer Research Grant Eligibility",
         "vuuid" : "cda94163-a842-4de6-81cf-bd1d651fbd27",
         "node_revision__body" : {
            "entity_id" : 2411,
            "body_summary" : "",
            "langcode" : "und",
            "body_value" : "<p><img src=\"/sites/default/files/dul/users/Anastasia%20Forte/dulsrg.png\" width=\"600\" height=\"200\" style=\"vertical-align: baseline;\"></p><p dir=\"ltr\" style=\"line-height: 1.38; text-align: center;\"><span data-mce-mark=\"1\" style=\"font-size: 12pt; font-family: Verdana; color: #012169; background-color: transparent; font-weight: bold; font-style: normal; font-variant: normal; text-decoration: none; vertical-align: baseline; white-space: pre-wrap;\">Application Information</span></p><p style=\"font-size: 13.008px;\"></p><p style=\"font-size: 13.008px;\"></p><p style=\"font-size: 13.008px;\"><span style=\"background-color: transparent; font-family: Verdana; font-size: 11pt; white-space: pre-wrap;\" data-mce-mark=\"1\"><span data-mce-mark=\"1\" style=\"font-size: 12pt; font-family: Verdana; color: #012169; background-color: transparent; font-weight: bold; font-style: normal; font-variant: normal; text-decoration: none; vertical-align: baseline; white-space: pre-wrap;\"></span></span></p><p style=\"font-size: 13.008px; text-align: center;\"><span data-mce-mark=\"1\" style=\"font-size: 11pt; font-family: Verdana; color: #012169; background-color: transparent; font-weight: bold; font-style: normal; font-variant: normal; text-decoration: none; vertical-align: baseline; white-space: pre-wrap;\">Eligibility&nbsp;</span></p><p style=\"font-size: 13.008px;\"><span style=\"background-color: transparent; font-family: Verdana; font-size: 11pt; white-space: pre-wrap;\" data-mce-mark=\"1\"><span style=\"background-color: transparent; font-family: Verdana; font-size: 11pt; white-space: pre-wrap;\" data-mce-mark=\"1\"><span style=\"background-color: transparent; font-family: Verdana; font-size: 11pt; white-space: pre-wrap;\" data-mce-mark=\"1\"><span style=\"background-color: transparent; font-family: Verdana; font-size: 11pt; white-space: pre-wrap;\" data-mce-mark=\"1\"><span data-mce-mark=\"1\" style=\"font-size: 12pt; font-family: Verdana; color: #012169; background-color: transparent; font-weight: bold; font-style: normal; font-variant: normal; text-decoration: none; vertical-align: baseline; white-space: pre-wrap;\"><span style=\"background-color: transparent; font-family: Verdana; font-size: 11pt; white-space: pre-wrap;\" data-mce-mark=\"1\"><span data-mce-mark=\"1\" style=\"font-size: 12pt; font-family: Verdana; color: #012169; background-color: transparent; font-weight: bold; font-style: normal; font-variant: normal; text-decoration: none; vertical-align: baseline; white-space: pre-wrap;\"></span></span></span></span></span></span></span></p><ul style=\"font-size: 13.008px;\"><li><span style=\"background-color: transparent; font-family: Verdana; font-size: 11pt; white-space: pre-wrap;\" data-mce-mark=\"1\">With the exception of graduating seniors, all undergraduates participating in the <a href=\"https://undergrad.duke.edu/programs/duke-life-student-group\">LIFE campus community</a> and <a href=\"https://undergrad.duke.edu/duke-life-1\">LIFE-related programs</a> are eligible to apply. Eligibility related to LIFE status is determined in consultation with <a href=\"https://undergrad.duke.edu/staff/molly-goldwasser\">Molly Goldwasser</a>, Associate Vice Provost for Academic Affairs and Undergraduate Education.</span></li><li><span style=\"background-color: transparent; font-family: Verdana; font-size: 11pt; white-space: pre-wrap;\" data-mce-mark=\"1\">Research projects must focus significantly on the use of library materials at Duke. These materials may include special collections, archives, rare books and manuscripts, maps/GIS, government publications, foreign language collections, rich databases of primary source materials, and more.</span></li><li><span style=\"background-color: transparent; font-family: Verdana; font-size: 11pt; white-space: pre-wrap;\" data-mce-mark=\"1\">Applicants must have a faculty mentor with whom they will be in contact during the project and who submits a letter of recommendation.</span></li><li><span style=\"background-color: transparent; font-family: Verdana; font-size: 11pt; white-space: pre-wrap;\" data-mce-mark=\"1\">Recipients must conduct their research over a period of no less than three weeks during the summer.</span></li><li><span style=\"background-color: transparent; font-family: Verdana; font-size: 11pt; white-space: pre-wrap;\" data-mce-mark=\"1\">The grant may be used to support expenses associated with a summer project. Reasonable expenses include room and board in Durham; fees associated with archives; associated fees such as photocopy fees at another institution, etc.</span></li><li><span style=\"background-color: transparent; font-family: Verdana; font-size: 11pt; white-space: pre-wrap;\" data-mce-mark=\"1\">The maximum award is $4,500.&nbsp;</span></li><li><span style=\"background-color: transparent; font-family: Verdana; font-size: 11pt; white-space: pre-wrap;\" data-mce-mark=\"1\">Students may not use these funds as stipends or salary.&nbsp;</span></li><li><span style=\"background-color: transparent; font-family: Verdana; font-size: 11pt; white-space: pre-wrap;\" data-mce-mark=\"1\">The Library Research Award funds may be combined with other Duke fellowship awards and grants, but the sum total of the awards may not exceed the project expenses.</span></li></ul><p style=\"font-size: 13.008px;\"><span style=\"background-color: transparent; font-family: Verdana; font-size: 11pt; white-space: pre-wrap;\" data-mce-mark=\"1\"><span style=\"background-color: transparent; font-family: Verdana; font-size: 11pt; white-space: pre-wrap;\" data-mce-mark=\"1\"><span style=\"background-color: transparent; font-family: Verdana; font-size: 11pt; white-space: pre-wrap;\" data-mce-mark=\"1\"><span style=\"background-color: transparent; font-family: Verdana; font-size: 11pt; white-space: pre-wrap;\" data-mce-mark=\"1\"><span data-mce-mark=\"1\" style=\"font-size: 12pt; font-family: Verdana; color: #012169; background-color: transparent; font-weight: bold; font-style: normal; font-variant: normal; text-decoration: none; vertical-align: baseline; white-space: pre-wrap;\"><span style=\"background-color: transparent; font-family: Verdana; font-size: 11pt; white-space: pre-wrap;\" data-mce-mark=\"1\"><span data-mce-mark=\"1\" style=\"font-size: 12pt; font-family: Verdana; color: #012169; background-color: transparent; font-weight: bold; font-style: normal; font-variant: normal; text-decoration: none; vertical-align: baseline; white-space: pre-wrap;\"></span></span></span></span></span></span></span></p><p dir=\"ltr\" style=\"line-height: 1.38; margin-top: 12pt; margin-bottom: 12pt;\"><span data-mce-mark=\"1\" style=\"font-size: 12pt; font-family: Verdana; color: #012169; background-color: transparent; font-weight: bold; font-style: normal; font-variant: normal; text-decoration: none; vertical-align: baseline; white-space: pre-wrap;\">Expectations for Recipients</span></p><p style=\"font-size: 13.008px;\"><span style=\"background-color: transparent; font-family: Verdana; font-size: 11pt; white-space: pre-wrap;\" data-mce-mark=\"1\"><span style=\"background-color: transparent; font-family: Verdana; font-size: 11pt; white-space: pre-wrap;\" data-mce-mark=\"1\"><span style=\"background-color: transparent; font-family: Verdana; font-size: 11pt; white-space: pre-wrap;\" data-mce-mark=\"1\"><span style=\"background-color: transparent; font-family: Verdana; font-size: 11pt; white-space: pre-wrap;\" data-mce-mark=\"1\"><span data-mce-mark=\"1\" style=\"font-size: 12pt; font-family: Verdana; color: #012169; background-color: transparent; font-weight: bold; font-style: normal; font-variant: normal; text-decoration: none; vertical-align: baseline; white-space: pre-wrap;\"><span style=\"background-color: transparent; font-family: Verdana; font-size: 11pt; white-space: pre-wrap;\" data-mce-mark=\"1\"><span data-mce-mark=\"1\" style=\"font-size: 12pt; font-family: Verdana; color: #012169; background-color: transparent; font-weight: bold; font-style: normal; font-variant: normal; text-decoration: none; vertical-align: baseline; white-space: pre-wrap;\"></span></span></span></span></span></span></span></p><p style=\"font-size: 13.008px;\"></p><p style=\"font-size: 13.008px;\"><span style=\"background-color: transparent; font-family: Verdana; font-size: 11pt; white-space: pre-wrap;\" data-mce-mark=\"1\"><span style=\"background-color: transparent; font-family: Verdana; font-size: 11pt; white-space: pre-wrap;\" data-mce-mark=\"1\"><span style=\"background-color: transparent; font-family: Verdana; font-size: 11pt; white-space: pre-wrap;\" data-mce-mark=\"1\"><span style=\"background-color: transparent; font-family: Verdana; font-size: 11pt; white-space: pre-wrap;\" data-mce-mark=\"1\"><span data-mce-mark=\"1\" style=\"font-size: 12pt; font-family: Verdana; color: #012169; background-color: transparent; font-weight: bold; font-style: normal; font-variant: normal; text-decoration: none; vertical-align: baseline; white-space: pre-wrap;\"><span style=\"background-color: transparent; font-family: Verdana; font-size: 11pt; white-space: pre-wrap;\" data-mce-mark=\"1\"><span data-mce-mark=\"1\" style=\"font-size: 12pt; font-family: Verdana; color: #012169; background-color: transparent; font-weight: bold; font-style: normal; font-variant: normal; text-decoration: none; vertical-align: baseline; white-space: pre-wrap;\"></span></span></span></span></span></span></span></p><ul style=\"font-size: 13.008px;\"><li><span style=\"background-color: transparent; font-family: Verdana; font-size: 11pt; white-space: pre-wrap;\" data-mce-mark=\"1\">Recipients will also be matched with a librarian mentor who will ensure that the recipient is supported in understanding the range of library collections that would be useful to his or her research project and provide guidance in using the collections when necessary (e.g. information about handling rare or special materials, use of specialized online databases, etc.).&nbsp;</span></li><li><span style=\"background-color: transparent; font-family: Verdana; font-size: 11pt; white-space: pre-wrap;\" data-mce-mark=\"1\">Grant recipients are expected to be in frequent contact with both their faculty and librarian mentors over the summer.&nbsp;</span></li><li><span style=\"background-color: transparent; font-family: Verdana; font-size: 11pt; white-space: pre-wrap;\">Recipients may be featured in Libraries publications and may be asked to provide a short presentation about his or her research and grant experience.</span></li></ul><h2 style=\"font-size: 13.008px; text-align: center;\"><a href=\"https://duke.qualtrics.com/jfe/form/SV_02N74YNp23qYAZv\" title=\"Duke University Libraries Summer Research Grant Application\"><span style=\"background-color: transparent; font-family: Verdana; font-size: 12pt; white-space: pre-wrap;\">&nbsp;</span></a></h2>",
            "revision_id" : 30285,
            "body_format" : "full_html",
            "bundle" : "page",
            "delta" : 0,
            "deleted" : 0
         },
         "field_revision" : {
            "title" : "Duke University Libraries Summer Research Grant Eligibility",
            "changed" : null,
            "created" : null,
            "langcode" : null,
            "uid" : 1,
            "status" : 1,
            "default_langcode" : 1,
            "sticky" : 0,
            "revision_translation_affected" : 1
         },
         "status" : 1,
         "log" : "",
         "comment" : 1,
         "sticky" : 0,
         "promote" : 0,
         "uid" : 2443,
         "timestamp" : 1614091958
      }
   ],
   "langcode" : "und",
   "node__body" : {
      "revision_id" : 30285,
      "body_value" : "<p><img src=\"/sites/default/files/dul/users/Anastasia%20Forte/dulsrg.png\" width=\"600\" height=\"200\" style=\"vertical-align: baseline;\"></p><p dir=\"ltr\" style=\"line-height: 1.38; text-align: center;\"><span data-mce-mark=\"1\" style=\"font-size: 12pt; font-family: Verdana; color: #012169; background-color: transparent; font-weight: bold; font-style: normal; font-variant: normal; text-decoration: none; vertical-align: baseline; white-space: pre-wrap;\">Application Information</span></p><p style=\"font-size: 13.008px;\"></p><p style=\"font-size: 13.008px;\"></p><p style=\"font-size: 13.008px;\"><span style=\"background-color: transparent; font-family: Verdana; font-size: 11pt; white-space: pre-wrap;\" data-mce-mark=\"1\"><span data-mce-mark=\"1\" style=\"font-size: 12pt; font-family: Verdana; color: #012169; background-color: transparent; font-weight: bold; font-style: normal; font-variant: normal; text-decoration: none; vertical-align: baseline; white-space: pre-wrap;\"></span></span></p><p style=\"font-size: 13.008px; text-align: center;\"><span data-mce-mark=\"1\" style=\"font-size: 11pt; font-family: Verdana; color: #012169; background-color: transparent; font-weight: bold; font-style: normal; font-variant: normal; text-decoration: none; vertical-align: baseline; white-space: pre-wrap;\">Eligibility&nbsp;</span></p><p style=\"font-size: 13.008px;\"><span style=\"background-color: transparent; font-family: Verdana; font-size: 11pt; white-space: pre-wrap;\" data-mce-mark=\"1\"><span style=\"background-color: transparent; font-family: Verdana; font-size: 11pt; white-space: pre-wrap;\" data-mce-mark=\"1\"><span style=\"background-color: transparent; font-family: Verdana; font-size: 11pt; white-space: pre-wrap;\" data-mce-mark=\"1\"><span style=\"background-color: transparent; font-family: Verdana; font-size: 11pt; white-space: pre-wrap;\" data-mce-mark=\"1\"><span data-mce-mark=\"1\" style=\"font-size: 12pt; font-family: Verdana; color: #012169; background-color: transparent; font-weight: bold; font-style: normal; font-variant: normal; text-decoration: none; vertical-align: baseline; white-space: pre-wrap;\"><span style=\"background-color: transparent; font-family: Verdana; font-size: 11pt; white-space: pre-wrap;\" data-mce-mark=\"1\"><span data-mce-mark=\"1\" style=\"font-size: 12pt; font-family: Verdana; color: #012169; background-color: transparent; font-weight: bold; font-style: normal; font-variant: normal; text-decoration: none; vertical-align: baseline; white-space: pre-wrap;\"></span></span></span></span></span></span></span></p><ul style=\"font-size: 13.008px;\"><li><span style=\"background-color: transparent; font-family: Verdana; font-size: 11pt; white-space: pre-wrap;\" data-mce-mark=\"1\">With the exception of graduating seniors, all undergraduates participating in the <a href=\"https://undergrad.duke.edu/programs/duke-life-student-group\">LIFE campus community</a> and <a href=\"https://undergrad.duke.edu/duke-life-1\">LIFE-related programs</a> are eligible to apply. Eligibility related to LIFE status is determined in consultation with <a href=\"https://undergrad.duke.edu/staff/molly-goldwasser\">Molly Goldwasser</a>, Associate Vice Provost for Academic Affairs and Undergraduate Education.</span></li><li><span style=\"background-color: transparent; font-family: Verdana; font-size: 11pt; white-space: pre-wrap;\" data-mce-mark=\"1\">Research projects must focus significantly on the use of library materials at Duke. These materials may include special collections, archives, rare books and manuscripts, maps/GIS, government publications, foreign language collections, rich databases of primary source materials, and more.</span></li><li><span style=\"background-color: transparent; font-family: Verdana; font-size: 11pt; white-space: pre-wrap;\" data-mce-mark=\"1\">Applicants must have a faculty mentor with whom they will be in contact during the project and who submits a letter of recommendation.</span></li><li><span style=\"background-color: transparent; font-family: Verdana; font-size: 11pt; white-space: pre-wrap;\" data-mce-mark=\"1\">Recipients must conduct their research over a period of no less than three weeks during the summer.</span></li><li><span style=\"background-color: transparent; font-family: Verdana; font-size: 11pt; white-space: pre-wrap;\" data-mce-mark=\"1\">The grant may be used to support expenses associated with a summer project. Reasonable expenses include room and board in Durham; fees associated with archives; associated fees such as photocopy fees at another institution, etc.</span></li><li><span style=\"background-color: transparent; font-family: Verdana; font-size: 11pt; white-space: pre-wrap;\" data-mce-mark=\"1\">The maximum award is $4,500.&nbsp;</span></li><li><span style=\"background-color: transparent; font-family: Verdana; font-size: 11pt; white-space: pre-wrap;\" data-mce-mark=\"1\">Students may not use these funds as stipends or salary.&nbsp;</span></li><li><span style=\"background-color: transparent; font-family: Verdana; font-size: 11pt; white-space: pre-wrap;\" data-mce-mark=\"1\">The Library Research Award funds may be combined with other Duke fellowship awards and grants, but the sum total of the awards may not exceed the project expenses.</span></li></ul><p style=\"font-size: 13.008px;\"><span style=\"background-color: transparent; font-family: Verdana; font-size: 11pt; white-space: pre-wrap;\" data-mce-mark=\"1\"><span style=\"background-color: transparent; font-family: Verdana; font-size: 11pt; white-space: pre-wrap;\" data-mce-mark=\"1\"><span style=\"background-color: transparent; font-family: Verdana; font-size: 11pt; white-space: pre-wrap;\" data-mce-mark=\"1\"><span style=\"background-color: transparent; font-family: Verdana; font-size: 11pt; white-space: pre-wrap;\" data-mce-mark=\"1\"><span data-mce-mark=\"1\" style=\"font-size: 12pt; font-family: Verdana; color: #012169; background-color: transparent; font-weight: bold; font-style: normal; font-variant: normal; text-decoration: none; vertical-align: baseline; white-space: pre-wrap;\"><span style=\"background-color: transparent; font-family: Verdana; font-size: 11pt; white-space: pre-wrap;\" data-mce-mark=\"1\"><span data-mce-mark=\"1\" style=\"font-size: 12pt; font-family: Verdana; color: #012169; background-color: transparent; font-weight: bold; font-style: normal; font-variant: normal; text-decoration: none; vertical-align: baseline; white-space: pre-wrap;\"></span></span></span></span></span></span></span></p><p dir=\"ltr\" style=\"line-height: 1.38; margin-top: 12pt; margin-bottom: 12pt;\"><span data-mce-mark=\"1\" style=\"font-size: 12pt; font-family: Verdana; color: #012169; background-color: transparent; font-weight: bold; font-style: normal; font-variant: normal; text-decoration: none; vertical-align: baseline; white-space: pre-wrap;\">Expectations for Recipients</span></p><p style=\"font-size: 13.008px;\"><span style=\"background-color: transparent; font-family: Verdana; font-size: 11pt; white-space: pre-wrap;\" data-mce-mark=\"1\"><span style=\"background-color: transparent; font-family: Verdana; font-size: 11pt; white-space: pre-wrap;\" data-mce-mark=\"1\"><span style=\"background-color: transparent; font-family: Verdana; font-size: 11pt; white-space: pre-wrap;\" data-mce-mark=\"1\"><span style=\"background-color: transparent; font-family: Verdana; font-size: 11pt; white-space: pre-wrap;\" data-mce-mark=\"1\"><span data-mce-mark=\"1\" style=\"font-size: 12pt; font-family: Verdana; color: #012169; background-color: transparent; font-weight: bold; font-style: normal; font-variant: normal; text-decoration: none; vertical-align: baseline; white-space: pre-wrap;\"><span style=\"background-color: transparent; font-family: Verdana; font-size: 11pt; white-space: pre-wrap;\" data-mce-mark=\"1\"><span data-mce-mark=\"1\" style=\"font-size: 12pt; font-family: Verdana; color: #012169; background-color: transparent; font-weight: bold; font-style: normal; font-variant: normal; text-decoration: none; vertical-align: baseline; white-space: pre-wrap;\"></span></span></span></span></span></span></span></p><p style=\"font-size: 13.008px;\"></p><p style=\"font-size: 13.008px;\"><span style=\"background-color: transparent; font-family: Verdana; font-size: 11pt; white-space: pre-wrap;\" data-mce-mark=\"1\"><span style=\"background-color: transparent; font-family: Verdana; font-size: 11pt; white-space: pre-wrap;\" data-mce-mark=\"1\"><span style=\"background-color: transparent; font-family: Verdana; font-size: 11pt; white-space: pre-wrap;\" data-mce-mark=\"1\"><span style=\"background-color: transparent; font-family: Verdana; font-size: 11pt; white-space: pre-wrap;\" data-mce-mark=\"1\"><span data-mce-mark=\"1\" style=\"font-size: 12pt; font-family: Verdana; color: #012169; background-color: transparent; font-weight: bold; font-style: normal; font-variant: normal; text-decoration: none; vertical-align: baseline; white-space: pre-wrap;\"><span style=\"background-color: transparent; font-family: Verdana; font-size: 11pt; white-space: pre-wrap;\" data-mce-mark=\"1\"><span data-mce-mark=\"1\" style=\"font-size: 12pt; font-family: Verdana; color: #012169; background-color: transparent; font-weight: bold; font-style: normal; font-variant: normal; text-decoration: none; vertical-align: baseline; white-space: pre-wrap;\"></span></span></span></span></span></span></span></p><ul style=\"font-size: 13.008px;\"><li><span style=\"background-color: transparent; font-family: Verdana; font-size: 11pt; white-space: pre-wrap;\" data-mce-mark=\"1\">Recipients will also be matched with a librarian mentor who will ensure that the recipient is supported in understanding the range of library collections that would be useful to his or her research project and provide guidance in using the collections when necessary (e.g. information about handling rare or special materials, use of specialized online databases, etc.).&nbsp;</span></li><li><span style=\"background-color: transparent; font-family: Verdana; font-size: 11pt; white-space: pre-wrap;\" data-mce-mark=\"1\">Grant recipients are expected to be in frequent contact with both their faculty and librarian mentors over the summer.&nbsp;</span></li><li><span style=\"background-color: transparent; font-family: Verdana; font-size: 11pt; white-space: pre-wrap;\">Recipients may be featured in Libraries publications and may be asked to provide a short presentation about his or her research and grant experience.</span></li></ul><h2 style=\"font-size: 13.008px; text-align: center;\"><a href=\"https://duke.qualtrics.com/jfe/form/SV_02N74YNp23qYAZv\" title=\"Duke University Libraries Summer Research Grant Application\"><span style=\"background-color: transparent; font-family: Verdana; font-size: 12pt; white-space: pre-wrap;\">&nbsp;</span></a></h2>",
      "deleted" : 0,
      "delta" : 0,
      "body_format" : "full_html",
      "bundle" : "page",
      "entity_id" : 2411,
      "body_summary" : "",
      "langcode" : "und"
   },
   "vid" : 30285,
   "uuid" : "2ccbbc73-9900-41a6-9613-0223bb36b54d",
   "field_image" : null,
   "type" : "page",
   "field_tags" : [],
   "path_alias" : {
      "status" : 0,
      "langcode" : "und",
      "language" : "und",
      "alias" : "/research/grants/eligibility",
      "pid" : 4663
   },
   "node_field_data" : {
      "changed" : null,
      "promote" : 0,
      "type" : "page",
      "revision_translation_affected" : 1,
      "langcode" : "und",
      "uid" : 1,
      "title" : "Duke University Libraries Summer Research Grant Eligibility",
      "sticky" : 0,
      "default_langcode" : 1,
      "status" : 1,
      "created" : 1578317457
   },
   "nid" : "2411",
   "asidebox" : {
      "body_value" : "<h4>Deadline:</h4><ul><li>March 15, 2021&nbsp;</li></ul><h4>Purpose:</h4><ul><li>Expenses relating to mentored summer research projects on or off campus</li></ul><h4>Eligibility:</h4><ul><li>First generation or low-income undergraduates</li></ul><h4>Time Frame:</h4><ul><li>Summer</li></ul><h4>Funding:</h4><ul><li>Up to $4500</li></ul><h4>Contact:</h4><ul><li><a href=\"mailto:arianne.hartsell.gundy@duke.edu\">Arianne Hartsell-Gundy</a></li></ul><p></p>",
      "block_module" : null,
      "body_format" : "full_html",
      "bid" : null,
      "vid" : 30285,
      "nid" : 2411,
      "body_title" : "",
      "status" : "html",
      "block_delta" : null
   },
   "node_access" : null
}

