{
   "field_image" : null,
   "type" : "page",
   "vid" : 22363,
   "node__body" : {
      "entity_id" : 1751,
      "body_summary" : "",
      "langcode" : "und",
      "body_value" : "<h2><em>Chronicle</em> Articles</h2><ul><li><a href=\"/sites/default/files/dul/research/student-activism/Chroniclemarch261936publicationsboard.pdf\" target=\"_blank\">March 26, 1935</a>&nbsp;(PDF, 1 MB) | <a href=\"https://library.duke.edu/digitalcollections/dukechronicle_dchnp56043/\" target=\"_blank\">Full issue</a></li><li><a href=\"/sites/default/files/dul/research/student-activism/chroniclesept271935publicationsboard.pdf\" target=\"_blank\" title=\"Chronicle Article, September 27, 1935\">September 27, 1935</a>&nbsp;(PDF, 1 MB) | <a href=\"https://library.duke.edu/digitalcollections/dukechronicle_dchnp57003/\" target=\"_blank\">Full issue</a></li></ul>",
      "revision_id" : 22363,
      "deleted" : 0,
      "body_format" : "full_html",
      "delta" : 0,
      "bundle" : "page"
   },
   "uuid" : "2fb70051-3f0d-4e6f-8daf-cdce50304ab0",
   "langcode" : "und",
   "revisions" : [
      {
         "uid" : 73,
         "timestamp" : 1526340391,
         "promote" : 0,
         "field_revision" : {
            "uid" : 1,
            "langcode" : null,
            "status" : 1,
            "created" : null,
            "revision_translation_affected" : 1,
            "sticky" : 0,
            "default_langcode" : 1,
            "title" : "Women Want Equal Vote on Publications Board",
            "changed" : null
         },
         "status" : 1,
         "comment" : 1,
         "sticky" : 0,
         "log" : "",
         "node_revision__field_tags" : [],
         "vuuid" : "a6c800d3-85f1-4f23-a6b0-6592c0e5b578",
         "title" : "Women Want Equal Vote on Publications Board",
         "node_revision__body" : {
            "revision_id" : 22363,
            "body_value" : "<h2><em>Chronicle</em> Articles</h2><ul><li><a href=\"/sites/default/files/dul/research/student-activism/Chroniclemarch261936publicationsboard.pdf\" target=\"_blank\">March 26, 1935</a>&nbsp;(PDF, 1 MB) | <a href=\"https://library.duke.edu/digitalcollections/dukechronicle_dchnp56043/\" target=\"_blank\">Full issue</a></li><li><a href=\"/sites/default/files/dul/research/student-activism/chroniclesept271935publicationsboard.pdf\" target=\"_blank\" title=\"Chronicle Article, September 27, 1935\">September 27, 1935</a>&nbsp;(PDF, 1 MB) | <a href=\"https://library.duke.edu/digitalcollections/dukechronicle_dchnp57003/\" target=\"_blank\">Full issue</a></li></ul>",
            "deleted" : 0,
            "delta" : 0,
            "body_format" : "full_html",
            "bundle" : "page",
            "entity_id" : 1751,
            "body_summary" : "",
            "langcode" : "und"
         }
      }
   ],
   "asidebox" : {
      "bid" : null,
      "vid" : 22363,
      "nid" : 1751,
      "body_title" : "",
      "block_module" : null,
      "body_value" : null,
      "body_format" : null,
      "block_delta" : null,
      "status" : "disabled"
   },
   "node_access" : null,
   "field_tags" : [],
   "node_field_data" : {
      "uid" : 1,
      "langcode" : "und",
      "revision_translation_affected" : 1,
      "type" : "page",
      "promote" : 0,
      "changed" : null,
      "status" : 1,
      "created" : 1508779058,
      "sticky" : 0,
      "default_langcode" : 1,
      "title" : "Women Want Equal Vote on Publications Board"
   },
   "path_alias" : {
      "langcode" : "und",
      "status" : 0,
      "alias" : "/research/student-activism/documents/publicationsboard",
      "pid" : 3801,
      "language" : "und"
   },
   "nid" : "1751"
}

