{
   "nid" : "194",
   "field_tags" : [],
   "path_alias" : {
      "alias" : "/exhibits-old/spaces",
      "pid" : 364,
      "language" : "und",
      "langcode" : "und",
      "status" : 0
   },
   "node_field_data" : {
      "changed" : null,
      "promote" : 0,
      "type" : "about_page",
      "revision_translation_affected" : 1,
      "langcode" : "und",
      "uid" : 1,
      "title" : "About Gallery Spaces",
      "default_langcode" : 1,
      "sticky" : 0,
      "created" : 1375895281,
      "status" : 0
   },
   "node_access" : {
      "gid" : 1,
      "grant_delete" : 0,
      "realm" : "view_unpublished_about_page_content",
      "langcode" : "und",
      "nid" : 194,
      "grant_view" : 1,
      "grant_update" : 0
   },
   "asidebox" : null,
   "node__body" : {
      "entity_id" : 194,
      "body_summary" : "",
      "langcode" : "und",
      "revision_id" : 14185,
      "body_value" : "<p class=\"muted\"><a href=\"/exhibits\">Now Showing</a> | <a href=\"/exhibits/virtual\">Virtual / Past Exhibits A-Z</a> | <a href=\"/exhibits/about\">About the Program</a> | <a href=\"/exhibits/spaces\">About Gallery Spaces</a> | <a href=\"/exhibits/future\">Future Exhibits</a></p><h2><br><img src=\"/sites/default/files/dul/users/meg.brown%40duke.edu/perkinsforgallery.jpg\" alt=\"Perkins Gallery\" title=\"The Life of Memorials Duke Univeristy\" width=\"156\" height=\"104\" style=\"margin: 5px 15px; border: 1px solid black; float: left;\">Perkins Gallery</h2><p><strong>Location:</strong> Perkins Library (corridor outside of The Perk)&nbsp;|&nbsp;<a href=\"/about/hours\" style=\"line-height: 1.53em;\">Hours</a></p><p><strong>Contact</strong>: Meg Brown, exhibits coordinator&nbsp;&nbsp; | &nbsp;<a href=\"mailto:meg.brown@duke.edu\">meg.brown@duke.edu </a>&nbsp;| &nbsp;<a href=\"tel:9196812071\">(919) 681-2071</a></p><p></p><p>&nbsp;</p><h3>Description:&nbsp;</h3><ul><li>Duke University Libraries purchased the exhibit cases in the Perkins Gallery with a generous grant from the E. Rhodes and Leona B. Carpenter Foundation.</li><li>The space includes three table cases, four small pedestal cases and two upright cases.</li><li>All cases are locked and have security alarms.</li><li>The gallery is a public space with 24-hour access.</li><li>It is most appropriate for displaying three-dimensional objects, such as books and manuscripts.</li></ul><h3>Gallery Policy:&nbsp;</h3><ul><li>Exhibits in the Perkins Gallery support the cultural, historic, scholarly and social concerns of Duke University.</li><li>Members of the Duke community, as well as the larger Raleigh-Durham-Chapel Hill community, may curate exhibits in this space if the content is in support of the Duke University Libraries' mission.</li><li>Curators may display library materials in this space (but this is not a requirement).&nbsp;</li><li>Library departments&nbsp;may curate exhibits in the Perkins Gallery to publicize the richness and diversity of the collections, to highlight services in the libraries or to share interesting research.</li></ul><hr><p>&nbsp;</p><h2><img src=\"/sites/default/files/dul/users/meg.brown%40duke.edu/duke%20divinity%20library.jpg\" alt=\"Duke Divinity Library\" title=\"Duke University Divinity School\" width=\"150\" height=\"100\" style=\"margin: 5px 15px; border: 1px solid black; float: left;\">Divinity School Library Space&nbsp;</h2><p><strong style=\"line-height: 1.53em; font-size: 13px;\">Location:</strong> <a href=\"http://library.divinity.duke.edu/\" style=\"line-height: 1.53em; font-size: 13px; font-weight: normal;\">Divinity School Library</a> (in the Gray Building to the right of Duke Chapel)&nbsp;|&nbsp;<a href=\"http://library.divinity.duke.edu/hours\" style=\"line-height: 1.53em; font-size: 13px; font-weight: normal; text-decoration: underline;\">Hours</a></p><p><strong>Contact:</strong>&nbsp;Beth M. Sheppard, director of the library &nbsp;| &nbsp;<a href=\"mailto:bsheppard@div.duke.edu\">bsheppard@div.duke.edu</a> &nbsp;| &nbsp;<a href=\"tel:9196603452\">(919) 660-3452</a></p><p>&nbsp;</p><h3>Description:</h3><ul><li>There is two exhibit spaces in the Divinity School Library.</li><li>The first space iincludes two small display cases that accomodate objects and books.</li><li>The second second space includes 15 feet of&nbsp;wall space that accomodates visual art.</li></ul><h3>Gallery Policy:&nbsp;</h3><ul><li>The Divinity School Arts Committee reviews applications for exhibits. The director of the library also must approve the exhibit.&nbsp;</li><li>Reviewers give rreference to exhibits about the library or to exhibits that express the mission of Duke Divinity School through art.</li></ul><hr><h2><img src=\"/sites/default/files/dul/users/meg.brown%40duke.edu/IASgallery.jpg\" alt=\"IAS gallery\" title=\"IAS gallery Perkins Library\" width=\"150\" height=\"100\" style=\"margin: 5px 15px; border: 1px solid black; float: left;\">IAS Office Exhibit Space&nbsp;</h2><p><strong>Location:</strong> <a href=\"/apps/locationguide/\">Bostock Library</a> (second floor, outside of the International and Area Studies offices)&nbsp;|&nbsp;<a href=\"/about/hours\" style=\"line-height: 1.53em;\">Hours</a></p><p><strong style=\"line-height: 1.53em;\">Contact:</strong> Kristina Troost, head of IAS and librarian for Japan &nbsp;| &nbsp;<a href=\"mailto:kristina.troost@duke.edu\" style=\"line-height: 1.53em;\">kristina.troost@duke.edu</a> &nbsp;| &nbsp;<a href=\"tel:9196605844\">(919) 660-5844</a></p><p>&nbsp;</p><h3>Description:</h3><ul><li>The exhibit space includes two glass display cabinets measuring about 6-by-9 feet. One cabinet has five shelves and the other does not have shelves.</li><li>This space is appropriate for both three-dimensional objects, such as books and manuscripts, and two-dimensional works that one can hang on the wall.</li></ul><h3>Gallery Policy:&nbsp;</h3><ul><li>IAS staff decide on content for this space.</li><li>Exhibits should display international collections.</li></ul><hr><h2><img src=\"/sites/default/files/dul/users/meg.brown%40duke.edu/Lillygalleryspace.jpg\" alt=\"Lily library Exhibit space\" title=\"Lily Exhibit Gallery Duke University\" width=\"150\" height=\"100\" style=\"margin: 5px 15px; border: 1px solid black; float: left;\">Lilly Library Space&nbsp;</h2><p><strong>Location:</strong> Lilly Library&nbsp;|&nbsp;<a href=\"/about/hours\" style=\"line-height: 1.53em;\">Hours</a></p><p><strong>Contact:</strong> Kelley Lawton &nbsp;| <a href=\"mailto:kelley.lawton@duke.edu\">kelley.lawton@duke.edu</a> &nbsp;| &nbsp;<a href=\"tel:9196605990\">(919) 660-5990</a></p><p>&nbsp;</p><h3>Description:&nbsp;</h3><ul><li><p>Lilly Library has many artworks on permanent display.</p></li><li>Multiple&nbsp;display cases in the foyer of the Lilly Library and on the north mezzanine of Lilly Library's second floor house art,&nbsp;memorabilia,&nbsp;photographs&nbsp;&nbsp;and other items of interest to our patrons.&nbsp;</li><li>The first floor stack entry hallways accomodate two-dimensional art. The south hallway is&nbsp;30-feet long, and the north hallway is 34-feet long.</li></ul><h3>Gallery Policy:&nbsp;</h3><ul><li>Cases display materials highlighting the libraries' collections, recent acquisitions or special themes and subjects.</li><li>Hallway gallery space exhibits are coordinated in conjunction with the <a href=\"/exhibits/about\">Library Exhibits Program</a>&nbsp;and&nbsp;change throughout the school year.</li><li>Students and faculty can propose or suggest an exhibit by contacting <a href=\"mailto:kelley.lawton@duke.edu\">Kelley Lawton</a>.</li></ul><hr><h2><img src=\"/sites/default/files/dul/users/meg.brown%40duke.edu/medcentergallery.jpg\" alt=\"Medical Center Library exhibit gallery\" title=\"Duke University Medical Center Library exhibit gallery\" width=\"150\" height=\"100\" style=\"margin: 5px 15px; border: 1px solid black; float: left;\">Medical Center Library and Archives Exhibits&nbsp;&nbsp;</h2><p><strong>Location:</strong><a href=\"http://mclibrary.duke.edu\"> Medical Center Library and Archives</a> (various spaces in the building)&nbsp;| <a href=\"http://mclibrary.duke.edu\">Hours</a></p><p><strong>Contact:</strong> | &nbsp; &nbsp;| &nbsp;</p><p>&nbsp;</p><h3>Description:&nbsp;</h3><ul><li>Permanent exhibits include:</li><ul><li>apothecary jars&nbsp;in the lower lobby</li><li>a medicinal herb garden exhibit in the History of Medicine Reading Room Terrace</li><li>Exhibits of the history of stereotactic neurosurgery, the 65th general hospital, The Undersea and Hyperbaric Medical Society and Schilling Library memorabilia on the first floor</li><li>a Zeiss microscope on the balcony.</li></ul><li>Rotating exhibits include:</li><ul><li>one case in the main lobby</li><li>three cases in the mezzanine</li><li>four cases on the lower lobby</li><li>one <a href=\"http://www.mbawalls.com\">mila-wall</a>&nbsp;with six light gray modules (each 3 feet wide and 8 feet tall) located in the mezzanine.</li></ul></ul><h3>Gallery Policy:&nbsp;</h3><ul><li>Exhibits should be related to health sciences and medicine.</li><li>Items displayed on the mila-wall&nbsp;should be two-dimensional. The mila-wall is in a public space and cannot be locked.&nbsp;</li><li>Library visitors can see the herb garden during library hours by way of the outside staircase to the left of the Searle Center entrance.</li></ul><hr><h2><img src=\"/sites/default/files/dul/users/meg.brown%40duke.edu/preservationgallery.jpg\" alt=\"Preservation Gallery\" title=\"Duke University Library\" width=\"150\" height=\"100\" style=\"margin: 5px 15px; border: 1px solid black; float: left;\">Preservation Department Exhibit Case&nbsp;</h2><p><strong>Location:</strong> <a href=\"http://maps.duke.edu/map/index.php?id=21&embedMrkId=2750\">Perkins Library</a> (Lower Level 1, outside Room 023)&nbsp;&nbsp;|&nbsp;<strong style=\"color: #000000; line-height: 1.53em;\"><a href=\"/about/hours\" style=\"line-height: 1.53em;\">Hours</a></strong></p><p><strong>Contact:</strong> Beth Doyle, Head, Conservation Services &nbsp;| &nbsp;<a href=\"mailto:b.doyle@duke.edu\">b.doyle@duke.edu</a> &nbsp;| &nbsp;<a href=\"tel:9196605985\">(919) 660-5985</a></p><p>&nbsp;</p><h3>Description:</h3><ul><li>Display area includes one case with shelves.</li><li>The case is 5 feet wide and 8 feet tall.</li></ul><h3>Gallery Policy:&nbsp;</h3><ul><li><p>This space is designated for displays about the conservation, digitization and preservation of Duke University Libraries' materials.</p></li><li>The Conservation Services Department schedules and mounts exhibits.</li></ul><hr><h2><img src=\"/sites/default/files/dul/users/meg.brown%40duke.edu/rbrgallery.jpg\" alt=\"Rare Book Room Exhibit Space\" title=\"Duke University, Rubenstein Library\" width=\"150\" height=\"115\" style=\"margin: 5px 15px; border: 1px solid black; float: left;\">Rare Book Room Cases</h2><p></p><p>The Rare Book Room cases are under renovation and will re-open in Fall 2015.&nbsp;For more information, contact Exhibit Coordinator Meg Brown at&nbsp;<a href=\"mailto:meg.brown@duke.edu\">meg.brown@duke.edu</a>.</p><p></p><p>&nbsp;</p><p>&nbsp;</p><h2><img src=\"/sites/default/files/dul/users/meg.brown%40duke.edu/rbrhallwaygallery.jpg\" alt=\"Rare Book Room hallway cases\" title=\"Rubenstein Library, Duke University\" width=\"150\" height=\"100\" style=\"margin: 5px 15px; border: 1px solid black; float: left;\">Rare Book Room Hall Cases&nbsp;</h2><p>The Rare Book Room hallway is under renovation and will re-open in Fall 2015.&nbsp;For more information, contact Exhibit Coordinator Meg Brown at&nbsp;<a href=\"meg.brown@duke.edu%20%20\" style=\"font-size: 13px; font-weight: normal;\">meg.brown@duke.edu</a>.</p><h3>&nbsp;</h3><h3>&nbsp;</h3><h2><img src=\"/sites/default/files/dul/users/meg.brown%40duke.edu/photogallery.jpg\" alt=\"Photograph gallery\" title=\"Rubenstein Library Duke University\" width=\"150\" height=\"100\" style=\"margin: 5px 15px; border: 1px solid black; float: left;\">Special Collections Gallery</h2><p>The Special Collections hallway is under renovation and will re-open in Fall 2015.&nbsp;For more information, contact Exhibit Coordinator Meg Brown at&nbsp;<a href=\"meg.brown@duke.edu%20%20\">meg.brown@duke.edu</a>.</p>",
      "deleted" : 0,
      "body_format" : "full_html_no_wysiwyg",
      "bundle" : "about_page",
      "delta" : 0
   },
   "vid" : 14185,
   "uuid" : "30c790d2-b37e-4cd9-895b-cda142724a16",
   "field_image" : null,
   "type" : "about_page",
   "revisions" : [
      {
         "field_revision" : {
            "uid" : 1,
            "langcode" : null,
            "status" : 0,
            "created" : null,
            "sticky" : 0,
            "revision_translation_affected" : 1,
            "default_langcode" : 1,
            "title" : "About Gallery Spaces",
            "changed" : null
         },
         "status" : 0,
         "comment" : 1,
         "sticky" : 0,
         "log" : "",
         "node_revision__field_tags" : [],
         "vuuid" : "916efae4-ea0f-4037-a440-fbc0d82c8de8",
         "title" : "About Gallery Spaces",
         "node_revision__body" : {
            "body_summary" : "",
            "entity_id" : 194,
            "langcode" : "und",
            "deleted" : 0,
            "body_format" : "full_html_no_wysiwyg",
            "bundle" : "about_page",
            "delta" : 0,
            "body_value" : "<p class=\"muted\"><a href=\"/exhibits\">Now Showing</a> | <a href=\"/exhibits/virtual\">Virtual / Past Exhibits A-Z</a> | <a href=\"/exhibits/about\">About the Program</a> | <a href=\"/exhibits/spaces\">About Gallery Spaces</a> | <a href=\"/exhibits/future\">Future Exhibits</a></p><h2><br><img src=\"/sites/default/files/dul/users/meg.brown%40duke.edu/perkinsforgallery.jpg\" alt=\"Perkins Gallery\" title=\"The Life of Memorials Duke Univeristy\" width=\"156\" height=\"104\" style=\"margin: 5px 15px; border: 1px solid black; float: left;\">Perkins Gallery</h2><p><strong>Location:</strong> Perkins Library (corridor outside of The Perk)&nbsp;|&nbsp;<a href=\"/about/hours\" style=\"line-height: 1.53em;\">Hours</a></p><p><strong>Contact</strong>: Meg Brown, exhibits coordinator&nbsp;&nbsp; | &nbsp;<a href=\"mailto:meg.brown@duke.edu\">meg.brown@duke.edu </a>&nbsp;| &nbsp;<a href=\"tel:9196812071\">(919) 681-2071</a></p><p></p><p>&nbsp;</p><h3>Description:&nbsp;</h3><ul><li>Duke University Libraries purchased the exhibit cases in the Perkins Gallery with a generous grant from the E. Rhodes and Leona B. Carpenter Foundation.</li><li>The space includes three table cases, four small pedestal cases and two upright cases.</li><li>All cases are locked and have security alarms.</li><li>The gallery is a public space with 24-hour access.</li><li>It is most appropriate for displaying three-dimensional objects, such as books and manuscripts.</li></ul><h3>Gallery Policy:&nbsp;</h3><ul><li>Exhibits in the Perkins Gallery support the cultural, historic, scholarly and social concerns of Duke University.</li><li>Members of the Duke community, as well as the larger Raleigh-Durham-Chapel Hill community, may curate exhibits in this space if the content is in support of the Duke University Libraries' mission.</li><li>Curators may display library materials in this space (but this is not a requirement).&nbsp;</li><li>Library departments&nbsp;may curate exhibits in the Perkins Gallery to publicize the richness and diversity of the collections, to highlight services in the libraries or to share interesting research.</li></ul><hr><p>&nbsp;</p><h2><img src=\"/sites/default/files/dul/users/meg.brown%40duke.edu/duke%20divinity%20library.jpg\" alt=\"Duke Divinity Library\" title=\"Duke University Divinity School\" width=\"150\" height=\"100\" style=\"margin: 5px 15px; border: 1px solid black; float: left;\">Divinity School Library Space&nbsp;</h2><p><strong style=\"line-height: 1.53em; font-size: 13px;\">Location:</strong> <a href=\"http://library.divinity.duke.edu/\" style=\"line-height: 1.53em; font-size: 13px; font-weight: normal;\">Divinity School Library</a> (in the Gray Building to the right of Duke Chapel)&nbsp;|&nbsp;<a href=\"http://library.divinity.duke.edu/hours\" style=\"line-height: 1.53em; font-size: 13px; font-weight: normal; text-decoration: underline;\">Hours</a></p><p><strong>Contact:</strong>&nbsp;Beth M. Sheppard, director of the library &nbsp;| &nbsp;<a href=\"mailto:bsheppard@div.duke.edu\">bsheppard@div.duke.edu</a> &nbsp;| &nbsp;<a href=\"tel:9196603452\">(919) 660-3452</a></p><p>&nbsp;</p><h3>Description:</h3><ul><li>There is two exhibit spaces in the Divinity School Library.</li><li>The first space iincludes two small display cases that accomodate objects and books.</li><li>The second second space includes 15 feet of&nbsp;wall space that accomodates visual art.</li></ul><h3>Gallery Policy:&nbsp;</h3><ul><li>The Divinity School Arts Committee reviews applications for exhibits. The director of the library also must approve the exhibit.&nbsp;</li><li>Reviewers give rreference to exhibits about the library or to exhibits that express the mission of Duke Divinity School through art.</li></ul><hr><h2><img src=\"/sites/default/files/dul/users/meg.brown%40duke.edu/IASgallery.jpg\" alt=\"IAS gallery\" title=\"IAS gallery Perkins Library\" width=\"150\" height=\"100\" style=\"margin: 5px 15px; border: 1px solid black; float: left;\">IAS Office Exhibit Space&nbsp;</h2><p><strong>Location:</strong> <a href=\"/apps/locationguide/\">Bostock Library</a> (second floor, outside of the International and Area Studies offices)&nbsp;|&nbsp;<a href=\"/about/hours\" style=\"line-height: 1.53em;\">Hours</a></p><p><strong style=\"line-height: 1.53em;\">Contact:</strong> Kristina Troost, head of IAS and librarian for Japan &nbsp;| &nbsp;<a href=\"mailto:kristina.troost@duke.edu\" style=\"line-height: 1.53em;\">kristina.troost@duke.edu</a> &nbsp;| &nbsp;<a href=\"tel:9196605844\">(919) 660-5844</a></p><p>&nbsp;</p><h3>Description:</h3><ul><li>The exhibit space includes two glass display cabinets measuring about 6-by-9 feet. One cabinet has five shelves and the other does not have shelves.</li><li>This space is appropriate for both three-dimensional objects, such as books and manuscripts, and two-dimensional works that one can hang on the wall.</li></ul><h3>Gallery Policy:&nbsp;</h3><ul><li>IAS staff decide on content for this space.</li><li>Exhibits should display international collections.</li></ul><hr><h2><img src=\"/sites/default/files/dul/users/meg.brown%40duke.edu/Lillygalleryspace.jpg\" alt=\"Lily library Exhibit space\" title=\"Lily Exhibit Gallery Duke University\" width=\"150\" height=\"100\" style=\"margin: 5px 15px; border: 1px solid black; float: left;\">Lilly Library Space&nbsp;</h2><p><strong>Location:</strong> Lilly Library&nbsp;|&nbsp;<a href=\"/about/hours\" style=\"line-height: 1.53em;\">Hours</a></p><p><strong>Contact:</strong> Kelley Lawton &nbsp;| <a href=\"mailto:kelley.lawton@duke.edu\">kelley.lawton@duke.edu</a> &nbsp;| &nbsp;<a href=\"tel:9196605990\">(919) 660-5990</a></p><p>&nbsp;</p><h3>Description:&nbsp;</h3><ul><li><p>Lilly Library has many artworks on permanent display.</p></li><li>Multiple&nbsp;display cases in the foyer of the Lilly Library and on the north mezzanine of Lilly Library's second floor house art,&nbsp;memorabilia,&nbsp;photographs&nbsp;&nbsp;and other items of interest to our patrons.&nbsp;</li><li>The first floor stack entry hallways accomodate two-dimensional art. The south hallway is&nbsp;30-feet long, and the north hallway is 34-feet long.</li></ul><h3>Gallery Policy:&nbsp;</h3><ul><li>Cases display materials highlighting the libraries' collections, recent acquisitions or special themes and subjects.</li><li>Hallway gallery space exhibits are coordinated in conjunction with the <a href=\"/exhibits/about\">Library Exhibits Program</a>&nbsp;and&nbsp;change throughout the school year.</li><li>Students and faculty can propose or suggest an exhibit by contacting <a href=\"mailto:kelley.lawton@duke.edu\">Kelley Lawton</a>.</li></ul><hr><h2><img src=\"/sites/default/files/dul/users/meg.brown%40duke.edu/medcentergallery.jpg\" alt=\"Medical Center Library exhibit gallery\" title=\"Duke University Medical Center Library exhibit gallery\" width=\"150\" height=\"100\" style=\"margin: 5px 15px; border: 1px solid black; float: left;\">Medical Center Library and Archives Exhibits&nbsp;&nbsp;</h2><p><strong>Location:</strong><a href=\"http://mclibrary.duke.edu\"> Medical Center Library and Archives</a> (various spaces in the building)&nbsp;| <a href=\"http://mclibrary.duke.edu\">Hours</a></p><p><strong>Contact:</strong> | &nbsp; &nbsp;| &nbsp;</p><p>&nbsp;</p><h3>Description:&nbsp;</h3><ul><li>Permanent exhibits include:</li><ul><li>apothecary jars&nbsp;in the lower lobby</li><li>a medicinal herb garden exhibit in the History of Medicine Reading Room Terrace</li><li>Exhibits of the history of stereotactic neurosurgery, the 65th general hospital, The Undersea and Hyperbaric Medical Society and Schilling Library memorabilia on the first floor</li><li>a Zeiss microscope on the balcony.</li></ul><li>Rotating exhibits include:</li><ul><li>one case in the main lobby</li><li>three cases in the mezzanine</li><li>four cases on the lower lobby</li><li>one <a href=\"http://www.mbawalls.com\">mila-wall</a>&nbsp;with six light gray modules (each 3 feet wide and 8 feet tall) located in the mezzanine.</li></ul></ul><h3>Gallery Policy:&nbsp;</h3><ul><li>Exhibits should be related to health sciences and medicine.</li><li>Items displayed on the mila-wall&nbsp;should be two-dimensional. The mila-wall is in a public space and cannot be locked.&nbsp;</li><li>Library visitors can see the herb garden during library hours by way of the outside staircase to the left of the Searle Center entrance.</li></ul><hr><h2><img src=\"/sites/default/files/dul/users/meg.brown%40duke.edu/preservationgallery.jpg\" alt=\"Preservation Gallery\" title=\"Duke University Library\" width=\"150\" height=\"100\" style=\"margin: 5px 15px; border: 1px solid black; float: left;\">Preservation Department Exhibit Case&nbsp;</h2><p><strong>Location:</strong> <a href=\"http://maps.duke.edu/map/index.php?id=21&embedMrkId=2750\">Perkins Library</a> (Lower Level 1, outside Room 023)&nbsp;&nbsp;|&nbsp;<strong style=\"color: #000000; line-height: 1.53em;\"><a href=\"/about/hours\" style=\"line-height: 1.53em;\">Hours</a></strong></p><p><strong>Contact:</strong> Beth Doyle, Head, Conservation Services &nbsp;| &nbsp;<a href=\"mailto:b.doyle@duke.edu\">b.doyle@duke.edu</a> &nbsp;| &nbsp;<a href=\"tel:9196605985\">(919) 660-5985</a></p><p>&nbsp;</p><h3>Description:</h3><ul><li>Display area includes one case with shelves.</li><li>The case is 5 feet wide and 8 feet tall.</li></ul><h3>Gallery Policy:&nbsp;</h3><ul><li><p>This space is designated for displays about the conservation, digitization and preservation of Duke University Libraries' materials.</p></li><li>The Conservation Services Department schedules and mounts exhibits.</li></ul><hr><h2><img src=\"/sites/default/files/dul/users/meg.brown%40duke.edu/rbrgallery.jpg\" alt=\"Rare Book Room Exhibit Space\" title=\"Duke University, Rubenstein Library\" width=\"150\" height=\"115\" style=\"margin: 5px 15px; border: 1px solid black; float: left;\">Rare Book Room Cases</h2><p></p><p>The Rare Book Room cases are under renovation and will re-open in Fall 2015.&nbsp;For more information, contact Exhibit Coordinator Meg Brown at&nbsp;<a href=\"mailto:meg.brown@duke.edu\">meg.brown@duke.edu</a>.</p><p></p><p>&nbsp;</p><p>&nbsp;</p><h2><img src=\"/sites/default/files/dul/users/meg.brown%40duke.edu/rbrhallwaygallery.jpg\" alt=\"Rare Book Room hallway cases\" title=\"Rubenstein Library, Duke University\" width=\"150\" height=\"100\" style=\"margin: 5px 15px; border: 1px solid black; float: left;\">Rare Book Room Hall Cases&nbsp;</h2><p>The Rare Book Room hallway is under renovation and will re-open in Fall 2015.&nbsp;For more information, contact Exhibit Coordinator Meg Brown at&nbsp;<a href=\"meg.brown@duke.edu%20%20\" style=\"font-size: 13px; font-weight: normal;\">meg.brown@duke.edu</a>.</p><h3>&nbsp;</h3><h3>&nbsp;</h3><h2><img src=\"/sites/default/files/dul/users/meg.brown%40duke.edu/photogallery.jpg\" alt=\"Photograph gallery\" title=\"Rubenstein Library Duke University\" width=\"150\" height=\"100\" style=\"margin: 5px 15px; border: 1px solid black; float: left;\">Special Collections Gallery</h2><p>The Special Collections hallway is under renovation and will re-open in Fall 2015.&nbsp;For more information, contact Exhibit Coordinator Meg Brown at&nbsp;<a href=\"meg.brown@duke.edu%20%20\">meg.brown@duke.edu</a>.</p>",
            "revision_id" : 14185
         },
         "uid" : 3,
         "timestamp" : 1471886787,
         "promote" : 0
      }
   ],
   "langcode" : "und"
}

