{
   "path_alias" : {
      "language" : "und",
      "alias" : "/about/digital-swag/snowy-owl",
      "pid" : 4477,
      "langcode" : "und",
      "status" : 0
   },
   "node_field_data" : {
      "promote" : 0,
      "changed" : null,
      "type" : "about_page",
      "revision_translation_affected" : 1,
      "uid" : 1,
      "langcode" : "und",
      "title" : "Digital Swag / Snowy Owl",
      "default_langcode" : 1,
      "sticky" : 0,
      "created" : 1565725405,
      "status" : 1
   },
   "field_tags" : [],
   "nid" : "2309",
   "asidebox" : {
      "block_delta" : null,
      "status" : "disabled",
      "bid" : null,
      "vid" : 26575,
      "body_title" : "",
      "nid" : 2309,
      "body_value" : null,
      "block_module" : null,
      "body_format" : null
   },
   "node_access" : null,
   "revisions" : [
      {
         "uid" : 60,
         "timestamp" : 1566230792,
         "promote" : 0,
         "status" : 1,
         "field_revision" : {
            "title" : "Digital Swag / Snowy Owl",
            "changed" : null,
            "created" : null,
            "langcode" : null,
            "uid" : 1,
            "status" : 1,
            "default_langcode" : 1,
            "sticky" : 0,
            "revision_translation_affected" : 1
         },
         "log" : "",
         "sticky" : 0,
         "comment" : 1,
         "vuuid" : "0a823944-d9ec-4864-b21e-71fb45d746de",
         "title" : "Digital Swag / Snowy Owl",
         "node_revision__field_tags" : [],
         "node_revision__body" : {
            "langcode" : "und",
            "entity_id" : 2309,
            "body_summary" : "",
            "revision_id" : 26575,
            "body_value" : "<p><a href=\"https://library.duke.edu/about/digital-swag\"><button type=\"button\" class=\"btn btn-info btn-sm\">← Digital Swag Themes</button></a></p><h4>Illustration of a snowy owl, from the four-volume, double-elephant-folio edition of John James Audubon’s <em>Birds of America</em> (1827-38), one of the greatest undertakings in the history of both art and ornithology. From the David M. Rubenstein Rare Book & Manuscript Library.</h4><br/><h4><em>Click the thumbnail to view the full-size image. Then right-click to save to your computer, or press and hold to save to your mobile device.</em></h4><hr><div class=\"row\"><div class=\"col-sm-12\"><h2>Mobile</h2></div><div class=\"col-sm-4\"><h4>Phone</h4><a href=\"https://blogs.library.duke.edu/wp-content/uploads/2019/08/Audubon-Snowy-Owl-Phone-1080-x-1920.jpg\" target=\"_blank\"> <img src=\"/sites/default/files/dul/users/aaron.welborn/Audubon%20Snowy%20Owl%20Phone%201080%20x%201920.jpg\" alt=\"Snowy Owl\" width=\"200\" height=\"356\" class=\"img-responsive\"> </a></div><div class=\"col-sm-4\"><h4>Tablet</h4><a href=\"https://blogs.library.duke.edu/wp-content/uploads/2019/08/Audubon-Snowy-Owl-Tablet-1536-x-2048.jpg\" target=\"_blank\"> <img src=\"/sites/default/files/dul/users/aaron.welborn/Audubon%20Snowy%20Owl%20Tablet%201536%20x%202048.jpg\" alt=\"Snowy Owl\" width=\"300\" height=\"400\" class=\"img-responsive\"> </a></div></div><div class=\"row\"><div class=\"col-sm-12\"><h2>Desktop</h2></div><div class=\"col-sm-5\"><h4>16 x 9</h4><a href=\"https://blogs.library.duke.edu/wp-content/uploads/2019/08/Audubon-Snowy-Owl-Desktop-1920-x-1080.jpg\" target=\"_blank\"> <img src=\"/sites/default/files/dul/users/aaron.welborn/Audubon%20Snowy%20Owl%20Desktop%201920%20x%201080.jpg\" alt=\"Snowy Owl\" width=\"400\" height=\"225\" class=\"img-responsive\"> </a></div><div class=\"col-sm-5\"><h4>16 x 10</h4><a href=\"https://blogs.library.duke.edu/wp-content/uploads/2019/08/Audubon-Snowy-Owl-Desktop-1920-x-1200.jpg\" target=\"_blank\"> <img src=\"/sites/default/files/dul/users/aaron.welborn/Audubon%20Snowy%20Owl%20Desktop%201920%20x%201200.jpg\" alt=\"Snowy Owl\" width=\"400\" height=\"250\" class=\"img-responsive\"> </a></div></div><div class=\"row\"><div class=\"col-sm-12\"><h2>Social Media</h2></div><div class=\"col-sm-5\"><h4>Facebook Cover</h4><a href=\"https://blogs.library.duke.edu/wp-content/uploads/2019/08/Audubon-Snowy-Owl-Facebook-820-x-312.jpg\" target=\"_blank\"> <img src=\"/sites/default/files/dul/users/aaron.welborn/Audubon%20Snowy%20Owl%20Facebook%20820%20x%20312.jpg\" alt=\"Snowy Owl\" width=\"400\" height=\"152\" class=\"img-responsive\"> </a></div><div class=\"col-sm-5\"><h4>Twitter Header</h4><a href=\"https://blogs.library.duke.edu/wp-content/uploads/2019/08/Audubon-Snowy-Owl-Twitter-1500-x-500.jpg\" target=\"_blank\"> <img src=\"/sites/default/files/dul/users/aaron.welborn/Audubon%20Snowy%20Owl%20Twitter%201500%20x%20500.jpg\" alt=\"Snowy Owl\" width=\"400\" height=\"133\" class=\"img-responsive\"> </a></div></div>",
            "body_format" : "full_html_no_wysiwyg",
            "delta" : 0,
            "bundle" : "about_page",
            "deleted" : 0
         }
      }
   ],
   "langcode" : "und",
   "uuid" : "31e26203-3985-4039-b3e9-bfeb250a4b6e",
   "vid" : 26575,
   "node__body" : {
      "body_value" : "<p><a href=\"https://library.duke.edu/about/digital-swag\"><button type=\"button\" class=\"btn btn-info btn-sm\">← Digital Swag Themes</button></a></p><h4>Illustration of a snowy owl, from the four-volume, double-elephant-folio edition of John James Audubon’s <em>Birds of America</em> (1827-38), one of the greatest undertakings in the history of both art and ornithology. From the David M. Rubenstein Rare Book & Manuscript Library.</h4><br/><h4><em>Click the thumbnail to view the full-size image. Then right-click to save to your computer, or press and hold to save to your mobile device.</em></h4><hr><div class=\"row\"><div class=\"col-sm-12\"><h2>Mobile</h2></div><div class=\"col-sm-4\"><h4>Phone</h4><a href=\"https://blogs.library.duke.edu/wp-content/uploads/2019/08/Audubon-Snowy-Owl-Phone-1080-x-1920.jpg\" target=\"_blank\"> <img src=\"/sites/default/files/dul/users/aaron.welborn/Audubon%20Snowy%20Owl%20Phone%201080%20x%201920.jpg\" alt=\"Snowy Owl\" width=\"200\" height=\"356\" class=\"img-responsive\"> </a></div><div class=\"col-sm-4\"><h4>Tablet</h4><a href=\"https://blogs.library.duke.edu/wp-content/uploads/2019/08/Audubon-Snowy-Owl-Tablet-1536-x-2048.jpg\" target=\"_blank\"> <img src=\"/sites/default/files/dul/users/aaron.welborn/Audubon%20Snowy%20Owl%20Tablet%201536%20x%202048.jpg\" alt=\"Snowy Owl\" width=\"300\" height=\"400\" class=\"img-responsive\"> </a></div></div><div class=\"row\"><div class=\"col-sm-12\"><h2>Desktop</h2></div><div class=\"col-sm-5\"><h4>16 x 9</h4><a href=\"https://blogs.library.duke.edu/wp-content/uploads/2019/08/Audubon-Snowy-Owl-Desktop-1920-x-1080.jpg\" target=\"_blank\"> <img src=\"/sites/default/files/dul/users/aaron.welborn/Audubon%20Snowy%20Owl%20Desktop%201920%20x%201080.jpg\" alt=\"Snowy Owl\" width=\"400\" height=\"225\" class=\"img-responsive\"> </a></div><div class=\"col-sm-5\"><h4>16 x 10</h4><a href=\"https://blogs.library.duke.edu/wp-content/uploads/2019/08/Audubon-Snowy-Owl-Desktop-1920-x-1200.jpg\" target=\"_blank\"> <img src=\"/sites/default/files/dul/users/aaron.welborn/Audubon%20Snowy%20Owl%20Desktop%201920%20x%201200.jpg\" alt=\"Snowy Owl\" width=\"400\" height=\"250\" class=\"img-responsive\"> </a></div></div><div class=\"row\"><div class=\"col-sm-12\"><h2>Social Media</h2></div><div class=\"col-sm-5\"><h4>Facebook Cover</h4><a href=\"https://blogs.library.duke.edu/wp-content/uploads/2019/08/Audubon-Snowy-Owl-Facebook-820-x-312.jpg\" target=\"_blank\"> <img src=\"/sites/default/files/dul/users/aaron.welborn/Audubon%20Snowy%20Owl%20Facebook%20820%20x%20312.jpg\" alt=\"Snowy Owl\" width=\"400\" height=\"152\" class=\"img-responsive\"> </a></div><div class=\"col-sm-5\"><h4>Twitter Header</h4><a href=\"https://blogs.library.duke.edu/wp-content/uploads/2019/08/Audubon-Snowy-Owl-Twitter-1500-x-500.jpg\" target=\"_blank\"> <img src=\"/sites/default/files/dul/users/aaron.welborn/Audubon%20Snowy%20Owl%20Twitter%201500%20x%20500.jpg\" alt=\"Snowy Owl\" width=\"400\" height=\"133\" class=\"img-responsive\"> </a></div></div>",
      "revision_id" : 26575,
      "body_format" : "full_html_no_wysiwyg",
      "bundle" : "about_page",
      "delta" : 0,
      "deleted" : 0,
      "langcode" : "und",
      "entity_id" : 2309,
      "body_summary" : ""
   },
   "type" : "about_page",
   "field_image" : null
}

