{
   "field_image" : null,
   "type" : "page",
   "node__body" : {
      "langcode" : "und",
      "body_summary" : "",
      "entity_id" : 1545,
      "body_format" : "full_html",
      "bundle" : "page",
      "delta" : 0,
      "deleted" : 0,
      "revision_id" : 30344,
      "body_value" : "<p><img src=\"/sites/default/files/dul/users/Dracine%20Hodges/dults_orgchart_02.27.2021-page0001.jpg\" alt=\"Organizational chart\" title=\"Technical Services Organizational Chart\" width=\"1200\" height=\"927\"></p>"
   },
   "vid" : 30344,
   "uuid" : "3217201b-46d3-468f-926c-30ae35905fee",
   "langcode" : "und",
   "revisions" : [
      {
         "promote" : 0,
         "uid" : 1997,
         "timestamp" : 1614444037,
         "title" : "Technical Services Organizational Chart",
         "vuuid" : "952314d2-7edc-43e4-a091-733b4404eb7d",
         "node_revision__field_tags" : [],
         "node_revision__body" : {
            "entity_id" : 1545,
            "body_summary" : "",
            "langcode" : "und",
            "body_value" : "<p><img src=\"/sites/default/files/dul/users/Dracine%20Hodges/dults_orgchart_02.27.2021-page0001.jpg\" alt=\"Organizational chart\" title=\"Technical Services Organizational Chart\" width=\"1200\" height=\"927\"></p>",
            "revision_id" : 30344,
            "deleted" : 0,
            "delta" : 0,
            "body_format" : "full_html",
            "bundle" : "page"
         },
         "status" : 1,
         "field_revision" : {
            "changed" : null,
            "title" : "Technical Services Organizational Chart",
            "default_langcode" : 1,
            "revision_translation_affected" : 1,
            "sticky" : 0,
            "created" : null,
            "status" : 1,
            "uid" : 1,
            "langcode" : null
         },
         "sticky" : 0,
         "comment" : 1,
         "log" : ""
      }
   ],
   "asidebox" : {
      "bid" : null,
      "vid" : 30344,
      "body_title" : "MORE INFO",
      "nid" : 1545,
      "body_value" : "<p><a href=\"/about/depts/technical-services\">About Us</a></p><p><a href=\"/about/depts/technical-services/departments\">Departments</a></p><p><a href=\"/about/depts/technical-services/staff\">Staff Directory</a></p><p><a href=\"/about/depts/technical-services/orgchart\">Organizational Chart</a></p><p><a href=\"https://library.duke.edu/about/depts/technical-services/datadocs\">News, Data, and Docs</a></p>",
      "block_module" : null,
      "body_format" : "full_html",
      "block_delta" : null,
      "status" : "html"
   },
   "node_access" : null,
   "field_tags" : [],
   "node_field_data" : {
      "type" : "page",
      "promote" : 0,
      "changed" : null,
      "uid" : 1,
      "langcode" : "und",
      "revision_translation_affected" : 1,
      "title" : "Technical Services Organizational Chart",
      "created" : 1489689905,
      "status" : 1,
      "default_langcode" : 1,
      "sticky" : 0
   },
   "path_alias" : {
      "alias" : "/about/depts/technical-services/orgchart",
      "pid" : 3515,
      "language" : "und",
      "status" : 0,
      "langcode" : "und"
   },
   "nid" : "1545"
}

