{
   "asidebox" : {
      "status" : "disabled",
      "block_delta" : null,
      "body_format" : null,
      "block_module" : null,
      "body_value" : null,
      "nid" : 681,
      "body_title" : "",
      "bid" : null,
      "vid" : 27535
   },
   "node_access" : null,
   "field_tags" : [],
   "node_field_data" : {
      "title" : "Frequently Asked Questions about the Edge",
      "sticky" : 0,
      "default_langcode" : 1,
      "status" : 1,
      "created" : 1409258903,
      "changed" : null,
      "promote" : 0,
      "type" : "page",
      "revision_translation_affected" : 1,
      "uid" : 1,
      "langcode" : "und"
   },
   "path_alias" : {
      "language" : "und",
      "alias" : "/edge/faq",
      "pid" : 1039,
      "status" : 0,
      "langcode" : "und"
   },
   "nid" : "681",
   "field_image" : null,
   "type" : "page",
   "vid" : 27535,
   "node__body" : {
      "body_summary" : "",
      "entity_id" : 681,
      "langcode" : "und",
      "deleted" : 0,
      "bundle" : "page",
      "body_format" : "full_html",
      "delta" : 0,
      "revision_id" : 27535,
      "body_value" : "<p><strong> How do I reserve the Workshop Room? </strong></p><p style=\"padding-left: 30px;\">Submit an <a href=\"/edge/events\"> online request form </a> from The Edge's website. A staff member will be in touch with you soon to let you know whether we will be able to schedule your event in the space.</p><p><strong> <br> How do I request a Project Room? </strong></p><p style=\"padding-left: 30px;\">Submit an <a href=\"/edge/project-spaces\"> online request form </a> from The Edge's website. The team reviewing these applications meets twice a month, so a response to your application may take a couple of weeks. Don't hesitate to contact us at <a href=\"mailto:edge@duke.edu\"> edge@duke.edu </a> if you have any questions or concerns.</p><p><strong> <br> Why should I request a project room for my team — can't I just reserve one myself if I need it? </strong></p><p style=\"padding-left: 30px;\">You can reserve some project rooms <a href=\"http://duke.libcal.com/reserve/edge\"> on an ad hoc basis online </a> , or using the touchscreen or ipads available in The Edge, but these rooms tend to fill up as the semester goes on. Applying for a project room guarantees that you and your team will have a regular workspace. In addition, you'll be assigned a locked cabinet in the project room where you can store work items.&nbsp;</p><p><strong> <br> Where are other places I can go to study?&nbsp; </strong></p><p style=\"padding-left: 30px;\">Collaborative and quiet study spaces are available throughout Perkins and Bostock Libraries, accommodating a range of users and uses. You can <a href=\"/using/library-spaces\"> search for and reserve </a> the place that meets your needs.</p><p><strong> <br> Who can use The Edge? </strong></p><p style=\"padding-left: 30px;\">All Duke researchers (faculty, students, and staff) are welcome. During high-use times, preference and priority for spaces (like project rooms) and resources (like workstations) will be for researchers whose work requires access to places, expertise, and resources that are unique to The Edge.</p>"
   },
   "uuid" : "362e5689-5988-4f7e-915a-32c384907885",
   "langcode" : "und",
   "revisions" : [
      {
         "status" : 1,
         "field_revision" : {
            "default_langcode" : 1,
            "revision_translation_affected" : 1,
            "sticky" : 0,
            "created" : null,
            "uid" : 1,
            "status" : 1,
            "langcode" : null,
            "changed" : null,
            "title" : "Frequently Asked Questions about the Edge"
         },
         "sticky" : 0,
         "comment" : 1,
         "log" : "",
         "title" : "Frequently Asked Questions about the Edge",
         "vuuid" : "264f255e-c4d9-4a62-aef3-e079e7c349b7",
         "node_revision__field_tags" : [],
         "node_revision__body" : {
            "deleted" : 0,
            "body_format" : "full_html",
            "delta" : 0,
            "bundle" : "page",
            "revision_id" : 27535,
            "body_value" : "<p><strong> How do I reserve the Workshop Room? </strong></p><p style=\"padding-left: 30px;\">Submit an <a href=\"/edge/events\"> online request form </a> from The Edge's website. A staff member will be in touch with you soon to let you know whether we will be able to schedule your event in the space.</p><p><strong> <br> How do I request a Project Room? </strong></p><p style=\"padding-left: 30px;\">Submit an <a href=\"/edge/project-spaces\"> online request form </a> from The Edge's website. The team reviewing these applications meets twice a month, so a response to your application may take a couple of weeks. Don't hesitate to contact us at <a href=\"mailto:edge@duke.edu\"> edge@duke.edu </a> if you have any questions or concerns.</p><p><strong> <br> Why should I request a project room for my team — can't I just reserve one myself if I need it? </strong></p><p style=\"padding-left: 30px;\">You can reserve some project rooms <a href=\"http://duke.libcal.com/reserve/edge\"> on an ad hoc basis online </a> , or using the touchscreen or ipads available in The Edge, but these rooms tend to fill up as the semester goes on. Applying for a project room guarantees that you and your team will have a regular workspace. In addition, you'll be assigned a locked cabinet in the project room where you can store work items.&nbsp;</p><p><strong> <br> Where are other places I can go to study?&nbsp; </strong></p><p style=\"padding-left: 30px;\">Collaborative and quiet study spaces are available throughout Perkins and Bostock Libraries, accommodating a range of users and uses. You can <a href=\"/using/library-spaces\"> search for and reserve </a> the place that meets your needs.</p><p><strong> <br> Who can use The Edge? </strong></p><p style=\"padding-left: 30px;\">All Duke researchers (faculty, students, and staff) are welcome. During high-use times, preference and priority for spaces (like project rooms) and resources (like workstations) will be for researchers whose work requires access to places, expertise, and resources that are unique to The Edge.</p>",
            "body_summary" : "",
            "entity_id" : 681,
            "langcode" : "und"
         },
         "uid" : 25,
         "timestamp" : 1578589597,
         "promote" : 0
      }
   ]
}

