{
   "field_tags" : [],
   "node_field_data" : {
      "promote" : 0,
      "changed" : null,
      "type" : "research_page",
      "revision_translation_affected" : 1,
      "uid" : 1,
      "langcode" : "und",
      "title" : "Canadian Studies",
      "sticky" : 0,
      "default_langcode" : 1,
      "status" : 1,
      "created" : 1390495597
   },
   "path_alias" : {
      "pid" : 811,
      "alias" : "/research/international/canadian-studies",
      "language" : "und",
      "status" : 0,
      "langcode" : "und"
   },
   "nid" : "529",
   "asidebox" : {
      "body_title" : "",
      "nid" : 529,
      "bid" : null,
      "vid" : 18839,
      "body_format" : "full_html",
      "block_module" : null,
      "body_value" : "<p><img src=\"/sites/default/files/dul/research-support/international/canadian_studies.jpg\" alt=\"Toronto\" title=\"Toronto\" width=\"550\" height=\"561\" class=\"img-responsive\"></p>",
      "block_delta" : null,
      "status" : "html"
   },
   "node_access" : null,
   "vid" : 18839,
   "node__body" : {
      "body_summary" : "",
      "entity_id" : 529,
      "langcode" : "und",
      "deleted" : 0,
      "bundle" : "research_page",
      "body_format" : "full_html",
      "delta" : 0,
      "revision_id" : 18839,
      "body_value" : "<p>Getting Started</p><ul><li>Get Research Help!&nbsp; Email the librarian to <a href=\"mailto:carson.holloway@duke.edu\"> set up an appointment</a>.</li><li>Research Guides: <a href=\"https://guides.library.duke.edu/canadian\" target=\"_blank\"> Canadian Studies </a></li><li>Specialized Canadian Government Information: <a href=\"https://guides.library.duke.edu/content.php?pid=30238&amp;sid=221523\"> Canadian Documents </a></li><li><a href=\"https://guides.library.duke.edu/content.php?pid=30238&amp;sid=222427\" target=\"_blank\">Canadian Literature </a></li><li><a href=\"https://guides.library.duke.edu/content.php?pid=30238&amp;sid=221486\">Statistics &amp; Trade </a></li></ul><p>Librarian for Canadian Studies</p><p><br> <a href=\"/apps/directory/staff/1171/\">Carson Holloway </a><br> Lilly Library<br> <a href=\"tel:+19196605997\">(919) 660-5997 </a><br> <a href=\"mailto:carson.holloway@duke.edu\">carson.holloway@duke.edu</a></p>"
   },
   "uuid" : "3e47a21d-0b62-468f-9e5a-76f14b15e130",
   "field_image" : null,
   "type" : "research_page",
   "revisions" : [
      {
         "node_revision__body" : {
            "revision_id" : 18839,
            "body_value" : "<p>Getting Started</p><ul><li>Get Research Help!&nbsp; Email the librarian to <a href=\"mailto:carson.holloway@duke.edu\"> set up an appointment</a>.</li><li>Research Guides: <a href=\"https://guides.library.duke.edu/canadian\" target=\"_blank\"> Canadian Studies </a></li><li>Specialized Canadian Government Information: <a href=\"https://guides.library.duke.edu/content.php?pid=30238&amp;sid=221523\"> Canadian Documents </a></li><li><a href=\"https://guides.library.duke.edu/content.php?pid=30238&amp;sid=222427\" target=\"_blank\">Canadian Literature </a></li><li><a href=\"https://guides.library.duke.edu/content.php?pid=30238&amp;sid=221486\">Statistics &amp; Trade </a></li></ul><p>Librarian for Canadian Studies</p><p><br> <a href=\"/apps/directory/staff/1171/\">Carson Holloway </a><br> Lilly Library<br> <a href=\"tel:+19196605997\">(919) 660-5997 </a><br> <a href=\"mailto:carson.holloway@duke.edu\">carson.holloway@duke.edu</a></p>",
            "deleted" : 0,
            "delta" : 0,
            "body_format" : "full_html",
            "bundle" : "research_page",
            "langcode" : "und",
            "entity_id" : 529,
            "body_summary" : ""
         },
         "vuuid" : "d95311b1-05fc-4e8a-8a95-b16af4b7ecaf",
         "title" : "Canadian Studies",
         "node_revision__field_tags" : [],
         "sticky" : 0,
         "comment" : 1,
         "log" : "",
         "status" : 1,
         "field_revision" : {
            "changed" : null,
            "title" : "Canadian Studies",
            "default_langcode" : 1,
            "revision_translation_affected" : 1,
            "sticky" : 0,
            "created" : null,
            "status" : 1,
            "uid" : 1,
            "langcode" : null
         },
         "promote" : 0,
         "timestamp" : 1507579191,
         "uid" : 3
      }
   ],
   "langcode" : "und"
}

