{
   "path_alias" : {
      "pid" : 1047,
      "alias" : "/about/depts/dpps/digex",
      "language" : "und",
      "langcode" : "und",
      "status" : 0
   },
   "node_field_data" : {
      "type" : "page",
      "changed" : null,
      "promote" : 0,
      "langcode" : "und",
      "uid" : 1,
      "revision_translation_affected" : 1,
      "title" : "Digital Exhibits Working Group",
      "status" : 1,
      "created" : 1409667060,
      "sticky" : 0,
      "default_langcode" : 1
   },
   "field_tags" : [],
   "nid" : "685",
   "asidebox" : {
      "body_value" : null,
      "block_module" : null,
      "body_format" : null,
      "vid" : 15781,
      "bid" : null,
      "nid" : 685,
      "body_title" : "",
      "status" : "disabled",
      "block_delta" : null
   },
   "node_access" : null,
   "uuid" : "3f2d5c23-cbb7-4efa-9e74-2ed3082fe299",
   "node__body" : {
      "langcode" : "und",
      "body_summary" : "",
      "entity_id" : 685,
      "deleted" : 0,
      "body_format" : "full_html",
      "bundle" : "page",
      "delta" : 0,
      "body_value" : "<p>The Digital Exhibits Working Group is charged with providing vision, consulting expertise, and hands-on support for a wide array of projects and initiatives related to gallery exhibits, web exhibits, data visualizations, digital collections, and digital signage. The Working Group serves as a forum for high-level coordination for the activities of a number of department-level coordinators, including the Exhibits Coordinator, the Visualization Coordinator, and the Digital Collections Program Manager. It also serves as a functional project team when projects require hands-on work.&nbsp;</p>\r\n\r\n<p>The Working Group is currently chaired by <a href=\"/about/directory/staff/2011\" title=\"Will Sexton staff page\">Will Sexton</a>, Head of Digital Projects and Production Services.</p>\r\n\r\n<p>Past and Current Projects</p>\r\n\r\n<p>LINK Media Wall Exhibit</p>\r\n\r\n<p>A team composed of members from the Working Group developed an exhibit for the <a href=\"https://link.duke.edu/media-wall\" title=\"LINK Media Wall\">LINK Media Wall</a> in Lower Level 1 of the Perkins Library building. The exhibit, Gothic Wonderland (pictured right), chronicles the construction of the Duke campus, and features digitized historical materials drawn from University Archives.</p>\r\n\r\n<p>As part of the development process, team members produced a document outlining <a href=\"/about/depts/dpps/digex/link-exhibit\" title=\"Best Practices for Link Media Wall Exhibits\">best practices for Media Wall exhibits </a>for library staff interested in creating their own exhibits. Team members also posted two articles on the Bitstreams blog related to the project:</p>\r\n\r\n<ul>\r\n\t<li><a href=\"https://blogs.library.duke.edu/bitstreams/2014/10/17/digital-exhibits-epic-saga-game-stones/\" style=\"font-size: 13.0080003738403px; line-height: 1.538em;\" target=\"_parent\" title=\"A Digital Exhibits Epic Saga: Game of Stones\">&quot;A Digital Exhibits Epic Saga: Game of Stones&quot;</a> (October 17, 2014)</li>\r\n\t<li><a href=\"https://blogs.library.duke.edu/bitstreams/2014/11/21/assembling-game-stones/\" title=\"\">&quot;Assembling the Game of Stones&quot;</a> (November 21, 2014)</li>\r\n</ul>\r\n\r\n<p>Contact the Working Group chair if you are interested in creating LINK Media Wall exhibits from Library collections.&nbsp;</p>\r\n\r\n<p>Exhibit and Information Kiosks</p>\r\n\r\n<p>The Working Group serves as a forum for discussion and exploration of content and policy for the touchscreen kiosks installed in spaces for exhibits, or in entrance areas. During the course of the <a href=\"https://blogs.library.duke.edu/renovation/about/history-of-the-perkins-project/\" title=\"History of the Perkins Project\">Perkins Project</a>, ongoing since 2003, the West Campus library buildings have undergone extensive construction and remodeling. Questions of how to deploy hardware into our spaces are complex, and the needs constantly evolving.</p>\r\n\r\n<p>Working Group member Michael Daul wrote about the process of building a touchscreen to complement a gallery exhibit in his Bitstreams post, <a href=\"https://blogs.library.duke.edu/bitstreams/2014/09/12/anatomy-exhibit-kiosk/\" title=\"Anatomy of an Exhibit Kiosk\">&quot;Anatomy of an Exhibit Kiosk.&quot;</a></p>\r\n\r\n<p>Exhibits Web Site</p>\r\n\r\n<p>The Working Group is currently working with a team to re-envision and redevelop <a href=\"/exhibits\" title=\"Duke University Libraries - Exhibits-Now Showing\">the Library&#39;s Exhibits site</a>.</p>\r\n",
      "revision_id" : 15781
   },
   "vid" : 15781,
   "type" : "page",
   "field_image" : null,
   "revisions" : [
      {
         "uid" : 3,
         "timestamp" : 1489693679,
         "promote" : 0,
         "field_revision" : {
            "title" : "Digital Exhibits Working Group",
            "changed" : null,
            "status" : 1,
            "uid" : 1,
            "langcode" : null,
            "created" : null,
            "revision_translation_affected" : 1,
            "sticky" : 0,
            "default_langcode" : 1
         },
         "status" : 1,
         "log" : "",
         "comment" : 1,
         "sticky" : 0,
         "node_revision__field_tags" : [],
         "vuuid" : "29a928da-fcde-4139-8ccf-71c730418a18",
         "title" : "Digital Exhibits Working Group",
         "node_revision__body" : {
            "langcode" : "und",
            "body_summary" : "",
            "entity_id" : 685,
            "deleted" : 0,
            "delta" : 0,
            "body_format" : "full_html",
            "bundle" : "page",
            "revision_id" : 15781,
            "body_value" : "<p>The Digital Exhibits Working Group is charged with providing vision, consulting expertise, and hands-on support for a wide array of projects and initiatives related to gallery exhibits, web exhibits, data visualizations, digital collections, and digital signage. The Working Group serves as a forum for high-level coordination for the activities of a number of department-level coordinators, including the Exhibits Coordinator, the Visualization Coordinator, and the Digital Collections Program Manager. It also serves as a functional project team when projects require hands-on work.&nbsp;</p>\r\n\r\n<p>The Working Group is currently chaired by <a href=\"/about/directory/staff/2011\" title=\"Will Sexton staff page\">Will Sexton</a>, Head of Digital Projects and Production Services.</p>\r\n\r\n<p>Past and Current Projects</p>\r\n\r\n<p>LINK Media Wall Exhibit</p>\r\n\r\n<p>A team composed of members from the Working Group developed an exhibit for the <a href=\"https://link.duke.edu/media-wall\" title=\"LINK Media Wall\">LINK Media Wall</a> in Lower Level 1 of the Perkins Library building. The exhibit, Gothic Wonderland (pictured right), chronicles the construction of the Duke campus, and features digitized historical materials drawn from University Archives.</p>\r\n\r\n<p>As part of the development process, team members produced a document outlining <a href=\"/about/depts/dpps/digex/link-exhibit\" title=\"Best Practices for Link Media Wall Exhibits\">best practices for Media Wall exhibits </a>for library staff interested in creating their own exhibits. Team members also posted two articles on the Bitstreams blog related to the project:</p>\r\n\r\n<ul>\r\n\t<li><a href=\"https://blogs.library.duke.edu/bitstreams/2014/10/17/digital-exhibits-epic-saga-game-stones/\" style=\"font-size: 13.0080003738403px; line-height: 1.538em;\" target=\"_parent\" title=\"A Digital Exhibits Epic Saga: Game of Stones\">&quot;A Digital Exhibits Epic Saga: Game of Stones&quot;</a> (October 17, 2014)</li>\r\n\t<li><a href=\"https://blogs.library.duke.edu/bitstreams/2014/11/21/assembling-game-stones/\" title=\"\">&quot;Assembling the Game of Stones&quot;</a> (November 21, 2014)</li>\r\n</ul>\r\n\r\n<p>Contact the Working Group chair if you are interested in creating LINK Media Wall exhibits from Library collections.&nbsp;</p>\r\n\r\n<p>Exhibit and Information Kiosks</p>\r\n\r\n<p>The Working Group serves as a forum for discussion and exploration of content and policy for the touchscreen kiosks installed in spaces for exhibits, or in entrance areas. During the course of the <a href=\"https://blogs.library.duke.edu/renovation/about/history-of-the-perkins-project/\" title=\"History of the Perkins Project\">Perkins Project</a>, ongoing since 2003, the West Campus library buildings have undergone extensive construction and remodeling. Questions of how to deploy hardware into our spaces are complex, and the needs constantly evolving.</p>\r\n\r\n<p>Working Group member Michael Daul wrote about the process of building a touchscreen to complement a gallery exhibit in his Bitstreams post, <a href=\"https://blogs.library.duke.edu/bitstreams/2014/09/12/anatomy-exhibit-kiosk/\" title=\"Anatomy of an Exhibit Kiosk\">&quot;Anatomy of an Exhibit Kiosk.&quot;</a></p>\r\n\r\n<p>Exhibits Web Site</p>\r\n\r\n<p>The Working Group is currently working with a team to re-envision and redevelop <a href=\"/exhibits\" title=\"Duke University Libraries - Exhibits-Now Showing\">the Library&#39;s Exhibits site</a>.</p>\r\n"
         }
      }
   ],
   "langcode" : "und"
}

