{
   "node_field_data" : {
      "uid" : 1,
      "langcode" : "und",
      "revision_translation_affected" : 1,
      "type" : "page",
      "promote" : 0,
      "changed" : null,
      "created" : 1523305594,
      "status" : 1,
      "default_langcode" : 1,
      "sticky" : 0,
      "title" : "Student Organizations"
   },
   "path_alias" : {
      "status" : 0,
      "langcode" : "und",
      "language" : "und",
      "pid" : 4089,
      "alias" : "/research/student-activism/student-organizations"
   },
   "field_tags" : [],
   "nid" : "2007",
   "asidebox" : {
      "block_delta" : null,
      "status" : "disabled",
      "vid" : 23297,
      "bid" : null,
      "body_title" : "",
      "nid" : 2007,
      "block_module" : null,
      "body_value" : null,
      "body_format" : null
   },
   "node_access" : null,
   "revisions" : [
      {
         "timestamp" : 1534276993,
         "uid" : 73,
         "promote" : 0,
         "log" : "",
         "comment" : 1,
         "sticky" : 0,
         "field_revision" : {
            "default_langcode" : 1,
            "sticky" : 0,
            "revision_translation_affected" : 1,
            "created" : null,
            "langcode" : null,
            "uid" : 1,
            "status" : 1,
            "changed" : null,
            "title" : "Student Organizations"
         },
         "status" : 1,
         "node_revision__body" : {
            "langcode" : "und",
            "body_summary" : "",
            "entity_id" : 2007,
            "deleted" : 0,
            "bundle" : "page",
            "body_format" : "full_html",
            "delta" : 0,
            "revision_id" : 23297,
            "body_value" : "<p>This project is based on the definition of activism as the “actions by an individual, group or coalition which challenge the status quo in an organized way or engage with the greater community both at the local and national way.” With this definition in mind, our research uncovered a number of Duke University groups and individuals involved in activism during the 1930s to 1940s, but six student organizations were particularly prominent in terms of their activities and member involvement. For these six organizations, we felt more in-depth profiles were necessary to highlight their activist contributions:&nbsp;<a href=\"/research/student-activism/student-organizations/asuprofile\">American Student Union</a>,&nbsp;<a href=\"/research/student-activism/student-organizations/cogsprofile\">COGS</a>,&nbsp;<a href=\"/research/student-activism/student-organizations/lwvprofile\">League of Women Voters</a>,&nbsp;<a href=\"/research/student-activism/student-organizations/liberalclubprofile\">Liberal Club</a>,&nbsp;<a href=\"/research/student-activism/student-organizations/vfwprofile\">Veterans of Future Wars</a>, and&nbsp;<a href=\"/research/student-activism/student-organizations/ymcaywcaprofile\">YMCA / YWCA</a>.</p><p></p><p></p><p></p><p></p><p></p><p><br><br><br><br><br><br></p>"
         },
         "node_revision__field_tags" : [],
         "title" : "Student Organizations",
         "vuuid" : "50b36482-ba2c-4573-ba3b-6456c2d8344c"
      }
   ],
   "langcode" : "und",
   "uuid" : "401aa78e-37ab-4d47-b229-1a36fa11cc19",
   "vid" : 23297,
   "node__body" : {
      "entity_id" : 2007,
      "body_summary" : "",
      "langcode" : "und",
      "body_value" : "<p>This project is based on the definition of activism as the “actions by an individual, group or coalition which challenge the status quo in an organized way or engage with the greater community both at the local and national way.” With this definition in mind, our research uncovered a number of Duke University groups and individuals involved in activism during the 1930s to 1940s, but six student organizations were particularly prominent in terms of their activities and member involvement. For these six organizations, we felt more in-depth profiles were necessary to highlight their activist contributions:&nbsp;<a href=\"/research/student-activism/student-organizations/asuprofile\">American Student Union</a>,&nbsp;<a href=\"/research/student-activism/student-organizations/cogsprofile\">COGS</a>,&nbsp;<a href=\"/research/student-activism/student-organizations/lwvprofile\">League of Women Voters</a>,&nbsp;<a href=\"/research/student-activism/student-organizations/liberalclubprofile\">Liberal Club</a>,&nbsp;<a href=\"/research/student-activism/student-organizations/vfwprofile\">Veterans of Future Wars</a>, and&nbsp;<a href=\"/research/student-activism/student-organizations/ymcaywcaprofile\">YMCA / YWCA</a>.</p><p></p><p></p><p></p><p></p><p></p><p><br><br><br><br><br><br></p>",
      "revision_id" : 23297,
      "deleted" : 0,
      "delta" : 0,
      "body_format" : "full_html",
      "bundle" : "page"
   },
   "type" : "page",
   "field_image" : null
}

