{
   "revisions" : [
      {
         "promote" : 0,
         "uid" : 25,
         "timestamp" : 1466608092,
         "node_revision__field_tags" : [],
         "title" : "Request a Library Workshop",
         "vuuid" : "9c859165-d730-4c5f-98b6-9fc5de2a44b1",
         "node_revision__body" : {
            "body_summary" : "",
            "entity_id" : 449,
            "langcode" : "und",
            "bundle" : "course_support_page",
            "body_format" : "full_html_no_wysiwyg",
            "delta" : 0,
            "deleted" : 0,
            "body_value" : "<p>Fill out the form below to request a library workshop for your course. We also provide library research refreshers for faculty, grad students, or staff upon request. Once you have submitted the form below, a librarian will contact you to confirm the date and location and to discuss the session's content.</p><p>Questions? Contact <a href=\"/apps/directory/staff/7217/\" target=\"_blank\" title=\"Hannah Rozear\">Hannah Rozear</a>, Librarian for Instructional Services</p><div id=\"contentBox\"><div id=\"pageContentBox\"><div id=\"pageContentProper\"><div class=\"pageSection\"><iframe style=\"width: 877px; height: 1100px;\" scrolling=\"yes\" src=\"https://duke.qualtrics.com/SE/?SID=SV_6EZGyvDMC8UrZJz\" width=\"320\" frameborder=\"0\" height=\"240\"></iframe></div></div></div></div>",
            "revision_id" : 13681
         },
         "field_revision" : {
            "title" : "Request a Library Workshop",
            "changed" : null,
            "langcode" : null,
            "uid" : 1,
            "status" : 1,
            "created" : null,
            "sticky" : 0,
            "revision_translation_affected" : 1,
            "default_langcode" : 1
         },
         "status" : 1,
         "log" : "",
         "comment" : 1,
         "sticky" : 0
      }
   ],
   "langcode" : "und",
   "vid" : 13681,
   "node__body" : {
      "langcode" : "und",
      "entity_id" : 449,
      "body_summary" : "",
      "revision_id" : 13681,
      "body_value" : "<p>Fill out the form below to request a library workshop for your course. We also provide library research refreshers for faculty, grad students, or staff upon request. Once you have submitted the form below, a librarian will contact you to confirm the date and location and to discuss the session's content.</p><p>Questions? Contact <a href=\"/apps/directory/staff/7217/\" target=\"_blank\" title=\"Hannah Rozear\">Hannah Rozear</a>, Librarian for Instructional Services</p><div id=\"contentBox\"><div id=\"pageContentBox\"><div id=\"pageContentProper\"><div class=\"pageSection\"><iframe style=\"width: 877px; height: 1100px;\" scrolling=\"yes\" src=\"https://duke.qualtrics.com/SE/?SID=SV_6EZGyvDMC8UrZJz\" width=\"320\" frameborder=\"0\" height=\"240\"></iframe></div></div></div></div>",
      "deleted" : 0,
      "body_format" : "full_html_no_wysiwyg",
      "bundle" : "course_support_page",
      "delta" : 0
   },
   "uuid" : "4210a1a5-52ea-4a84-a4b1-d728ede32b8a",
   "field_image" : null,
   "type" : "course_support_page",
   "nid" : "449",
   "field_tags" : [],
   "path_alias" : {
      "status" : 0,
      "langcode" : "und",
      "pid" : 651,
      "alias" : "/course-support/training-workshops/request-library-workshop",
      "language" : "und"
   },
   "node_field_data" : {
      "type" : "course_support_page",
      "promote" : 0,
      "changed" : null,
      "langcode" : "und",
      "uid" : 1,
      "revision_translation_affected" : 1,
      "title" : "Request a Library Workshop",
      "status" : 1,
      "created" : 1381346771,
      "sticky" : 0,
      "default_langcode" : 1
   },
   "node_access" : {
      "nid" : 449,
      "grant_update" : 0,
      "grant_view" : 1,
      "gid" : 0,
      "langcode" : "und",
      "realm" : "all",
      "grant_delete" : 0
   },
   "asidebox" : {
      "status" : "disabled",
      "block_delta" : null,
      "block_module" : null,
      "body_value" : null,
      "body_format" : null,
      "vid" : 13681,
      "bid" : null,
      "nid" : 449,
      "body_title" : ""
   }
}

