{
   "type" : "marine_library_page",
   "field_image" : null,
   "uuid" : "45120092-296f-477d-be70-6f555ecd08c9",
   "vid" : 22673,
   "node__body" : {
      "langcode" : "und",
      "entity_id" : 287,
      "body_summary" : "",
      "revision_id" : 22673,
      "body_value" : "<p>The Pearse Memorial Library at the Duke Marine Lab is part of Duke University Libraries. It supports the teaching and research efforts of the faculty, staff and students of the Duke University Marine Laboratory.</p><p>What subjects can I research at the Marine Lab Library?</p><p>The library collects materials primarily on the following subjects:&nbsp;</p><ul><li>aquaculture</li><li>coastal environment &amp;&nbsp;management</li><li>fisheries &amp; fishery management</li><li>marine biology</li><li>marine ecology</li><li>marine life</li><li>oceanography</li></ul><p>What kinds of technologies are available to me?</p><ul><li>8 dual-operating system computers (Mac &amp; Windows) in the upper stacks.</li><li>4 public-use computers on the first floor.</li><li>1&nbsp;<a href=\"https://oit.duke.edu/what-we-do/applications/eprint\">ePrint</a>&nbsp;station on the first floor.</li><li>1 black &amp; white copier/scanner which accepts both&nbsp;<a href=\"https://dukecard.duke.edu/\">Duke ID cards</a>&nbsp;(with a Flex account) and departmental copy cards. Copies are $0.07 each.</li><li>Wireless and plug-in network connectivity.</li></ul>",
      "bundle" : "marine_library_page",
      "body_format" : "full_html",
      "delta" : 0,
      "deleted" : 0
   },
   "langcode" : "und",
   "revisions" : [
      {
         "node_revision__field_tags" : [],
         "vuuid" : "ad8e59cf-f9cf-493a-baa8-038c552bb53b",
         "title" : "Facilities at the Marine Lab Library",
         "node_revision__body" : {
            "deleted" : 0,
            "body_format" : "full_html",
            "bundle" : "marine_library_page",
            "delta" : 0,
            "body_value" : "<p>The Pearse Memorial Library at the Duke Marine Lab is part of Duke University Libraries. It supports the teaching and research efforts of the faculty, staff and students of the Duke University Marine Laboratory.</p><p>What subjects can I research at the Marine Lab Library?</p><p>The library collects materials primarily on the following subjects:&nbsp;</p><ul><li>aquaculture</li><li>coastal environment &amp;&nbsp;management</li><li>fisheries &amp; fishery management</li><li>marine biology</li><li>marine ecology</li><li>marine life</li><li>oceanography</li></ul><p>What kinds of technologies are available to me?</p><ul><li>8 dual-operating system computers (Mac &amp; Windows) in the upper stacks.</li><li>4 public-use computers on the first floor.</li><li>1&nbsp;<a href=\"https://oit.duke.edu/what-we-do/applications/eprint\">ePrint</a>&nbsp;station on the first floor.</li><li>1 black &amp; white copier/scanner which accepts both&nbsp;<a href=\"https://dukecard.duke.edu/\">Duke ID cards</a>&nbsp;(with a Flex account) and departmental copy cards. Copies are $0.07 each.</li><li>Wireless and plug-in network connectivity.</li></ul>",
            "revision_id" : 22673,
            "body_summary" : "",
            "entity_id" : 287,
            "langcode" : "und"
         },
         "field_revision" : {
            "title" : "Facilities at the Marine Lab Library",
            "changed" : null,
            "uid" : 1,
            "status" : 1,
            "langcode" : null,
            "created" : null,
            "sticky" : 0,
            "revision_translation_affected" : 1,
            "default_langcode" : 1
         },
         "status" : 1,
         "comment" : 1,
         "sticky" : 0,
         "log" : "",
         "promote" : 0,
         "uid" : 85,
         "timestamp" : 1528907561
      }
   ],
   "asidebox" : {
      "block_delta" : null,
      "status" : "disabled",
      "bid" : null,
      "vid" : 22673,
      "body_title" : "",
      "nid" : 287,
      "block_module" : null,
      "body_value" : null,
      "body_format" : null
   },
   "node_access" : null,
   "node_field_data" : {
      "langcode" : "und",
      "uid" : 1,
      "revision_translation_affected" : 1,
      "type" : "marine_library_page",
      "promote" : 0,
      "changed" : null,
      "status" : 1,
      "created" : 1377024197,
      "sticky" : 0,
      "default_langcode" : 1,
      "title" : "Facilities at the Marine Lab Library"
   },
   "path_alias" : {
      "status" : 0,
      "langcode" : "und",
      "pid" : 463,
      "alias" : "/marine/facilities",
      "language" : "und"
   },
   "field_tags" : [],
   "nid" : "287"
}

