{
   "langcode" : "und",
   "revisions" : [
      {
         "log" : "",
         "sticky" : 0,
         "comment" : 1,
         "status" : 1,
         "field_revision" : {
            "sticky" : 0,
            "revision_translation_affected" : 1,
            "default_langcode" : 1,
            "langcode" : null,
            "uid" : 1,
            "status" : 1,
            "created" : null,
            "changed" : null,
            "title" : "April 2020 (available)"
         },
         "node_revision__body" : {
            "langcode" : null
         },
         "vuuid" : "95e099ce-84a6-4a3b-85f5-ff880c83fea9",
         "title" : "April 2020 (available)",
         "node_revision__field_tags" : [],
         "timestamp" : 1576090999,
         "uid" : 2213,
         "promote" : 0
      }
   ],
   "type" : "exhibit",
   "field_image" : null,
   "uuid" : "467720ca-70a1-42e2-bf0d-aae0d3ac40eb",
   "vid" : 23569,
   "node__body" : null,
   "node_access" : null,
   "asidebox" : null,
   "nid" : "2087",
   "node_field_data" : {
      "promote" : 0,
      "changed" : null,
      "type" : "exhibit",
      "revision_translation_affected" : 1,
      "uid" : 1,
      "langcode" : "und",
      "title" : "April 2020 (available)",
      "sticky" : 0,
      "default_langcode" : 1,
      "status" : 1,
      "created" : 1535484805
   },
   "path_alias" : {
      "language" : "und",
      "pid" : 4203,
      "alias" : "/exhibits/2020/April",
      "langcode" : "und",
      "status" : 0
   },
   "field_tags" : []
}

