{
   "asidebox" : null,
   "nid" : "1667",
   "revisions" : [
      {
         "node_revision__body" : {
            "entity_id" : 1667,
            "body_summary" : "",
            "langcode" : "und",
            "body_value" : "<p>An exhibition in the Sperling exhibit cases in Rubenstein Library that includes manuscripts, photographs and objects documenting the life and work of Duke student, professor and author Reynolds Price.&nbsp;</p>",
            "revision_id" : 17309,
            "bundle" : "exhibit",
            "body_format" : "full_html",
            "delta" : 0,
            "deleted" : 0
         },
         "node_revision__field_tags" : [],
         "title" : "Reynolds Price",
         "vuuid" : "f0aca460-6721-4f87-a423-a544cd3e37bd",
         "log" : "",
         "comment" : 1,
         "sticky" : 0,
         "field_revision" : {
            "status" : 1,
            "uid" : 1,
            "langcode" : null,
            "created" : null,
            "revision_translation_affected" : 1,
            "sticky" : 0,
            "default_langcode" : 1,
            "title" : "Reynolds Price",
            "changed" : null
         },
         "status" : 1,
         "promote" : 0,
         "timestamp" : 1538401444,
         "uid" : 3
      }
   ],
   "field_image" : {
      "field_image_height" : 600,
      "entity_type" : "node",
      "langcode" : "und",
      "field_image_alt" : "",
      "field_image_width" : 742,
      "bundle" : "exhibit",
      "delta" : 0,
      "entity_id" : 1667,
      "field_image_target_id" : 2741,
      "field_image_title" : "",
      "file_uuid" : "3a45b619-5225-4bfd-8610-93a91fda152e",
      "language" : "und",
      "revision_id" : 17309,
      "field_image_fid" : 2741,
      "deleted" : 0
   },
   "vid" : 17309,
   "node__body" : {
      "body_summary" : "",
      "entity_id" : 1667,
      "langcode" : "und",
      "deleted" : 0,
      "body_format" : "full_html",
      "delta" : 0,
      "bundle" : "exhibit",
      "revision_id" : 17309,
      "body_value" : "<p>An exhibition in the Sperling exhibit cases in Rubenstein Library that includes manuscripts, photographs and objects documenting the life and work of Duke student, professor and author Reynolds Price.&nbsp;</p>"
   },
   "node__field_image" : {},
   "node_access" : null,
   "field_tags" : [],
   "node_field_data" : {
      "title" : "Reynolds Price",
      "default_langcode" : 1,
      "sticky" : 0,
      "created" : 1500560987,
      "status" : 1,
      "promote" : 0,
      "changed" : null,
      "type" : "exhibit",
      "revision_translation_affected" : 1,
      "uid" : 1,
      "langcode" : "und"
   },
   "path_alias" : {
      "alias" : "/exhibits/2017/reynoldsprice",
      "pid" : 3677,
      "language" : "und",
      "status" : 0,
      "langcode" : "und"
   },
   "langcode" : "und",
   "type" : "exhibit",
   "uuid" : "47b90ce3-8d81-4982-8418-04386838c829"
}

