{
   "uuid" : "4875f38e-c243-450c-b6f2-c197773491d0",
   "node__body" : {
      "entity_id" : 353,
      "body_summary" : "",
      "langcode" : "und",
      "revision_id" : 18123,
      "body_value" : "<h2>About Us</h2><p>Our mission is to ensure the Duke community can find, access and interact with information easily and transparently. We provide systems, technology services and tools to encourage the use of information and the creation of knowledge in suppport of Duke University Libraries' and Duke University's missions. Our vision for our organization is to provide thought leadership and operational excellence in the discovery and delivery of information.</p><p>Our strategy for achieving this vision is to become deft at managing service changes such as:</p><ul><li>innovating in areas of strategic advantage</li><li>transitioning to commodity service providers when efficient to do so</li><li>evolving our user support in harmony with community change</li></ul><h2>Who we are</h2><p>There are five departments as follows:</p><p></p><h5><a href=\"/about/depts/dpps\">Digital Projects &amp; Production Services</a></h5><p>Department Head: Will Sexton</p><p></p><h5><a href=\"/data/\">Data &amp; Visualization Services</a></h5><p>Department Head: Joel Herndon</p><p></p><h5><a href=\"/about/depts/repositoryservices/\">Institutional Repository Services</a></h5><p>Department Head: Jim Tuttle</p><p></p><h5><a href=\"/about/depts/dacs/\">Core Services</a></h5><p>Department Head: John Pormann</p><p></p><h5>Enterprise Services</h5><p>Department Head: Ginny Boyer</p>",
      "bundle" : "about_page",
      "body_format" : "full_html",
      "delta" : 0,
      "deleted" : 0
   },
   "vid" : 18123,
   "type" : "about_page",
   "field_image" : null,
   "revisions" : [
      {
         "promote" : 0,
         "uid" : 3,
         "timestamp" : 1506448585,
         "vuuid" : "decc8faa-12d8-462c-b185-6230e2211ff2",
         "title" : "Information Technology Services",
         "node_revision__field_tags" : [],
         "node_revision__body" : {
            "langcode" : "und",
            "body_summary" : "",
            "entity_id" : 353,
            "body_format" : "full_html",
            "bundle" : "about_page",
            "delta" : 0,
            "deleted" : 0,
            "revision_id" : 18123,
            "body_value" : "<h2>About Us</h2><p>Our mission is to ensure the Duke community can find, access and interact with information easily and transparently. We provide systems, technology services and tools to encourage the use of information and the creation of knowledge in suppport of Duke University Libraries' and Duke University's missions. Our vision for our organization is to provide thought leadership and operational excellence in the discovery and delivery of information.</p><p>Our strategy for achieving this vision is to become deft at managing service changes such as:</p><ul><li>innovating in areas of strategic advantage</li><li>transitioning to commodity service providers when efficient to do so</li><li>evolving our user support in harmony with community change</li></ul><h2>Who we are</h2><p>There are five departments as follows:</p><p></p><h5><a href=\"/about/depts/dpps\">Digital Projects &amp; Production Services</a></h5><p>Department Head: Will Sexton</p><p></p><h5><a href=\"/data/\">Data &amp; Visualization Services</a></h5><p>Department Head: Joel Herndon</p><p></p><h5><a href=\"/about/depts/repositoryservices/\">Institutional Repository Services</a></h5><p>Department Head: Jim Tuttle</p><p></p><h5><a href=\"/about/depts/dacs/\">Core Services</a></h5><p>Department Head: John Pormann</p><p></p><h5>Enterprise Services</h5><p>Department Head: Ginny Boyer</p>"
         },
         "status" : 1,
         "field_revision" : {
            "revision_translation_affected" : 1,
            "sticky" : 0,
            "default_langcode" : 1,
            "status" : 1,
            "uid" : 1,
            "langcode" : null,
            "created" : null,
            "changed" : null,
            "title" : "Information Technology Services"
         },
         "log" : "",
         "sticky" : 0,
         "comment" : 1
      }
   ],
   "langcode" : "und",
   "node_field_data" : {
      "title" : "Information Technology Services",
      "default_langcode" : 1,
      "sticky" : 0,
      "created" : 1378300901,
      "status" : 1,
      "changed" : null,
      "promote" : 0,
      "type" : "about_page",
      "revision_translation_affected" : 1,
      "uid" : 1,
      "langcode" : "und"
   },
   "path_alias" : {
      "language" : "und",
      "alias" : "/about/depts/its",
      "pid" : 534,
      "langcode" : "und",
      "status" : 0
   },
   "field_tags" : [],
   "nid" : "353",
   "asidebox" : {
      "block_module" : null,
      "body_value" : "<div id=\"page-column-right\" class=\"pageColumn\"><div class=\"pageSection\"><h3 class=\"pageSection\">Our goals</h3><div class=\"pageSection\"><ul><li>implementing a clear systems approach to all the work of Information Technology, including integrating and streamlining our work</li><li>developing clear processes for the management of budgets, communications, planning and projects</li><li>improving the ability to discover information</li><li>improving the digital experiences of and support for our staff and our community</li></ul><h3>Our achievements</h3><ul><li><a href=\"http://news.duke.edu/2010/08/mattball.html\">Find Study Space with Perkinsense</a>.</li><li><a href=\"http://library.duke.edu/news/main/2010/article6.html\">Mellon Grant Funds Library Software Development</a></li></ul><h3>Contact Us</h3><ul><li><a href=\"http://library.duke.edu/apps/directory/dept/421/\">View an ITS contact list</a>.</li></ul></div></div></div>",
      "body_format" : "full_html",
      "bid" : null,
      "vid" : 18123,
      "nid" : 353,
      "body_title" : "More Information ",
      "status" : "html",
      "block_delta" : null
   },
   "node_access" : null
}

