{
   "node__body" : {
      "delta" : 0,
      "body_format" : "full_html",
      "bundle" : "research_page",
      "deleted" : 0,
      "body_value" : "<p>Getting Started</p><ul style=\"list-style-type: disc;\"><li>Get research help from the librarian! <a href=\"mailto:miree.ku@duke.edu\">Make an appointment online</a>.</li><li><a href=\"https://guides.library.duke.edu/koreanstudies\">Research guides</a></li><li><a href=\"https://guides.library.duke.edu/ksdatabases\">Specialized databases</a></li><li><a href=\"https://guides.library.duke.edu/content.php?pid=23706&amp;sid=170526\">Films about Korea</a></li><li><a href=\"https://guides.library.duke.edu/content.php?pid=23706&amp;sid=4204395\">Numeric data &amp; statistics</a></li><li><a href=\"https://guides.library.duke.edu/aecontent.php?pid=23706&amp;sid=4208892\">Maps</a></li><li><a href=\"https://guides.library.duke.edu/aecontent.php?pid=23706&amp;sid=4209342\">Primary sources</a></li><li><a href=\"https://guides.library.duke.edu/languagelearning_korean\">Learning Korean </a></li><li><a href=\"https://guides.library.duke.edu/content.php?pid=23706&amp;sid=3403016\">Description of collection</a></li></ul><p>Librarian for Korean Studies</p><p><br> <a href=\"/apps/directory/staff/1341/\">Miree Ku</a><br> 235 Bostock Library<br> <a href=\"tel:+19196605817\">(919) 660-5817</a><br> <a href=\"mailto:miree.ku@duke.edu\">miree.ku@duke.edu</a></p>",
      "revision_id" : 18923,
      "body_summary" : "",
      "entity_id" : 521,
      "langcode" : "und"
   },
   "vid" : 18923,
   "uuid" : "49563485-47b7-45d1-bd05-6ec402aabc2d",
   "field_image" : null,
   "type" : "research_page",
   "revisions" : [
      {
         "node_revision__body" : {
            "revision_id" : 18923,
            "body_value" : "<p>Getting Started</p><ul style=\"list-style-type: disc;\"><li>Get research help from the librarian! <a href=\"mailto:miree.ku@duke.edu\">Make an appointment online</a>.</li><li><a href=\"https://guides.library.duke.edu/koreanstudies\">Research guides</a></li><li><a href=\"https://guides.library.duke.edu/ksdatabases\">Specialized databases</a></li><li><a href=\"https://guides.library.duke.edu/content.php?pid=23706&amp;sid=170526\">Films about Korea</a></li><li><a href=\"https://guides.library.duke.edu/content.php?pid=23706&amp;sid=4204395\">Numeric data &amp; statistics</a></li><li><a href=\"https://guides.library.duke.edu/aecontent.php?pid=23706&amp;sid=4208892\">Maps</a></li><li><a href=\"https://guides.library.duke.edu/aecontent.php?pid=23706&amp;sid=4209342\">Primary sources</a></li><li><a href=\"https://guides.library.duke.edu/languagelearning_korean\">Learning Korean </a></li><li><a href=\"https://guides.library.duke.edu/content.php?pid=23706&amp;sid=3403016\">Description of collection</a></li></ul><p>Librarian for Korean Studies</p><p><br> <a href=\"/apps/directory/staff/1341/\">Miree Ku</a><br> 235 Bostock Library<br> <a href=\"tel:+19196605817\">(919) 660-5817</a><br> <a href=\"mailto:miree.ku@duke.edu\">miree.ku@duke.edu</a></p>",
            "deleted" : 0,
            "delta" : 0,
            "body_format" : "full_html",
            "bundle" : "research_page",
            "langcode" : "und",
            "entity_id" : 521,
            "body_summary" : ""
         },
         "title" : "Korean Studies",
         "vuuid" : "acc90d39-eadc-41fc-9351-af19872167db",
         "node_revision__field_tags" : [],
         "sticky" : 0,
         "comment" : 1,
         "log" : "",
         "status" : 1,
         "field_revision" : {
            "uid" : 1,
            "langcode" : null,
            "status" : 1,
            "created" : null,
            "revision_translation_affected" : 1,
            "sticky" : 0,
            "default_langcode" : 1,
            "title" : "Korean Studies",
            "changed" : null
         },
         "promote" : 0,
         "timestamp" : 1508430331,
         "uid" : 134
      }
   ],
   "langcode" : "und",
   "nid" : "521",
   "field_tags" : [],
   "node_field_data" : {
      "status" : 1,
      "created" : 1390494776,
      "sticky" : 0,
      "default_langcode" : 1,
      "title" : "Korean Studies",
      "uid" : 1,
      "langcode" : "und",
      "revision_translation_affected" : 1,
      "type" : "research_page",
      "changed" : null,
      "promote" : 0
   },
   "path_alias" : {
      "langcode" : "und",
      "status" : 0,
      "pid" : 803,
      "alias" : "/research/international/korean-studies",
      "language" : "und"
   },
   "node_access" : null,
   "asidebox" : {
      "block_delta" : null,
      "status" : "html",
      "bid" : null,
      "vid" : 18923,
      "nid" : 521,
      "body_title" : "",
      "block_module" : null,
      "body_value" : "<p style=\"text-align: center;\"><img src=\"/sites/default/files/dul/research-support/international/korea-image_0.JPG\" alt=\"Korean Studies\" class=\"img-responsive\"></p>",
      "body_format" : "full_html"
   }
}

