{
   "vid" : 18603,
   "node__body" : {
      "body_value" : "<p><a href=\"https://www.fhi.duke.edu/\" target=\"_blank\">Franklin Humanities Institute (FHI)&nbsp;</a></p><p>This institute at Duke University aims to encourage and enable serious humanistic inquiry, and to promote a heightened awareness of the centrality of the humanities to the quality of human life, social interaction, and scholarship in all fields. FHI is built on a fundamentally collaborative model fitting Duke’s emphasis on facilitating interdisciplinary cross-fertilization. Through an array of innovative programs, FHI seeks to encourage the conversations, partnerships, and collaborations that are continually stimulating creative and fresh humanistic research, writing, and teaching.</p><p><a href=\"https://trinity.duke.edu/arts-humanities\" target=\"_blank\">Arts &amp; Humanities @ Duke</a></p><p>Duke’s humanities departments represent some of the top-ranked programs in the nation. Particular areas of teaching and research strength abound in the broad areas of languages and literatures, religion and philosophy, cultural history and visual studies, using the full range of traditional and new digital modes of inquiry. In addition, research in the humanities is strongly allied with the interpretive social sciences.</p><p><a href=\"https://nationalhumanitiescenter.org/\" target=\"_blank\">National Humanities Center</a></p><p>The center, located here in Durham, is a private, nonprofit organization, and the only independent institute dedicated exclusively to advanced study in all areas of the humanities. &nbsp;They support a residential fellowship program, education programs, and various forms of public engagement, including lectures and symposia.</p><p><a href=\"https://www.hastac.org/\" target=\"_blank\">HASTAC</a></p><p>HASTAC (Humanities, Arts, Science, and Technology Alliance and Collaboratory) is an interdisciplinary community of humanists, artists, social scientists, scientists, and technologists that are changing the way we teach and learn. &nbsp;Our 13,000+ members from over 400+ affiliate organizations share news, tools, research, insights, pedagogy, methods, and projects--including Digital Humanities and other born-digital scholarship--and collaborate on various HASTAC initiatives.</p><p><a href=\"https://www.neh.gov/\" target=\"_blank\">National Endowment for the Humanities</a></p><p>The NEH promotes&nbsp;excellence in the humanities and conveys the lessons of history to all Americans. The Endowment accomplishes this mission by awarding grants for top-rated proposals examined by panels of independent, external reviewers.</p><p><a href=\"http://www.nhalliance.org/\" target=\"_blank\">National Humanities Alliance</a></p><p>The National Humanities Alliance (NHA) is an advocacy coalition dedicated to the advancement of humanities education, research, preservation, and public programs. NHA is supported by more than 140 national, state, and local member organizations and institutions, including: scholarly and professional associations; higher education associations; organizations of museums, libraries, historical societies and state humanities councils; university-based and independent humanities research centers; and colleges and universities. It is the only organization that brings together the US humanities community as a whole.</p><p><a href=\"https://www.humanitiesindicators.org/\" target=\"_blank\">Humanities Indicators</a></p><p>By collecting comprehensive, up-to-date statistical information, the Humanities Indicators provide a nonpartisan, objective picture of how the humanities are faring in the United States today.</p>",
      "revision_id" : 18603,
      "body_format" : "full_html",
      "bundle" : "page",
      "delta" : 0,
      "deleted" : 0,
      "entity_id" : 1271,
      "body_summary" : "",
      "langcode" : "und"
   },
   "uuid" : "4aaf4ca9-ba9a-41c1-883d-23f8f563c3cb",
   "field_image" : null,
   "type" : "page",
   "revisions" : [
      {
         "comment" : 1,
         "sticky" : 0,
         "log" : "",
         "field_revision" : {
            "changed" : null,
            "title" : "Humanities Websites",
            "default_langcode" : 1,
            "revision_translation_affected" : 1,
            "sticky" : 0,
            "created" : null,
            "status" : 1,
            "uid" : 1,
            "langcode" : null
         },
         "status" : 1,
         "node_revision__body" : {
            "deleted" : 0,
            "body_format" : "full_html",
            "delta" : 0,
            "bundle" : "page",
            "body_value" : "<p><a href=\"https://www.fhi.duke.edu/\" target=\"_blank\">Franklin Humanities Institute (FHI)&nbsp;</a></p><p>This institute at Duke University aims to encourage and enable serious humanistic inquiry, and to promote a heightened awareness of the centrality of the humanities to the quality of human life, social interaction, and scholarship in all fields. FHI is built on a fundamentally collaborative model fitting Duke’s emphasis on facilitating interdisciplinary cross-fertilization. Through an array of innovative programs, FHI seeks to encourage the conversations, partnerships, and collaborations that are continually stimulating creative and fresh humanistic research, writing, and teaching.</p><p><a href=\"https://trinity.duke.edu/arts-humanities\" target=\"_blank\">Arts &amp; Humanities @ Duke</a></p><p>Duke’s humanities departments represent some of the top-ranked programs in the nation. Particular areas of teaching and research strength abound in the broad areas of languages and literatures, religion and philosophy, cultural history and visual studies, using the full range of traditional and new digital modes of inquiry. In addition, research in the humanities is strongly allied with the interpretive social sciences.</p><p><a href=\"https://nationalhumanitiescenter.org/\" target=\"_blank\">National Humanities Center</a></p><p>The center, located here in Durham, is a private, nonprofit organization, and the only independent institute dedicated exclusively to advanced study in all areas of the humanities. &nbsp;They support a residential fellowship program, education programs, and various forms of public engagement, including lectures and symposia.</p><p><a href=\"https://www.hastac.org/\" target=\"_blank\">HASTAC</a></p><p>HASTAC (Humanities, Arts, Science, and Technology Alliance and Collaboratory) is an interdisciplinary community of humanists, artists, social scientists, scientists, and technologists that are changing the way we teach and learn. &nbsp;Our 13,000+ members from over 400+ affiliate organizations share news, tools, research, insights, pedagogy, methods, and projects--including Digital Humanities and other born-digital scholarship--and collaborate on various HASTAC initiatives.</p><p><a href=\"https://www.neh.gov/\" target=\"_blank\">National Endowment for the Humanities</a></p><p>The NEH promotes&nbsp;excellence in the humanities and conveys the lessons of history to all Americans. The Endowment accomplishes this mission by awarding grants for top-rated proposals examined by panels of independent, external reviewers.</p><p><a href=\"http://www.nhalliance.org/\" target=\"_blank\">National Humanities Alliance</a></p><p>The National Humanities Alliance (NHA) is an advocacy coalition dedicated to the advancement of humanities education, research, preservation, and public programs. NHA is supported by more than 140 national, state, and local member organizations and institutions, including: scholarly and professional associations; higher education associations; organizations of museums, libraries, historical societies and state humanities councils; university-based and independent humanities research centers; and colleges and universities. It is the only organization that brings together the US humanities community as a whole.</p><p><a href=\"https://www.humanitiesindicators.org/\" target=\"_blank\">Humanities Indicators</a></p><p>By collecting comprehensive, up-to-date statistical information, the Humanities Indicators provide a nonpartisan, objective picture of how the humanities are faring in the United States today.</p>",
            "revision_id" : 18603,
            "langcode" : "und",
            "body_summary" : "",
            "entity_id" : 1271
         },
         "node_revision__field_tags" : [],
         "title" : "Humanities Websites",
         "vuuid" : "63ec6188-b5c3-459a-803f-084e1a520f26",
         "timestamp" : 1506905198,
         "uid" : 3,
         "promote" : 0
      }
   ],
   "langcode" : "und",
   "field_tags" : [],
   "node_field_data" : {
      "revision_translation_affected" : 1,
      "langcode" : "und",
      "uid" : 1,
      "promote" : 0,
      "changed" : null,
      "type" : "page",
      "sticky" : 0,
      "default_langcode" : 1,
      "status" : 1,
      "created" : 1452797464,
      "title" : "Humanities Websites"
   },
   "path_alias" : {
      "langcode" : "und",
      "status" : 0,
      "language" : "und",
      "alias" : "/research/humanities/websites",
      "pid" : 1799
   },
   "nid" : "1271",
   "asidebox" : {
      "status" : "disabled",
      "block_delta" : null,
      "body_format" : null,
      "body_value" : null,
      "block_module" : null,
      "nid" : 1271,
      "body_title" : "",
      "vid" : 18603,
      "bid" : null
   },
   "node_access" : null
}

