{
   "node_access" : null,
   "asidebox" : {
      "nid" : 1983,
      "body_title" : "",
      "bid" : null,
      "vid" : 21711,
      "body_format" : null,
      "block_module" : null,
      "body_value" : null,
      "block_delta" : null,
      "status" : "disabled"
   },
   "nid" : "1983",
   "path_alias" : {
      "pid" : 4065,
      "alias" : "/about/depts/cataloging/documentation/852-indicators-and-formatting-852-field-and-description-item-record",
      "language" : "und",
      "status" : 0,
      "langcode" : "und"
   },
   "node_field_data" : {
      "revision_translation_affected" : 1,
      "langcode" : "und",
      "uid" : 1,
      "changed" : null,
      "promote" : 0,
      "type" : "page",
      "default_langcode" : 1,
      "sticky" : 0,
      "created" : 1522949338,
      "status" : 1,
      "title" : "852 INDICATORS AND FORMATTING THE 852 FIELD AND THE DESCRIPTION IN THE ITEM RECORD"
   },
   "field_tags" : [],
   "langcode" : "und",
   "revisions" : [
      {
         "node_revision__field_tags" : [],
         "vuuid" : "cef3c08c-3244-4d52-933a-17a928941b1d",
         "title" : "852 INDICATORS AND FORMATTING THE 852 FIELD AND THE DESCRIPTION IN THE ITEM RECORD",
         "node_revision__body" : {
            "deleted" : 0,
            "bundle" : "page",
            "body_format" : "full_html",
            "delta" : 0,
            "body_value" : "<p style=\"font-size: 13.008px;\"><strong></strong><span style=\"font-size: 13.008px;\"><br></span></p><p style=\"font-size: 13.008px;\">In the holdings record, the first indicator in the 852 field indicates the type of call number.&nbsp; This is so various types of call numbers can be sorted into specific indexes.</p><p style=\"font-size: 13.008px;\">The 852 indicator carries over to the item record as \"call no. type.\"&nbsp; It is essential for the printing of labels, as different call number types are formatted differently.</p><p style=\"font-size: 13.008px;\">The possible values are:</p><p style=\"font-size: 13.008px;\">0&nbsp;&nbsp;&nbsp;LC<br>1&nbsp;&nbsp; Dewey<br>2&nbsp; National Library of Medicine<br>3&nbsp; Superintendent of Documents<br>4 Shelving control number&nbsp; (accession numbers, e.g. for A-V materials, and non-Sudoc document numbers, e.g. UN and League of Nations)<br>5 Periodical cutters &amp; uncuttered periodicals<br>8 Other&nbsp;&nbsp;&nbsp;&nbsp; (used by Rubenstein Library)</p><p style=\"font-size: 13.008px;\">This list can be accessed by clicking on the arrow next to the \"call no. type\" box in the item record.</p><p style=\"font-size: 13.008px;\">Note: when the holdings record is created from the item record, the 852 indicator is supplied based on the tag of the call number.&nbsp; This is usually correct.&nbsp; However, for A-V accession numbers, you will need to change the automatic indicator generated by an 099 field from \"8\" to \"4.\"</p><p style=\"font-size: 13.008px;\">FORMATTING THE 852 FIELD AND THE DESCRIPTION IN THE ITEM RECORD</p><p style=\"font-size: 13.008px;\">For purposes of printing labels, the conventions for showing breaks between elements of the call number are&nbsp;differ&nbsp;according to the type of call number.&nbsp;</p><p style=\"font-size: 13.008px;\">In LC,&nbsp;a space indicates a line break (though some line breaks are programmed in without the need for spaces), so there should be no space between the volume designator and the enumeration.&nbsp;&nbsp;</p><p style=\"font-size: 13.008px;\">h A123<br>i .B123 2005 v.5</p><p style=\"font-size: 13.008px;\">The rules of spaces indicating line breaks and no space after the enumeration applies to most other non-Dewey call numbers.</p><p style=\"font-size: 13.008px;\">In Dewey, commas are used to indicate line breaks in the $i portion of the call number, and there is a space between the volume designator and the enumeration.</p><p style=\"font-size: 13.008px;\">h 123<br>i A123, B123, 2005, v. 5</p><p style=\"font-size: 13.008px;\">For UN document call numbers, the slashes that are supposed to separate elements of the call number do not print on labels, and cause problems with line breaks.&nbsp;&nbsp; To make the labels print correctly, it is necessary to use a $i after each slash.</p><p style=\"font-size: 13.008px;\">h ST/<br>i&nbsp; ESA/<br>i&nbsp; STAT/<br>i&nbsp; Ser.X/<br>i&nbsp; 2004</p><p style=\"font-size: 13.008px;\"><strong>\"Description\" in the item record</strong></p><p style=\"font-size: 13.008px;\">In the description element of the item record, there are no spaces within volume numbering and copy numbering, and there is a space (no comma) between volume and copy numbering.&nbsp; For example:</p><p style=\"font-size: 13.008px;\">c.1<br>v.1 c.1<br>v.1:pt.1 c.1<br>no.9=v.1(1989) c.1</p><p style=\"font-size: 13.008px;\">Labels are more&nbsp;understandable if an abbreviation is used, even for terms which we have traditionally spelled out.&nbsp;&nbsp; For example \"rl.1\" is clearer than \"reel1.\"</p><p style=\"font-size: 13.008px;\">WARNING:&nbsp; The label program will not print more than 8 characters per line.&nbsp; Keep this in mind with series numbering (very rare now that classed together series are mostly obsolete). &nbsp; Occaionally, cutters are too long and the line cannot be broken without affecting the integrity of the call number. &nbsp; In this case, the spine label program reports and error and Shelf Preparation staff type the call number manually.</p>",
            "revision_id" : 21711,
            "langcode" : "und",
            "body_summary" : "",
            "entity_id" : 1983
         },
         "field_revision" : {
            "title" : "852 INDICATORS AND FORMATTING THE 852 FIELD AND THE DESCRIPTION IN THE ITEM RECORD",
            "changed" : null,
            "created" : null,
            "status" : 1,
            "uid" : 1,
            "langcode" : null,
            "default_langcode" : 1,
            "revision_translation_affected" : 1,
            "sticky" : 0
         },
         "status" : 1,
         "comment" : 1,
         "sticky" : 0,
         "log" : "",
         "promote" : 0,
         "uid" : 56,
         "timestamp" : 1522966736
      }
   ],
   "type" : "page",
   "field_image" : null,
   "uuid" : "4bcb8a86-cd0b-4be1-bc12-83a07c3e1e68",
   "vid" : 21711,
   "node__body" : {
      "delta" : 0,
      "body_format" : "full_html",
      "bundle" : "page",
      "deleted" : 0,
      "revision_id" : 21711,
      "body_value" : "<p style=\"font-size: 13.008px;\"><strong></strong><span style=\"font-size: 13.008px;\"><br></span></p><p style=\"font-size: 13.008px;\">In the holdings record, the first indicator in the 852 field indicates the type of call number.&nbsp; This is so various types of call numbers can be sorted into specific indexes.</p><p style=\"font-size: 13.008px;\">The 852 indicator carries over to the item record as \"call no. type.\"&nbsp; It is essential for the printing of labels, as different call number types are formatted differently.</p><p style=\"font-size: 13.008px;\">The possible values are:</p><p style=\"font-size: 13.008px;\">0&nbsp;&nbsp;&nbsp;LC<br>1&nbsp;&nbsp; Dewey<br>2&nbsp; National Library of Medicine<br>3&nbsp; Superintendent of Documents<br>4 Shelving control number&nbsp; (accession numbers, e.g. for A-V materials, and non-Sudoc document numbers, e.g. UN and League of Nations)<br>5 Periodical cutters &amp; uncuttered periodicals<br>8 Other&nbsp;&nbsp;&nbsp;&nbsp; (used by Rubenstein Library)</p><p style=\"font-size: 13.008px;\">This list can be accessed by clicking on the arrow next to the \"call no. type\" box in the item record.</p><p style=\"font-size: 13.008px;\">Note: when the holdings record is created from the item record, the 852 indicator is supplied based on the tag of the call number.&nbsp; This is usually correct.&nbsp; However, for A-V accession numbers, you will need to change the automatic indicator generated by an 099 field from \"8\" to \"4.\"</p><p style=\"font-size: 13.008px;\">FORMATTING THE 852 FIELD AND THE DESCRIPTION IN THE ITEM RECORD</p><p style=\"font-size: 13.008px;\">For purposes of printing labels, the conventions for showing breaks between elements of the call number are&nbsp;differ&nbsp;according to the type of call number.&nbsp;</p><p style=\"font-size: 13.008px;\">In LC,&nbsp;a space indicates a line break (though some line breaks are programmed in without the need for spaces), so there should be no space between the volume designator and the enumeration.&nbsp;&nbsp;</p><p style=\"font-size: 13.008px;\">h A123<br>i .B123 2005 v.5</p><p style=\"font-size: 13.008px;\">The rules of spaces indicating line breaks and no space after the enumeration applies to most other non-Dewey call numbers.</p><p style=\"font-size: 13.008px;\">In Dewey, commas are used to indicate line breaks in the $i portion of the call number, and there is a space between the volume designator and the enumeration.</p><p style=\"font-size: 13.008px;\">h 123<br>i A123, B123, 2005, v. 5</p><p style=\"font-size: 13.008px;\">For UN document call numbers, the slashes that are supposed to separate elements of the call number do not print on labels, and cause problems with line breaks.&nbsp;&nbsp; To make the labels print correctly, it is necessary to use a $i after each slash.</p><p style=\"font-size: 13.008px;\">h ST/<br>i&nbsp; ESA/<br>i&nbsp; STAT/<br>i&nbsp; Ser.X/<br>i&nbsp; 2004</p><p style=\"font-size: 13.008px;\"><strong>\"Description\" in the item record</strong></p><p style=\"font-size: 13.008px;\">In the description element of the item record, there are no spaces within volume numbering and copy numbering, and there is a space (no comma) between volume and copy numbering.&nbsp; For example:</p><p style=\"font-size: 13.008px;\">c.1<br>v.1 c.1<br>v.1:pt.1 c.1<br>no.9=v.1(1989) c.1</p><p style=\"font-size: 13.008px;\">Labels are more&nbsp;understandable if an abbreviation is used, even for terms which we have traditionally spelled out.&nbsp;&nbsp; For example \"rl.1\" is clearer than \"reel1.\"</p><p style=\"font-size: 13.008px;\">WARNING:&nbsp; The label program will not print more than 8 characters per line.&nbsp; Keep this in mind with series numbering (very rare now that classed together series are mostly obsolete). &nbsp; Occaionally, cutters are too long and the line cannot be broken without affecting the integrity of the call number. &nbsp; In this case, the spine label program reports and error and Shelf Preparation staff type the call number manually.</p>",
      "langcode" : "und",
      "body_summary" : "",
      "entity_id" : 1983
   }
}

