{
   "asidebox" : null,
   "nid" : "873",
   "field_image" : {
      "deleted" : 0,
      "field_image_fid" : 1511,
      "revision_id" : 10541,
      "file_uuid" : "6dfd3654-06cc-460a-9619-504c44b79f68",
      "language" : "und",
      "field_image_title" : "",
      "field_image_target_id" : 1511,
      "entity_id" : 873,
      "delta" : 0,
      "bundle" : "exhibit",
      "field_image_alt" : "",
      "field_image_width" : 640,
      "langcode" : "und",
      "entity_type" : "node",
      "field_image_height" : 391
   },
   "node__body" : {
      "body_value" : "<p>An exhibition curated by Duke Student Government exploring the history of construction at Duke through photographs, newspapers and magazines.&nbsp;</p>",
      "revision_id" : 10541,
      "deleted" : 0,
      "bundle" : "exhibit",
      "body_format" : "full_html",
      "delta" : 0,
      "langcode" : "und",
      "entity_id" : 873,
      "body_summary" : ""
   },
   "vid" : 10541,
   "revisions" : [
      {
         "promote" : 0,
         "uid" : 3,
         "timestamp" : 1538400324,
         "title" : "The Construction Disruption",
         "vuuid" : "4e40047e-7f1e-44b2-be6c-80d11909dc79",
         "node_revision__field_tags" : [],
         "node_revision__body" : {
            "deleted" : 0,
            "delta" : 0,
            "body_format" : "full_html",
            "bundle" : "exhibit",
            "body_value" : "<p>An exhibition curated by Duke Student Government exploring the history of construction at Duke through photographs, newspapers and magazines.&nbsp;</p>",
            "revision_id" : 10541,
            "langcode" : "und",
            "body_summary" : "",
            "entity_id" : 873
         },
         "status" : 1,
         "field_revision" : {
            "created" : null,
            "uid" : 1,
            "langcode" : null,
            "status" : 1,
            "default_langcode" : 1,
            "revision_translation_affected" : 1,
            "sticky" : 0,
            "title" : "The Construction Disruption",
            "changed" : null
         },
         "log" : "",
         "sticky" : 0,
         "comment" : 1
      }
   ],
   "node_access" : null,
   "field_tags" : [],
   "path_alias" : {
      "language" : "und",
      "alias" : "/exhibits/2015/construction-disruption",
      "pid" : 1353,
      "status" : 0,
      "langcode" : "und"
   },
   "node_field_data" : {
      "changed" : null,
      "promote" : 0,
      "type" : "exhibit",
      "revision_translation_affected" : 1,
      "langcode" : "und",
      "uid" : 1,
      "title" : "The Construction Disruption",
      "sticky" : 0,
      "default_langcode" : 1,
      "status" : 1,
      "created" : 1435091906
   },
   "node__field_image" : {},
   "type" : "exhibit",
   "uuid" : "4bd40d4f-bb0c-4d41-8968-cb4cf8fb1763",
   "langcode" : "und"
}

