{
   "asidebox" : null,
   "nid" : "1471",
   "field_image" : {
      "entity_id" : 1471,
      "field_image_target_id" : 2214,
      "field_image_title" : "",
      "file_uuid" : "1ea421ed-4f0c-4988-ad71-b67cb5315a09",
      "language" : "und",
      "field_image_fid" : 2214,
      "revision_id" : 14802,
      "deleted" : 0,
      "field_image_height" : 600,
      "entity_type" : "node",
      "langcode" : "und",
      "field_image_alt" : "",
      "field_image_width" : 399,
      "delta" : 0,
      "bundle" : "exhibit"
   },
   "vid" : 14802,
   "node__body" : {
      "langcode" : "und",
      "body_summary" : "",
      "entity_id" : 1471,
      "deleted" : 0,
      "body_format" : "full_html",
      "bundle" : "exhibit",
      "delta" : 0,
      "body_value" : "<p>This exhibition of manuscripts, photographs, and printed works showcases Walt Whitman’s musings about the human body in context of his life and the world he lived in. &nbsp;Whitman’s poetry frequently examined the connection of the physical with the spiritual, and he often used physical descriptions of himself as part of his own mythologization. &nbsp;The exhibit will examine Whitman's interest in health theories and fads of the time and how he was influenced by the time he spent comforting Civil War soldiers in hospitals.</p>",
      "revision_id" : 14802
   },
   "revisions" : [
      {
         "status" : 1,
         "field_revision" : {
            "changed" : null,
            "title" : "I Sing the Body Electric",
            "sticky" : 0,
            "revision_translation_affected" : 1,
            "default_langcode" : 1,
            "langcode" : null,
            "uid" : 1,
            "status" : 1,
            "created" : null
         },
         "sticky" : 0,
         "comment" : 1,
         "log" : "",
         "vuuid" : "4c0a40a3-10fb-4e9a-9494-c8b85d0d5b66",
         "title" : "I Sing the Body Electric",
         "node_revision__field_tags" : [],
         "node_revision__body" : {
            "deleted" : 0,
            "body_format" : "full_html",
            "bundle" : "exhibit",
            "delta" : 0,
            "revision_id" : 14802,
            "body_value" : "<p>This exhibition of manuscripts, photographs, and printed works showcases Walt Whitman’s musings about the human body in context of his life and the world he lived in. &nbsp;Whitman’s poetry frequently examined the connection of the physical with the spiritual, and he often used physical descriptions of himself as part of his own mythologization. &nbsp;The exhibit will examine Whitman's interest in health theories and fads of the time and how he was influenced by the time he spent comforting Civil War soldiers in hospitals.</p>",
            "langcode" : "und",
            "body_summary" : "",
            "entity_id" : 1471
         },
         "uid" : 3,
         "timestamp" : 1538401469,
         "promote" : 0
      }
   ],
   "node_access" : null,
   "path_alias" : {
      "pid" : 2081,
      "alias" : "/exhibits/2017/whitman",
      "language" : "und",
      "status" : 0,
      "langcode" : "und"
   },
   "node_field_data" : {
      "langcode" : "und",
      "uid" : 1,
      "revision_translation_affected" : 1,
      "type" : "exhibit",
      "promote" : 0,
      "changed" : null,
      "status" : 1,
      "created" : 1480715280,
      "sticky" : 0,
      "default_langcode" : 1,
      "title" : "I Sing the Body Electric"
   },
   "field_tags" : [],
   "node__field_image" : {},
   "type" : "exhibit",
   "uuid" : "4f965a9e-0143-4ea0-8e93-2289f859ed9d",
   "langcode" : "und"
}

