{
   "revisions" : [
      {
         "promote" : 0,
         "uid" : 2213,
         "timestamp" : 1569876599,
         "title" : "The Economics Honors Program",
         "vuuid" : "b41b89fa-2f54-409f-8dc0-9383f2d7d7a7",
         "node_revision__field_tags" : [],
         "node_revision__body" : {
            "body_format" : "full_html",
            "bundle" : "exhibit",
            "delta" : 0,
            "deleted" : 0,
            "body_value" : "<pre></pre><p class=\"MsoNormal\">The Honors Program in Economics provides students with the opportunity and support to delve deeply into an intellectual interest of their own choosing through the completion of a meaningful, sustained research project. At the end of a two-semester process of defining their novel research question, designing their empirical or theoretical approach, executing the research, drafting, and revising, students have completed their honors thesis. This process typically occurs through the Honors Seminars, but can also occur through Undergraduate Research Labs or Independent Studies.&nbsp; Each spring, students present their research in a poster format at the Department of Economics Honors Thesis Poster Session. Students graduating in 2018 and 2019 created the four posters displayed.&nbsp;</p><p>The Effect of Cruise Ship Tourism on Child Health in Roatán, Honduras by Hemal Patel, Trinity ‘19</p><p>Evaluation of the Impact of New Rules in FCC’s Spectrum Incentive Auction by Elizabeth Lim, Akshaya Trivedi, Frances Mitchell, Trinity ’18</p><p>Incentives to Quit in Men’s Professional Tennis by Will Walker, Trinity ‘18</p><p>Investigating a Case of Alleged Collusion in Michigan Public Oil and Gas Lease Auctions by Lucas Do, Trinity ‘19</p><p></p>",
            "revision_id" : 19533,
            "body_summary" : "",
            "entity_id" : 1795,
            "langcode" : "und"
         },
         "status" : 1,
         "field_revision" : {
            "created" : null,
            "status" : 1,
            "uid" : 1,
            "langcode" : null,
            "default_langcode" : 1,
            "revision_translation_affected" : 1,
            "sticky" : 0,
            "title" : "The Economics Honors Program",
            "changed" : null
         },
         "log" : "",
         "sticky" : 0,
         "comment" : 1
      }
   ],
   "vid" : 19533,
   "node__body" : {
      "revision_id" : 19533,
      "body_value" : "<pre></pre><p class=\"MsoNormal\">The Honors Program in Economics provides students with the opportunity and support to delve deeply into an intellectual interest of their own choosing through the completion of a meaningful, sustained research project. At the end of a two-semester process of defining their novel research question, designing their empirical or theoretical approach, executing the research, drafting, and revising, students have completed their honors thesis. This process typically occurs through the Honors Seminars, but can also occur through Undergraduate Research Labs or Independent Studies.&nbsp; Each spring, students present their research in a poster format at the Department of Economics Honors Thesis Poster Session. Students graduating in 2018 and 2019 created the four posters displayed.&nbsp;</p><p>The Effect of Cruise Ship Tourism on Child Health in Roatán, Honduras by Hemal Patel, Trinity ‘19</p><p>Evaluation of the Impact of New Rules in FCC’s Spectrum Incentive Auction by Elizabeth Lim, Akshaya Trivedi, Frances Mitchell, Trinity ’18</p><p>Incentives to Quit in Men’s Professional Tennis by Will Walker, Trinity ‘18</p><p>Investigating a Case of Alleged Collusion in Michigan Public Oil and Gas Lease Auctions by Lucas Do, Trinity ‘19</p><p></p>",
      "delta" : 0,
      "body_format" : "full_html",
      "bundle" : "exhibit",
      "deleted" : 0,
      "entity_id" : 1795,
      "body_summary" : "",
      "langcode" : "und"
   },
   "field_image" : {
      "entity_id" : 1795,
      "field_image_target_id" : 4691,
      "field_image_title" : "",
      "language" : "und",
      "file_uuid" : "d97be946-f4c6-43da-949c-44856098fef0",
      "revision_id" : 19533,
      "field_image_fid" : 4691,
      "deleted" : 0,
      "field_image_height" : 340,
      "entity_type" : "node",
      "langcode" : "und",
      "field_image_width" : 800,
      "field_image_alt" : "",
      "delta" : 0,
      "bundle" : "exhibit"
   },
   "nid" : "1795",
   "asidebox" : null,
   "langcode" : "und",
   "uuid" : "4fa63894-e236-4ea7-be24-bd838d8dccf4",
   "type" : "exhibit",
   "node__field_image" : {},
   "path_alias" : {
      "status" : 0,
      "langcode" : "und",
      "language" : "und",
      "alias" : "/exhibits/2019/economics",
      "pid" : 4049
   },
   "node_field_data" : {
      "title" : "The Economics Honors Program",
      "default_langcode" : 1,
      "sticky" : 0,
      "created" : 1510609075,
      "status" : 1,
      "promote" : 0,
      "changed" : null,
      "type" : "exhibit",
      "revision_translation_affected" : 1,
      "langcode" : "und",
      "uid" : 1
   },
   "field_tags" : [],
   "node_access" : null
}

