{
   "revisions" : [
      {
         "comment" : 1,
         "sticky" : 0,
         "log" : "",
         "field_revision" : {
            "created" : null,
            "langcode" : null,
            "uid" : 1,
            "status" : 1,
            "default_langcode" : 1,
            "sticky" : 0,
            "revision_translation_affected" : 1,
            "title" : "Monograph Acquisition and Processing Associate ",
            "changed" : null
         },
         "status" : 1,
         "node_revision__body" : {
            "body_summary" : "",
            "entity_id" : 2550,
            "langcode" : "und",
            "deleted" : 0,
            "body_format" : "full_html",
            "delta" : 0,
            "bundle" : "jobs_non_exempt",
            "revision_id" : 30545,
            "body_value" : "<p>Working with material in various languages and in multiple formats (including but not limited to print, electronic, and multimedia resources), this position shepherds monographic resources through the acquisitions lifecycle of purchasing, receipt, payment, copy-cataloging, and physical processing.</p><p>This position requires use of problem solving and communication skills to maintain the efficiency of and resolve problems with Monograph Acquisitions workflows.&nbsp;</p><h2><b>Responsibilities</b></h2><ul><li>Performs monograph ordering duties on behalf of subject librarians, including performing bibliographic research for new resources, importing or creating bibliographic records in MARC format in the ILS, using independent judgment to source monographic material expeditiously and cost-efficiently, and appropriately applying Duke University Libraries collections budgets to purchases.</li><li>Performs receipt and invoicing functions for incoming monograph shipments, including check-in of shipments against invoices/packing lists, categorizing books as arrived within the Integrated Library System (ALEPH), and processing invoices for payment against Duke University Libraries collections budgets. Uses Duke University Purchase Card for payment when necessary, and verifies card transactions in Concur, providing invoice documentation and purchase approval information where required.</li><li>Prepares incoming material for circulation, including copy-cataloging monographs for discovery in the Libraries catalog; barcoding and itemizing print items in the ILS; targeting, labeling and stamping non shelf-ready print items.</li><li>Conducts routing post-cataloging record maintenance for monographic material in the ILS, facilitating added copies, transfers between Libraries collections, and item record changes as required.<b></b></li><li><em><strong>Other Duties:</strong></em></li><ul><ul><li>Maintains and submits accurate work statistics to supervisor as required.</li><li>Attends and participates in required meetings, workshops, and planning sessions.</li><li>Maintains accurate documentation of current job responsibilities.&nbsp;</li><li>Participates in FOLIO task forces and implementation groups as required.</li><li>Performs other duties as assigned.</li></ul></ul></ul><h2><b>Supervisory Responsibilities</b></h2><ul><li>None</li></ul><h2><strong>Qualifications</strong></h2><p>It is the expectation that all Duke University Libraries staff members will demonstrate exceptional workplace behaviors in the execution of their specific position responsibilities. These behaviors are customer focus, collaboration, creative problem solving, continuous learning, and a commitment to creating a culture of inclusion that values and respects diversity of perspective, background, and experience.&nbsp;<b> <br></b></p><h3><b><span style=\"text-decoration: underline;\">Education</span></b><b>:</b></h3><p><b>Required:</b>&nbsp; Bachelor’s degree or equivalent combination of relevant education and experience.</p><h3><b><span style=\"text-decoration: underline;\">Experience</span></b><b>: </b></h3><p><b>Required:</b> Requires two years of library experience to obtain a specialized knowledge of library systems and procedures; excellent interpersonal, oral and written communication skills; able to work independently and as a member of a team; high proficiency using computer-based technology and ability to adapt to new technologies; ability to effectively organize and prioritize daily work; demonstrated commitment to providing outstanding customer services.</p><p><b>Preferred:</b>&nbsp; Prior experience working in an academic research library; experience with at least one bibliographic utility (OCLC) and experience with a local library system (Aleph); reading knowledge of one Western European language (German, French, Spanish or Italian).&nbsp;</p><h2><strong>Working Conditions</strong></h2><ul><li>Normal office environment</li><li>Routinely moves library materials weighing up to 30 pounds</li></ul><ul><li>Occasionally works in an environment in which exposure to materials containing dust and mold is possible</li></ul><p><strong>These statements are intended to describe the general nature and level of work being performed by the employee in this position. They are not intended to be construed as an exhaustive list of all responsibilities, duties, and skills required of a person in this position. This description is subject to change at any time.</strong></p><h2><b>Salary and Benefits</b></h2><p>$18.77 per hour (minimum). Comprehensive benefits package upon eligibility includes vacation, 13 holidays, sick leave, health, dental, disability, life insurance, educational assistance, and tuition grants. This position is not eligible for relocation assistance.</p><h2><b>Environment</b></h2><p>Since its founding in 1924, Duke University has grown into one of the most prestigious private universities in the world and its medical center ranks annually among the top in the nation. The Duke University Libraries are the shared center of the university's intellectual life, connecting people and ideas. The Libraries consist of the Perkins Library, Bostock Library, Rubenstein Rare Book and Manuscript Library, Lilly Library, and Music Library, and the library at the Duke Marine Laboratory in Beaufort. Duke's library holdings of 6.2 million volumes are among the largest of private universities in the United States.&nbsp;&nbsp;&nbsp;&nbsp;&nbsp;&nbsp;&nbsp;&nbsp;&nbsp;&nbsp;&nbsp;&nbsp;&nbsp;&nbsp;&nbsp;&nbsp;</p><p>Duke is a diverse community committed to the principles of excellence, fairness, and respect for all people. We recognize that the workplace only truly flourishes with an active presence of different backgrounds and unique abilities. We value the unseen perspective, the unheard voice, and the unnoticed ideas. We hope to give a platform of growth and connection, where employees can be free to produce new ways of thinking to promote inclusion and respect for all. Duke University Libraries encourages an environment where shared goals are reached by exceptional individuals.&nbsp;&nbsp;&nbsp;&nbsp;&nbsp;&nbsp;&nbsp;&nbsp;&nbsp;&nbsp;&nbsp;&nbsp;&nbsp;&nbsp;</p><p>Duke's hometown is Durham, North Carolina, a city with vibrant research, medical and arts communities, and numerous shops, restaurants and theaters. Durham is located in the Research Triangle, a growing metropolitan area of more than one million people that provides a wide range of cultural, recreational and educational opportunities. The Triangle is conveniently located just a few hours from the mountains and the coast, offers a moderate climate, and has been ranked among the best places to live and to do business.</p><p>Duke offers a comprehensive benefit packages which includes both traditional benefits such as health insurance, leave time and retirement, as well as wide ranging work/life and cultural benefits. Details can be found at:&nbsp; <a href=\"http://www.hr.duke.edu/benefits/duke_benefits.html\">http://www.hr.duke.edu/benefits/duke_benefits.html</a>.</p><h2><b>Application</b></h2><p>Review of applications will begin immediately and will continue until the position is filled.&nbsp; An electronic resume, cover letter, and list of references should be submitted at: <a href=\"https://careers.duke.edu/\">https://careers.duke.edu/</a>. Search for requisition ID # <b>112471.</b> Review of applications will begin immediately and will continue until the position is filled.<b> <br></b></p><p><b>Duke University is an Affirmative Action/Equal Opportunity Employer committed to providing employment opportunity without regard to an individual’s age, color, disability, genetic information, gender, gender identity, national origin, race, religion, sexual orientation, or veteran status. The Duke University Libraries have a strong commitment to Affirmative Action and is actively seeking to increase the racial and ethnic diversity of our staff.</b></p>"
         },
         "node_revision__field_tags" : [],
         "title" : "Monograph Acquisition and Processing Associate ",
         "vuuid" : "dede9df3-9445-4603-be99-1698586b44a4",
         "timestamp" : 1619537669,
         "uid" : 117,
         "promote" : 0
      }
   ],
   "langcode" : "und",
   "uuid" : "530d0b79-5292-4ede-91e2-a656480c799d",
   "vid" : 30545,
   "node__body" : {
      "body_summary" : "",
      "entity_id" : 2550,
      "langcode" : "und",
      "bundle" : "jobs_non_exempt",
      "body_format" : "full_html",
      "delta" : 0,
      "deleted" : 0,
      "revision_id" : 30545,
      "body_value" : "<p>Working with material in various languages and in multiple formats (including but not limited to print, electronic, and multimedia resources), this position shepherds monographic resources through the acquisitions lifecycle of purchasing, receipt, payment, copy-cataloging, and physical processing.</p><p>This position requires use of problem solving and communication skills to maintain the efficiency of and resolve problems with Monograph Acquisitions workflows.&nbsp;</p><h2><b>Responsibilities</b></h2><ul><li>Performs monograph ordering duties on behalf of subject librarians, including performing bibliographic research for new resources, importing or creating bibliographic records in MARC format in the ILS, using independent judgment to source monographic material expeditiously and cost-efficiently, and appropriately applying Duke University Libraries collections budgets to purchases.</li><li>Performs receipt and invoicing functions for incoming monograph shipments, including check-in of shipments against invoices/packing lists, categorizing books as arrived within the Integrated Library System (ALEPH), and processing invoices for payment against Duke University Libraries collections budgets. Uses Duke University Purchase Card for payment when necessary, and verifies card transactions in Concur, providing invoice documentation and purchase approval information where required.</li><li>Prepares incoming material for circulation, including copy-cataloging monographs for discovery in the Libraries catalog; barcoding and itemizing print items in the ILS; targeting, labeling and stamping non shelf-ready print items.</li><li>Conducts routing post-cataloging record maintenance for monographic material in the ILS, facilitating added copies, transfers between Libraries collections, and item record changes as required.<b></b></li><li><em><strong>Other Duties:</strong></em></li><ul><ul><li>Maintains and submits accurate work statistics to supervisor as required.</li><li>Attends and participates in required meetings, workshops, and planning sessions.</li><li>Maintains accurate documentation of current job responsibilities.&nbsp;</li><li>Participates in FOLIO task forces and implementation groups as required.</li><li>Performs other duties as assigned.</li></ul></ul></ul><h2><b>Supervisory Responsibilities</b></h2><ul><li>None</li></ul><h2><strong>Qualifications</strong></h2><p>It is the expectation that all Duke University Libraries staff members will demonstrate exceptional workplace behaviors in the execution of their specific position responsibilities. These behaviors are customer focus, collaboration, creative problem solving, continuous learning, and a commitment to creating a culture of inclusion that values and respects diversity of perspective, background, and experience.&nbsp;<b> <br></b></p><h3><b><span style=\"text-decoration: underline;\">Education</span></b><b>:</b></h3><p><b>Required:</b>&nbsp; Bachelor’s degree or equivalent combination of relevant education and experience.</p><h3><b><span style=\"text-decoration: underline;\">Experience</span></b><b>: </b></h3><p><b>Required:</b> Requires two years of library experience to obtain a specialized knowledge of library systems and procedures; excellent interpersonal, oral and written communication skills; able to work independently and as a member of a team; high proficiency using computer-based technology and ability to adapt to new technologies; ability to effectively organize and prioritize daily work; demonstrated commitment to providing outstanding customer services.</p><p><b>Preferred:</b>&nbsp; Prior experience working in an academic research library; experience with at least one bibliographic utility (OCLC) and experience with a local library system (Aleph); reading knowledge of one Western European language (German, French, Spanish or Italian).&nbsp;</p><h2><strong>Working Conditions</strong></h2><ul><li>Normal office environment</li><li>Routinely moves library materials weighing up to 30 pounds</li></ul><ul><li>Occasionally works in an environment in which exposure to materials containing dust and mold is possible</li></ul><p><strong>These statements are intended to describe the general nature and level of work being performed by the employee in this position. They are not intended to be construed as an exhaustive list of all responsibilities, duties, and skills required of a person in this position. This description is subject to change at any time.</strong></p><h2><b>Salary and Benefits</b></h2><p>$18.77 per hour (minimum). Comprehensive benefits package upon eligibility includes vacation, 13 holidays, sick leave, health, dental, disability, life insurance, educational assistance, and tuition grants. This position is not eligible for relocation assistance.</p><h2><b>Environment</b></h2><p>Since its founding in 1924, Duke University has grown into one of the most prestigious private universities in the world and its medical center ranks annually among the top in the nation. The Duke University Libraries are the shared center of the university's intellectual life, connecting people and ideas. The Libraries consist of the Perkins Library, Bostock Library, Rubenstein Rare Book and Manuscript Library, Lilly Library, and Music Library, and the library at the Duke Marine Laboratory in Beaufort. Duke's library holdings of 6.2 million volumes are among the largest of private universities in the United States.&nbsp;&nbsp;&nbsp;&nbsp;&nbsp;&nbsp;&nbsp;&nbsp;&nbsp;&nbsp;&nbsp;&nbsp;&nbsp;&nbsp;&nbsp;&nbsp;</p><p>Duke is a diverse community committed to the principles of excellence, fairness, and respect for all people. We recognize that the workplace only truly flourishes with an active presence of different backgrounds and unique abilities. We value the unseen perspective, the unheard voice, and the unnoticed ideas. We hope to give a platform of growth and connection, where employees can be free to produce new ways of thinking to promote inclusion and respect for all. Duke University Libraries encourages an environment where shared goals are reached by exceptional individuals.&nbsp;&nbsp;&nbsp;&nbsp;&nbsp;&nbsp;&nbsp;&nbsp;&nbsp;&nbsp;&nbsp;&nbsp;&nbsp;&nbsp;</p><p>Duke's hometown is Durham, North Carolina, a city with vibrant research, medical and arts communities, and numerous shops, restaurants and theaters. Durham is located in the Research Triangle, a growing metropolitan area of more than one million people that provides a wide range of cultural, recreational and educational opportunities. The Triangle is conveniently located just a few hours from the mountains and the coast, offers a moderate climate, and has been ranked among the best places to live and to do business.</p><p>Duke offers a comprehensive benefit packages which includes both traditional benefits such as health insurance, leave time and retirement, as well as wide ranging work/life and cultural benefits. Details can be found at:&nbsp; <a href=\"http://www.hr.duke.edu/benefits/duke_benefits.html\">http://www.hr.duke.edu/benefits/duke_benefits.html</a>.</p><h2><b>Application</b></h2><p>Review of applications will begin immediately and will continue until the position is filled.&nbsp; An electronic resume, cover letter, and list of references should be submitted at: <a href=\"https://careers.duke.edu/\">https://careers.duke.edu/</a>. Search for requisition ID # <b>112471.</b> Review of applications will begin immediately and will continue until the position is filled.<b> <br></b></p><p><b>Duke University is an Affirmative Action/Equal Opportunity Employer committed to providing employment opportunity without regard to an individual’s age, color, disability, genetic information, gender, gender identity, national origin, race, religion, sexual orientation, or veteran status. The Duke University Libraries have a strong commitment to Affirmative Action and is actively seeking to increase the racial and ethnic diversity of our staff.</b></p>"
   },
   "type" : "jobs_non_exempt",
   "field_image" : null,
   "nid" : "2550",
   "path_alias" : {
      "language" : "und",
      "pid" : 4863,
      "alias" : "/about/jobs/monographacquisitionassociate",
      "status" : 0,
      "langcode" : "und"
   },
   "node_field_data" : {
      "title" : "Monograph Acquisition and Processing Associate ",
      "status" : 1,
      "created" : 1619537371,
      "sticky" : 0,
      "default_langcode" : 1,
      "type" : "jobs_non_exempt",
      "promote" : 0,
      "changed" : null,
      "langcode" : "und",
      "uid" : 1,
      "revision_translation_affected" : 1
   },
   "field_tags" : [],
   "node_access" : null,
   "asidebox" : {
      "block_module" : null,
      "body_value" : null,
      "body_format" : null,
      "bid" : null,
      "vid" : 30545,
      "nid" : 2550,
      "body_title" : "",
      "status" : "disabled",
      "block_delta" : null
   }
}

