{
   "node_access" : null,
   "asidebox" : {
      "vid" : 23219,
      "bid" : null,
      "nid" : 1415,
      "body_title" : "",
      "body_value" : "<p><img src=\"/sites/default/files/dul/research-support/T1550.jpg\" alt=\"child sitting on suitcases\" width=\"250\" height=\"333\"></p>",
      "block_module" : null,
      "body_format" : "full_html",
      "block_delta" : null,
      "status" : "disabled"
   },
   "nid" : "1415",
   "path_alias" : {
      "langcode" : "und",
      "status" : 0,
      "language" : "und",
      "pid" : 1997,
      "alias" : "/research/doing-research-at-other-institutions"
   },
   "node_field_data" : {
      "changed" : null,
      "promote" : 0,
      "type" : "research_page",
      "revision_translation_affected" : 1,
      "langcode" : "und",
      "uid" : 1,
      "title" : "Doing Research at Other Institutions",
      "default_langcode" : 1,
      "sticky" : 0,
      "created" : 1469040579,
      "status" : 1
   },
   "field_tags" : [],
   "type" : "research_page",
   "field_image" : null,
   "uuid" : "5346526d-7e1e-443c-ac00-c199b9380d5b",
   "vid" : 23219,
   "node__body" : {
      "langcode" : "und",
      "body_summary" : "",
      "entity_id" : 1415,
      "deleted" : 0,
      "body_format" : "full_html_no_wysiwyg",
      "delta" : 0,
      "bundle" : "research_page",
      "revision_id" : 23219,
      "body_value" : "<p>Depending on where you travel, you may have a variety of options for gaining access to buildings, collections, and online access at other institutions. Some key resources are listed below.</p>\r\n\r\n<dl class=\"dl-horizontal\">\r\n  <dt>TRLN</dt>\r\n  <dd>Allows students, faculty and staff to borrow books from libraries at <a href=\"https://library.unc.edu/\" title=\"University of North Carolina at Chapel Hill\">UNC</a>, <a href=\"https://www.lib.ncsu.edu/\" title=\"North Carolina State University\">NCSU</a>, and <a href=\"https://web.nccu.edu/shepardlibrary/\" title=\"North Carolina Central University\">NCCU</a> through a partnership with the <a href=\"https://www.trln.org/\">Triangle Research Library Network</a> (TRLN).\r\n<br><strong>To borrow:</strong> present your <a href=\"https://dukecard.duke.edu\">DukeCard</a> (University ID) at participating institutions.</br></dd>\r\n\r\n<dt>eduroam</dt>\r\n  <dd>Allows students, researchers and staff from participating institutions to obtain secure high speed Internet connectivity when visiting other <a href=\"https://www.eduroam.org/where/\" target=\"_blank\">participating institutions</a> around the world.<br><strong>To connect:</strong> <a href=\"https://oit.duke.edu/what-we-do/applications/eduroam\">configure eduroam</a> while you are are still on Duke's campus.</br></dd>\r\n\r\n<dt>BorrowDirect</dt>\r\n  <dd>Provides a range of building access and borrowing privileges when visiting <a href=\"https://www.borrowdirect.org/on-site-borrowing\" target=\"_blank\" title=\"BorrowDirect\">participating libraries</a>.<br><strong>To access:</strong> present your <a href=\"https://dukecard.duke.edu\">DukeCard</a> (University ID) at participating institutions. You will be asked to log into your Duke Libraries account to prove you are in good standing.</br></dd>\r\n\r\n<dt>Letter from Duke<br>Libraries</br></dt>\r\n  <dd>Some institutions, especially outside the United States, will grant access to their building or to their collections only after you present them with a letter from Duke University Libraries.<br><strong>To request a letter:</strong> contact <a href=\"/about/directory/staff/7465\">Andrea Loigman</a>, Head of Access and Delivery Services.&nbsp;Include information about specific libraries to be visited and your research goals.</br></dd>\r\n\r\n\r\n</dl>\r\n\r\n<h2>Staying connected with Duke library resources</h2>\r\n\r\n<dl class=\"dl-horizontal\">\r\n<dt>VPN</dt>\r\n  <dd>Off-campus access to many of Duke University Libraries' online resources, such as articles and databases, requires use of <a href=\"https://oit.duke.edu/what-we-do/services/vpn\">VPN software</a>.</dd>\r\n\r\n\r\n  <dt>Library Access<br>Button</br></dt>\r\n  <dd><a href=\"/research/library-access-button\">Installing our Library Access Button</a> allows you to access articles and databases without using VPN.</dd>  \r\n\r\n</dl>\r\n\r\n\r\n<h2>Before you go</h2>\r\n<ul><li><strong>Return items on loan</strong>: Library materials can be recalled at any time. To avoid incurring fines, return materials that you have checked-out from Duke University Libraries or have borrowed through interlibrary loan. Arrange for a friend or colleague to be able to access items you can't return.</li><li><strong>Return keys</strong>: Return the keys to your library locker, mobi or carrel.</li><li><strong>DukeCard</strong>: Make sure you have your <a href=\"https://dukecard.duke.edu\">DukeCard</a> and that you take it with you.</li><li><strong>Configure your computer</strong>: Configure your computer to connect via <a href=\"https://oit.duke.edu/what-we-do/applications/eduroam\">eduroam</a> at participating institutions.</li></ul>\r\n\r\n"
   },
   "langcode" : "und",
   "revisions" : [
      {
         "vuuid" : "3541ff48-194f-4a1a-b328-8feb1fd6ab96",
         "title" : "Doing Research at Other Institutions",
         "node_revision__field_tags" : [],
         "node_revision__body" : {
            "langcode" : "und",
            "body_summary" : "",
            "entity_id" : 1415,
            "deleted" : 0,
            "body_format" : "full_html_no_wysiwyg",
            "delta" : 0,
            "bundle" : "research_page",
            "revision_id" : 23219,
            "body_value" : "<p>Depending on where you travel, you may have a variety of options for gaining access to buildings, collections, and online access at other institutions. Some key resources are listed below.</p>\r\n\r\n<dl class=\"dl-horizontal\">\r\n  <dt>TRLN</dt>\r\n  <dd>Allows students, faculty and staff to borrow books from libraries at <a href=\"https://library.unc.edu/\" title=\"University of North Carolina at Chapel Hill\">UNC</a>, <a href=\"https://www.lib.ncsu.edu/\" title=\"North Carolina State University\">NCSU</a>, and <a href=\"https://web.nccu.edu/shepardlibrary/\" title=\"North Carolina Central University\">NCCU</a> through a partnership with the <a href=\"https://www.trln.org/\">Triangle Research Library Network</a> (TRLN).\r\n<br><strong>To borrow:</strong> present your <a href=\"https://dukecard.duke.edu\">DukeCard</a> (University ID) at participating institutions.</br></dd>\r\n\r\n<dt>eduroam</dt>\r\n  <dd>Allows students, researchers and staff from participating institutions to obtain secure high speed Internet connectivity when visiting other <a href=\"https://www.eduroam.org/where/\" target=\"_blank\">participating institutions</a> around the world.<br><strong>To connect:</strong> <a href=\"https://oit.duke.edu/what-we-do/applications/eduroam\">configure eduroam</a> while you are are still on Duke's campus.</br></dd>\r\n\r\n<dt>BorrowDirect</dt>\r\n  <dd>Provides a range of building access and borrowing privileges when visiting <a href=\"https://www.borrowdirect.org/on-site-borrowing\" target=\"_blank\" title=\"BorrowDirect\">participating libraries</a>.<br><strong>To access:</strong> present your <a href=\"https://dukecard.duke.edu\">DukeCard</a> (University ID) at participating institutions. You will be asked to log into your Duke Libraries account to prove you are in good standing.</br></dd>\r\n\r\n<dt>Letter from Duke<br>Libraries</br></dt>\r\n  <dd>Some institutions, especially outside the United States, will grant access to their building or to their collections only after you present them with a letter from Duke University Libraries.<br><strong>To request a letter:</strong> contact <a href=\"/about/directory/staff/7465\">Andrea Loigman</a>, Head of Access and Delivery Services.&nbsp;Include information about specific libraries to be visited and your research goals.</br></dd>\r\n\r\n\r\n</dl>\r\n\r\n<h2>Staying connected with Duke library resources</h2>\r\n\r\n<dl class=\"dl-horizontal\">\r\n<dt>VPN</dt>\r\n  <dd>Off-campus access to many of Duke University Libraries' online resources, such as articles and databases, requires use of <a href=\"https://oit.duke.edu/what-we-do/services/vpn\">VPN software</a>.</dd>\r\n\r\n\r\n  <dt>Library Access<br>Button</br></dt>\r\n  <dd><a href=\"/research/library-access-button\">Installing our Library Access Button</a> allows you to access articles and databases without using VPN.</dd>  \r\n\r\n</dl>\r\n\r\n\r\n<h2>Before you go</h2>\r\n<ul><li><strong>Return items on loan</strong>: Library materials can be recalled at any time. To avoid incurring fines, return materials that you have checked-out from Duke University Libraries or have borrowed through interlibrary loan. Arrange for a friend or colleague to be able to access items you can't return.</li><li><strong>Return keys</strong>: Return the keys to your library locker, mobi or carrel.</li><li><strong>DukeCard</strong>: Make sure you have your <a href=\"https://dukecard.duke.edu\">DukeCard</a> and that you take it with you.</li><li><strong>Configure your computer</strong>: Configure your computer to connect via <a href=\"https://oit.duke.edu/what-we-do/applications/eduroam\">eduroam</a> at participating institutions.</li></ul>\r\n\r\n"
         },
         "status" : 1,
         "field_revision" : {
            "created" : null,
            "status" : 1,
            "uid" : 1,
            "langcode" : null,
            "default_langcode" : 1,
            "revision_translation_affected" : 1,
            "sticky" : 0,
            "title" : "Doing Research at Other Institutions",
            "changed" : null
         },
         "log" : "",
         "sticky" : 0,
         "comment" : 1,
         "promote" : 0,
         "uid" : 2193,
         "timestamp" : 1532376075
      }
   ]
}

