{
   "revisions" : [
      {
         "promote" : 0,
         "timestamp" : 1489963032,
         "uid" : 3,
         "node_revision__body" : {
            "langcode" : "und",
            "body_summary" : "",
            "entity_id" : 86,
            "deleted" : 0,
            "bundle" : "support_page",
            "body_format" : "full_html",
            "delta" : 0,
            "revision_id" : 15959,
            "body_value" : "<h2>Programs that Educate and Engage</h2><p>Every year, the Libraries host more than 100 public events, including workshops, exhibits, book talks, symposia, film screenings, music performances, award ceremonies, lectures and the largest student-organized social event at Duke — the Library Party. These events highlight our inspiring collections, showcase student and faculty creative work and foster conversation between the academic community and the general public.</p><p>Whenever you visit a Duke library, you are guaranteed to find something new and interesting — even if you come in search of a book or cup of coffee only. As our event and exhibition capabilities expand with the Rubenstein Rare Book &amp; Manuscript Library renovation, we will need to increase support for public programs and outreach activities. The result will be an even more welcoming, inviting and stimulating library that the entire Duke community can be proud to endorse. A great library is one of the purest expressions of a university’s spirit. Support for public programming will ensure that the Duke University Libraries are not only sanctuaries of quiet study and scholarly discovery but also places of inspiration, conversation and delight.</p><h2>What Your Gifts Can Do:</h2><p><img src=\"/sites/default/files/dul/users/kurt.cumiskey/aptmans.jpg\" alt=\"Aptmans\" width=\"300\" height=\"200\" class=\"image-right img-responsive\"></p><ul><li>Your expendable gift of $25,000 can fund research travel grants for visiting scholars to come to Duke and use our special collections.&nbsp;</li><li>Your gift of $100,000 or more can endow a research prize to recognize undergraduate or graduate students' excellence in utilizing library resources.&nbsp;</li></ul><p>Feeling strongly that Duke undergraduates should be recognized for their outstanding scholarship, Library Advisory Board member Lowell Aptman, T'89, and his wife, Eileen, created an endowment to fund the Lowell Aptman Prizes. These prizes recognize undergraduates' excellence in research&nbsp;—&nbsp;including their analysis, evaluation and synthesis of sources&nbsp;—&nbsp;and encourage students to make use of the general library collections and services at Duke University.&nbsp;</p>"
         },
         "title" : "Programs",
         "vuuid" : "d45286c6-56b3-401c-b569-853580e7b0fe",
         "node_revision__field_tags" : [],
         "sticky" : 0,
         "comment" : 1,
         "log" : "",
         "status" : 1,
         "field_revision" : {
            "uid" : 1,
            "langcode" : null,
            "status" : 1,
            "created" : null,
            "sticky" : 0,
            "revision_translation_affected" : 1,
            "default_langcode" : 1,
            "title" : "Programs",
            "changed" : null
         }
      }
   ],
   "langcode" : "und",
   "node__body" : {
      "deleted" : 0,
      "body_format" : "full_html",
      "delta" : 0,
      "bundle" : "support_page",
      "revision_id" : 15959,
      "body_value" : "<h2>Programs that Educate and Engage</h2><p>Every year, the Libraries host more than 100 public events, including workshops, exhibits, book talks, symposia, film screenings, music performances, award ceremonies, lectures and the largest student-organized social event at Duke — the Library Party. These events highlight our inspiring collections, showcase student and faculty creative work and foster conversation between the academic community and the general public.</p><p>Whenever you visit a Duke library, you are guaranteed to find something new and interesting — even if you come in search of a book or cup of coffee only. As our event and exhibition capabilities expand with the Rubenstein Rare Book &amp; Manuscript Library renovation, we will need to increase support for public programs and outreach activities. The result will be an even more welcoming, inviting and stimulating library that the entire Duke community can be proud to endorse. A great library is one of the purest expressions of a university’s spirit. Support for public programming will ensure that the Duke University Libraries are not only sanctuaries of quiet study and scholarly discovery but also places of inspiration, conversation and delight.</p><h2>What Your Gifts Can Do:</h2><p><img src=\"/sites/default/files/dul/users/kurt.cumiskey/aptmans.jpg\" alt=\"Aptmans\" width=\"300\" height=\"200\" class=\"image-right img-responsive\"></p><ul><li>Your expendable gift of $25,000 can fund research travel grants for visiting scholars to come to Duke and use our special collections.&nbsp;</li><li>Your gift of $100,000 or more can endow a research prize to recognize undergraduate or graduate students' excellence in utilizing library resources.&nbsp;</li></ul><p>Feeling strongly that Duke undergraduates should be recognized for their outstanding scholarship, Library Advisory Board member Lowell Aptman, T'89, and his wife, Eileen, created an endowment to fund the Lowell Aptman Prizes. These prizes recognize undergraduates' excellence in research&nbsp;—&nbsp;including their analysis, evaluation and synthesis of sources&nbsp;—&nbsp;and encourage students to make use of the general library collections and services at Duke University.&nbsp;</p>",
      "langcode" : "und",
      "body_summary" : "",
      "entity_id" : 86
   },
   "vid" : 15959,
   "uuid" : "548e77c5-aec4-41fb-9864-37cf2bca9c49",
   "field_image" : null,
   "type" : "support_page",
   "nid" : "86",
   "field_tags" : [],
   "path_alias" : {
      "status" : 0,
      "langcode" : "und",
      "alias" : "/support/programs",
      "pid" : 177,
      "language" : "und"
   },
   "node_field_data" : {
      "title" : "Programs",
      "status" : 1,
      "created" : 1374599143,
      "sticky" : 0,
      "default_langcode" : 1,
      "type" : "support_page",
      "promote" : 0,
      "changed" : null,
      "langcode" : "und",
      "uid" : 1,
      "revision_translation_affected" : 1
   },
   "node_access" : null,
   "asidebox" : {
      "bid" : null,
      "vid" : 15959,
      "nid" : 86,
      "body_title" : "",
      "body_value" : null,
      "block_module" : null,
      "body_format" : null,
      "block_delta" : null,
      "status" : "disabled"
   }
}

