{
   "nid" : "1105",
   "asidebox" : null,
   "vid" : 11093,
   "node__body" : {
      "entity_id" : 1105,
      "body_summary" : "",
      "langcode" : "und",
      "revision_id" : 11093,
      "body_value" : "<p><strong>An exhibit of photographs by Cat Crumpler during her research for the Hart Leadership Program through their Service Opportunities in Leadership Program.</strong></p><p>In the summer of 2009 I sought to explore and assess the change in people’s attitudes, perceptions, and, subsequently, daily habits towards environmental sustainability through both photography and other research methods.&nbsp; With the help of a grant from the Hart Leadership Program through their Service Opportunities in Leadership Program, I was able to conduct my research on Bald head Island, North Carolina with the Bald Head Island Conservancy.</p><p>Through this research I wanted to answer the question how does the Bald Head Island Conservancy’s (BHIC) environmental education program change the attitudes and perceptions of its itinerant participants towards environmental sustainability? And, how can it be improved? These photographs, coupled with a thirty-five page research report, are the end result of my time spent with the BHI Conservancy.</p><p>Any questions or comments regarding the photographs or my research can be sent to ccc22@duke.edu.</p><p>Cat Crumpler</p><p>Duke University, 2010</p>",
      "delta" : 0,
      "body_format" : "full_html",
      "bundle" : "exhibit",
      "deleted" : 0
   },
   "field_image" : {
      "deleted" : 0,
      "revision_id" : 11093,
      "field_image_fid" : 1681,
      "file_uuid" : "a8ccda44-353d-44a6-b1d5-78c824e0a1dc",
      "language" : "und",
      "field_image_title" : "",
      "field_image_target_id" : 1681,
      "entity_id" : 1105,
      "delta" : 0,
      "bundle" : "exhibit",
      "field_image_alt" : "",
      "field_image_width" : 800,
      "langcode" : "und",
      "entity_type" : "node",
      "field_image_height" : 600
   },
   "revisions" : [
      {
         "log" : "",
         "comment" : 1,
         "sticky" : 0,
         "field_revision" : {
            "default_langcode" : 1,
            "revision_translation_affected" : 1,
            "sticky" : 0,
            "created" : null,
            "status" : 1,
            "uid" : 1,
            "langcode" : null,
            "changed" : null,
            "title" : "Bald Head Island Conservancy"
         },
         "status" : 1,
         "node_revision__body" : {
            "body_value" : "<p><strong>An exhibit of photographs by Cat Crumpler during her research for the Hart Leadership Program through their Service Opportunities in Leadership Program.</strong></p><p>In the summer of 2009 I sought to explore and assess the change in people’s attitudes, perceptions, and, subsequently, daily habits towards environmental sustainability through both photography and other research methods.&nbsp; With the help of a grant from the Hart Leadership Program through their Service Opportunities in Leadership Program, I was able to conduct my research on Bald head Island, North Carolina with the Bald Head Island Conservancy.</p><p>Through this research I wanted to answer the question how does the Bald Head Island Conservancy’s (BHIC) environmental education program change the attitudes and perceptions of its itinerant participants towards environmental sustainability? And, how can it be improved? These photographs, coupled with a thirty-five page research report, are the end result of my time spent with the BHI Conservancy.</p><p>Any questions or comments regarding the photographs or my research can be sent to ccc22@duke.edu.</p><p>Cat Crumpler</p><p>Duke University, 2010</p>",
            "revision_id" : 11093,
            "delta" : 0,
            "body_format" : "full_html",
            "bundle" : "exhibit",
            "deleted" : 0,
            "entity_id" : 1105,
            "body_summary" : "",
            "langcode" : "und"
         },
         "node_revision__field_tags" : [],
         "vuuid" : "fa153fd9-ce11-4efd-8a6a-c3617c9dbd9b",
         "title" : "Bald Head Island Conservancy",
         "timestamp" : 1587429457,
         "uid" : 2213,
         "promote" : 0
      }
   ],
   "path_alias" : {
      "langcode" : "und",
      "status" : 0,
      "language" : "und",
      "alias" : "/exhibits/2010/bald-head-island",
      "pid" : 1595
   },
   "node_field_data" : {
      "title" : "Bald Head Island Conservancy",
      "status" : 1,
      "created" : 1439232333,
      "sticky" : 0,
      "default_langcode" : 1,
      "type" : "exhibit",
      "changed" : null,
      "promote" : 0,
      "uid" : 1,
      "langcode" : "und",
      "revision_translation_affected" : 1
   },
   "field_tags" : [],
   "node_access" : null,
   "node__field_image" : {},
   "uuid" : "57f101f9-d4ad-4f22-bec6-27d9119a66c7",
   "type" : "exhibit",
   "langcode" : "und"
}

