{
   "asidebox" : null,
   "nid" : "2245",
   "revisions" : [
      {
         "promote" : 0,
         "uid" : 47,
         "timestamp" : 1559188167,
         "vuuid" : "0da50416-e182-4b9f-bfe6-5ccea20d5b11",
         "title" : "\"Positive Care and Legitimate Remedy\"",
         "node_revision__field_tags" : [],
         "node_revision__body" : {
            "deleted" : 0,
            "delta" : 0,
            "body_format" : "full_html",
            "bundle" : "exhibit",
            "body_value" : "<p>This exhibit tells a story about the Lydia Pinkham's Vegetable Compound Company's medicine, social impact, and marketing strategies from 1875 to the 1920s.&nbsp;</p>",
            "revision_id" : 25203,
            "langcode" : "und",
            "body_summary" : "",
            "entity_id" : 2245
         },
         "status" : 1,
         "field_revision" : {
            "default_langcode" : 1,
            "sticky" : 0,
            "revision_translation_affected" : 1,
            "created" : null,
            "uid" : 1,
            "status" : 1,
            "langcode" : null,
            "changed" : null,
            "title" : "\"Positive Care and Legitimate Remedy\""
         },
         "log" : "",
         "sticky" : 0,
         "comment" : 1
      }
   ],
   "field_image" : {
      "file_uuid" : "f9c1d8bc-a8db-46cd-821d-b3cae386a809",
      "language" : "und",
      "field_image_fid" : 4557,
      "revision_id" : 25203,
      "deleted" : 0,
      "entity_id" : 2245,
      "field_image_target_id" : 4557,
      "field_image_title" : "",
      "field_image_width" : 481,
      "field_image_alt" : "Lydia Pinkham",
      "delta" : 0,
      "bundle" : "exhibit",
      "field_image_height" : 600,
      "entity_type" : "node",
      "langcode" : "und"
   },
   "node__body" : {
      "delta" : 0,
      "body_format" : "full_html",
      "bundle" : "exhibit",
      "deleted" : 0,
      "body_value" : "<p>This exhibit tells a story about the Lydia Pinkham's Vegetable Compound Company's medicine, social impact, and marketing strategies from 1875 to the 1920s.&nbsp;</p>",
      "revision_id" : 25203,
      "langcode" : "und",
      "body_summary" : "",
      "entity_id" : 2245
   },
   "vid" : 25203,
   "node__field_image" : {},
   "node_access" : null,
   "node_field_data" : {
      "default_langcode" : 1,
      "sticky" : 0,
      "created" : 1559187758,
      "status" : 1,
      "title" : "\"Positive Care and Legitimate Remedy\"",
      "revision_translation_affected" : 1,
      "langcode" : "und",
      "uid" : 1,
      "promote" : 0,
      "changed" : null,
      "type" : "exhibit"
   },
   "path_alias" : {
      "langcode" : "und",
      "status" : 0,
      "language" : "und",
      "pid" : 4405,
      "alias" : "/exhibits/2019/LydiaPinkham"
   },
   "field_tags" : [],
   "langcode" : "und",
   "type" : "exhibit",
   "uuid" : "57fbf0e0-5b9b-487b-9ecd-6e8b780ef080"
}

