{
   "asidebox" : null,
   "node_access" : {
      "gid" : 1,
      "grant_delete" : 0,
      "langcode" : "und",
      "realm" : "view_unpublished_content",
      "nid" : 1323,
      "grant_view" : 1,
      "grant_update" : 0
   },
   "path_alias" : {
      "pid" : 1875,
      "alias" : "/services/alumni/alumni-portal-draft",
      "language" : "und",
      "langcode" : "und",
      "status" : 0
   },
   "node_field_data" : {
      "title" : "Alumni Portal [DRAFT]",
      "created" : 1458162144,
      "status" : 0,
      "default_langcode" : 1,
      "sticky" : 0,
      "type" : "page",
      "promote" : 0,
      "changed" : null,
      "uid" : 1,
      "langcode" : "und",
      "revision_translation_affected" : 1
   },
   "field_tags" : [],
   "nid" : "1323",
   "langcode" : "und",
   "revisions" : [
      {
         "promote" : 0,
         "uid" : 3,
         "timestamp" : 1458679484,
         "title" : "Alumni Portal [DRAFT]",
         "vuuid" : "efbee805-7fe9-44ad-92dc-ad908b1ebaa7",
         "node_revision__field_tags" : [],
         "node_revision__body" : {
            "revision_id" : 13119,
            "body_value" : "<style type=\"text/css\">\r\n\r\n.featured-resources div {\r\n    display: block;\r\n    padding: 20px;\r\n    background: #eee;\r\n    border-top: 1px dotted #ccc;\r\n    margin: 0 0 20px 0;\r\n    overflow: visible;\r\n    min-height: 60px;\r\n    clear: both;\r\n    box-sizing: content-box;\r\n}\r\n\r\n.grid-4,\r\n.grid-8 {\r\n    display: inline;\r\n    float: left;\r\n    position: relative;\r\n    margin-left: 10px;\r\n    margin-right: 10px;\r\n}\r\n\r\n.grid-4 {\r\n    width: 31.5%;\r\n}\r\n\r\n.grid-8 {\r\n    width: 65%;\r\n}\r\n\r\n</style>\r\n\r\n<div class=\"omega-grid omega-12-twocol-7-5\">\r\n\r\n    <div class=\"grid-8\">\r\n\r\n        <p>The following online resources are available to Duke University alumni, courtesy of the Duke Alumni Association and Duke University Libraries. Off-campus access to these databases is permitted for Duke alumni who are using them for personal, non-commercial use.</p>\r\n\r\n        <p>Need help using any of these resources? Instant message a Duke librarian using the chat window to the right.</p>\r\n\r\n    </div>\r\n\r\n    <div class=\"grid-4\">\r\n\r\n        <div class=\"needs-js\">Chat requires JavaScript.</div>\r\n\r\n        <div class=\"libraryh3lp\" jid=\"duke-websearch@chat.libraryh3lp.com\" style=\"display: none;\">\r\n            <iframe frameborder=\"0\" scrolling=\"no\" src=\"http://libraryh3lp.com/chat/duke-websearch@chat.libraryh3lp.com?skin=21014&amp;theme=simpletext&amp;title=Ask%20Us&amp;identity=DukeRef\" style=\"border: 1px solid #ccc; width: 95%; min-height: 150px\"></iframe>\r\n        </div>\r\n\r\n        <div class=\"libraryh3lp\" style=\"display: none\">No librarians are currently available. For assistance, email <a href=\"mailto:asklib@duke.edu\">asklib@duke.edu</a></div>\r\n\r\n    </div>\r\n\r\n    <br clear=\"all\" />\r\n\r\n    <div class=\"grid-12\">\r\n    \r\n        <h2>Browse by Interest</h2>\r\n\r\n    </div>\r\n\r\n</div>\r\n\r\n\r\n<div class=\"omega-grid omega-12-threecol-4-4-4\">\r\n\r\n    <div class=\"grid-4\">\r\n\r\n        <h3>American Culture</h3>\r\n\r\n        <p><a href=\"https://alumniproxy.lib.duke.edu/login?url=http://www.everydaylife.amdigital.co.uk\" target=\"_blank\">Everyday Life &amp; Women in America, 1800-1920</a></p>\r\n        <p><a href=\"https://alumniproxy.lib.duke.edu/login?url=http://www.rockandroll.amdigital.co.uk\" target=\"_blank\">Popular Culture in Britain and America, 1950-1975</a></p>\r\n        <p><a href=\"https://alumniproxy.lib.duke.edu/login?url=http://asp6new.alexanderstreet.com/sixt\" target=\"_blank\">The Sixties: Primary Documents and Personal Narratives, 1960-1974</a></p>\r\n\r\n        <h3>Business/Economics</h3>\r\n        <p><a href=\"https://alumniproxy.lib.duke.edu/login?url=http://site.ebrary.com/lib/dukebep\">Business Expert Press</a>&nbsp;Please complete this <a href=\"https://dukefuqua.qualtrics.com/SE/?SID=SV_9GMaluw7YFovSyp\">form</a> in order to be granted access to Business Expert Press.</p>\r\n\r\n        <h3>Citation Management</h3>\r\n        <p><a href=\"https://alumniproxy.lib.duke.edu/login?url=http://www.alumniconnections.com/olc/pub/DUKE/filemanager/Member_Services/images/library/RefWorksAlumniInstructions.pdf\" target=\"_blank\">RefWorks</a></p>\r\n\r\n        <h3>Dance</h3>\r\n        <p><a href=\"https://alumniproxy.lib.duke.edu/login?url=http://daiv.alexanderstreet.com/\" target=\"_blank\">Dance in Video</a></p>\r\n\r\n        <h3>Drama</h3>\r\n        <p><a href=\"https://alumniproxy.lib.duke.edu/login?url=http://solomon.aadr.alexanderstreet.com/\" target=\"_blank\">Asian American Drama</a></p>\r\n        <p><a href=\"https://alumniproxy.lib.duke.edu/login?url=http://radr.alexanderstreet.com/\" target=\"_blank\">Audio Drama: The LA Theatre Works Collection</a></p>\r\n        <p><a href=\"https://alumniproxy.lib.duke.edu/login?url=http://solomon.bldr.alexanderstreet.com//bldr.search.simple.html\" target=\"_blank\">Black Drama: 1850-Present</a></p>\r\n        <p><a href=\"https://alumniproxy.lib.duke.edu/login?url=http://flon.alexanderstreet.com/\" target=\"_blank\">Filmakers Library Online</a></p>\r\n        <p><a href=\"https://alumniproxy.lib.duke.edu/login?url=http://ativ.alexanderstreet.com\" target=\"_blank\">Theatre in Video</a></p>\r\n\r\n        <h3>Exploration</h3>\r\n        <p><a href=\"https://alumniproxy.lib.duke.edu/login?url=http://www.empire.amdigital.co.uk\" target=\"_blank\">Empire Online</a></p>\r\n        <p><a href=\"https://alumniproxy.lib.duke.edu/login?url=http://www.medievaltravel.amdigital.co.uk/search/advanced-search.aspx\" target=\"_blank\">Medieval Travel Writing</a></p>\r\n\r\n        <h3>Historical Journals &amp; Newspapers</h3>\r\n        <p><a href=\"https://alumniproxy.lib.duke.edu/login?url=http://www.18thcjournals.amdigital.co.uk\" target=\"_blank\">Eighteenth Century Journals</a></p>\r\n        <p><a href=\"https://alumniproxy.lib.duke.edu/login?url=http://harp.alexanderstreet.com\" target=\"_blank\">Harper's Weekly, 1857-1912</a></p>\r\n\r\n        <h3>History</h3>\r\n        <p><a href=\"https://alumniproxy.lib.duke.edu/login?url=http://www.firstworldwar.amdigital.co.uk\" target=\"_blank\">First World War: Personal Experiences</a></p>\r\n        <p><a href=\"https://alumniproxy.lib.duke.edu/login?url=http://www.literarymanuscriptsberg.amdigital.co.uk/Default.aspx\" target=\"_blank\">Literary Manuscripts: Victorian Manuscripts</a></p>\r\n        <p><a href=\"https://alumniproxy.lib.duke.edu/login?url=http://www.medievalfamilylife.amdigital.co.uk/Search/AdvancedSearch.aspx\" target=\"_blank\">Medieval Family Life</a></p>\r\n        <p><a href=\"https://alumniproxy.lib.duke.edu/login?url=http://www.slavery.amdigital.co.uk/\" target=\"_blank\">Slavery, Abolition and Social Justice, 1490-2007</a></p>\r\n\r\n        \r\n    </div>\r\n\r\n    <div class=\"grid-4\">\r\n\r\n        <h3>Humanities</h3>\r\n        <p><a href=\"https://alumniproxy.lib.duke.edu/login?url=http://asp6new.alexanderstreet.com/blfi/blfi.search.advanced.aspx\" target=\"_blank\">Black Short Fiction and Folklore</a></p>\r\n        <p><a href=\"https://alumniproxy.lib.duke.edu/login?url=http://solomon.bltc.alexanderstreet.com/\" target=\"_blank\">Black Thought and Culture</a></p>\r\n\r\n        <h3>International</h3>\r\n        <p><a href=\"https://alumniproxy.lib.duke.edu/login?url=http://www.chinacultureandsociety.amdigital.co.uk\" target=\"_blank\">China: Culture and Society</a></p>\r\n        <p><a href=\"https://alumniproxy.lib.duke.edu/login?url=http://www.china.amdigital.co.uk/search/search-advanced.aspx\" target=\"_blank\">China: Trade, Politics and Culture, 1793-1980</a></p>\r\n        <p><a href=\"https://alumniproxy.lib.duke.edu/login?url=http://www.archivesdirect.amdigital.co.uk/Introduction/Confidential_Print_ME/default.aspx\" target=\"_blank\">Confidential Print: Middle East, 1839-1969</a></p>\r\n        <p><a href=\"https://alumniproxy.lib.duke.edu/login?url=http://www.archivesdirect.amdigital.co.uk/Introduction/FO_China/default.aspx\" target=\"_blank\">Foreign Office Files for China, 1949-1980</a></p>\r\n        <p><a href=\"https://alumniproxy.lib.duke.edu/login?url=http://www.archivesdirect.amdigital.co.uk/Introduction/FO_India/default.aspx\" target=\"_blank\">Foreign Office Files for India, Pakistan and Afghanistan</a></p>\r\n        <p><a href=\"https://alumniproxy.lib.duke.edu/login?url=http://www.indiaraj.amdigital.co.uk/Search/SearchAdvanced.aspx\" target=\"_blank\">India, Raj and Empire</a></p>\r\n        <p><a href=\"https://alumniproxy.lib.duke.edu/login?url=http://www.aap.amdigital.co.uk/\" target=\"_blank\">Meiji Japan</a></p>\r\n\r\n        <h3>Interdisciplinary &amp; General Resources</h3>\r\n        <p><a href=\"https://alumniproxy.lib.duke.edu/login?url=http://search.ebscohost.com/login.aspx?authtype=uid&user=duke&password=alumni&group=alumni&profile=ehost\">EBSCO Academic Search Alumni Edition</a></p>\r\n        <p><a href=\"https://alumniproxy.lib.duke.edu/login?url=http://firp.alexanderstreet.com/\">In The First Person</a></p>\r\n        <p><a href=\"https://alumniproxy.lib.duke.edu/login?url=http://www.jstor.org/action/showBasicSearch\">JSTOR: The Scholarly Journal Archive</a></p>\r\n        <p><a href=\"https://alumniproxy.lib.duke.edu/login?url=http://proquest.umi.com/pqdweb?RQT=403&TS=1255098741&clientId=123895\">ProQuest ABI INform Complete</a></p>\r\n        <p><a href=\"https://alumniproxy.lib.duke.edu/login?url=http://www.universitypressscholarship.com/\">University Press Scholarship Online</a></p>\r\n    \r\n        \r\n        <h3>Judaica</h3>\r\n        <p><a href=\"https://alumniproxy.lib.duke.edu/login?url=http://www.jewishlife.amdigital.co.uk/Search/AdvancedSearch.aspx\" target=\"_blank\">Jewish Life in America, 1654-1954</a></p>\r\n\r\n        <h3>Latino Studies</h3>\r\n        <p><a href=\"https://alumniproxy.lib.duke.edu/login?url=http://lit.alexanderstreet.com/lali/search\" target=\"_blank\">Latino Literature: Poetry, Drama and Fiction</a></p>\r\n\r\n        <h3>Music</h3>\r\n        <p><a href=\"https://alumniproxy.lib.duke.edu/login?url=http://glnd.alexanderstreet.com/\" target=\"_blank\">Garland Encyclopedia of World Music</a></p>\r\n        <p><a href=\"https://alumniproxy.lib.duke.edu/login?url=http://jazz.alexanderstreet.com/\" target=\"_blank\">Jazz Music Library</a></p>\r\n        <p><a href=\"https://alumniproxy.lib.duke.edu/login?url=http://music.alexanderstreet.com\" target=\"_blank\">Music Online</a></p>\r\n        <p><a href=\"https://alumniproxy.lib.duke.edu/login?url=http://glmu.alexanderstreet.com/\" target=\"_blank\">Smithsonian Global Sound</a></p>\r\n\r\n    </div>\r\n\r\n    <div class=\"grid-4\">\r\n\r\n        <h3>Religion</h3>\r\n        <p><a href=\"https://alumniproxy.lib.duke.edu/login?url=http://search.ebscohost.com/login.aspx?authtype=uid&amp;user=duke&amp;password=alumni&amp;group=alumni&amp;profile=ehost&amp;defaultdb=rfh\" target=\"_blank\">ATLA</a></p>\r\n        <p><a href=\"https://alumniproxy.lib.duke.edu/login?url=http://search.ebscohost.com/login.aspx?authtype=uid&amp;user=duke&amp;password=alumni&amp;group=alumni&amp;profile=ehost&amp;defaultdb=vah\" target=\"_blank\">ATLA Catholic Periodical and Literature Index</a></p>\r\n        <p><a href=\"https://alumniproxy.lib.duke.edu/login?url=http://solomon.dkbl.alexanderstreet.com/\" target=\"_blank\">Digital Karl Barth Library</a></p>\r\n        <p><a href=\"https://alumniproxy.lib.duke.edu/login?url=http://solomon.tcpt.alexanderstreet.com/asp_search.html\" target=\"_blank\">Digital Library of Classical Protestant Texts</a></p>\r\n\r\n        <h3>Social Sciences</h3>\r\n        <p><a href=\"https://alumniproxy.lib.duke.edu/login?url=http://anto.alexanderstreet.com/\" target=\"_blank\">Anthropology Online</a></p>\r\n        <p><a href=\"https://alumniproxy.lib.duke.edu/login?url=http://anth.alexanderstreet.com/\" target=\"_blank\">Ethnographic Video Online</a></p>\r\n\r\n        <h3>Social History</h3>\r\n        <p><a href=\"https://alumniproxy.lib.duke.edu/login?url=http://www.londonlowlife.amdigital.co.uk/Search/AdvancedSearch.aspx\">London Low Life</a></p>\r\n        <p><a href=\"https://alumniproxy.lib.duke.edu/login?url=http://www.massobservation.amdigital.co.uk/\" target=\"_blank\">Mass Observation Online</a></p>\r\n        <p><a href=\"https://alumniproxy.lib.duke.edu/login?url=http://www.romanticism.amdigital.co.uk\" target=\"_blank\">Romanticism: Life, Literature and Landscape</a></p>\r\n        <p><a href=\"https://alumniproxy.lib.duke.edu/login?url=http://www.victorianpopularculture.amdigital.co.uk/Contents/Index.aspx?sec=Spiritualism&amp;ks=true\" target=\"_blank\">Victorian Popular Culture: Spiritualism, Sensation and Magic</a></p>\r\n        <p><a href=\"https://alumniproxy.lib.duke.edu/login?url=http://www.victorianpopularculture.amdigital.co.uk/Contents/Index.aspx?sec=Circuses&amp;ks=true\" target=\"_blank\">Victorian Popular Culture: Circuses, Sideshows and Freaks</a></p>\r\n        <p><a href=\"https://alumniproxy.lib.duke.edu/login?url=http://www.victorianpopularculture.amdigital.co.uk/Contents/Index.aspx?sec=MusicHalls&amp;ks=true\" target=\"_blank\">Victorian Popular Culture: Music Hall, Theatre and Popular Entertainment</a></p>\r\n        <p><a href=\"https://alumniproxy.lib.duke.edu/login?url=http://www.victorianpopularculture.amdigital.co.uk\" target=\"_blank\">Victorian Popular Culture: Moving Pictures, Optical Entertainments and the Advent of Cinema</a></p>\r\n        <p><a href=\"https://alumniproxy.lib.duke.edu/login?url=http://solomon.bwld.alexanderstreet.com/\" target=\"_blank\">British and Irish Women's Letters and Diaries</a></p>\r\n\r\n        <h3>US History</h3>\r\n        <p><a href=\"https://alumniproxy.lib.duke.edu/login?url=http://www.americanwest.amdigital.co.uk\" target=\"_blank\">American West</a></p><p><a href=\"http://www.virginiacompanyarchives.amdigital.co.uk\" target=\"_blank\">Virginia Company Archives</a></p>\r\n        <p><a href=\"https://alumniproxy.lib.duke.edu/login?url=http://cwld.alexanderstreet.com\" target=\"_blank\">American Civil War: Letters and Diaries</a></p>\r\n        <p><a href=\"https://alumniproxy.lib.duke.edu/login?url=http://ahiv.alexanderstreet.com/\" target=\"_blank\">American History in Video</a></p>\r\n        <p><a href=\"https://alumniproxy.lib.duke.edu/login?url=http://solomon.imld.alexanderstreet.com/\" target=\"_blank\">North American Immigrant Letters and Diaries</a></p>\r\n        <p><a href=\"https://alumniproxy.lib.duke.edu/login?url=http://solomon.nwld.alexanderstreet.com\" target=\"_blank\">North American Women's Letters and Diaries</a></p>\r\n        <p><a href=\"https://alumniproxy.lib.duke.edu/login?url=http://asp6new.alexanderstreet.com/was2/was2.search.advanced.aspx\" target=\"_blank\">Women and Social Movements in the United States, 1600-2000</a></p>\r\n\r\n        <h3>Video</h3>\r\n        <p><a href=\"https://alumniproxy.lib.duke.edu/login?url=http://vasc.alexanderstreet.com/\" target=\"_blank\">Academic Video Online</a></p>\r\n\r\n        \r\n        \r\n    </div>\r\n\r\n</div>\r\n\r\n\r\n<script type=\"text/javascript\">\r\n/* Documentation: http://docs.libraryh3lp.com/html-code-samples */\r\n  (function() {\r\n    var x = document.createElement(\"script\"); x.type = \"text/javascript\"; x.async = true;\r\n    x.src = (document.location.protocol === \"https:\" ? \"https://\" : \"http://\") + \"libraryh3lp.com/js/libraryh3lp.js?multi\";\r\n    var y = document.getElementsByTagName(\"script\")[0]; y.parentNode.insertBefore(x, y);\r\n  })();\r\n</script>",
            "deleted" : 0,
            "body_format" : "full_html_no_wysiwyg",
            "bundle" : "page",
            "delta" : 0,
            "entity_id" : 1323,
            "body_summary" : "",
            "langcode" : "und"
         },
         "status" : 0,
         "field_revision" : {
            "default_langcode" : 1,
            "sticky" : 0,
            "revision_translation_affected" : 1,
            "created" : null,
            "langcode" : null,
            "uid" : 1,
            "status" : 0,
            "changed" : null,
            "title" : "Alumni Portal [DRAFT]"
         },
         "sticky" : 0,
         "comment" : 1,
         "log" : ""
      }
   ],
   "type" : "page",
   "field_image" : null,
   "uuid" : "59119e7f-1cbb-48cc-9d1d-9b053b3bd48d",
   "node__body" : {
      "revision_id" : 13119,
      "body_value" : "<style type=\"text/css\">\r\n\r\n.featured-resources div {\r\n    display: block;\r\n    padding: 20px;\r\n    background: #eee;\r\n    border-top: 1px dotted #ccc;\r\n    margin: 0 0 20px 0;\r\n    overflow: visible;\r\n    min-height: 60px;\r\n    clear: both;\r\n    box-sizing: content-box;\r\n}\r\n\r\n.grid-4,\r\n.grid-8 {\r\n    display: inline;\r\n    float: left;\r\n    position: relative;\r\n    margin-left: 10px;\r\n    margin-right: 10px;\r\n}\r\n\r\n.grid-4 {\r\n    width: 31.5%;\r\n}\r\n\r\n.grid-8 {\r\n    width: 65%;\r\n}\r\n\r\n</style>\r\n\r\n<div class=\"omega-grid omega-12-twocol-7-5\">\r\n\r\n    <div class=\"grid-8\">\r\n\r\n        <p>The following online resources are available to Duke University alumni, courtesy of the Duke Alumni Association and Duke University Libraries. Off-campus access to these databases is permitted for Duke alumni who are using them for personal, non-commercial use.</p>\r\n\r\n        <p>Need help using any of these resources? Instant message a Duke librarian using the chat window to the right.</p>\r\n\r\n    </div>\r\n\r\n    <div class=\"grid-4\">\r\n\r\n        <div class=\"needs-js\">Chat requires JavaScript.</div>\r\n\r\n        <div class=\"libraryh3lp\" jid=\"duke-websearch@chat.libraryh3lp.com\" style=\"display: none;\">\r\n            <iframe frameborder=\"0\" scrolling=\"no\" src=\"http://libraryh3lp.com/chat/duke-websearch@chat.libraryh3lp.com?skin=21014&amp;theme=simpletext&amp;title=Ask%20Us&amp;identity=DukeRef\" style=\"border: 1px solid #ccc; width: 95%; min-height: 150px\"></iframe>\r\n        </div>\r\n\r\n        <div class=\"libraryh3lp\" style=\"display: none\">No librarians are currently available. For assistance, email <a href=\"mailto:asklib@duke.edu\">asklib@duke.edu</a></div>\r\n\r\n    </div>\r\n\r\n    <br clear=\"all\" />\r\n\r\n    <div class=\"grid-12\">\r\n    \r\n        <h2>Browse by Interest</h2>\r\n\r\n    </div>\r\n\r\n</div>\r\n\r\n\r\n<div class=\"omega-grid omega-12-threecol-4-4-4\">\r\n\r\n    <div class=\"grid-4\">\r\n\r\n        <h3>American Culture</h3>\r\n\r\n        <p><a href=\"https://alumniproxy.lib.duke.edu/login?url=http://www.everydaylife.amdigital.co.uk\" target=\"_blank\">Everyday Life &amp; Women in America, 1800-1920</a></p>\r\n        <p><a href=\"https://alumniproxy.lib.duke.edu/login?url=http://www.rockandroll.amdigital.co.uk\" target=\"_blank\">Popular Culture in Britain and America, 1950-1975</a></p>\r\n        <p><a href=\"https://alumniproxy.lib.duke.edu/login?url=http://asp6new.alexanderstreet.com/sixt\" target=\"_blank\">The Sixties: Primary Documents and Personal Narratives, 1960-1974</a></p>\r\n\r\n        <h3>Business/Economics</h3>\r\n        <p><a href=\"https://alumniproxy.lib.duke.edu/login?url=http://site.ebrary.com/lib/dukebep\">Business Expert Press</a>&nbsp;Please complete this <a href=\"https://dukefuqua.qualtrics.com/SE/?SID=SV_9GMaluw7YFovSyp\">form</a> in order to be granted access to Business Expert Press.</p>\r\n\r\n        <h3>Citation Management</h3>\r\n        <p><a href=\"https://alumniproxy.lib.duke.edu/login?url=http://www.alumniconnections.com/olc/pub/DUKE/filemanager/Member_Services/images/library/RefWorksAlumniInstructions.pdf\" target=\"_blank\">RefWorks</a></p>\r\n\r\n        <h3>Dance</h3>\r\n        <p><a href=\"https://alumniproxy.lib.duke.edu/login?url=http://daiv.alexanderstreet.com/\" target=\"_blank\">Dance in Video</a></p>\r\n\r\n        <h3>Drama</h3>\r\n        <p><a href=\"https://alumniproxy.lib.duke.edu/login?url=http://solomon.aadr.alexanderstreet.com/\" target=\"_blank\">Asian American Drama</a></p>\r\n        <p><a href=\"https://alumniproxy.lib.duke.edu/login?url=http://radr.alexanderstreet.com/\" target=\"_blank\">Audio Drama: The LA Theatre Works Collection</a></p>\r\n        <p><a href=\"https://alumniproxy.lib.duke.edu/login?url=http://solomon.bldr.alexanderstreet.com//bldr.search.simple.html\" target=\"_blank\">Black Drama: 1850-Present</a></p>\r\n        <p><a href=\"https://alumniproxy.lib.duke.edu/login?url=http://flon.alexanderstreet.com/\" target=\"_blank\">Filmakers Library Online</a></p>\r\n        <p><a href=\"https://alumniproxy.lib.duke.edu/login?url=http://ativ.alexanderstreet.com\" target=\"_blank\">Theatre in Video</a></p>\r\n\r\n        <h3>Exploration</h3>\r\n        <p><a href=\"https://alumniproxy.lib.duke.edu/login?url=http://www.empire.amdigital.co.uk\" target=\"_blank\">Empire Online</a></p>\r\n        <p><a href=\"https://alumniproxy.lib.duke.edu/login?url=http://www.medievaltravel.amdigital.co.uk/search/advanced-search.aspx\" target=\"_blank\">Medieval Travel Writing</a></p>\r\n\r\n        <h3>Historical Journals &amp; Newspapers</h3>\r\n        <p><a href=\"https://alumniproxy.lib.duke.edu/login?url=http://www.18thcjournals.amdigital.co.uk\" target=\"_blank\">Eighteenth Century Journals</a></p>\r\n        <p><a href=\"https://alumniproxy.lib.duke.edu/login?url=http://harp.alexanderstreet.com\" target=\"_blank\">Harper's Weekly, 1857-1912</a></p>\r\n\r\n        <h3>History</h3>\r\n        <p><a href=\"https://alumniproxy.lib.duke.edu/login?url=http://www.firstworldwar.amdigital.co.uk\" target=\"_blank\">First World War: Personal Experiences</a></p>\r\n        <p><a href=\"https://alumniproxy.lib.duke.edu/login?url=http://www.literarymanuscriptsberg.amdigital.co.uk/Default.aspx\" target=\"_blank\">Literary Manuscripts: Victorian Manuscripts</a></p>\r\n        <p><a href=\"https://alumniproxy.lib.duke.edu/login?url=http://www.medievalfamilylife.amdigital.co.uk/Search/AdvancedSearch.aspx\" target=\"_blank\">Medieval Family Life</a></p>\r\n        <p><a href=\"https://alumniproxy.lib.duke.edu/login?url=http://www.slavery.amdigital.co.uk/\" target=\"_blank\">Slavery, Abolition and Social Justice, 1490-2007</a></p>\r\n\r\n        \r\n    </div>\r\n\r\n    <div class=\"grid-4\">\r\n\r\n        <h3>Humanities</h3>\r\n        <p><a href=\"https://alumniproxy.lib.duke.edu/login?url=http://asp6new.alexanderstreet.com/blfi/blfi.search.advanced.aspx\" target=\"_blank\">Black Short Fiction and Folklore</a></p>\r\n        <p><a href=\"https://alumniproxy.lib.duke.edu/login?url=http://solomon.bltc.alexanderstreet.com/\" target=\"_blank\">Black Thought and Culture</a></p>\r\n\r\n        <h3>International</h3>\r\n        <p><a href=\"https://alumniproxy.lib.duke.edu/login?url=http://www.chinacultureandsociety.amdigital.co.uk\" target=\"_blank\">China: Culture and Society</a></p>\r\n        <p><a href=\"https://alumniproxy.lib.duke.edu/login?url=http://www.china.amdigital.co.uk/search/search-advanced.aspx\" target=\"_blank\">China: Trade, Politics and Culture, 1793-1980</a></p>\r\n        <p><a href=\"https://alumniproxy.lib.duke.edu/login?url=http://www.archivesdirect.amdigital.co.uk/Introduction/Confidential_Print_ME/default.aspx\" target=\"_blank\">Confidential Print: Middle East, 1839-1969</a></p>\r\n        <p><a href=\"https://alumniproxy.lib.duke.edu/login?url=http://www.archivesdirect.amdigital.co.uk/Introduction/FO_China/default.aspx\" target=\"_blank\">Foreign Office Files for China, 1949-1980</a></p>\r\n        <p><a href=\"https://alumniproxy.lib.duke.edu/login?url=http://www.archivesdirect.amdigital.co.uk/Introduction/FO_India/default.aspx\" target=\"_blank\">Foreign Office Files for India, Pakistan and Afghanistan</a></p>\r\n        <p><a href=\"https://alumniproxy.lib.duke.edu/login?url=http://www.indiaraj.amdigital.co.uk/Search/SearchAdvanced.aspx\" target=\"_blank\">India, Raj and Empire</a></p>\r\n        <p><a href=\"https://alumniproxy.lib.duke.edu/login?url=http://www.aap.amdigital.co.uk/\" target=\"_blank\">Meiji Japan</a></p>\r\n\r\n        <h3>Interdisciplinary &amp; General Resources</h3>\r\n        <p><a href=\"https://alumniproxy.lib.duke.edu/login?url=http://search.ebscohost.com/login.aspx?authtype=uid&user=duke&password=alumni&group=alumni&profile=ehost\">EBSCO Academic Search Alumni Edition</a></p>\r\n        <p><a href=\"https://alumniproxy.lib.duke.edu/login?url=http://firp.alexanderstreet.com/\">In The First Person</a></p>\r\n        <p><a href=\"https://alumniproxy.lib.duke.edu/login?url=http://www.jstor.org/action/showBasicSearch\">JSTOR: The Scholarly Journal Archive</a></p>\r\n        <p><a href=\"https://alumniproxy.lib.duke.edu/login?url=http://proquest.umi.com/pqdweb?RQT=403&TS=1255098741&clientId=123895\">ProQuest ABI INform Complete</a></p>\r\n        <p><a href=\"https://alumniproxy.lib.duke.edu/login?url=http://www.universitypressscholarship.com/\">University Press Scholarship Online</a></p>\r\n    \r\n        \r\n        <h3>Judaica</h3>\r\n        <p><a href=\"https://alumniproxy.lib.duke.edu/login?url=http://www.jewishlife.amdigital.co.uk/Search/AdvancedSearch.aspx\" target=\"_blank\">Jewish Life in America, 1654-1954</a></p>\r\n\r\n        <h3>Latino Studies</h3>\r\n        <p><a href=\"https://alumniproxy.lib.duke.edu/login?url=http://lit.alexanderstreet.com/lali/search\" target=\"_blank\">Latino Literature: Poetry, Drama and Fiction</a></p>\r\n\r\n        <h3>Music</h3>\r\n        <p><a href=\"https://alumniproxy.lib.duke.edu/login?url=http://glnd.alexanderstreet.com/\" target=\"_blank\">Garland Encyclopedia of World Music</a></p>\r\n        <p><a href=\"https://alumniproxy.lib.duke.edu/login?url=http://jazz.alexanderstreet.com/\" target=\"_blank\">Jazz Music Library</a></p>\r\n        <p><a href=\"https://alumniproxy.lib.duke.edu/login?url=http://music.alexanderstreet.com\" target=\"_blank\">Music Online</a></p>\r\n        <p><a href=\"https://alumniproxy.lib.duke.edu/login?url=http://glmu.alexanderstreet.com/\" target=\"_blank\">Smithsonian Global Sound</a></p>\r\n\r\n    </div>\r\n\r\n    <div class=\"grid-4\">\r\n\r\n        <h3>Religion</h3>\r\n        <p><a href=\"https://alumniproxy.lib.duke.edu/login?url=http://search.ebscohost.com/login.aspx?authtype=uid&amp;user=duke&amp;password=alumni&amp;group=alumni&amp;profile=ehost&amp;defaultdb=rfh\" target=\"_blank\">ATLA</a></p>\r\n        <p><a href=\"https://alumniproxy.lib.duke.edu/login?url=http://search.ebscohost.com/login.aspx?authtype=uid&amp;user=duke&amp;password=alumni&amp;group=alumni&amp;profile=ehost&amp;defaultdb=vah\" target=\"_blank\">ATLA Catholic Periodical and Literature Index</a></p>\r\n        <p><a href=\"https://alumniproxy.lib.duke.edu/login?url=http://solomon.dkbl.alexanderstreet.com/\" target=\"_blank\">Digital Karl Barth Library</a></p>\r\n        <p><a href=\"https://alumniproxy.lib.duke.edu/login?url=http://solomon.tcpt.alexanderstreet.com/asp_search.html\" target=\"_blank\">Digital Library of Classical Protestant Texts</a></p>\r\n\r\n        <h3>Social Sciences</h3>\r\n        <p><a href=\"https://alumniproxy.lib.duke.edu/login?url=http://anto.alexanderstreet.com/\" target=\"_blank\">Anthropology Online</a></p>\r\n        <p><a href=\"https://alumniproxy.lib.duke.edu/login?url=http://anth.alexanderstreet.com/\" target=\"_blank\">Ethnographic Video Online</a></p>\r\n\r\n        <h3>Social History</h3>\r\n        <p><a href=\"https://alumniproxy.lib.duke.edu/login?url=http://www.londonlowlife.amdigital.co.uk/Search/AdvancedSearch.aspx\">London Low Life</a></p>\r\n        <p><a href=\"https://alumniproxy.lib.duke.edu/login?url=http://www.massobservation.amdigital.co.uk/\" target=\"_blank\">Mass Observation Online</a></p>\r\n        <p><a href=\"https://alumniproxy.lib.duke.edu/login?url=http://www.romanticism.amdigital.co.uk\" target=\"_blank\">Romanticism: Life, Literature and Landscape</a></p>\r\n        <p><a href=\"https://alumniproxy.lib.duke.edu/login?url=http://www.victorianpopularculture.amdigital.co.uk/Contents/Index.aspx?sec=Spiritualism&amp;ks=true\" target=\"_blank\">Victorian Popular Culture: Spiritualism, Sensation and Magic</a></p>\r\n        <p><a href=\"https://alumniproxy.lib.duke.edu/login?url=http://www.victorianpopularculture.amdigital.co.uk/Contents/Index.aspx?sec=Circuses&amp;ks=true\" target=\"_blank\">Victorian Popular Culture: Circuses, Sideshows and Freaks</a></p>\r\n        <p><a href=\"https://alumniproxy.lib.duke.edu/login?url=http://www.victorianpopularculture.amdigital.co.uk/Contents/Index.aspx?sec=MusicHalls&amp;ks=true\" target=\"_blank\">Victorian Popular Culture: Music Hall, Theatre and Popular Entertainment</a></p>\r\n        <p><a href=\"https://alumniproxy.lib.duke.edu/login?url=http://www.victorianpopularculture.amdigital.co.uk\" target=\"_blank\">Victorian Popular Culture: Moving Pictures, Optical Entertainments and the Advent of Cinema</a></p>\r\n        <p><a href=\"https://alumniproxy.lib.duke.edu/login?url=http://solomon.bwld.alexanderstreet.com/\" target=\"_blank\">British and Irish Women's Letters and Diaries</a></p>\r\n\r\n        <h3>US History</h3>\r\n        <p><a href=\"https://alumniproxy.lib.duke.edu/login?url=http://www.americanwest.amdigital.co.uk\" target=\"_blank\">American West</a></p><p><a href=\"http://www.virginiacompanyarchives.amdigital.co.uk\" target=\"_blank\">Virginia Company Archives</a></p>\r\n        <p><a href=\"https://alumniproxy.lib.duke.edu/login?url=http://cwld.alexanderstreet.com\" target=\"_blank\">American Civil War: Letters and Diaries</a></p>\r\n        <p><a href=\"https://alumniproxy.lib.duke.edu/login?url=http://ahiv.alexanderstreet.com/\" target=\"_blank\">American History in Video</a></p>\r\n        <p><a href=\"https://alumniproxy.lib.duke.edu/login?url=http://solomon.imld.alexanderstreet.com/\" target=\"_blank\">North American Immigrant Letters and Diaries</a></p>\r\n        <p><a href=\"https://alumniproxy.lib.duke.edu/login?url=http://solomon.nwld.alexanderstreet.com\" target=\"_blank\">North American Women's Letters and Diaries</a></p>\r\n        <p><a href=\"https://alumniproxy.lib.duke.edu/login?url=http://asp6new.alexanderstreet.com/was2/was2.search.advanced.aspx\" target=\"_blank\">Women and Social Movements in the United States, 1600-2000</a></p>\r\n\r\n        <h3>Video</h3>\r\n        <p><a href=\"https://alumniproxy.lib.duke.edu/login?url=http://vasc.alexanderstreet.com/\" target=\"_blank\">Academic Video Online</a></p>\r\n\r\n        \r\n        \r\n    </div>\r\n\r\n</div>\r\n\r\n\r\n<script type=\"text/javascript\">\r\n/* Documentation: http://docs.libraryh3lp.com/html-code-samples */\r\n  (function() {\r\n    var x = document.createElement(\"script\"); x.type = \"text/javascript\"; x.async = true;\r\n    x.src = (document.location.protocol === \"https:\" ? \"https://\" : \"http://\") + \"libraryh3lp.com/js/libraryh3lp.js?multi\";\r\n    var y = document.getElementsByTagName(\"script\")[0]; y.parentNode.insertBefore(x, y);\r\n  })();\r\n</script>",
      "body_format" : "full_html_no_wysiwyg",
      "delta" : 0,
      "bundle" : "page",
      "deleted" : 0,
      "entity_id" : 1323,
      "body_summary" : "",
      "langcode" : "und"
   },
   "vid" : 13119
}

