{
   "node_access" : null,
   "asidebox" : null,
   "nid" : "1665",
   "path_alias" : {
      "status" : 0,
      "langcode" : "und",
      "alias" : "/research/student-activism/assets/chronicletest",
      "pid" : 3675,
      "language" : "und"
   },
   "node_field_data" : {
      "title" : "Chronicle Test",
      "status" : 0,
      "created" : 1500490782,
      "sticky" : 0,
      "default_langcode" : 1,
      "type" : "page",
      "promote" : 0,
      "changed" : null,
      "langcode" : "und",
      "uid" : 1,
      "revision_translation_affected" : 1
   },
   "field_tags" : [],
   "langcode" : "und",
   "revisions" : [
      {
         "promote" : 0,
         "uid" : 3,
         "timestamp" : 1523307954,
         "node_revision__field_tags" : [],
         "vuuid" : "2e3a9113-04aa-4792-9cf4-4d97e64bfb80",
         "title" : "Chronicle Test",
         "node_revision__body" : {
            "revision_id" : 21897,
            "body_value" : "<h2>Articles</h2><ul><li><a href=\"/sites/default/files/dul/research/student-activism/dchnp570090010.jpg\" target=\"_blank\">Title — date</a> (PDF, x.x MB)</li><li><a href=\"/sites/default/files/dul/research/student-activism/peace_conference_chronicle_oct_22_1935.pdf\" target=\"_blank\">Title — date</a> (PDF, x.x MB)</li><li><a href=\"/sites/default/files/dul/research/student-activism/Chronicle_May_19_1936_YMCA_combined.pdf\" target=\"_blank\">Title — date</a> (PDF, xx MB)</li></ul><hr class=\"dashed\"><p></p><h2>Additional Materials</h2><p><a href=\"/sites/default/files/dul/research/student-activism/Binford_letter_October_9_1935.jpg\" target=\"_blank\"><img src=\"/sites/default/files/dul/research/student-activism/Binford_letter_October_9_1935.jpg\" alt=\"letter\" title=\"Binford Letter - October 9, 1935\" width=\"250\" class=\"caption-left\"></a><a href=\"/sites/default/files/dul/research/student-activism/Corriher_letter_October_12_1935.jpg\" target=\"_blank\"><img src=\"/sites/default/files/dul/research/student-activism/Corriher_letter_October_12_1935.jpg\" alt=\"letter\" title=\"Corriher letter - October 12, 1935\" width=\"250\" class=\"caption-left\"></a></p>",
            "body_format" : "full_html",
            "bundle" : "page",
            "delta" : 0,
            "deleted" : 0,
            "entity_id" : 1665,
            "body_summary" : "",
            "langcode" : "und"
         },
         "field_revision" : {
            "revision_translation_affected" : 1,
            "sticky" : 0,
            "default_langcode" : 1,
            "status" : 0,
            "uid" : 1,
            "langcode" : null,
            "created" : null,
            "changed" : null,
            "title" : "Chronicle Test"
         },
         "status" : 0,
         "comment" : 1,
         "sticky" : 0,
         "log" : ""
      }
   ],
   "type" : "page",
   "field_image" : null,
   "uuid" : "5944de11-9a11-4f7f-8d57-e5f3609abcd3",
   "vid" : 21897,
   "node__body" : {
      "deleted" : 0,
      "body_format" : "full_html",
      "bundle" : "page",
      "delta" : 0,
      "body_value" : "<h2>Articles</h2><ul><li><a href=\"/sites/default/files/dul/research/student-activism/dchnp570090010.jpg\" target=\"_blank\">Title — date</a> (PDF, x.x MB)</li><li><a href=\"/sites/default/files/dul/research/student-activism/peace_conference_chronicle_oct_22_1935.pdf\" target=\"_blank\">Title — date</a> (PDF, x.x MB)</li><li><a href=\"/sites/default/files/dul/research/student-activism/Chronicle_May_19_1936_YMCA_combined.pdf\" target=\"_blank\">Title — date</a> (PDF, xx MB)</li></ul><hr class=\"dashed\"><p></p><h2>Additional Materials</h2><p><a href=\"/sites/default/files/dul/research/student-activism/Binford_letter_October_9_1935.jpg\" target=\"_blank\"><img src=\"/sites/default/files/dul/research/student-activism/Binford_letter_October_9_1935.jpg\" alt=\"letter\" title=\"Binford Letter - October 9, 1935\" width=\"250\" class=\"caption-left\"></a><a href=\"/sites/default/files/dul/research/student-activism/Corriher_letter_October_12_1935.jpg\" target=\"_blank\"><img src=\"/sites/default/files/dul/research/student-activism/Corriher_letter_October_12_1935.jpg\" alt=\"letter\" title=\"Corriher letter - October 12, 1935\" width=\"250\" class=\"caption-left\"></a></p>",
      "revision_id" : 21897,
      "langcode" : "und",
      "body_summary" : "",
      "entity_id" : 1665
   }
}

