{
   "field_image" : null,
   "type" : "page",
   "node__body" : null,
   "vid" : 21863,
   "uuid" : "5c313998-17bb-4d96-b457-fe585ba176a2",
   "langcode" : "und",
   "revisions" : [
      {
         "vuuid" : "82131426-3d53-4292-a2db-93e4883c03b8",
         "title" : "Project Management: Gantt Chart",
         "node_revision__field_tags" : [],
         "node_revision__body" : {
            "langcode" : null
         },
         "status" : 1,
         "field_revision" : {
            "title" : "Project Management: Gantt Chart",
            "changed" : null,
            "langcode" : null,
            "uid" : 1,
            "status" : 1,
            "created" : null,
            "sticky" : 0,
            "revision_translation_affected" : 1,
            "default_langcode" : 1
         },
         "log" : "",
         "sticky" : 0,
         "comment" : 1,
         "promote" : 0,
         "uid" : 3,
         "timestamp" : 1523306299
      }
   ],
   "asidebox" : {
      "status" : "disabled",
      "block_delta" : null,
      "body_format" : null,
      "block_module" : null,
      "body_value" : null,
      "nid" : 1855,
      "body_title" : "",
      "bid" : null,
      "vid" : 21863
   },
   "node_access" : null,
   "field_tags" : [],
   "node_field_data" : {
      "promote" : 0,
      "changed" : null,
      "type" : "page",
      "revision_translation_affected" : 1,
      "langcode" : "und",
      "uid" : 1,
      "title" : "Project Management: Gantt Chart",
      "sticky" : 0,
      "default_langcode" : 1,
      "status" : 1,
      "created" : 1514314486
   },
   "path_alias" : {
      "language" : "und",
      "alias" : "/research/student-activism/documentation/whatwelearned/documentation/gantt",
      "pid" : 3909,
      "status" : 0,
      "langcode" : "und"
   },
   "nid" : "1855"
}

