{
   "field_tags" : [],
   "node_field_data" : {
      "default_langcode" : 1,
      "sticky" : 0,
      "created" : 1438181207,
      "status" : 1,
      "title" : "Between the Lines",
      "revision_translation_affected" : 1,
      "uid" : 1,
      "langcode" : "und",
      "promote" : 0,
      "changed" : null,
      "type" : "exhibit"
   },
   "path_alias" : {
      "language" : "und",
      "pid" : 1429,
      "alias" : "/exhibits/2013/between-the-lines",
      "status" : 0,
      "langcode" : "und"
   },
   "node_access" : null,
   "node__field_image" : {},
   "uuid" : "5d12e6a9-4c50-4378-ba12-8de4a063485e",
   "type" : "exhibit",
   "langcode" : "und",
   "nid" : "943",
   "asidebox" : null,
   "node__body" : {
      "langcode" : "und",
      "entity_id" : 943,
      "body_summary" : "",
      "revision_id" : 10923,
      "body_value" : "<p>The images for this exhibition have been collected, researched and curated by the students of the Writing 101 class, “Laughing Matters: Interpreting and Contextualizing Modern Caricature.” The exhibit draws from the rich collections of the Rubenstein Rare Books Room and Perkins Library. Many of our caricatures explore the theme of corruption in Gilded Age America, and Georgian and Victorian England, where an increasingly vocal and agitated public took to the press to voice their concerns.&nbsp;</p>",
      "delta" : 0,
      "body_format" : "full_html",
      "bundle" : "exhibit",
      "deleted" : 0
   },
   "vid" : 10923,
   "field_image" : {
      "delta" : 0,
      "bundle" : "exhibit",
      "field_image_alt" : "",
      "field_image_width" : 800,
      "langcode" : "und",
      "entity_type" : "node",
      "field_image_height" : 600,
      "deleted" : 0,
      "field_image_fid" : 1523,
      "revision_id" : 10923,
      "language" : "und",
      "file_uuid" : "34ce8390-fa57-4e61-acb9-88cafed66564",
      "field_image_title" : "",
      "field_image_target_id" : 1523,
      "entity_id" : 943
   },
   "revisions" : [
      {
         "status" : 1,
         "field_revision" : {
            "title" : "Between the Lines",
            "changed" : null,
            "langcode" : null,
            "uid" : 1,
            "status" : 1,
            "created" : null,
            "sticky" : 0,
            "revision_translation_affected" : 1,
            "default_langcode" : 1
         },
         "sticky" : 0,
         "comment" : 1,
         "log" : "",
         "vuuid" : "f41d6a73-f549-4249-a3dd-4e08ade4c6c8",
         "title" : "Between the Lines",
         "node_revision__field_tags" : [],
         "node_revision__body" : {
            "entity_id" : 943,
            "body_summary" : "",
            "langcode" : "und",
            "body_value" : "<p>The images for this exhibition have been collected, researched and curated by the students of the Writing 101 class, “Laughing Matters: Interpreting and Contextualizing Modern Caricature.” The exhibit draws from the rich collections of the Rubenstein Rare Books Room and Perkins Library. Many of our caricatures explore the theme of corruption in Gilded Age America, and Georgian and Victorian England, where an increasingly vocal and agitated public took to the press to voice their concerns.&nbsp;</p>",
            "revision_id" : 10923,
            "body_format" : "full_html",
            "delta" : 0,
            "bundle" : "exhibit",
            "deleted" : 0
         },
         "uid" : 3,
         "timestamp" : 1538408186,
         "promote" : 0
      }
   ]
}

