{
   "node__body" : {
      "entity_id" : 2063,
      "body_summary" : "",
      "langcode" : "und",
      "body_value" : "<p class=\"lead\">\r\n    These spaces and services are reserved for graduate students. Learn more about the Doctoral Research Space, study carrels, and Reiss Graduate Reading Room, and assigned lockers below.\r\n</p>\r\n<h2>\r\n    Doctoral Research Space&nbsp;\r\n    <a name=\"DRS\">\r\n    </a>\r\n    <a class=\"callbox\">\r\n        Accessible Spring 2021\r\n    </a>\r\n</h2>\r\n<ul>\r\n    <li>\r\n        Shared workspace for writing and research available to a limited number of Duke doctoral students on a first-requested,\r\n        first-accommodated basis\r\n    </li>\r\n<li>\r\nYou can request access to the Doctoral Research Space (DRS) for a period of 1 year. Access can be renewed annually.\r\n</li>\r\n    <li>\r\n        Lockers and mobile lockers (mobile storage cabinets) are available on a first-requested, first-accommodated basis\r\n    </li>\r\n    <li>\r\n        Scanner, public workstation with dual monitors and e-print station in adjacent room and reserved for registered users\r\n    </li>\r\n    <li>\r\n        To learn more, or to sign up, click the buttons below\r\n    </li>\r\n</ul>\r\n<p>\r\n    <a href=\"/using/policies/graduate-research-commons\" class=\"btn btn-info\">\r\n        DRS Guidelines and Policies\r\n    </a>\r\n    <a href=\"https://duke.qualtrics.com/jfe/form/SV_d0TjKLl1CZ7uf1b\" class=\"btn btn-info\">\r\n        Register for the DRS\r\n    </a>\r\n</p>\r\n<hr>\r\n<h2>\r\n    Carrels\r\n    <a class=\"callbox\">\r\n        Accessible Spring 2021\r\n    </a>\r\n</h2>\r\n<ul>\r\n    <li>\r\n        Duke University doctoral students can request individual and shared carrels.\r\n    </li>\r\n<li>\r\nYou can use a carrel for up to 2 years at a time.\r\n</li>\r\n    <li>\r\n        These small enclosed spaces can be used as a private work area.\r\n    </li>\r\n    <li>\r\n        Carrels are in demand! See if they're a good fit for you by reading more below.\r\n    </li>\r\n</ul>\r\n<p>\r\n    <a href=\"policies/carrels\" class=\"btn btn-info\">\r\n        Carrel Guidelines and Policies\r\n    </a>\r\n    <a href=\"https://duke.qualtrics.com/jfe/form/SV_d0TjKLl1CZ7uf1b\" class=\"btn btn-info\">\r\n        Carrel Waiting List\r\n    </a>\r\n</p>\r\n<p>\r\n    If you have any questions about carrel or Doctoral Research Space policies or waiting lists, please contact\r\n    <a href=\"mailto:sonya.hinsdale@duke.edu\">Sonya Hinsdale</a>.\r\n</p>\r\n<hr>\r\n<p>\r\n    The services below are unavailable for Spring 2021 due to changes made in response to COVID-19.\r\n</p>\r\n<hr>\r\n<h2>\r\n    Assigned lockers\r\n    <a class=\"callbox\">\r\n        Temporarily Unavailable\r\n    </a>\r\n</h2>\r\n<p>\r\n<ul>\r\n<li>\r\n    Any Master's or Doctoral (PhD) students enrolled at Duke University can request an assigned locker. This is yours to use for the year. \r\n</li>\r\n<li>Lockers are located\r\n    in Perkins Library (<a href=\"https://library.duke.edu/sites/default/files/dul/using-the-library/perkins-lockers-map.pdf\">Lower Level 2, Floor 1, Floor 4</a>).\r\n</li>\r\n<li>\r\n    <a href=\"https://library.duke.edu/using/lockers\">\r\n        Learn more about day use lockers at Bostock Library and assigned lockers at Lilly Library.\r\n    </a>\r\n</li>\r\n</ul>\r\n</p>\r\n<p>\r\n<a href=\"https://library.duke.edu/using/lockers#locker-policies\" class=\"btn btn-info\">\r\n        Assigned Locker Policies\r\n    </a>\r\n    <a href=\"https://duke.qualtrics.com/jfe/form/SV_d0TjKLl1CZ7uf1b\" class=\"btn btn-default\">\r\n        Locker Waiting List\r\n    </a>\r\n</p>\r\n<hr>\r\n<h2>\r\n    Riess Graduate Student Reading Room (GRR)\r\n    <a class=\"callbox\">\r\n        Temporarily Closed\r\n    </a>\r\n</h2>\r\n<p>\r\n    This reading room is open to Duke University graduate students in any department. It has seating for 14 people, and features\r\n    a whiteboard, natural light, and two couch chairs\r\n</p>\r\n<div class=\"well\">\r\n    The room is\r\n    <b>\r\n        protected by a keypad\r\n    </b>\r\n    . To get the code, simply stop by the Library Service Desk on the main floor of Perkins Library with your Duke ID to verify\r\n    your graduate student status. To maintain this space, please do not share this code with non-graduate students.\r\n</div>\r\n<p>\r\n    Find the GRR on the 2nd floor of Perkins Library in Room 211, next to the Staff Lounge. It is near a set of elevators and\r\n    a stairwell.\r\n</p>\r\n<p>\r\n    Direct questions about access to this space to the <a href=\"mailto:perkins-requests@duke.edu\">Perkins Service Desk</a>.\r\n</p>\r\n<!--<img src=\"/sites/default/files/dul/rooms/graduateReadingRoomMap.jpg\" alt=\"map for finding the Graduate Reading Room\"\r\nwidth=\"400\" height=\"296\" class=\"img-polaroid img-responsive\"></p>-->\r\n<center>\r\n    <div class=\"col-md-6\">\r\n        <img src=\"/sites/default/files/dul/rooms/graduateReadingRoom2.png\" alt=\"inside of the Graduate Reading Room\" width=\"400\"\r\n        style=\"font-size: 13.008px;\" class=\"img-polaroid img-responsive\">\r\n    </div>\r\n    <div class=\"col-md-6\">\r\n        <img src=\"/sites/default/files/dul/rooms/graduateReadingRoomOutside.jpg\" alt=\"outside of the Graduate Reading Room\" width=\"400\"\r\n        style=\"font-size: 13.008px;\" class=\"img-polaroid img-responsive\">\r\n    </div>\r\n</center>",
      "revision_id" : 30361,
      "deleted" : 0,
      "delta" : 0,
      "body_format" : "full_html_no_wysiwyg",
      "bundle" : "page"
   },
   "vid" : 30361,
   "uuid" : "5d25697f-45c9-4691-b448-d91dfdc9c08e",
   "field_image" : null,
   "type" : "page",
   "revisions" : [
      {
         "node_revision__body" : {
            "revision_id" : 30361,
            "body_value" : "<p class=\"lead\">\r\n    These spaces and services are reserved for graduate students. Learn more about the Doctoral Research Space, study carrels, and Reiss Graduate Reading Room, and assigned lockers below.\r\n</p>\r\n<h2>\r\n    Doctoral Research Space&nbsp;\r\n    <a name=\"DRS\">\r\n    </a>\r\n    <a class=\"callbox\">\r\n        Accessible Spring 2021\r\n    </a>\r\n</h2>\r\n<ul>\r\n    <li>\r\n        Shared workspace for writing and research available to a limited number of Duke doctoral students on a first-requested,\r\n        first-accommodated basis\r\n    </li>\r\n<li>\r\nYou can request access to the Doctoral Research Space (DRS) for a period of 1 year. Access can be renewed annually.\r\n</li>\r\n    <li>\r\n        Lockers and mobile lockers (mobile storage cabinets) are available on a first-requested, first-accommodated basis\r\n    </li>\r\n    <li>\r\n        Scanner, public workstation with dual monitors and e-print station in adjacent room and reserved for registered users\r\n    </li>\r\n    <li>\r\n        To learn more, or to sign up, click the buttons below\r\n    </li>\r\n</ul>\r\n<p>\r\n    <a href=\"/using/policies/graduate-research-commons\" class=\"btn btn-info\">\r\n        DRS Guidelines and Policies\r\n    </a>\r\n    <a href=\"https://duke.qualtrics.com/jfe/form/SV_d0TjKLl1CZ7uf1b\" class=\"btn btn-info\">\r\n        Register for the DRS\r\n    </a>\r\n</p>\r\n<hr>\r\n<h2>\r\n    Carrels\r\n    <a class=\"callbox\">\r\n        Accessible Spring 2021\r\n    </a>\r\n</h2>\r\n<ul>\r\n    <li>\r\n        Duke University doctoral students can request individual and shared carrels.\r\n    </li>\r\n<li>\r\nYou can use a carrel for up to 2 years at a time.\r\n</li>\r\n    <li>\r\n        These small enclosed spaces can be used as a private work area.\r\n    </li>\r\n    <li>\r\n        Carrels are in demand! See if they're a good fit for you by reading more below.\r\n    </li>\r\n</ul>\r\n<p>\r\n    <a href=\"policies/carrels\" class=\"btn btn-info\">\r\n        Carrel Guidelines and Policies\r\n    </a>\r\n    <a href=\"https://duke.qualtrics.com/jfe/form/SV_d0TjKLl1CZ7uf1b\" class=\"btn btn-info\">\r\n        Carrel Waiting List\r\n    </a>\r\n</p>\r\n<p>\r\n    If you have any questions about carrel or Doctoral Research Space policies or waiting lists, please contact\r\n    <a href=\"mailto:sonya.hinsdale@duke.edu\">Sonya Hinsdale</a>.\r\n</p>\r\n<hr>\r\n<p>\r\n    The services below are unavailable for Spring 2021 due to changes made in response to COVID-19.\r\n</p>\r\n<hr>\r\n<h2>\r\n    Assigned lockers\r\n    <a class=\"callbox\">\r\n        Temporarily Unavailable\r\n    </a>\r\n</h2>\r\n<p>\r\n<ul>\r\n<li>\r\n    Any Master's or Doctoral (PhD) students enrolled at Duke University can request an assigned locker. This is yours to use for the year. \r\n</li>\r\n<li>Lockers are located\r\n    in Perkins Library (<a href=\"https://library.duke.edu/sites/default/files/dul/using-the-library/perkins-lockers-map.pdf\">Lower Level 2, Floor 1, Floor 4</a>).\r\n</li>\r\n<li>\r\n    <a href=\"https://library.duke.edu/using/lockers\">\r\n        Learn more about day use lockers at Bostock Library and assigned lockers at Lilly Library.\r\n    </a>\r\n</li>\r\n</ul>\r\n</p>\r\n<p>\r\n<a href=\"https://library.duke.edu/using/lockers#locker-policies\" class=\"btn btn-info\">\r\n        Assigned Locker Policies\r\n    </a>\r\n    <a href=\"https://duke.qualtrics.com/jfe/form/SV_d0TjKLl1CZ7uf1b\" class=\"btn btn-default\">\r\n        Locker Waiting List\r\n    </a>\r\n</p>\r\n<hr>\r\n<h2>\r\n    Riess Graduate Student Reading Room (GRR)\r\n    <a class=\"callbox\">\r\n        Temporarily Closed\r\n    </a>\r\n</h2>\r\n<p>\r\n    This reading room is open to Duke University graduate students in any department. It has seating for 14 people, and features\r\n    a whiteboard, natural light, and two couch chairs\r\n</p>\r\n<div class=\"well\">\r\n    The room is\r\n    <b>\r\n        protected by a keypad\r\n    </b>\r\n    . To get the code, simply stop by the Library Service Desk on the main floor of Perkins Library with your Duke ID to verify\r\n    your graduate student status. To maintain this space, please do not share this code with non-graduate students.\r\n</div>\r\n<p>\r\n    Find the GRR on the 2nd floor of Perkins Library in Room 211, next to the Staff Lounge. It is near a set of elevators and\r\n    a stairwell.\r\n</p>\r\n<p>\r\n    Direct questions about access to this space to the <a href=\"mailto:perkins-requests@duke.edu\">Perkins Service Desk</a>.\r\n</p>\r\n<!--<img src=\"/sites/default/files/dul/rooms/graduateReadingRoomMap.jpg\" alt=\"map for finding the Graduate Reading Room\"\r\nwidth=\"400\" height=\"296\" class=\"img-polaroid img-responsive\"></p>-->\r\n<center>\r\n    <div class=\"col-md-6\">\r\n        <img src=\"/sites/default/files/dul/rooms/graduateReadingRoom2.png\" alt=\"inside of the Graduate Reading Room\" width=\"400\"\r\n        style=\"font-size: 13.008px;\" class=\"img-polaroid img-responsive\">\r\n    </div>\r\n    <div class=\"col-md-6\">\r\n        <img src=\"/sites/default/files/dul/rooms/graduateReadingRoomOutside.jpg\" alt=\"outside of the Graduate Reading Room\" width=\"400\"\r\n        style=\"font-size: 13.008px;\" class=\"img-polaroid img-responsive\">\r\n    </div>\r\n</center>",
            "body_format" : "full_html_no_wysiwyg",
            "delta" : 0,
            "bundle" : "page",
            "deleted" : 0,
            "langcode" : "und",
            "entity_id" : 2063,
            "body_summary" : ""
         },
         "title" : "Spaces and Services for Graduate Students",
         "vuuid" : "b7d001ec-679c-4681-a388-e89a448994ad",
         "node_revision__field_tags" : [],
         "log" : "",
         "sticky" : 0,
         "comment" : 1,
         "status" : 1,
         "field_revision" : {
            "changed" : null,
            "title" : "Spaces and Services for Graduate Students",
            "default_langcode" : 1,
            "sticky" : 0,
            "revision_translation_affected" : 1,
            "created" : null,
            "uid" : 1,
            "langcode" : null,
            "status" : 1
         },
         "promote" : 0,
         "timestamp" : 1614912080,
         "uid" : 2433
      }
   ],
   "langcode" : "und",
   "field_tags" : [],
   "node_field_data" : {
      "status" : 1,
      "created" : 1531414402,
      "sticky" : 0,
      "default_langcode" : 1,
      "title" : "Spaces and Services for Graduate Students",
      "uid" : 1,
      "langcode" : "und",
      "revision_translation_affected" : 1,
      "type" : "page",
      "changed" : null,
      "promote" : 0
   },
   "path_alias" : {
      "langcode" : "und",
      "status" : 0,
      "alias" : "/using/grad-spaces-services",
      "pid" : 4165,
      "language" : "und"
   },
   "nid" : "2063",
   "asidebox" : {
      "block_delta" : null,
      "status" : "disabled",
      "body_title" : "",
      "nid" : 2063,
      "vid" : 30361,
      "bid" : null,
      "body_format" : "full_html",
      "body_value" : "<h3>Getting In</h3><p>The room is protected by a keypad. To get the code, simply stop by the Library Service Desk on the main floor of Perkins Library with your Duke ID to verify your graduate student status.</p><p></p>",
      "block_module" : null
   },
   "node_access" : null
}

