{
   "nid" : "1137",
   "asidebox" : null,
   "revisions" : [
      {
         "node_revision__body" : {
            "langcode" : "und",
            "entity_id" : 1137,
            "body_summary" : "",
            "revision_id" : 11125,
            "body_value" : "<p>In this exhibit, Team Kenan explores the the ways in which we collectively and individually memorialize by examining the life cycles of memorials through four-parts: the event, the process, the result and the maintenance.</p>",
            "body_format" : "full_html",
            "delta" : 0,
            "bundle" : "exhibit",
            "deleted" : 0
         },
         "node_revision__field_tags" : [],
         "title" : "The Life of Memorials",
         "vuuid" : "9055efdc-f351-4273-9e48-273be7f860d2",
         "log" : "",
         "comment" : 1,
         "sticky" : 0,
         "field_revision" : {
            "langcode" : null,
            "uid" : 1,
            "status" : 1,
            "created" : null,
            "sticky" : 0,
            "revision_translation_affected" : 1,
            "default_langcode" : 1,
            "title" : "The Life of Memorials",
            "changed" : null
         },
         "status" : 1,
         "promote" : 0,
         "timestamp" : 1440177658,
         "uid" : 3
      }
   ],
   "node__body" : {
      "langcode" : "und",
      "body_summary" : "",
      "entity_id" : 1137,
      "body_format" : "full_html",
      "delta" : 0,
      "bundle" : "exhibit",
      "deleted" : 0,
      "body_value" : "<p>In this exhibit, Team Kenan explores the the ways in which we collectively and individually memorialize by examining the life cycles of memorials through four-parts: the event, the process, the result and the maintenance.</p>",
      "revision_id" : 11125
   },
   "vid" : 11125,
   "field_image" : {
      "entity_type" : "node",
      "field_image_height" : 600,
      "langcode" : "und",
      "field_image_alt" : "",
      "field_image_width" : 506,
      "delta" : 0,
      "bundle" : "exhibit",
      "field_image_target_id" : 1711,
      "entity_id" : 1137,
      "field_image_title" : "",
      "language" : "und",
      "file_uuid" : "6911d909-cbad-4c47-b63b-16270a9a8b75",
      "deleted" : 0,
      "field_image_fid" : 1711,
      "revision_id" : 11125
   },
   "node__field_image" : {},
   "path_alias" : {
      "language" : "und",
      "pid" : 1627,
      "alias" : "/exhibits/2011/life-of-memorials",
      "status" : 0,
      "langcode" : "und"
   },
   "node_field_data" : {
      "type" : "exhibit",
      "changed" : null,
      "promote" : 0,
      "uid" : 1,
      "langcode" : "und",
      "revision_translation_affected" : 1,
      "title" : "The Life of Memorials",
      "status" : 1,
      "created" : 1439311637,
      "sticky" : 0,
      "default_langcode" : 1
   },
   "field_tags" : [],
   "node_access" : {
      "gid" : 0,
      "realm" : "all",
      "langcode" : "und",
      "grant_delete" : 0,
      "nid" : 1137,
      "grant_update" : 0,
      "grant_view" : 1
   },
   "langcode" : "und",
   "uuid" : "5d7b20b0-3932-4fe4-ae9a-50ebb6794f8e",
   "type" : "exhibit"
}

