{
   "field_image" : null,
   "type" : "page",
   "node__body" : {
      "deleted" : 0,
      "delta" : 0,
      "body_format" : "full_html",
      "bundle" : "page",
      "body_value" : "<h3>Technical Services Staff</h3><p><strong><a href=\"mailto:dracine.hodges@duke.edu\">Dracine Hodges</a></strong>, Associate University Librarian for Technical Services, 919-660-6944</p><h3>Conservation Services</h3><ul><li><strong><a href=\"mailto:b.doyle@duke.edu\" style=\"text-decoration-line: underline;\">Beth Doyle</a></strong>, Leona B. Carpenter Conservator, Preservation Officer, &amp; Head - Conservation Services, 919-660-5985</li><li>Erin Hammeke, Senior Conservator</li><li>Henry Hebert, Conservator for Special Collections</li><li>Jovana Ivezic, Senior Conservation Technician</li><li>Rachel Penniman, Conservation Specialist</li><li>Mary Yordy, Senior Conservation Technician</li></ul><h3>Continuing Resource Acquisitions</h3><ul><li><strong><a href=\"mailto:virginia.martin@duke.edu\" style=\"text-decoration-line: underline;\">Virginia Bacon Martin</a></strong>, Head – Continuing Resource Acquisitions,&nbsp;919-660-6949</li><li>Nancy Bachelder, Continuing Resource Acquisitions Assistant, Sr.</li><li>Pat Canovai, Electronic Resources Management Associate</li><li>Deb Fields, Coordinator - Serials Management</li><li>William Hanley III, Electronic Resources Management&nbsp;Specialist</li><li>Adam Hudnut-Beumler, Serials Management Assistant, Sr.</li><li>Alaina Jones, Electronic Resources Management Associate</li><li>Emily Poole, Serials Management Associate</li><li>Debra Taylor, Periodicals Receipt Assistant</li><li>Abby Wickes, Team Lead - Electronic Resources Management</li></ul><h3>Metadata and Discovery Strategy</h3><ul><li><strong><a href=\"mailto:jacqueline.samples@duke.edu\" style=\"text-decoration-line: underline;\">Jacquie Samples</a></strong>, Head – Metadata &amp; Discovery Strategy,&nbsp;919-660-5965</li><li>Leeda Adkins, Metadata Ingest Specialist</li><li>Dennis Christman, Metadata Transformation Librarian</li></ul><h3>Monograph Acquisitions</h3><ul><li><strong><a href=\"mailto:william.verner@duke.edu\" style=\"text-decoration-line: underline;\">Bill Verner</a></strong>, Head – Monograph Acquisitions,&nbsp;919-660-5908</li><li>Sara Biondi, Order and Receipts Specialist for Japanese/Korean Language Materials</li><li>Jane Blomeke,&nbsp;Order and Receipts Specialist For Audio/Visual and Music</li><li>Stephen Conrad, Team Lead - Western Languages Acquisitions</li><li>Bronwyn Cox, Monographic Receipts Management Assistant, Sr.</li><li>Fouzia El Gargouri, Team Lead – Non-Roman Languages Acquisitions</li><li>Jean Hall, Monographic Receipts Management Assistant, Sr.</li><li>Robin LaPasha,&nbsp;Order and Receipts Specialist for Slavic Language Materials</li><li>Antha Marshall, Monographic Receipts Management Assistant</li><li>Yaoli Shi,&nbsp;Order and Receipts Specialist for Chinese Language Materials</li><li>Teresa Sikora,&nbsp;Order and Receipts Specialist for Western Languages</li></ul><h3>Resource Description</h3><ul><li><a href=\"mailto:natalie.sommerville@duke.edu\"><b>Natalie Sommerville</b></a>, Interim Head – Resource Description,&nbsp;919-668-3681</li><li>Corrina Carter, Coordinator – Shelf Preparation</li><li>Marta Conde, Catalog Librarian for French, Italian, and Digital Resource Collections</li><li>Mandy Hurt, Serials Description Librarian</li><li>Ryan Johnson, Special Formats Description Librarian</li><li>Lesley Looper, Team Lead – Shelf Preparation</li><li>Christina Manzella, Monographs Description Librarian</li><li>Dan Maxwell, Shelf Preparation Assistant</li><li>Ellen Maxwell, Library Original Cataloger for Monographic Resources</li><li>Rich Murray, Principal Cataloger</li><li>Jianying Shou, Serials Description Librarian</li><li>Nanako Thomas, Catalog Librarian for Japanese Language Resources</li></ul>",
      "revision_id" : 30343,
      "langcode" : "und",
      "body_summary" : "",
      "entity_id" : 1543
   },
   "vid" : 30343,
   "uuid" : "60ef93cc-5d67-456d-89eb-9cea22e4a099",
   "langcode" : "und",
   "revisions" : [
      {
         "timestamp" : 1614443008,
         "uid" : 1997,
         "promote" : 0,
         "log" : "",
         "sticky" : 0,
         "comment" : 1,
         "status" : 1,
         "field_revision" : {
            "status" : 1,
            "uid" : 1,
            "langcode" : null,
            "created" : null,
            "revision_translation_affected" : 1,
            "sticky" : 0,
            "default_langcode" : 1,
            "title" : "Technical Services Staff Directory",
            "changed" : null
         },
         "node_revision__body" : {
            "revision_id" : 30343,
            "body_value" : "<h3>Technical Services Staff</h3><p><strong><a href=\"mailto:dracine.hodges@duke.edu\">Dracine Hodges</a></strong>, Associate University Librarian for Technical Services, 919-660-6944</p><h3>Conservation Services</h3><ul><li><strong><a href=\"mailto:b.doyle@duke.edu\" style=\"text-decoration-line: underline;\">Beth Doyle</a></strong>, Leona B. Carpenter Conservator, Preservation Officer, &amp; Head - Conservation Services, 919-660-5985</li><li>Erin Hammeke, Senior Conservator</li><li>Henry Hebert, Conservator for Special Collections</li><li>Jovana Ivezic, Senior Conservation Technician</li><li>Rachel Penniman, Conservation Specialist</li><li>Mary Yordy, Senior Conservation Technician</li></ul><h3>Continuing Resource Acquisitions</h3><ul><li><strong><a href=\"mailto:virginia.martin@duke.edu\" style=\"text-decoration-line: underline;\">Virginia Bacon Martin</a></strong>, Head – Continuing Resource Acquisitions,&nbsp;919-660-6949</li><li>Nancy Bachelder, Continuing Resource Acquisitions Assistant, Sr.</li><li>Pat Canovai, Electronic Resources Management Associate</li><li>Deb Fields, Coordinator - Serials Management</li><li>William Hanley III, Electronic Resources Management&nbsp;Specialist</li><li>Adam Hudnut-Beumler, Serials Management Assistant, Sr.</li><li>Alaina Jones, Electronic Resources Management Associate</li><li>Emily Poole, Serials Management Associate</li><li>Debra Taylor, Periodicals Receipt Assistant</li><li>Abby Wickes, Team Lead - Electronic Resources Management</li></ul><h3>Metadata and Discovery Strategy</h3><ul><li><strong><a href=\"mailto:jacqueline.samples@duke.edu\" style=\"text-decoration-line: underline;\">Jacquie Samples</a></strong>, Head – Metadata &amp; Discovery Strategy,&nbsp;919-660-5965</li><li>Leeda Adkins, Metadata Ingest Specialist</li><li>Dennis Christman, Metadata Transformation Librarian</li></ul><h3>Monograph Acquisitions</h3><ul><li><strong><a href=\"mailto:william.verner@duke.edu\" style=\"text-decoration-line: underline;\">Bill Verner</a></strong>, Head – Monograph Acquisitions,&nbsp;919-660-5908</li><li>Sara Biondi, Order and Receipts Specialist for Japanese/Korean Language Materials</li><li>Jane Blomeke,&nbsp;Order and Receipts Specialist For Audio/Visual and Music</li><li>Stephen Conrad, Team Lead - Western Languages Acquisitions</li><li>Bronwyn Cox, Monographic Receipts Management Assistant, Sr.</li><li>Fouzia El Gargouri, Team Lead – Non-Roman Languages Acquisitions</li><li>Jean Hall, Monographic Receipts Management Assistant, Sr.</li><li>Robin LaPasha,&nbsp;Order and Receipts Specialist for Slavic Language Materials</li><li>Antha Marshall, Monographic Receipts Management Assistant</li><li>Yaoli Shi,&nbsp;Order and Receipts Specialist for Chinese Language Materials</li><li>Teresa Sikora,&nbsp;Order and Receipts Specialist for Western Languages</li></ul><h3>Resource Description</h3><ul><li><a href=\"mailto:natalie.sommerville@duke.edu\"><b>Natalie Sommerville</b></a>, Interim Head – Resource Description,&nbsp;919-668-3681</li><li>Corrina Carter, Coordinator – Shelf Preparation</li><li>Marta Conde, Catalog Librarian for French, Italian, and Digital Resource Collections</li><li>Mandy Hurt, Serials Description Librarian</li><li>Ryan Johnson, Special Formats Description Librarian</li><li>Lesley Looper, Team Lead – Shelf Preparation</li><li>Christina Manzella, Monographs Description Librarian</li><li>Dan Maxwell, Shelf Preparation Assistant</li><li>Ellen Maxwell, Library Original Cataloger for Monographic Resources</li><li>Rich Murray, Principal Cataloger</li><li>Jianying Shou, Serials Description Librarian</li><li>Nanako Thomas, Catalog Librarian for Japanese Language Resources</li></ul>",
            "body_format" : "full_html",
            "delta" : 0,
            "bundle" : "page",
            "deleted" : 0,
            "entity_id" : 1543,
            "body_summary" : "",
            "langcode" : "und"
         },
         "title" : "Technical Services Staff Directory",
         "vuuid" : "e2d08339-a4c3-4e01-80f9-41b81188bf3c",
         "node_revision__field_tags" : []
      }
   ],
   "node_access" : null,
   "asidebox" : {
      "status" : "html",
      "block_delta" : null,
      "body_format" : "full_html",
      "body_value" : "<p><a href=\"/about/depts/technical-services\">About Us</a></p><p><a href=\"/about/depts/technical-services/departments\">Departments</a></p><p><a href=\"/about/depts/technical-services/staff\">Staff Directory</a></p><p><a href=\"/about/depts/technical-services/orgchart\">Organizational Chart</a></p><p><a href=\"https://library.duke.edu/about/depts/technical-services/datadocs\">News, Data, and Docs</a></p>",
      "block_module" : null,
      "nid" : 1543,
      "body_title" : "MORE INFO",
      "bid" : null,
      "vid" : 30343
   },
   "nid" : "1543",
   "field_tags" : [],
   "path_alias" : {
      "alias" : "/about/depts/technical-services/staff",
      "pid" : 3513,
      "language" : "und",
      "langcode" : "und",
      "status" : 0
   },
   "node_field_data" : {
      "revision_translation_affected" : 1,
      "langcode" : "und",
      "uid" : 1,
      "promote" : 0,
      "changed" : null,
      "type" : "page",
      "sticky" : 0,
      "default_langcode" : 1,
      "status" : 1,
      "created" : 1489689236,
      "title" : "Technical Services Staff Directory"
   }
}

