{
   "asidebox" : null,
   "nid" : "887",
   "revisions" : [
      {
         "timestamp" : 1587573918,
         "uid" : 2213,
         "promote" : 0,
         "log" : "",
         "comment" : 1,
         "sticky" : 0,
         "field_revision" : {
            "changed" : null,
            "title" : "Soul & Service",
            "revision_translation_affected" : 1,
            "sticky" : 0,
            "default_langcode" : 1,
            "uid" : 1,
            "langcode" : null,
            "status" : 1,
            "created" : null
         },
         "status" : 1,
         "node_revision__body" : {
            "body_value" : "<p>This Durham institution is the nation’s oldest insurance company with roots in the African American community. The photos and documents featured in the presentation were drawn from the North Carolina Mutual Company Archives, jointly held by the David M. Rubenstein Rare Book &amp; Manuscript Library and the University Archives and Records Special Collections at North Carolina Central University.</p>",
            "revision_id" : 10557,
            "deleted" : 0,
            "body_format" : "full_html",
            "bundle" : "exhibit",
            "delta" : 0,
            "entity_id" : 887,
            "body_summary" : "",
            "langcode" : "und"
         },
         "node_revision__field_tags" : [],
         "vuuid" : "e693184b-ffae-43a3-a4d5-e7b4c71b3d07",
         "title" : "Soul & Service"
      }
   ],
   "field_image" : {
      "field_image_height" : 449,
      "entity_type" : "node",
      "langcode" : "und",
      "field_image_alt" : "",
      "field_image_width" : 449,
      "delta" : 0,
      "bundle" : "exhibit",
      "entity_id" : 887,
      "field_image_target_id" : 1457,
      "field_image_title" : "",
      "file_uuid" : "8f44c779-7ff7-4a6c-a7e0-97d5ecca061a",
      "language" : "und",
      "field_image_fid" : 1457,
      "revision_id" : 10557,
      "deleted" : 0
   },
   "vid" : 10557,
   "node__body" : {
      "delta" : 0,
      "body_format" : "full_html",
      "bundle" : "exhibit",
      "deleted" : 0,
      "body_value" : "<p>This Durham institution is the nation’s oldest insurance company with roots in the African American community. The photos and documents featured in the presentation were drawn from the North Carolina Mutual Company Archives, jointly held by the David M. Rubenstein Rare Book &amp; Manuscript Library and the University Archives and Records Special Collections at North Carolina Central University.</p>",
      "revision_id" : 10557,
      "body_summary" : "",
      "entity_id" : 887,
      "langcode" : "und"
   },
   "node__field_image" : {},
   "node_access" : null,
   "node_field_data" : {
      "status" : 1,
      "created" : 1435176109,
      "sticky" : 0,
      "default_langcode" : 1,
      "title" : "Soul & Service",
      "uid" : 1,
      "langcode" : "und",
      "revision_translation_affected" : 1,
      "type" : "exhibit",
      "changed" : null,
      "promote" : 0
   },
   "path_alias" : {
      "langcode" : "und",
      "status" : 0,
      "pid" : 1367,
      "alias" : "/exhibits/2013/soul-and-service",
      "language" : "und"
   },
   "field_tags" : [],
   "langcode" : "und",
   "type" : "exhibit",
   "uuid" : "63cae597-f791-4bce-8c01-8d640c76ae14"
}

