{
   "asidebox" : {
      "block_delta" : null,
      "status" : "html",
      "vid" : 22701,
      "bid" : null,
      "nid" : 551,
      "body_title" : "",
      "body_value" : "<p><img src=\"/sites/default/files/dul/users/jean.ferguson/gh%20challenges-square.jpg\" alt=\"doctor and child\" width=\"242\" height=\"212\" class=\"img-responsive\"></p>",
      "block_module" : null,
      "body_format" : "full_html"
   },
   "node_access" : null,
   "field_tags" : [],
   "node_field_data" : {
      "type" : "research_page",
      "promote" : 0,
      "changed" : null,
      "uid" : 1,
      "langcode" : "und",
      "revision_translation_affected" : 1,
      "title" : "Global Health",
      "status" : 1,
      "created" : 1390577926,
      "sticky" : 0,
      "default_langcode" : 1
   },
   "path_alias" : {
      "status" : 0,
      "langcode" : "und",
      "language" : "und",
      "alias" : "/research/international/global-health",
      "pid" : 835
   },
   "nid" : "551",
   "langcode" : "und",
   "revisions" : [
      {
         "node_revision__field_tags" : [],
         "vuuid" : "81ee5d24-b616-4530-8fb8-4455da44a7d4",
         "title" : "Global Health",
         "node_revision__body" : {
            "langcode" : "und",
            "body_summary" : "",
            "entity_id" : 551,
            "body_format" : "full_html",
            "delta" : 0,
            "bundle" : "research_page",
            "deleted" : 0,
            "body_value" : "<h5>Getting Started</h5><h5>Find Information on <strong>Global Health</strong> in many languages</h5><p></p><ul><li>Get research help from the librarian! <a href=\"https://duke.libcal.com/appointment/2688\" target=\"_blank\"> Make an appointment online </a></li><li><a href=\"https://guides.library.duke.edu/global_health\" target=\"_blank\">Research guide for Global Health </a></li><li><a href=\"https://guides.library.duke.edu/az.php?s=131796\">Specialized databases</a>: books, articles, newspapers and more</li><li><a href=\"https://search.library.duke.edu/search?Ntk=Keyword&amp;Nr=OR%28210969%2cOR%28206474%29%29&amp;Ne=2+200043+206474+210899+210956&amp;N=206431&amp;Ntt=global+health\" target=\"_blank\">Films </a></li><li><a href=\"https://guides.library.duke.edu/global_health/findingdata\" target=\"_blank\">Numeric data &amp; statistics </a></li><li><a href=\"/data/\" target=\"_blank\">Mapping </a></li><li><a href=\"https://guides.library.duke.edu/languagelearning\" target=\"_blank\">Language learning </a></li><li><a href=\"https://guides.library.duke.edu/global_health_french\" target=\"_blank\">Global Health Research in French </a> , <a href=\"https://guides.library.duke.edu/GHinSpanish\" target=\"_blank\"> Global Health Research in Spanish </a> , <a href=\"https://guides.library.duke.edu/global_health_arabic\" target=\"_blank\"> Global Health Research in Arabic </a></li><li>Conducting research in <a href=\"https://guides.library.duke.edu/global_health\" target=\"_blank\"> Global Health</a></li><li>Description of collection</li></ul><p><a href=\"/apps/directory/staff/7217/\" target=\"_blank\" title=\"Hannah Rozear\">&nbsp; </a></p><p><a href=\"%20https://library.duke.edu/about/directory/staff/7217\" target=\"_blank\" title=\"Hannah Rozear\">Hannah Rozear </a><br> Librarian for Global Health<br> (919) 660-5368<br> <a href=\"mailto:hannah.rozear@duke.edu\">hannah.rozear@duke.edu </a></p><p>&nbsp;</p>",
            "revision_id" : 22701
         },
         "field_revision" : {
            "sticky" : 0,
            "revision_translation_affected" : 1,
            "default_langcode" : 1,
            "langcode" : null,
            "uid" : 1,
            "status" : 1,
            "created" : null,
            "changed" : null,
            "title" : "Global Health"
         },
         "status" : 1,
         "comment" : 1,
         "sticky" : 0,
         "log" : "",
         "promote" : 0,
         "uid" : 2197,
         "timestamp" : 1528911675
      }
   ],
   "field_image" : null,
   "type" : "research_page",
   "node__body" : {
      "revision_id" : 22701,
      "body_value" : "<h5>Getting Started</h5><h5>Find Information on <strong>Global Health</strong> in many languages</h5><p></p><ul><li>Get research help from the librarian! <a href=\"https://duke.libcal.com/appointment/2688\" target=\"_blank\"> Make an appointment online </a></li><li><a href=\"https://guides.library.duke.edu/global_health\" target=\"_blank\">Research guide for Global Health </a></li><li><a href=\"https://guides.library.duke.edu/az.php?s=131796\">Specialized databases</a>: books, articles, newspapers and more</li><li><a href=\"https://search.library.duke.edu/search?Ntk=Keyword&amp;Nr=OR%28210969%2cOR%28206474%29%29&amp;Ne=2+200043+206474+210899+210956&amp;N=206431&amp;Ntt=global+health\" target=\"_blank\">Films </a></li><li><a href=\"https://guides.library.duke.edu/global_health/findingdata\" target=\"_blank\">Numeric data &amp; statistics </a></li><li><a href=\"/data/\" target=\"_blank\">Mapping </a></li><li><a href=\"https://guides.library.duke.edu/languagelearning\" target=\"_blank\">Language learning </a></li><li><a href=\"https://guides.library.duke.edu/global_health_french\" target=\"_blank\">Global Health Research in French </a> , <a href=\"https://guides.library.duke.edu/GHinSpanish\" target=\"_blank\"> Global Health Research in Spanish </a> , <a href=\"https://guides.library.duke.edu/global_health_arabic\" target=\"_blank\"> Global Health Research in Arabic </a></li><li>Conducting research in <a href=\"https://guides.library.duke.edu/global_health\" target=\"_blank\"> Global Health</a></li><li>Description of collection</li></ul><p><a href=\"/apps/directory/staff/7217/\" target=\"_blank\" title=\"Hannah Rozear\">&nbsp; </a></p><p><a href=\"%20https://library.duke.edu/about/directory/staff/7217\" target=\"_blank\" title=\"Hannah Rozear\">Hannah Rozear </a><br> Librarian for Global Health<br> (919) 660-5368<br> <a href=\"mailto:hannah.rozear@duke.edu\">hannah.rozear@duke.edu </a></p><p>&nbsp;</p>",
      "body_format" : "full_html",
      "delta" : 0,
      "bundle" : "research_page",
      "deleted" : 0,
      "langcode" : "und",
      "entity_id" : 551,
      "body_summary" : ""
   },
   "vid" : 22701,
   "uuid" : "6782e984-a0bf-4eca-b3d4-862719f8f8d5"
}

