{
   "langcode" : "und",
   "uuid" : "6a5686c8-9625-4a76-8456-a57aedc3cfb2",
   "type" : "exhibit",
   "node__field_image" : {},
   "field_tags" : [],
   "path_alias" : {
      "pid" : 1503,
      "alias" : "/exhibits/2006/neither-model-nor-muse",
      "language" : "und",
      "langcode" : "und",
      "status" : 0
   },
   "node_field_data" : {
      "created" : 1438804100,
      "status" : 1,
      "default_langcode" : 1,
      "sticky" : 0,
      "title" : "Neither Model Nor Muse",
      "langcode" : "und",
      "uid" : 1,
      "revision_translation_affected" : 1,
      "type" : "exhibit",
      "changed" : null,
      "promote" : 0
   },
   "node_access" : null,
   "revisions" : [
      {
         "node_revision__body" : {
            "body_summary" : "",
            "entity_id" : 1015,
            "langcode" : "und",
            "body_format" : "full_html",
            "delta" : 0,
            "bundle" : "exhibit",
            "deleted" : 0,
            "revision_id" : 10999,
            "body_value" : "<p>Two exhibits were mounted as part of the Sallie Bingham Center for Women’s History and Culture’s third biennial symposium: Stretching the Canvas: Women Exploring the Arts and The Feminist Art Movement, 1970s-1980s.</p><p><strong>Stretching the Canvas: Women Exploring the Arts</strong></p><p>Stretching the Canvas is a non-traditional art exhibit that brings a \"behind the scenes\" perspective to the process of art-making. Using documentary and archival pieces as well as artwork - from Duke women undergraduates and women artists in the Bingham Center collections - this exhibit considers different facets of women's artistic practice.</p><p><strong>The Feminist Art Movement, 1970s-1980s</strong></p><p>The feminist art movement originated in the early 1970s and was directly inspired by second-wave feminism. The art exhibit showcases the work of Kate Millett and Irene Peslikis, and demonstrates how feminism influences art forms such as comics and music. Other highlights include feminist art publications, LPs, songbooks and concert flyers from the women's music movement, including material from the Common Woman Chorus.</p><p></p><hr><p></p><p>The online exhibit is no longer available, but an archived version <a href=\"https://web.archive.org/web/20080204160553/http:/library.duke.edu/exhibits/modelnormuse/%20\">can be viewed at the Internet Archive</a>.</p><p></p>"
         },
         "vuuid" : "b4834a2f-127c-49c3-8d50-7742e8499f19",
         "title" : "Neither Model Nor Muse",
         "node_revision__field_tags" : [],
         "sticky" : 0,
         "comment" : 1,
         "log" : "",
         "status" : 1,
         "field_revision" : {
            "title" : "Neither Model Nor Muse",
            "changed" : null,
            "status" : 1,
            "uid" : 1,
            "langcode" : null,
            "created" : null,
            "revision_translation_affected" : 1,
            "sticky" : 0,
            "default_langcode" : 1
         },
         "promote" : 0,
         "timestamp" : 1612559550,
         "uid" : 3
      }
   ],
   "node__body" : {
      "body_summary" : "",
      "entity_id" : 1015,
      "langcode" : "und",
      "deleted" : 0,
      "body_format" : "full_html",
      "delta" : 0,
      "bundle" : "exhibit",
      "body_value" : "<p>Two exhibits were mounted as part of the Sallie Bingham Center for Women’s History and Culture’s third biennial symposium: Stretching the Canvas: Women Exploring the Arts and The Feminist Art Movement, 1970s-1980s.</p><p><strong>Stretching the Canvas: Women Exploring the Arts</strong></p><p>Stretching the Canvas is a non-traditional art exhibit that brings a \"behind the scenes\" perspective to the process of art-making. Using documentary and archival pieces as well as artwork - from Duke women undergraduates and women artists in the Bingham Center collections - this exhibit considers different facets of women's artistic practice.</p><p><strong>The Feminist Art Movement, 1970s-1980s</strong></p><p>The feminist art movement originated in the early 1970s and was directly inspired by second-wave feminism. The art exhibit showcases the work of Kate Millett and Irene Peslikis, and demonstrates how feminism influences art forms such as comics and music. Other highlights include feminist art publications, LPs, songbooks and concert flyers from the women's music movement, including material from the Common Woman Chorus.</p><p></p><hr><p></p><p>The online exhibit is no longer available, but an archived version <a href=\"https://web.archive.org/web/20080204160553/http:/library.duke.edu/exhibits/modelnormuse/%20\">can be viewed at the Internet Archive</a>.</p><p></p>",
      "revision_id" : 10999
   },
   "vid" : 10999,
   "field_image" : {
      "language" : "und",
      "file_uuid" : "66619b31-7370-43eb-85cf-4fde7772a5db",
      "field_image_fid" : 1591,
      "revision_id" : 10999,
      "deleted" : 0,
      "entity_id" : 1015,
      "field_image_target_id" : 1591,
      "field_image_title" : "",
      "field_image_width" : 400,
      "field_image_alt" : "",
      "bundle" : "exhibit",
      "delta" : 0,
      "field_image_height" : 580,
      "entity_type" : "node",
      "langcode" : "und"
   },
   "nid" : "1015",
   "asidebox" : null
}

