{
   "node_access" : null,
   "asidebox" : {
      "body_value" : null,
      "block_module" : null,
      "body_format" : null,
      "vid" : 19619,
      "bid" : null,
      "body_title" : "",
      "nid" : 343,
      "status" : "disabled",
      "block_delta" : null
   },
   "nid" : "343",
   "path_alias" : {
      "pid" : 522,
      "alias" : "/about/depts/cataloging/documentation/multiple-physical-pieces",
      "language" : "und",
      "status" : 0,
      "langcode" : "und"
   },
   "node_field_data" : {
      "revision_translation_affected" : 1,
      "langcode" : "und",
      "uid" : 1,
      "changed" : null,
      "promote" : 0,
      "type" : "about_page",
      "default_langcode" : 1,
      "sticky" : 0,
      "created" : 1377893161,
      "status" : 1,
      "title" : "Multiple physical pieces"
   },
   "field_tags" : [],
   "type" : "about_page",
   "field_image" : null,
   "uuid" : "6d2eaa53-b572-441f-aafa-6b872dbb38b4",
   "node__body" : {
      "body_summary" : "",
      "entity_id" : 343,
      "langcode" : "und",
      "deleted" : 0,
      "delta" : 0,
      "body_format" : "full_html",
      "bundle" : "about_page",
      "revision_id" : 19619,
      "body_value" : "<p><a href=\"https://libcms.oit.duke.edu/node/343/edit?destination=admin/dashboard%3Fuid%3Damy.turner%26alias%3D%26items_per_page%3D10#MATERIALS%20IN%20POCKETS\"><span style=\"text-decoration: underline;\"><span style=\"color: #0066cc;\" color=\"#0066cc\">MATERIALS IN POCKETS</span></span></a></p><p><a href=\"https://libcms.oit.duke.edu/node/343/edit?destination=admin/dashboard%3Fuid%3Damy.turner%26alias%3D%26items_per_page%3D10#ADDED%20LOCATIONS\"><span style=\"text-decoration: underline;\"><span style=\"color: #0066cc;\" color=\"#0066cc\">ADDED LOCATIONS</span></span></a></p><p><a href=\"https://libcms.oit.duke.edu/node/343/edit?destination=admin/dashboard%3Fuid%3Damy.turner%26alias%3D%26items_per_page%3D10#ADDED%20COPIES\"><span style=\"text-decoration: underline;\"><span style=\"color: #0066cc;\" color=\"#0066cc\">ADDED COPIES</span></span></a></p><p><a href=\"https://libcms.oit.duke.edu/node/343/edit?destination=admin/dashboard%3Fuid%3Damy.turner%26alias%3D%26items_per_page%3D10#SETS\"><span style=\"text-decoration: underline;\"><span style=\"color: #0066cc;\" color=\"#0066cc\">SETS</span></span></a> (INCLUDING ACCOMPANYING MATERIAL THAT CAN CIRCULATE INDEPENDENTLY)</p><p>************************************************************************************</p><p><a name=\"MATERIALS IN POCKETS\"></a>MATERIALS IN POCKETS</p><p><strong>Summary:</strong></p><p>* Green flag.<br>* Green sticker next to barcode.<br>* Opac note: (ex.:+1 disc in pocket)<br>*&nbsp;Circulation note (ex.: check for disc in pocket)</p><p>**********************</p><p>&nbsp;Green&nbsp;\"material needs pocket\"&nbsp;flags are used to alert staff to special procedures for materials in pockets.&nbsp; CD's are the most common material in pockets, and an earlier version of the flag (still in use) was specifically for CDs..&nbsp;&nbsp;On this older flag, the&nbsp;\"needs pocket\" notation on the flag is no longer needed, because all materials in pockets are routed to Preservation.&nbsp;&nbsp;</p><p>Material (such as plates or discs) housed in pockets is not intended to circulate independently, but it can be separated from the piece with which it should circulate.&nbsp; To keep track of what the library owns, material in pockets is recorded in both the bibliographic and the item record.&nbsp; The bibliographic record describes how the work was issued, and the item record shows our holdings.&nbsp;</p><p>In the bibliographic record, the material may be recorded in a 500 field (e.g. 500&nbsp;&nbsp;&nbsp; Three maps in pocket) or in the 300 $e (e.g. 525 p. $c ; 25 cm. $e + 1 computer disc).&nbsp; The language in these fields varies widely.&nbsp; Generally accept the wording found on copy.&nbsp; Follow AACR2 for original.&nbsp;</p><p>In the item record, the material is recorded in an OPAC note. The form of the note is:</p><p>&nbsp;&nbsp; +[number] [special material designator] in pocket</p><p>&nbsp;&nbsp; \"Special material designator\" is the term prescribed in AACR2 for the material if it is cataloged on its own.&nbsp;&nbsp;</p><p>EXCEPTION: we use \"disc\" for any kind of disc, because technology is blurring the distinction between types of discs.</p><p>Examples:</p><p>+1 disc in pocket&nbsp;&nbsp;&nbsp;&nbsp;&nbsp;&nbsp; <br>+2 discs in pocket&nbsp;&nbsp;&nbsp;&nbsp;&nbsp;&nbsp;&nbsp;&nbsp;&nbsp;&nbsp;&nbsp; <br>+1 sound cassette in pocket<br>+3 maps in pocket<br>+5 plates in pocket<br>+4 pts. in pocket</p><p>A&nbsp;circulation note \"Check for [number] [type of material] in pocket\" is also made and a green sticker \"check for material in pocket\" is placed next to the barcode to alert circulation staff.&nbsp;&nbsp;Discs are targeted as a security measure.&nbsp; Preservation makes special pockets, which replace the pockets which may be found in books.</p><p>EXAMPLE:</p><p>OPAC note: +1 disc in pocket<br>Circ. note:&nbsp;Check for 1 disc in pocket.</p><p>Shelf preparation&nbsp;staff can print out extra labels for paper material in pockets (e.g. maps and plates).&nbsp; To alert them to the material, fill in the blank in the \"__ labels needed\" line on the \"Material needs pocket flag..&nbsp; This method can also be used to print labels for loose&nbsp;materials in a portfolio or case (e.g. \"27 parts\").&nbsp; As a general principle,&nbsp;paper material&nbsp;which can be separated from the labeled item needs its own label.</p><p>&nbsp;In the rare case when material in a pocket is lost prior to cataloging, the material should still be recorded in the bibliographic record, which describes the work as issued.&nbsp; To make it clear that the material was lost, not overlooked, make an OPAC note in the item record, e.g. \"Disc missing.\"</p><p><strong><a name=\"ADDED LOCATIONS\"></a>ADDED LOCATIONS</strong></p><p>(If there are questions or problems, refer to Holdings Management)<br><br>Definition: One bibliographic record is attached to holdings records for two or more locations.&nbsp; Multiple locations may be created the first time a bibliographic record is loaded, but more often cataloging is completed for one location, then additional holdings are added as additional libraries acquire the item in question.&nbsp; Added locations often have the same call numbers, but this is not required.&nbsp; If previous locations have been cataloged in Dewey, catalog new locations in LC.</p><p>In general, the bibliographic record is considered to be complete, and you are checking to be sure that the item in hand matches.&nbsp; In&nbsp;rare cases, you may need to edit the bibliographic record as holdings are added (e.g. to add information used by the Perkins system, but not by the professional libraries, to correct an error in the initial cataloging).&nbsp; Be especially cautious about any change to cataloging done at the professional libraries, and ask in case of doubt.&nbsp; For the text of an agreement between Perkins, Law, Medicine and Fuqua libraries on cooperative use of bibliographic records (including the use of multiple&nbsp;CID fields for initials and dates),&nbsp;see the ILS-TS document&nbsp;<a href=\"https://intranet.lib.duke.edu/groups/ils-techservices/doc/coop\"><span style=\"text-decoration: underline;\"><span style=\"color: #0066cc;\" color=\"#0066cc\">Cooperative use of bibliographic records</span></span></a></p><p>Usually, there will be an item record (and maybe a holdings) for your location.&nbsp; Edit or add&nbsp;holdings and item information as you would for a single monograph. If your location is the first for the Perkins system (e.g. Law did the initial cataloging) add a CID field.&nbsp;&nbsp; If the existing location is in the Perkins system, do not add a CID field.&nbsp;&nbsp; For the purpose of the CID field, the Rubenstein Library is a different cataloging center, not part of the Perkins system.</p><p><a name=\"ADDED COPIES\"></a>ADDED COPIES</p><p>Definition: Additional copies to&nbsp;an existing&nbsp;location.&nbsp; (If a copy is added to a new&nbsp;location, it is an added location.)&nbsp;&nbsp;&nbsp; Location is defined as owning location.&nbsp;&nbsp; If one Perkins copy is in New and Noteworthy, and another copy is acquired for Perkins, that is copy two.&nbsp; The same principle applies for books on reserve, or at the LSC.&nbsp;&nbsp;</p><p>Added copies have the same call number as the first copy, with the addition of the copy number. &nbsp;&nbsp;If a copy is still in Dewey, because it is missing or still checked out, the numbering is done as if all copies had been reclassified.&nbsp;&nbsp;</p><p><span style=\"text-decoration: underline;\">Cataloged at the same time</span></p><p>In the holdings record, use control-f to open the 008 field. Change \"number of copies reported\" from 001 to 002 (or however many copies we have). Previously these instructions called for a $t summarizing the number of copies, but that is no longer considered necessary.</p><p>In the item records for copies other than the first fill out the copy number and the description (optionally, do this for the first copy as well).</p><p>&nbsp;&nbsp;&nbsp;For an example of holdings and items records for a second copy, search barcode D03056553R</p><p><span style=\"text-decoration: underline;\">Copies to be added after cataloging has been completed</span></p><p>Edit the holdings and item as described above.&nbsp; The copy number of lost or withdrawn items is still considered taken.&nbsp; For example, if we had one copy, which was lost, the next copy is copy two.&nbsp;</p><p>If all copies on a record&nbsp;have been&nbsp;lost and withdrawn,&nbsp;new copies should be referred to Holdings Management.&nbsp;&nbsp;&nbsp;Records will need to be unsuppressed and holdings will need to be added to OCLC manually.</p><p>Do not add a CID field when adding a copy to an already cataloged bibliographic record.</p><p>&nbsp;<span style=\"text-decoration: underline;\">Added copies in Dewey</span></p><p>Refer all added copies in Dewey to Vickie Long or Holly Chang, who create new&nbsp;holdings records with LC classification as needed.</p><p><a name=\"SETS\"></a>SETS (INCLUDING ACCOMPANYING MATERIAL THAT CAN CIRCULATE INDEPENDENTLY)</p><p></p><p>NOTE: This document is written for staff and CatS and ERSM.&nbsp; Copy catalogers have more limited responsibility for sets.&nbsp; For their documentation, click <a href=\"/about/depts/cataloging/documentation/copy-cataloging#sets\"><span style=\"text-decoration: underline;\"><span style=\"color: #0066cc;\" color=\"#0066cc\">here.&nbsp;</span></span></a></p><p></p><p>1. Definitions.&nbsp; Analyzed/not analyzed, classed separately/classed together<br><span style=\"text-decoration: underline;\"><span style=\"color: #0066cc;\" color=\"#0066cc\"><a href=\"https://libcms.oit.duke.edu/node/343/edit?destination=admin/dashboard%3Fuid%3Damy.turner%26alias%3D%26items_per_page%3D10#holdings\">2. Holdings and items</a><br></span></span>2.5 Holdings and items for sets in classed together series<br><a href=\"https://libcms.oit.duke.edu/node/343/edit?destination=admin/dashboard%3Fuid%3Damy.turner%26alias%3D%26items_per_page%3D10#physical\"><span style=\"text-decoration: underline;\"><span style=\"color: #0066cc;\" color=\"#0066cc\">3. Physical description</span></span></a><br><a href=\"https://libcms.oit.duke.edu/node/343/edit?destination=admin/dashboard%3Fuid%3Damy.turner%26alias%3D%26items_per_page%3D10#tracings\">4<span style=\"color: #0066cc;\" color=\"#0066cc\"><span style=\"text-decoration: underline;\">. Tracings</span></span></a><br><a href=\"https://libcms.oit.duke.edu/node/343/edit?destination=admin/dashboard%3Fuid%3Damy.turner%26alias%3D%26items_per_page%3D10#standing\"><span style=\"color: #0066cc;\" color=\"#0066cc\"><span style=\"text-decoration: underline;\">5. Standing orders and added volumes</span></span></a><br><a href=\"https://libcms.oit.duke.edu/node/343/edit?destination=admin/dashboard%3Fuid%3Damy.turner%26alias%3D%26items_per_page%3D10#unnumbered\"><span style=\"color: #0066cc;\" color=\"#0066cc\"><span style=\"text-decoration: underline;\">6. Unnumbered sets</span></span></a><br><a href=\"https://libcms.oit.duke.edu/node/343/edit?destination=admin/dashboard%3Fuid%3Damy.turner%26alias%3D%26items_per_page%3D10#single\"><span style=\"color: #0066cc;\" color=\"#0066cc\"><span style=\"text-decoration: underline;\">7. Single volumes vs. sets</span></span></a><br><a href=\"https://libcms.oit.duke.edu/node/343/edit?destination=admin/dashboard%3Fuid%3Damy.turner%26alias%3D%26items_per_page%3D10#accompanying\"><span style=\"text-decoration: underline;\"><span style=\"color: #0066cc;\" color=\"#0066cc\">8. Accompanying material</span></span></a></p><p></p><p><a href=\"https://libcms.oit.duke.edu/node/343/edit?destination=admin/dashboard%3Fuid%3Damy.turner%26alias%3D%26items_per_page%3D10#appendix\"><span style=\"text-decoration: underline;\"><span style=\"color: #0066cc;\" color=\"#0066cc\">Appendix 1: Volumes added after initial cataloging</span></span></a></p><p></p><p><a href=\"https://libcms.oit.duke.edu/node/343/edit?destination=admin/dashboard%3Fuid%3Damy.turner%26alias%3D%26items_per_page%3D10#appendix2\"><span style=\"text-decoration: underline;\"><span style=\"color: #0066cc;\" color=\"#0066cc\">Appendix&nbsp;2: Vols. of sets in series in different binding units--local procedure for linking</span></span></a></p><p></p><p><strong>1. Definitions.&nbsp; Analyzed/not analyzed, classed separately/classed together <br></strong></p><p>Sets (aka multi-part items) are multi-volume monographs. To merit treatment as a set, multiple volumes must be physically separate.&nbsp; A work described as “2 v. in 1” is not a set.</p><p>While series go on indefinitely, sets have a projected end.&nbsp;&nbsp; Like series, sets may be either analyzed, with cataloging records for the individual parts, or unanalyzed.&nbsp; The decision to analyze is made by the cataloger at the time of cataloging and is a judgment of the usefulness of having records for the individual volumes.&nbsp; Sets whose volumes have distinctive titles and/or varying authors or editors are usually analyzed.&nbsp;</p><p>As in the case of series, analyzed sets may be classed together or separately.&nbsp;&nbsp; For classed together sets, there is a cataloging record for the set as well as the individual volumes (analytics).&nbsp; For classed separately sets, ONLY the analytics are cataloged.&nbsp; In both cases, the set titles appear in the analytic records in 4XX/8XX fields, which come under LTI authority control.&nbsp;&nbsp;&nbsp;</p><p>Prior to May 2002, all sets (with a few very rare exceptions) were classified together at Duke.&nbsp;&nbsp; Since then, we have followed the national policy of classifying almost all analyzed sets separately.&nbsp; An earlier version of this document included a list of exceptions from the LC descriptive cataloging manual, but since LC doesn't apply this list consistently, it is simpler to ignore it.</p><p>The LC descriptive cataloging manual states: \"LC or any other BIBCO library can vary from the default practice for reasons of local needs, preferences or resources.\"&nbsp;&nbsp; This gives us considerable leeway to do what makes sense in the individual circumstances.&nbsp; Experienced catalogers take into account LC practice, as well as policy, along with the individual circumstance.&nbsp;&nbsp; If there is an authority record for a new set, generally follow the decision in the 646 field (\"s\" means classed separately, \"c\" as a collection, i.e. together.</p><p>If we have already cataloged a set as classed together, additional volumes should get the same treatment.</p><p>When we started from the default of classing sets together, we sometimes ended up with layers of sets within sets, with the call number based on the largest set.&nbsp; With class sep sets as a default, this is generally not an issue.</p><p>In addition to the control of series tracings with authority records, there are several mechanisms to provide systematic access to sets and their parts without multiple bibliographic records.&nbsp;&nbsp; When volume titles are not distinctive enough to merit analytic records, but still might be searched, they can be given as 740's on the set record.&nbsp;&nbsp; This should be done only for small sets, and only when the set record already provides sufficient author access.&nbsp;&nbsp; On the other end of the scale, LC catalogs only the subsets for some enormous sets.&nbsp;&nbsp; For example, the Census of India comes out by state, and LC catalogs the state sets, not the set as a whole:</p><p>&nbsp; 1. Census of India, 1981. Series 1, India. (1)<br>&nbsp; 2. Census of India, 1981. Series 1, India. Paper. (1)<br>&nbsp; 3. Census of India, 1981. Series 1, India, part-II-special, report &amp; tables<br>&nbsp;&nbsp;&nbsp;&nbsp;&nbsp;&nbsp; based on 5 per cent sample data / P. Padmanabha (Registrar General &amp; Census Commissioner for India) (1)<br>&nbsp; 4. Census of India, 1981. Series 10, Kerala. (1)<br>&nbsp; 5. Census of India, 1981. Series 10, Kerala. Paper. (1)<br>&nbsp; 6. Census of India, 1981. Series 11, Madhya Pradesh. (1)<br>&nbsp; 7. Census of India, 1981. Series 11, Madhya Pradesh. Paper. (1)</p><p>The rest of this document deals primarily with unanalyzed sets, and also with the rare classed together analyzed sets.&nbsp; The analytics of classed separately sets are treated like the analytics of classed separately series.&nbsp;&nbsp;</p><p><a name=\"holdings\"></a></p><p><strong>2. Holdings and items&nbsp; </strong></p><p></p><p class=\"MsoNormal\" style=\"margin-bottom: 7.5pt; vertical-align: baseline; line-height: 16.8pt;\"><span style=\"font-size: 10.5pt; font-family: 'Helvetica',sans-serif; color: #333333; mso-bidi-font-family: 'Times New Roman'; mso-ansi-language: EN;\" lang=\"EN\">The most obvious difference between sets and single-volume works is that there is an item record for each physical piece, and the holdings record summarizes these items. <br></span></p><p class=\"MsoNormal\" style=\"margin-bottom: 7.5pt; vertical-align: baseline; line-height: 16.8pt;\"><span style=\"font-size: 10.5pt; font-family: 'Helvetica',sans-serif; color: #333333; mso-bidi-font-family: 'Times New Roman'; mso-ansi-language: EN;\" lang=\"EN\">Until the summer of 2016, data about the number of volumes the holdings record was recorded in 863/864/865 fields, which are designed for detailed enumeration that duplicates item information.&nbsp; Beginning July 2016, these fields are replaced by the 866/867/868 fields, which summarize holdings in a more user-friendly matter. In the majority of cases for sets, the summary will follow the pattern of v.1-v.10. This document focuses on these most common cases. For instructions on more complex cases, see the MARC documentation (https://www.loc.gov/marc/holdings) and the document “Duke University Libraries Holding Statements … found in f:\\data\\ERSM\\Documentation for Catalogers\\Best Practices Holdings and/or consult with serials cataloging or holdings management staff.</span></p><p class=\"MsoNormal\" style=\"margin-bottom: 7.5pt; vertical-align: baseline; line-height: 16.8pt;\"><span style=\"font-size: 10.5pt; font-family: 'Helvetica',sans-serif; color: #333333; mso-bidi-font-family: 'Times New Roman'; mso-ansi-language: EN;\" lang=\"EN\"><br>A macro does preliminary editing for the holdings record, changing record type x to v and inserting an 853 field with the default volume designator “v.” and an 866 field with the values v.1-v.&nbsp; The cataloger changes “v.” in both the 853 and the 866 to another designator if needed (see RDA appendix B for a list of abbreviations) and edits the default “1-“ as needed.&nbsp; Gaps in holdings are indicated by a comma.</span></p><p class=\"MsoNormal\" style=\"margin-bottom: 7.5pt; vertical-align: baseline; line-height: 16.8pt;\"><span style=\"font-size: 10.5pt; font-family: 'Helvetica',sans-serif; color: #333333; mso-bidi-font-family: 'Times New Roman'; mso-ansi-language: EN;\" lang=\"EN\">Examples:<br>Bd.1-Bd.8<br>t.3,t,6,t.9</span></p><p class=\"MsoNormal\" style=\"margin-bottom: 7.5pt; vertical-align: baseline; line-height: 16.8pt;\"><span style=\"font-size: 10.5pt; font-family: 'Helvetica',sans-serif; color: #333333; mso-bidi-font-family: 'Times New Roman'; mso-ansi-language: EN;\" lang=\"EN\">For hierarchial numbering, elements are separated by a colon, for example:</span></p><p class=\"MsoNormal\" style=\"margin-bottom: 7.5pt; vertical-align: baseline; line-height: 16.8pt;\"><span style=\"font-size: 10.5pt; font-family: 'Helvetica',sans-serif; color: #333333; mso-bidi-font-family: 'Times New Roman'; mso-ansi-language: EN;\" lang=\"EN\">Bd.1:T.1<br>v.1:pt.1-v.8:pt.3</span></p><p class=\"MsoNormal\" style=\"margin-bottom: 7.5pt; vertical-align: baseline; line-height: 16.8pt;\"><span style=\"font-size: 10.5pt; font-family: 'Helvetica',sans-serif; color: #333333; mso-bidi-font-family: 'Times New Roman'; mso-ansi-language: EN;\" lang=\"EN\">Note: optionally the cataloger can use the default \"v.\" rather than the designator used on the piece, as copy catalogers do.<br>In the item record, in the “general” tab, volume enumeration is recorded in two places.</span></p><p class=\"MsoNormal\" style=\"margin-bottom: 7.5pt; vertical-align: baseline; line-height: 16.8pt;\"><span style=\"font-size: 10.5pt; font-family: 'Helvetica',sans-serif; color: #333333; mso-bidi-font-family: 'Times New Roman'; mso-ansi-language: EN;\" lang=\"EN\">In enumeration level 1 and 2, the numbering is recorded without captions.&nbsp; For v.1:pt.1, record a 1 in each enumeration level.&nbsp; If there are more than 2 levels of enumeration, use the “serials levels” tab.</span></p><p class=\"MsoNormal\" style=\"margin-bottom: 7.5pt; vertical-align: baseline; line-height: 16.8pt;\"><span style=\"font-size: 10.5pt; font-family: 'Helvetica',sans-serif; color: #333333; mso-bidi-font-family: 'Times New Roman'; mso-ansi-language: EN;\" lang=\"EN\">Open the boxes in “85X Type/linking number” to connect to the 853 final digit and indicator.</span></p><p><span style=\"font-size: 10.5pt; font-family: 'Helvetica',sans-serif; color: #333333; mso-bidi-font-family: 'Times New Roman'; mso-ansi-language: EN;\" lang=\"EN\">The “description” box of the item record records the caption.&nbsp; This is used to generate spine labels.&nbsp; Levels are separated by colons, for example Bd.1:T.2 c.1</span></p><p>Note:&nbsp; In the item record, we add copy number even for copy 1.&nbsp; For example, v.1 c.1,&nbsp; Bd.6:T.3 c.2.&nbsp;&nbsp;&nbsp; \"c.1\" does not print on the call number label.&nbsp;</p><p>Note:&nbsp; Multiple copies are not recorded in the 866 field, only in the item records and in the fixed field of the holdings record. &nbsp;&nbsp;&nbsp;&nbsp;&nbsp;&nbsp; <br>&nbsp;2.1 Holdings and items for sets in classed together series&nbsp;</p><p>The practice of \"equivalencies\" for sets in classed together series has been suspended, pending the planned discontinuation of this treatment of series.&nbsp; Put books that would previously have required equivalencies on the designated shelf.</p><p></p><p></p><p><a name=\"physical\"></a></p><p></p><p><strong>3. Physical description&nbsp;</strong></p><p></p><p>The basis of the description for sets is the title page of the first volume.&nbsp; If details such as editors and imprint vary in subsequent volumes, this is recorded in notes.&nbsp; However, be alert for differences that indicate a different edition.&nbsp; Volumes from different editions of a set may be combined on the same record only in exceptional cases, with the permission of the section head.&nbsp; Usually, we use a separate record for each edition.</p><p>Sets are cataloged as either open or closed.&nbsp; Closed sets are those for which we have evidence that all volumes have been published.&nbsp; We may have all volumes in hand or we can accept another library's cataloging of the complete set.&nbsp; In a closed set, the 300 field contains the number of volumes (e.g. 5 v. ; $c 24 cm.).&nbsp; The date in the 260 field can be either a single date or a range.&nbsp; Be sure that the dates and date type in the fixed field correspond to the date(s) in the description.&nbsp; The 049 field shows which volumes we have.&nbsp; This may coincide with the number of volumes in the 300, or not.</p><p>If the set is not yet completely published, the 300 field is left open (e.g.&nbsp;&nbsp;&nbsp;&nbsp; v. ;&nbsp; $c 24 cm.).&nbsp;&nbsp; The dates are also left open. (260 $c 1997- ; Dat typ m; Dates 1997,9999).&nbsp; On LC copy, data about volumes that LC has received is recorded in &lt;&gt;‘s.&nbsp; We delete this information.&nbsp;</p><p>LCRI 2.7B18 calls for content notes \"when the publication is in two or more volumes and each volume has a title of its own\".&nbsp;&nbsp; Duke local practice is not to make contents notes for analyzed sets, since this would repeat the information in the analytic record.&nbsp; Many unanalyzed sets do not have contents notes either, as the volumes do not have titles.&nbsp; (Do not consider labels such as A-B to be titles, though some libraries do)&nbsp; So, contents notes are made only for titles that have some subject content but are not distinctive enough to be analyzed.&nbsp;&nbsp;</p><p></p><p>Example:</p><p>&nbsp;&nbsp;&nbsp;&nbsp;&nbsp;&nbsp;&nbsp;&nbsp; 245&nbsp; 10&nbsp; Census of India, 1991. $n Series 4, Assam. $p Paper.&nbsp;&nbsp; ...</p><p></p><p>&nbsp;&nbsp;&nbsp;&nbsp;&nbsp;&nbsp;&nbsp;&nbsp; 505&nbsp; 1&nbsp;&nbsp;&nbsp; 1991, 1. Provisional population totals.&nbsp;</p><p><a name=\"tracings\"></a></p><p><strong>4. Tracings&nbsp; <br></strong></p><p>Sets in series will have series statements that may include more than one volume.&nbsp; Past local Duke practice was to make additional added entries for non-consecutive volumes, so that the index of tracings will be complete.</p><p>This is not handled well by LTI, which generates a new tracing from the 4XX field.&nbsp; Beginning Jan. 2013, make one 830 with all of the numbers.</p><p>Examples:&nbsp;</p><p>491; 1;a&nbsp; Studi di letteratura francese ; $v 17-</p><p></p><p>830; 0;a Studi di letteratura francese ; $v 17-</p><p>(open set)</p><p>490; 1 ; a Studi bizantini e neoellenici ; $v v. 5-6</p><p>830&nbsp; 0;a Studi bizantini e neoellenici ; $v v. 5-6</p><p>(2 vol., consecutively numbered set)</p><p>490; 1 ;a Studi / Accademia toscana di scienze e lettere La Colombaria , $ x&nbsp; 0065-0781; $ v 10, 36, 57, 125&nbsp;</p><p>old practice:&nbsp;&nbsp;</p><p>830;&nbsp; 0; a Studi (Accademia toscana di scienze e lettere La Colombaria) ; $$v 10<br>830;&nbsp; 0; a Studi (Accademia toscana di scienze e lettere La Colombaria) ; $$v 36<br>etc.&nbsp;&nbsp;&nbsp;&nbsp;&nbsp;&nbsp;&nbsp;&nbsp;&nbsp;&nbsp;&nbsp;</p><p>new practice:</p><p>830; 0; a Studi (Accademia toscana di scienze e lettere La Colombaria) ; $$v 10, 36, 57, 125</p><p>For analyzed sets, there is a set tracing on the record for each analytic.&nbsp; Like series tracings, these should be consistent. In general, this is handled by LTI verification, but after working through issues of whether to analyze and classed separately, the cataloger may have more information than is the case with series.&nbsp; When cataloging an analyzed set and its analytics, be sure that the set tracing is in AACR2 form and matches the main entry of the set.&nbsp; This may involve changes to the choice of entry on the set record that would not be necessary for a single volume.&nbsp; For example, an editor who was given the main entry may need to be moved to an added entry.&nbsp; Be sure to be consistent with the volume designator, as well as the rest of the entry, so that all the tracings will file in order after the set cataloging in Aleph:</p><p>&nbsp; 9. Twain, Mark, 1835-1910. Works. 1972 ; v. 8. (1)<br>&nbsp;10. Twain, Mark, 1835-1910. Works. 1972 ; v. 9. (1)<br>&nbsp;11. Twain, Mark, 1835-1910. Works. 1996. (1)<br>&nbsp;12. Twain, Mark, 1835-1910. Works. 1996 ; 1. (1)<br>&nbsp;13. Twain, Mark, 1835-1910. Works. 1996 ; 10. (1)</p><p>Analyzed sets in series will have series tracings on both the set and the analytic copy.&nbsp;</p><p><a name=\"standing\"></a></p><p><strong>5. Standing orders and added volumes <br></strong></p><p>Sets on standing order are cataloged by the added volumes cataloger, who is also responsible for adding volumes to already cataloged set records, editing holdings and items records.&nbsp; She also makes any needed changes to the bibliographic record, including updating the contents, and closes the set when publication is complete.</p><p>For analyzed sets, the added volumes cataloger generally does the analytic cataloging for added volumes at the same time she adds them to the set record.&nbsp; She is responsible for being sure that the set tracing and call number are consistent.&nbsp; In a few cases, she may send the analytic to another cataloger after adding holdings to the set record.&nbsp;&nbsp;&nbsp; The call number is written in the book, and the cataloger treats this the same as a call numbers for a classed together series.</p><p>Sometimes, added volumes are misrouted, or are not recognized as added volumes.&nbsp; Catalogers should be alert for additional volumes to sets we have cataloged.&nbsp; Sometimes these will have erroneous copy which treats them as single volumes (see section 8).</p><p>If the added volume is analyzed, the added volumes cataloger may add it to the holdings, and then return it to the cataloger who found it to do the cataloging for the analytic.&nbsp;</p><p><a name=\"unnumbered\"></a></p><p><strong>6. Unnumbered sets <br></strong></p><p>If an unanalyzed set has no numbering, numbers must be assigned by the cataloger.&nbsp;&nbsp; Often, LC or a member library will have done the work.&nbsp; If you must assign the numbers and the set is open, try to set up a pattern that can be easily followed by the catalogers adding additional volumesr.</p><p>&nbsp;&nbsp; 245; 00;a X censo general de población y vivienda, 1980 : $b integración&nbsp; territorial ... $<br>&nbsp;&nbsp; 260; 0 ;a México, D.F. : $b Instituto Nacional de Estadística, Geografía e Informática, $c c1985- $<br>&nbsp;&nbsp; 300;&nbsp;&nbsp; ;a v. : $b col. maps ; $c 28 cm. $<br>&nbsp;&nbsp; 500;&nbsp;&nbsp; ;a Chiefly tables. $<br>&nbsp;&nbsp; 505; 1 ;a [1] Estado de Aguascalientes -- [2] Estado de Baja California&nbsp; ... [29] Estado de&nbsp; Tlaxcala. [31]&nbsp; Estado do Yucatán. [32] Zacatecas.</p><p>(The various Mexican census publications have one volume per state, unnumbered.&nbsp; LC puts the volumes in alphabetical order.)</p><p>(Unnumbered, analyzed sets were classed separately at Duke even before other sets)&nbsp;</p><p><a name=\"single\"></a></p><p><strong>7. Single volumes vs. sets&nbsp;</strong></p><p></p><p>Be alert for books that are cataloged on OCLC as single volumes, but are actually part of unanalyzed sets (or series).&nbsp; There is a lot of copy that was created in error and should not be used.&nbsp;&nbsp; Vendors routinely create records for individual volumes that are clearly parts of sets.</p><p>&nbsp; Set in the catalog:</p><p>&nbsp;&nbsp; 100; 1 ;a Claudianus, Claudius. $<br>&nbsp;&nbsp; 240; 10;a Works. $l French &amp; Latin $<br>&nbsp;&nbsp; 245; 10;a Oeuvres / $c Claudien ; texte etabli et traduit par Jean-Louis&nbsp;Charlet. $<br>&nbsp;&nbsp; 260;&nbsp;&nbsp; ;a Paris : $b Les Belles Lettres, $c 1991- $<br>&nbsp;&nbsp; 300;&nbsp;&nbsp; ;a v. ; $c 20 cm. $<br>&nbsp;&nbsp; 440;&nbsp; 0;a Collection des universites de France $</p><p>&nbsp; Copy in OCLC (DO NOT USE):</p><p>Ü040&nbsp;&nbsp;&nbsp; FAV ßb fre ßc FAV<br>Ü020&nbsp;&nbsp;&nbsp; 2251014160<br>Ü041 1&nbsp; frelat ßh lat<br>Ü092 1&nbsp; 878 ßf CLA<br>Ü092&nbsp;&nbsp;&nbsp; ßb<br>Ü049&nbsp;&nbsp;&nbsp; NDDP<br>Ü100 1&nbsp; Claudianus, Claudius<br>Ü245 10 Oeuvres. ßn Tome II, 1, ßp Poáemes politiques (395-398) / ßc Claudien ; texte âetabli et traduit par Jean-Louis Charlet,...<br>Ü260&nbsp;&nbsp;&nbsp; Paris : ßb les Belles lettres, ßc 2000.<br>Ü300&nbsp;&nbsp;&nbsp; lxxxviii, 222 p., pagination double p. [6]-23, [32]-48, [54]-80, [87]-122 ; ßc 20 cm.<br>Ü490 1&nbsp; Collection des universitâes de France. Sâerie latine ; ßv 358<br>Ü504&nbsp;&nbsp;&nbsp; Bibliogr. p. [LXXXI]-LXXXVIII. Notes bibliogr.<br>Ü546&nbsp;&nbsp;&nbsp; Texte latin et trad. franðcaise en regard.<br>Ü700 1&nbsp; Charlet, Jean-Louis<br>Ü830&nbsp; 0 Collection des universitâes de France ; ßv 358</p><p>However, in some cases, a book that started out as a single volume is continued, and it is OK to have records for each volume.&nbsp; All three titles listed below were individually cataloged by LC.</p><p>1. Relativistic theory of atoms and molecules : a bibliography, 1916-1985.<br>2. Relativistic theory of atoms and molecules II : a bibliography, 1986-1992.<br>3. Relativistic theory of atoms and molecules III : a bibliography, 1993-1999</p><p>&nbsp;Often, the results of archaeological excavations are published under titles consisting of the name of the site plus a roman numeral. Subtitles and editors tend to vary.&nbsp; LC usually catalogs these as single volumes.</p><p>010&nbsp;&nbsp;&nbsp; 2006501857<br>040&nbsp; DLC ǂc DLC<br>020&nbsp; 8888438025<br>020&nbsp; 9788888438023<br>043&nbsp; e-it---<br>05000DG70.M67 ǂb M653 2004<br>090&nbsp; ǂb<br>049&nbsp; NDDP<br>24500Mozia, X : ǂb rapporto preliminare della XXII campagna di scavi, 2002 condotta congiuntamente con il Servizio beni archeologici della Soprintendenza regionale per i beni culturali e ambientali di Trapani / ǂc a cura di Lorenzo Nigro ; con contributi di Lorenzo Nigro ... [et al.].<br>2463 Mozia, 10<br>260&nbsp; Roma : ǂb Missione archeologica a Mozia, ǂc 2004.<br>300&nbsp; iv, 509 p. : ǂb ill., maps ; ǂc 25 cm.<br>4900 Quaderni di archeologia fenicio-punica ; ǂv 1<br>500&nbsp; At head of title: Università degli studi di Roma \"La Sapienza,\" Dipartimento di scienze storiche archeologiche e antropologiche dell'antichità, Sezione Vicino oriente.<br>504&nbsp; Includes bibliographical references.<br>5050 Zona C. Il Kothon -- Zona D. Le pendici occidentali dell'Acropoli -- Zona F. La Porta ovest.<br>651 0Motya (Extinct city)<br>650 0Excavations (Archaeology) ǂz Italy ǂz Motya (Extinct city) ǂv Catalogs.<br>651 0San Pantaleo Island (Italy) ǂx Antiquities, Phoenician ǂv Catalogs.<br>650 0Phoenicians ǂz Italy ǂz Motya (Extinct city)<br>7001 Nigro, Lorenzo.<br>7101 Italy. ǂb Soprintendenza per i beni culturali ed ambientali di Trapani<br>7102 Università degli studi di Roma \"La Sapienza.\" ǂb Sezione Vicino Oriente.<br><br>Sometimes, LC will revise cataloging of a single volume to include later volumes, and we use the revised cataloging.&nbsp; The following record was initially for the first volume only.</p><p>&nbsp;010&nbsp;&nbsp;&nbsp;&nbsp; 89035946</p><p>040&nbsp; DLC ǂc DLC ǂd PMC ǂd MUQ ǂd BAKER ǂd BTCTA ǂd YDXCP<br>...<br>24500Safety in ice hockey / ǂc C.R. Castaldi and Earl F. Hoerner, editors.<br>260&nbsp; Philadelphia, PA : ǂb ASTM, ǂc c1989-&lt;c2004&gt;<br>300&nbsp; v. &lt;1-4&gt; : ǂb ill. ; ǂc 24 cm.<br>4901 STP ; ǂv 1050, 1212, 1341, 1446<br>500&nbsp; Vol. 2 (STP ; 1212) edited also by P.J. Bishop; v. 3 edited by Alan B. Ashare.<br>500&nbsp; Vol. 4 (STP ; 1446) edited by D.J. Pearsall and A.B. Ashare.</p><p>Whether to catalog something as a set is often a matter of judgment.&nbsp;&nbsp; Lately, LC seems less and less likely to do so when there are advantages to individual treatment (for example, varying editors and subtitles).&nbsp; In general, follow LC, PCC or other reputable cataloging agencies, unless they are clearly in error.&nbsp; If we have already cataloged a possible set as several single volumes, generally do not recatalog unless there is good copy for the set.&nbsp;&nbsp;&nbsp;</p><p><a name=\"accompanying\"></a></p><p><strong>8. Accompanying material </strong></p><p></p><p class=\"MsoNormal\" style=\"margin-bottom: 7.5pt; vertical-align: baseline; line-height: 16.8pt;\"><span style=\"font-size: 10.5pt; font-family: 'Helvetica',sans-serif; color: #333333; mso-ansi-language: EN;\" lang=\"EN\">If accompanying material is housed in a pocket of the work it is accompanies, it is recorded in [a] note[s] in the item record (see the section on Materials in pockets above).&nbsp;</span></p><p class=\"MsoNormal\" style=\"margin-bottom: 7.5pt; vertical-align: baseline; line-height: 16.8pt;\"><span style=\"font-size: 10.5pt; font-family: 'Helvetica',sans-serif; color: #333333; mso-ansi-language: EN;\" lang=\"EN\">If accompanying material is housed separately and can circulate on its own, it must have a separate item record.<br></span></p><p class=\"MsoNormal\" style=\"margin-bottom: 7.5pt; vertical-align: baseline; line-height: 16.8pt;\"><span style=\"font-size: 10.5pt; font-family: 'Helvetica',sans-serif; color: #333333; mso-ansi-language: EN;\" lang=\"EN\">The rules for how to record accompanying material in the description do not take into account whether the material is in a pocket, or circulates on its own. <br></span></p><p class=\"MsoNormal\" style=\"margin-bottom: 7.5pt; vertical-align: baseline; line-height: 16.8pt;\"><span style=\"font-size: 10.5pt; font-family: 'Helvetica',sans-serif; color: #333333; mso-ansi-language: EN;\" lang=\"EN\">RDA rules are evolving.&nbsp; As in AACR2 there are various options, including a separate record for the accompanying material. If accompanying material is described in the same record as the main work, it can appear in the 300 field (example: 271 p. : illustrations ; 21 cm. + 1 atlas) or in a note.&nbsp; Or, text and accompanying material can be considered volumes of a set, with “made-up” numbering.&nbsp; In recent years, there has been a trend to this method at LC.&nbsp; For example:<br><br>&nbsp;&nbsp;&nbsp;&nbsp;&nbsp;&nbsp;&nbsp;&nbsp;&nbsp;&nbsp;&nbsp;&nbsp;&nbsp;&nbsp;&nbsp; 300&nbsp; 2 volumes<br><br>&nbsp;&nbsp;&nbsp;&nbsp;&nbsp;&nbsp;&nbsp;&nbsp;&nbsp;&nbsp;&nbsp;&nbsp;&nbsp;&nbsp;&nbsp; 505&nbsp; [v.1] Text – [v.2] Plates.<br><br>A new option with RDA is to repeat the 300 field:<br><br>&nbsp;&nbsp;&nbsp;&nbsp;&nbsp;&nbsp;&nbsp;&nbsp;&nbsp;&nbsp;&nbsp; 300&nbsp; 254 pages<br>&nbsp;&nbsp;&nbsp;&nbsp;&nbsp;&nbsp;&nbsp;&nbsp;&nbsp;&nbsp;&nbsp; 300&nbsp; 1 workbook (85 pages)<br><br>In the past, accompanying material was always recorded in the holdings record.&nbsp; Beginning in July 2016, works consisting of one volume with one piece of accompanying material are considered single volumes, although they have two item records.&nbsp; In the example above with two 300 fields, the second item record has “workbook” in the “description” element.&nbsp; In the example “271 p. : illustrations ; 21 cm. + 1 atlas” it would be “atlas”.&nbsp; The holdings record has no 866, 853 or 854, and is coded type x.<br><br>The definition of “volume” in this context is “physical piece.”&nbsp; For example, a container of 2 videodiscs with an accompanying booklet gets a type x holdings record, without an 866 or 853/4.&nbsp; There are two items.&nbsp; The item for the discs has either the default “c.1” or nothing at all in the “description” element.&nbsp; The item for the accompanying booklet has “booklet” in the “description” element.&nbsp; The number of discs is recorded in a circ note: “check for __ discs”.<br><br>If copy (especially LC copy) numbers text and accompanying material as volumes, generally leave this unedited and edit the holdings and items record to match.&nbsp; However, when the cataloger has the opportunity to make the decision, preference should be given to the user-friendly op</span></p><p><a name=\"appendix\"></a></p><p><strong>APPENDIX 1: Volumes added after initial cataloging.</strong></p><p>When a set has already been cataloged, and additional volumes are received by the Monographic Acquisitions staff handling standing order sets (Antha Marshall), she updates the cataloging record to reflect the additional volumes.&nbsp; In other cases, additional volumes may not be part of a standing order, and may be received by other staff in Monographic Acquistions. These are put on the CatS shelves, and original catalogers update the existing record.</p><p>Many older sets will have been cataloged using 863/864/865 fields.&nbsp; These should be translated into 866/867/868 fields as additional volumes are added.&nbsp; The old fields do not need to be deleted. However, if there are not many, the cataloger may choose to delete, for example replacing an 863 \"1-2\" with and 866 \"v.1-v.3\". &nbsp; In cases of very complicated holdings, the cataloger may add items without editing the holdings.</p><p>Policies for set cataloging, both national and local, have evolved over the years, so when adding volumes, catalogers must deal with a range of practice.&nbsp;&nbsp; Perhaps the most significant trend is to favor national over local policy.&nbsp; For example, in the past we have sometimes expanded on \"the rule of three\" for making added entries for volume editors.&nbsp;&nbsp; The current departmental policy is to absolutely minimize local policy.&nbsp; See the introduction to \"Standards\" at https://intranet.lib.duke.edu/groups/monographic-cataloging/Documentation/standards.</p><p>Another trend is the one away from layers of cataloging for sets and analytics.&nbsp;&nbsp; Current policy (both national and local) is to either catalog a set as unanalyzed, or do the analytics classed separately, without a set record.&nbsp;&nbsp; However, we follow the older practice when adding volumes to an existing analyzed set.&nbsp; This is not an absolute rule, because the changing nature of sets may call for a change in cataloging.&nbsp;</p><p>One problem with the old practice of cataloging both sets and analytics is confusion about where the barcode, and therefore the circulation status, is found.&nbsp; At one time, item records were created for both the set and the analytic, but currently records from analyzed sets should not have item records or 863 fields.&nbsp; The holdings are summarized in a 866 field.&nbsp; Over time, we have used various notes on the set holdings record to refer users to the analytic records.&nbsp; The latest wording of the note is given in the example below:</p><p>866 0 $$8 0 $$a For information about individual volumes in this set, search records listed under set title: Oxford history of the United States.<br>866 0 $$8 0 $$a Library has: v. 2, 6, 9-10</p><p>Planning is underway to suppress bibliographic holdings records for analyzed sets and series.&nbsp; In the meantime, these records should be suppressed as they are encountered.</p><p>Changes in title</p><p>Occasionally, later volumes of a set will have a different title than earlier ones.&nbsp;&nbsp; AACR2 21.2A1 reads \"If a change occurs in the title proper of a multipart monograph between parts, give/retain the title proper of the first or earliest part as the title proper of the whole monograph. In general, give the later title proper in a note and make an added entry as instructed in 21.30J1.\"&nbsp;</p><p>This means to make a 246, with an explanation of the title change in the $i, for example:<br>&nbsp;&nbsp; 246 1&nbsp;&nbsp;&nbsp; $i Title of vol. 6- : $a And now for something completely different,</p><p>Changes from a set to a series</p><p>A work that is initially cataloged as a set may turn out to be a series.&nbsp;&nbsp; If LC or another reputable cataloging agency changes the cataloging from a set to a series, or if for whatever reason it seems advisable to do this, consult with a serials cataloger.&nbsp; The change may be associated with a title change.&nbsp;&nbsp; As noted above, changed titles of sets are recorded in 246 fields, but a major title change for a series requires a new record,</p><p>Replacing records on OCLC</p><p>Even after inital cataloging is completed,&nbsp; catalogers have the option of making changes nationally by replacing the master record in OCLC, then overlaying the Aleph record with the updated version.&nbsp;&nbsp; This is a real service to the cataloging community, especially when closing out a set.&nbsp; To avoid extra work, this is generally only done when OCLC is searched anyway, for example because of a problem with the Aleph copy.&nbsp;&nbsp; It is only done when the cataloger is confident that the changes are correct and a definite improvement to OCLC.</p><p>Local changes should not be made to the master record.&nbsp;&nbsp;&nbsp; LC holdings in &lt;&gt;'s in the 300 are considered local, as are 830's for non-consecutive numbers in a series.</p><p>When replacing a record, use the Connexion \"control headings\" feature to verify the headings.</p><p><a name=\"appendix2\"></a></p><p>Appendix 2. <strong>Volumes of sets in series in different binding units--local linking procedure</strong></p><p></p><p style=\"text-align: left;\" mce_style=\"text-align: left;\">When volumes of sets in series are in different binding units, create local records for the volumes that are in different binding units, with the volume number in the subfield n of the 245 field.</p><p></p><p style=\"text-align: left;\" mce_style=\"text-align: left;\">&nbsp;When cataloging the local record for each volume, duplicate the set bib record, and add a volume number in $$n to the title.</p><p></p><p>&nbsp;Also edit the following fields in the local record (parent record):</p><p></p><ol type=\"1\"><li>Change 008 field to single date of the volume;</li><li>Change 035 field to 935;</li><li>Change 040 field to $$c NDD $$d NDD;</li><li>Change 050 99 field to call number match the binding unit no.;</li><li>Change 260 field to the publication date of the volume;</li><li>Change 300 field to the page numbers of the volume;</li><li>Change 490 and 830 fields to individual vol. for series tracing;</li><li>Delete SRC and DRA fields, and keep OCL field.</li></ol><p></p><p>Create each local record same as above for the child record in the new binding unit, expect delete the 050 99 field and add a LKR field for each child record.</p><p></p><p>Add an 866 field in each set record: \"LIBRARY HAS: ... &nbsp;// For information about items not displayed here, search title: ...\"; delete the 863s from HOL record and items in different binding units from each set record.</p><p></p><p>Example for serial title: Studia warszawskie (DK4610 .S783)</p><p></p><p>. 12, 16, 22 belong to the set bib: 2502950</p><p></p><p>t. 7, 10, 17, 23 belong to the set bib: 2599498</p><p></p><p>t. 22-23 are bound together.</p><p></p><p>&nbsp;</p><p></p><p>New bib records were created:</p><p></p><p>t. 23 (bib: 4177841, parent record)</p><p></p><p>t. 22 (bib: 4177842, child record)</p><p></p><p>&nbsp;</p><p></p>"
   },
   "vid" : 19619,
   "langcode" : "und",
   "revisions" : [
      {
         "timestamp" : 1512058581,
         "uid" : 56,
         "promote" : 0,
         "sticky" : 0,
         "comment" : 1,
         "log" : "",
         "status" : 1,
         "field_revision" : {
            "changed" : null,
            "title" : "Multiple physical pieces",
            "default_langcode" : 1,
            "revision_translation_affected" : 1,
            "sticky" : 0,
            "created" : null,
            "langcode" : null,
            "uid" : 1,
            "status" : 1
         },
         "node_revision__body" : {
            "body_value" : "<p><a href=\"https://libcms.oit.duke.edu/node/343/edit?destination=admin/dashboard%3Fuid%3Damy.turner%26alias%3D%26items_per_page%3D10#MATERIALS%20IN%20POCKETS\"><span style=\"text-decoration: underline;\"><span style=\"color: #0066cc;\" color=\"#0066cc\">MATERIALS IN POCKETS</span></span></a></p><p><a href=\"https://libcms.oit.duke.edu/node/343/edit?destination=admin/dashboard%3Fuid%3Damy.turner%26alias%3D%26items_per_page%3D10#ADDED%20LOCATIONS\"><span style=\"text-decoration: underline;\"><span style=\"color: #0066cc;\" color=\"#0066cc\">ADDED LOCATIONS</span></span></a></p><p><a href=\"https://libcms.oit.duke.edu/node/343/edit?destination=admin/dashboard%3Fuid%3Damy.turner%26alias%3D%26items_per_page%3D10#ADDED%20COPIES\"><span style=\"text-decoration: underline;\"><span style=\"color: #0066cc;\" color=\"#0066cc\">ADDED COPIES</span></span></a></p><p><a href=\"https://libcms.oit.duke.edu/node/343/edit?destination=admin/dashboard%3Fuid%3Damy.turner%26alias%3D%26items_per_page%3D10#SETS\"><span style=\"text-decoration: underline;\"><span style=\"color: #0066cc;\" color=\"#0066cc\">SETS</span></span></a> (INCLUDING ACCOMPANYING MATERIAL THAT CAN CIRCULATE INDEPENDENTLY)</p><p>************************************************************************************</p><p><a name=\"MATERIALS IN POCKETS\"></a>MATERIALS IN POCKETS</p><p><strong>Summary:</strong></p><p>* Green flag.<br>* Green sticker next to barcode.<br>* Opac note: (ex.:+1 disc in pocket)<br>*&nbsp;Circulation note (ex.: check for disc in pocket)</p><p>**********************</p><p>&nbsp;Green&nbsp;\"material needs pocket\"&nbsp;flags are used to alert staff to special procedures for materials in pockets.&nbsp; CD's are the most common material in pockets, and an earlier version of the flag (still in use) was specifically for CDs..&nbsp;&nbsp;On this older flag, the&nbsp;\"needs pocket\" notation on the flag is no longer needed, because all materials in pockets are routed to Preservation.&nbsp;&nbsp;</p><p>Material (such as plates or discs) housed in pockets is not intended to circulate independently, but it can be separated from the piece with which it should circulate.&nbsp; To keep track of what the library owns, material in pockets is recorded in both the bibliographic and the item record.&nbsp; The bibliographic record describes how the work was issued, and the item record shows our holdings.&nbsp;</p><p>In the bibliographic record, the material may be recorded in a 500 field (e.g. 500&nbsp;&nbsp;&nbsp; Three maps in pocket) or in the 300 $e (e.g. 525 p. $c ; 25 cm. $e + 1 computer disc).&nbsp; The language in these fields varies widely.&nbsp; Generally accept the wording found on copy.&nbsp; Follow AACR2 for original.&nbsp;</p><p>In the item record, the material is recorded in an OPAC note. The form of the note is:</p><p>&nbsp;&nbsp; +[number] [special material designator] in pocket</p><p>&nbsp;&nbsp; \"Special material designator\" is the term prescribed in AACR2 for the material if it is cataloged on its own.&nbsp;&nbsp;</p><p>EXCEPTION: we use \"disc\" for any kind of disc, because technology is blurring the distinction between types of discs.</p><p>Examples:</p><p>+1 disc in pocket&nbsp;&nbsp;&nbsp;&nbsp;&nbsp;&nbsp; <br>+2 discs in pocket&nbsp;&nbsp;&nbsp;&nbsp;&nbsp;&nbsp;&nbsp;&nbsp;&nbsp;&nbsp;&nbsp; <br>+1 sound cassette in pocket<br>+3 maps in pocket<br>+5 plates in pocket<br>+4 pts. in pocket</p><p>A&nbsp;circulation note \"Check for [number] [type of material] in pocket\" is also made and a green sticker \"check for material in pocket\" is placed next to the barcode to alert circulation staff.&nbsp;&nbsp;Discs are targeted as a security measure.&nbsp; Preservation makes special pockets, which replace the pockets which may be found in books.</p><p>EXAMPLE:</p><p>OPAC note: +1 disc in pocket<br>Circ. note:&nbsp;Check for 1 disc in pocket.</p><p>Shelf preparation&nbsp;staff can print out extra labels for paper material in pockets (e.g. maps and plates).&nbsp; To alert them to the material, fill in the blank in the \"__ labels needed\" line on the \"Material needs pocket flag..&nbsp; This method can also be used to print labels for loose&nbsp;materials in a portfolio or case (e.g. \"27 parts\").&nbsp; As a general principle,&nbsp;paper material&nbsp;which can be separated from the labeled item needs its own label.</p><p>&nbsp;In the rare case when material in a pocket is lost prior to cataloging, the material should still be recorded in the bibliographic record, which describes the work as issued.&nbsp; To make it clear that the material was lost, not overlooked, make an OPAC note in the item record, e.g. \"Disc missing.\"</p><p><strong><a name=\"ADDED LOCATIONS\"></a>ADDED LOCATIONS</strong></p><p>(If there are questions or problems, refer to Holdings Management)<br><br>Definition: One bibliographic record is attached to holdings records for two or more locations.&nbsp; Multiple locations may be created the first time a bibliographic record is loaded, but more often cataloging is completed for one location, then additional holdings are added as additional libraries acquire the item in question.&nbsp; Added locations often have the same call numbers, but this is not required.&nbsp; If previous locations have been cataloged in Dewey, catalog new locations in LC.</p><p>In general, the bibliographic record is considered to be complete, and you are checking to be sure that the item in hand matches.&nbsp; In&nbsp;rare cases, you may need to edit the bibliographic record as holdings are added (e.g. to add information used by the Perkins system, but not by the professional libraries, to correct an error in the initial cataloging).&nbsp; Be especially cautious about any change to cataloging done at the professional libraries, and ask in case of doubt.&nbsp; For the text of an agreement between Perkins, Law, Medicine and Fuqua libraries on cooperative use of bibliographic records (including the use of multiple&nbsp;CID fields for initials and dates),&nbsp;see the ILS-TS document&nbsp;<a href=\"https://intranet.lib.duke.edu/groups/ils-techservices/doc/coop\"><span style=\"text-decoration: underline;\"><span style=\"color: #0066cc;\" color=\"#0066cc\">Cooperative use of bibliographic records</span></span></a></p><p>Usually, there will be an item record (and maybe a holdings) for your location.&nbsp; Edit or add&nbsp;holdings and item information as you would for a single monograph. If your location is the first for the Perkins system (e.g. Law did the initial cataloging) add a CID field.&nbsp;&nbsp; If the existing location is in the Perkins system, do not add a CID field.&nbsp;&nbsp; For the purpose of the CID field, the Rubenstein Library is a different cataloging center, not part of the Perkins system.</p><p><a name=\"ADDED COPIES\"></a>ADDED COPIES</p><p>Definition: Additional copies to&nbsp;an existing&nbsp;location.&nbsp; (If a copy is added to a new&nbsp;location, it is an added location.)&nbsp;&nbsp;&nbsp; Location is defined as owning location.&nbsp;&nbsp; If one Perkins copy is in New and Noteworthy, and another copy is acquired for Perkins, that is copy two.&nbsp; The same principle applies for books on reserve, or at the LSC.&nbsp;&nbsp;</p><p>Added copies have the same call number as the first copy, with the addition of the copy number. &nbsp;&nbsp;If a copy is still in Dewey, because it is missing or still checked out, the numbering is done as if all copies had been reclassified.&nbsp;&nbsp;</p><p><span style=\"text-decoration: underline;\">Cataloged at the same time</span></p><p>In the holdings record, use control-f to open the 008 field. Change \"number of copies reported\" from 001 to 002 (or however many copies we have). Previously these instructions called for a $t summarizing the number of copies, but that is no longer considered necessary.</p><p>In the item records for copies other than the first fill out the copy number and the description (optionally, do this for the first copy as well).</p><p>&nbsp;&nbsp;&nbsp;For an example of holdings and items records for a second copy, search barcode D03056553R</p><p><span style=\"text-decoration: underline;\">Copies to be added after cataloging has been completed</span></p><p>Edit the holdings and item as described above.&nbsp; The copy number of lost or withdrawn items is still considered taken.&nbsp; For example, if we had one copy, which was lost, the next copy is copy two.&nbsp;</p><p>If all copies on a record&nbsp;have been&nbsp;lost and withdrawn,&nbsp;new copies should be referred to Holdings Management.&nbsp;&nbsp;&nbsp;Records will need to be unsuppressed and holdings will need to be added to OCLC manually.</p><p>Do not add a CID field when adding a copy to an already cataloged bibliographic record.</p><p>&nbsp;<span style=\"text-decoration: underline;\">Added copies in Dewey</span></p><p>Refer all added copies in Dewey to Vickie Long or Holly Chang, who create new&nbsp;holdings records with LC classification as needed.</p><p><a name=\"SETS\"></a>SETS (INCLUDING ACCOMPANYING MATERIAL THAT CAN CIRCULATE INDEPENDENTLY)</p><p></p><p>NOTE: This document is written for staff and CatS and ERSM.&nbsp; Copy catalogers have more limited responsibility for sets.&nbsp; For their documentation, click <a href=\"/about/depts/cataloging/documentation/copy-cataloging#sets\"><span style=\"text-decoration: underline;\"><span style=\"color: #0066cc;\" color=\"#0066cc\">here.&nbsp;</span></span></a></p><p></p><p>1. Definitions.&nbsp; Analyzed/not analyzed, classed separately/classed together<br><span style=\"text-decoration: underline;\"><span style=\"color: #0066cc;\" color=\"#0066cc\"><a href=\"https://libcms.oit.duke.edu/node/343/edit?destination=admin/dashboard%3Fuid%3Damy.turner%26alias%3D%26items_per_page%3D10#holdings\">2. Holdings and items</a><br></span></span>2.5 Holdings and items for sets in classed together series<br><a href=\"https://libcms.oit.duke.edu/node/343/edit?destination=admin/dashboard%3Fuid%3Damy.turner%26alias%3D%26items_per_page%3D10#physical\"><span style=\"text-decoration: underline;\"><span style=\"color: #0066cc;\" color=\"#0066cc\">3. Physical description</span></span></a><br><a href=\"https://libcms.oit.duke.edu/node/343/edit?destination=admin/dashboard%3Fuid%3Damy.turner%26alias%3D%26items_per_page%3D10#tracings\">4<span style=\"color: #0066cc;\" color=\"#0066cc\"><span style=\"text-decoration: underline;\">. Tracings</span></span></a><br><a href=\"https://libcms.oit.duke.edu/node/343/edit?destination=admin/dashboard%3Fuid%3Damy.turner%26alias%3D%26items_per_page%3D10#standing\"><span style=\"color: #0066cc;\" color=\"#0066cc\"><span style=\"text-decoration: underline;\">5. Standing orders and added volumes</span></span></a><br><a href=\"https://libcms.oit.duke.edu/node/343/edit?destination=admin/dashboard%3Fuid%3Damy.turner%26alias%3D%26items_per_page%3D10#unnumbered\"><span style=\"color: #0066cc;\" color=\"#0066cc\"><span style=\"text-decoration: underline;\">6. Unnumbered sets</span></span></a><br><a href=\"https://libcms.oit.duke.edu/node/343/edit?destination=admin/dashboard%3Fuid%3Damy.turner%26alias%3D%26items_per_page%3D10#single\"><span style=\"color: #0066cc;\" color=\"#0066cc\"><span style=\"text-decoration: underline;\">7. Single volumes vs. sets</span></span></a><br><a href=\"https://libcms.oit.duke.edu/node/343/edit?destination=admin/dashboard%3Fuid%3Damy.turner%26alias%3D%26items_per_page%3D10#accompanying\"><span style=\"text-decoration: underline;\"><span style=\"color: #0066cc;\" color=\"#0066cc\">8. Accompanying material</span></span></a></p><p></p><p><a href=\"https://libcms.oit.duke.edu/node/343/edit?destination=admin/dashboard%3Fuid%3Damy.turner%26alias%3D%26items_per_page%3D10#appendix\"><span style=\"text-decoration: underline;\"><span style=\"color: #0066cc;\" color=\"#0066cc\">Appendix 1: Volumes added after initial cataloging</span></span></a></p><p></p><p><a href=\"https://libcms.oit.duke.edu/node/343/edit?destination=admin/dashboard%3Fuid%3Damy.turner%26alias%3D%26items_per_page%3D10#appendix2\"><span style=\"text-decoration: underline;\"><span style=\"color: #0066cc;\" color=\"#0066cc\">Appendix&nbsp;2: Vols. of sets in series in different binding units--local procedure for linking</span></span></a></p><p></p><p><strong>1. Definitions.&nbsp; Analyzed/not analyzed, classed separately/classed together <br></strong></p><p>Sets (aka multi-part items) are multi-volume monographs. To merit treatment as a set, multiple volumes must be physically separate.&nbsp; A work described as “2 v. in 1” is not a set.</p><p>While series go on indefinitely, sets have a projected end.&nbsp;&nbsp; Like series, sets may be either analyzed, with cataloging records for the individual parts, or unanalyzed.&nbsp; The decision to analyze is made by the cataloger at the time of cataloging and is a judgment of the usefulness of having records for the individual volumes.&nbsp; Sets whose volumes have distinctive titles and/or varying authors or editors are usually analyzed.&nbsp;</p><p>As in the case of series, analyzed sets may be classed together or separately.&nbsp;&nbsp; For classed together sets, there is a cataloging record for the set as well as the individual volumes (analytics).&nbsp; For classed separately sets, ONLY the analytics are cataloged.&nbsp; In both cases, the set titles appear in the analytic records in 4XX/8XX fields, which come under LTI authority control.&nbsp;&nbsp;&nbsp;</p><p>Prior to May 2002, all sets (with a few very rare exceptions) were classified together at Duke.&nbsp;&nbsp; Since then, we have followed the national policy of classifying almost all analyzed sets separately.&nbsp; An earlier version of this document included a list of exceptions from the LC descriptive cataloging manual, but since LC doesn't apply this list consistently, it is simpler to ignore it.</p><p>The LC descriptive cataloging manual states: \"LC or any other BIBCO library can vary from the default practice for reasons of local needs, preferences or resources.\"&nbsp;&nbsp; This gives us considerable leeway to do what makes sense in the individual circumstances.&nbsp; Experienced catalogers take into account LC practice, as well as policy, along with the individual circumstance.&nbsp;&nbsp; If there is an authority record for a new set, generally follow the decision in the 646 field (\"s\" means classed separately, \"c\" as a collection, i.e. together.</p><p>If we have already cataloged a set as classed together, additional volumes should get the same treatment.</p><p>When we started from the default of classing sets together, we sometimes ended up with layers of sets within sets, with the call number based on the largest set.&nbsp; With class sep sets as a default, this is generally not an issue.</p><p>In addition to the control of series tracings with authority records, there are several mechanisms to provide systematic access to sets and their parts without multiple bibliographic records.&nbsp;&nbsp; When volume titles are not distinctive enough to merit analytic records, but still might be searched, they can be given as 740's on the set record.&nbsp;&nbsp; This should be done only for small sets, and only when the set record already provides sufficient author access.&nbsp;&nbsp; On the other end of the scale, LC catalogs only the subsets for some enormous sets.&nbsp;&nbsp; For example, the Census of India comes out by state, and LC catalogs the state sets, not the set as a whole:</p><p>&nbsp; 1. Census of India, 1981. Series 1, India. (1)<br>&nbsp; 2. Census of India, 1981. Series 1, India. Paper. (1)<br>&nbsp; 3. Census of India, 1981. Series 1, India, part-II-special, report &amp; tables<br>&nbsp;&nbsp;&nbsp;&nbsp;&nbsp;&nbsp; based on 5 per cent sample data / P. Padmanabha (Registrar General &amp; Census Commissioner for India) (1)<br>&nbsp; 4. Census of India, 1981. Series 10, Kerala. (1)<br>&nbsp; 5. Census of India, 1981. Series 10, Kerala. Paper. (1)<br>&nbsp; 6. Census of India, 1981. Series 11, Madhya Pradesh. (1)<br>&nbsp; 7. Census of India, 1981. Series 11, Madhya Pradesh. Paper. (1)</p><p>The rest of this document deals primarily with unanalyzed sets, and also with the rare classed together analyzed sets.&nbsp; The analytics of classed separately sets are treated like the analytics of classed separately series.&nbsp;&nbsp;</p><p><a name=\"holdings\"></a></p><p><strong>2. Holdings and items&nbsp; </strong></p><p></p><p class=\"MsoNormal\" style=\"margin-bottom: 7.5pt; vertical-align: baseline; line-height: 16.8pt;\"><span style=\"font-size: 10.5pt; font-family: 'Helvetica',sans-serif; color: #333333; mso-bidi-font-family: 'Times New Roman'; mso-ansi-language: EN;\" lang=\"EN\">The most obvious difference between sets and single-volume works is that there is an item record for each physical piece, and the holdings record summarizes these items. <br></span></p><p class=\"MsoNormal\" style=\"margin-bottom: 7.5pt; vertical-align: baseline; line-height: 16.8pt;\"><span style=\"font-size: 10.5pt; font-family: 'Helvetica',sans-serif; color: #333333; mso-bidi-font-family: 'Times New Roman'; mso-ansi-language: EN;\" lang=\"EN\">Until the summer of 2016, data about the number of volumes the holdings record was recorded in 863/864/865 fields, which are designed for detailed enumeration that duplicates item information.&nbsp; Beginning July 2016, these fields are replaced by the 866/867/868 fields, which summarize holdings in a more user-friendly matter. In the majority of cases for sets, the summary will follow the pattern of v.1-v.10. This document focuses on these most common cases. For instructions on more complex cases, see the MARC documentation (https://www.loc.gov/marc/holdings) and the document “Duke University Libraries Holding Statements … found in f:\\data\\ERSM\\Documentation for Catalogers\\Best Practices Holdings and/or consult with serials cataloging or holdings management staff.</span></p><p class=\"MsoNormal\" style=\"margin-bottom: 7.5pt; vertical-align: baseline; line-height: 16.8pt;\"><span style=\"font-size: 10.5pt; font-family: 'Helvetica',sans-serif; color: #333333; mso-bidi-font-family: 'Times New Roman'; mso-ansi-language: EN;\" lang=\"EN\"><br>A macro does preliminary editing for the holdings record, changing record type x to v and inserting an 853 field with the default volume designator “v.” and an 866 field with the values v.1-v.&nbsp; The cataloger changes “v.” in both the 853 and the 866 to another designator if needed (see RDA appendix B for a list of abbreviations) and edits the default “1-“ as needed.&nbsp; Gaps in holdings are indicated by a comma.</span></p><p class=\"MsoNormal\" style=\"margin-bottom: 7.5pt; vertical-align: baseline; line-height: 16.8pt;\"><span style=\"font-size: 10.5pt; font-family: 'Helvetica',sans-serif; color: #333333; mso-bidi-font-family: 'Times New Roman'; mso-ansi-language: EN;\" lang=\"EN\">Examples:<br>Bd.1-Bd.8<br>t.3,t,6,t.9</span></p><p class=\"MsoNormal\" style=\"margin-bottom: 7.5pt; vertical-align: baseline; line-height: 16.8pt;\"><span style=\"font-size: 10.5pt; font-family: 'Helvetica',sans-serif; color: #333333; mso-bidi-font-family: 'Times New Roman'; mso-ansi-language: EN;\" lang=\"EN\">For hierarchial numbering, elements are separated by a colon, for example:</span></p><p class=\"MsoNormal\" style=\"margin-bottom: 7.5pt; vertical-align: baseline; line-height: 16.8pt;\"><span style=\"font-size: 10.5pt; font-family: 'Helvetica',sans-serif; color: #333333; mso-bidi-font-family: 'Times New Roman'; mso-ansi-language: EN;\" lang=\"EN\">Bd.1:T.1<br>v.1:pt.1-v.8:pt.3</span></p><p class=\"MsoNormal\" style=\"margin-bottom: 7.5pt; vertical-align: baseline; line-height: 16.8pt;\"><span style=\"font-size: 10.5pt; font-family: 'Helvetica',sans-serif; color: #333333; mso-bidi-font-family: 'Times New Roman'; mso-ansi-language: EN;\" lang=\"EN\">Note: optionally the cataloger can use the default \"v.\" rather than the designator used on the piece, as copy catalogers do.<br>In the item record, in the “general” tab, volume enumeration is recorded in two places.</span></p><p class=\"MsoNormal\" style=\"margin-bottom: 7.5pt; vertical-align: baseline; line-height: 16.8pt;\"><span style=\"font-size: 10.5pt; font-family: 'Helvetica',sans-serif; color: #333333; mso-bidi-font-family: 'Times New Roman'; mso-ansi-language: EN;\" lang=\"EN\">In enumeration level 1 and 2, the numbering is recorded without captions.&nbsp; For v.1:pt.1, record a 1 in each enumeration level.&nbsp; If there are more than 2 levels of enumeration, use the “serials levels” tab.</span></p><p class=\"MsoNormal\" style=\"margin-bottom: 7.5pt; vertical-align: baseline; line-height: 16.8pt;\"><span style=\"font-size: 10.5pt; font-family: 'Helvetica',sans-serif; color: #333333; mso-bidi-font-family: 'Times New Roman'; mso-ansi-language: EN;\" lang=\"EN\">Open the boxes in “85X Type/linking number” to connect to the 853 final digit and indicator.</span></p><p><span style=\"font-size: 10.5pt; font-family: 'Helvetica',sans-serif; color: #333333; mso-bidi-font-family: 'Times New Roman'; mso-ansi-language: EN;\" lang=\"EN\">The “description” box of the item record records the caption.&nbsp; This is used to generate spine labels.&nbsp; Levels are separated by colons, for example Bd.1:T.2 c.1</span></p><p>Note:&nbsp; In the item record, we add copy number even for copy 1.&nbsp; For example, v.1 c.1,&nbsp; Bd.6:T.3 c.2.&nbsp;&nbsp;&nbsp; \"c.1\" does not print on the call number label.&nbsp;</p><p>Note:&nbsp; Multiple copies are not recorded in the 866 field, only in the item records and in the fixed field of the holdings record. &nbsp;&nbsp;&nbsp;&nbsp;&nbsp;&nbsp; <br>&nbsp;2.1 Holdings and items for sets in classed together series&nbsp;</p><p>The practice of \"equivalencies\" for sets in classed together series has been suspended, pending the planned discontinuation of this treatment of series.&nbsp; Put books that would previously have required equivalencies on the designated shelf.</p><p></p><p></p><p><a name=\"physical\"></a></p><p></p><p><strong>3. Physical description&nbsp;</strong></p><p></p><p>The basis of the description for sets is the title page of the first volume.&nbsp; If details such as editors and imprint vary in subsequent volumes, this is recorded in notes.&nbsp; However, be alert for differences that indicate a different edition.&nbsp; Volumes from different editions of a set may be combined on the same record only in exceptional cases, with the permission of the section head.&nbsp; Usually, we use a separate record for each edition.</p><p>Sets are cataloged as either open or closed.&nbsp; Closed sets are those for which we have evidence that all volumes have been published.&nbsp; We may have all volumes in hand or we can accept another library's cataloging of the complete set.&nbsp; In a closed set, the 300 field contains the number of volumes (e.g. 5 v. ; $c 24 cm.).&nbsp; The date in the 260 field can be either a single date or a range.&nbsp; Be sure that the dates and date type in the fixed field correspond to the date(s) in the description.&nbsp; The 049 field shows which volumes we have.&nbsp; This may coincide with the number of volumes in the 300, or not.</p><p>If the set is not yet completely published, the 300 field is left open (e.g.&nbsp;&nbsp;&nbsp;&nbsp; v. ;&nbsp; $c 24 cm.).&nbsp;&nbsp; The dates are also left open. (260 $c 1997- ; Dat typ m; Dates 1997,9999).&nbsp; On LC copy, data about volumes that LC has received is recorded in &lt;&gt;‘s.&nbsp; We delete this information.&nbsp;</p><p>LCRI 2.7B18 calls for content notes \"when the publication is in two or more volumes and each volume has a title of its own\".&nbsp;&nbsp; Duke local practice is not to make contents notes for analyzed sets, since this would repeat the information in the analytic record.&nbsp; Many unanalyzed sets do not have contents notes either, as the volumes do not have titles.&nbsp; (Do not consider labels such as A-B to be titles, though some libraries do)&nbsp; So, contents notes are made only for titles that have some subject content but are not distinctive enough to be analyzed.&nbsp;&nbsp;</p><p></p><p>Example:</p><p>&nbsp;&nbsp;&nbsp;&nbsp;&nbsp;&nbsp;&nbsp;&nbsp; 245&nbsp; 10&nbsp; Census of India, 1991. $n Series 4, Assam. $p Paper.&nbsp;&nbsp; ...</p><p></p><p>&nbsp;&nbsp;&nbsp;&nbsp;&nbsp;&nbsp;&nbsp;&nbsp; 505&nbsp; 1&nbsp;&nbsp;&nbsp; 1991, 1. Provisional population totals.&nbsp;</p><p><a name=\"tracings\"></a></p><p><strong>4. Tracings&nbsp; <br></strong></p><p>Sets in series will have series statements that may include more than one volume.&nbsp; Past local Duke practice was to make additional added entries for non-consecutive volumes, so that the index of tracings will be complete.</p><p>This is not handled well by LTI, which generates a new tracing from the 4XX field.&nbsp; Beginning Jan. 2013, make one 830 with all of the numbers.</p><p>Examples:&nbsp;</p><p>491; 1;a&nbsp; Studi di letteratura francese ; $v 17-</p><p></p><p>830; 0;a Studi di letteratura francese ; $v 17-</p><p>(open set)</p><p>490; 1 ; a Studi bizantini e neoellenici ; $v v. 5-6</p><p>830&nbsp; 0;a Studi bizantini e neoellenici ; $v v. 5-6</p><p>(2 vol., consecutively numbered set)</p><p>490; 1 ;a Studi / Accademia toscana di scienze e lettere La Colombaria , $ x&nbsp; 0065-0781; $ v 10, 36, 57, 125&nbsp;</p><p>old practice:&nbsp;&nbsp;</p><p>830;&nbsp; 0; a Studi (Accademia toscana di scienze e lettere La Colombaria) ; $$v 10<br>830;&nbsp; 0; a Studi (Accademia toscana di scienze e lettere La Colombaria) ; $$v 36<br>etc.&nbsp;&nbsp;&nbsp;&nbsp;&nbsp;&nbsp;&nbsp;&nbsp;&nbsp;&nbsp;&nbsp;</p><p>new practice:</p><p>830; 0; a Studi (Accademia toscana di scienze e lettere La Colombaria) ; $$v 10, 36, 57, 125</p><p>For analyzed sets, there is a set tracing on the record for each analytic.&nbsp; Like series tracings, these should be consistent. In general, this is handled by LTI verification, but after working through issues of whether to analyze and classed separately, the cataloger may have more information than is the case with series.&nbsp; When cataloging an analyzed set and its analytics, be sure that the set tracing is in AACR2 form and matches the main entry of the set.&nbsp; This may involve changes to the choice of entry on the set record that would not be necessary for a single volume.&nbsp; For example, an editor who was given the main entry may need to be moved to an added entry.&nbsp; Be sure to be consistent with the volume designator, as well as the rest of the entry, so that all the tracings will file in order after the set cataloging in Aleph:</p><p>&nbsp; 9. Twain, Mark, 1835-1910. Works. 1972 ; v. 8. (1)<br>&nbsp;10. Twain, Mark, 1835-1910. Works. 1972 ; v. 9. (1)<br>&nbsp;11. Twain, Mark, 1835-1910. Works. 1996. (1)<br>&nbsp;12. Twain, Mark, 1835-1910. Works. 1996 ; 1. (1)<br>&nbsp;13. Twain, Mark, 1835-1910. Works. 1996 ; 10. (1)</p><p>Analyzed sets in series will have series tracings on both the set and the analytic copy.&nbsp;</p><p><a name=\"standing\"></a></p><p><strong>5. Standing orders and added volumes <br></strong></p><p>Sets on standing order are cataloged by the added volumes cataloger, who is also responsible for adding volumes to already cataloged set records, editing holdings and items records.&nbsp; She also makes any needed changes to the bibliographic record, including updating the contents, and closes the set when publication is complete.</p><p>For analyzed sets, the added volumes cataloger generally does the analytic cataloging for added volumes at the same time she adds them to the set record.&nbsp; She is responsible for being sure that the set tracing and call number are consistent.&nbsp; In a few cases, she may send the analytic to another cataloger after adding holdings to the set record.&nbsp;&nbsp;&nbsp; The call number is written in the book, and the cataloger treats this the same as a call numbers for a classed together series.</p><p>Sometimes, added volumes are misrouted, or are not recognized as added volumes.&nbsp; Catalogers should be alert for additional volumes to sets we have cataloged.&nbsp; Sometimes these will have erroneous copy which treats them as single volumes (see section 8).</p><p>If the added volume is analyzed, the added volumes cataloger may add it to the holdings, and then return it to the cataloger who found it to do the cataloging for the analytic.&nbsp;</p><p><a name=\"unnumbered\"></a></p><p><strong>6. Unnumbered sets <br></strong></p><p>If an unanalyzed set has no numbering, numbers must be assigned by the cataloger.&nbsp;&nbsp; Often, LC or a member library will have done the work.&nbsp; If you must assign the numbers and the set is open, try to set up a pattern that can be easily followed by the catalogers adding additional volumesr.</p><p>&nbsp;&nbsp; 245; 00;a X censo general de población y vivienda, 1980 : $b integración&nbsp; territorial ... $<br>&nbsp;&nbsp; 260; 0 ;a México, D.F. : $b Instituto Nacional de Estadística, Geografía e Informática, $c c1985- $<br>&nbsp;&nbsp; 300;&nbsp;&nbsp; ;a v. : $b col. maps ; $c 28 cm. $<br>&nbsp;&nbsp; 500;&nbsp;&nbsp; ;a Chiefly tables. $<br>&nbsp;&nbsp; 505; 1 ;a [1] Estado de Aguascalientes -- [2] Estado de Baja California&nbsp; ... [29] Estado de&nbsp; Tlaxcala. [31]&nbsp; Estado do Yucatán. [32] Zacatecas.</p><p>(The various Mexican census publications have one volume per state, unnumbered.&nbsp; LC puts the volumes in alphabetical order.)</p><p>(Unnumbered, analyzed sets were classed separately at Duke even before other sets)&nbsp;</p><p><a name=\"single\"></a></p><p><strong>7. Single volumes vs. sets&nbsp;</strong></p><p></p><p>Be alert for books that are cataloged on OCLC as single volumes, but are actually part of unanalyzed sets (or series).&nbsp; There is a lot of copy that was created in error and should not be used.&nbsp;&nbsp; Vendors routinely create records for individual volumes that are clearly parts of sets.</p><p>&nbsp; Set in the catalog:</p><p>&nbsp;&nbsp; 100; 1 ;a Claudianus, Claudius. $<br>&nbsp;&nbsp; 240; 10;a Works. $l French &amp; Latin $<br>&nbsp;&nbsp; 245; 10;a Oeuvres / $c Claudien ; texte etabli et traduit par Jean-Louis&nbsp;Charlet. $<br>&nbsp;&nbsp; 260;&nbsp;&nbsp; ;a Paris : $b Les Belles Lettres, $c 1991- $<br>&nbsp;&nbsp; 300;&nbsp;&nbsp; ;a v. ; $c 20 cm. $<br>&nbsp;&nbsp; 440;&nbsp; 0;a Collection des universites de France $</p><p>&nbsp; Copy in OCLC (DO NOT USE):</p><p>Ü040&nbsp;&nbsp;&nbsp; FAV ßb fre ßc FAV<br>Ü020&nbsp;&nbsp;&nbsp; 2251014160<br>Ü041 1&nbsp; frelat ßh lat<br>Ü092 1&nbsp; 878 ßf CLA<br>Ü092&nbsp;&nbsp;&nbsp; ßb<br>Ü049&nbsp;&nbsp;&nbsp; NDDP<br>Ü100 1&nbsp; Claudianus, Claudius<br>Ü245 10 Oeuvres. ßn Tome II, 1, ßp Poáemes politiques (395-398) / ßc Claudien ; texte âetabli et traduit par Jean-Louis Charlet,...<br>Ü260&nbsp;&nbsp;&nbsp; Paris : ßb les Belles lettres, ßc 2000.<br>Ü300&nbsp;&nbsp;&nbsp; lxxxviii, 222 p., pagination double p. [6]-23, [32]-48, [54]-80, [87]-122 ; ßc 20 cm.<br>Ü490 1&nbsp; Collection des universitâes de France. Sâerie latine ; ßv 358<br>Ü504&nbsp;&nbsp;&nbsp; Bibliogr. p. [LXXXI]-LXXXVIII. Notes bibliogr.<br>Ü546&nbsp;&nbsp;&nbsp; Texte latin et trad. franðcaise en regard.<br>Ü700 1&nbsp; Charlet, Jean-Louis<br>Ü830&nbsp; 0 Collection des universitâes de France ; ßv 358</p><p>However, in some cases, a book that started out as a single volume is continued, and it is OK to have records for each volume.&nbsp; All three titles listed below were individually cataloged by LC.</p><p>1. Relativistic theory of atoms and molecules : a bibliography, 1916-1985.<br>2. Relativistic theory of atoms and molecules II : a bibliography, 1986-1992.<br>3. Relativistic theory of atoms and molecules III : a bibliography, 1993-1999</p><p>&nbsp;Often, the results of archaeological excavations are published under titles consisting of the name of the site plus a roman numeral. Subtitles and editors tend to vary.&nbsp; LC usually catalogs these as single volumes.</p><p>010&nbsp;&nbsp;&nbsp; 2006501857<br>040&nbsp; DLC ǂc DLC<br>020&nbsp; 8888438025<br>020&nbsp; 9788888438023<br>043&nbsp; e-it---<br>05000DG70.M67 ǂb M653 2004<br>090&nbsp; ǂb<br>049&nbsp; NDDP<br>24500Mozia, X : ǂb rapporto preliminare della XXII campagna di scavi, 2002 condotta congiuntamente con il Servizio beni archeologici della Soprintendenza regionale per i beni culturali e ambientali di Trapani / ǂc a cura di Lorenzo Nigro ; con contributi di Lorenzo Nigro ... [et al.].<br>2463 Mozia, 10<br>260&nbsp; Roma : ǂb Missione archeologica a Mozia, ǂc 2004.<br>300&nbsp; iv, 509 p. : ǂb ill., maps ; ǂc 25 cm.<br>4900 Quaderni di archeologia fenicio-punica ; ǂv 1<br>500&nbsp; At head of title: Università degli studi di Roma \"La Sapienza,\" Dipartimento di scienze storiche archeologiche e antropologiche dell'antichità, Sezione Vicino oriente.<br>504&nbsp; Includes bibliographical references.<br>5050 Zona C. Il Kothon -- Zona D. Le pendici occidentali dell'Acropoli -- Zona F. La Porta ovest.<br>651 0Motya (Extinct city)<br>650 0Excavations (Archaeology) ǂz Italy ǂz Motya (Extinct city) ǂv Catalogs.<br>651 0San Pantaleo Island (Italy) ǂx Antiquities, Phoenician ǂv Catalogs.<br>650 0Phoenicians ǂz Italy ǂz Motya (Extinct city)<br>7001 Nigro, Lorenzo.<br>7101 Italy. ǂb Soprintendenza per i beni culturali ed ambientali di Trapani<br>7102 Università degli studi di Roma \"La Sapienza.\" ǂb Sezione Vicino Oriente.<br><br>Sometimes, LC will revise cataloging of a single volume to include later volumes, and we use the revised cataloging.&nbsp; The following record was initially for the first volume only.</p><p>&nbsp;010&nbsp;&nbsp;&nbsp;&nbsp; 89035946</p><p>040&nbsp; DLC ǂc DLC ǂd PMC ǂd MUQ ǂd BAKER ǂd BTCTA ǂd YDXCP<br>...<br>24500Safety in ice hockey / ǂc C.R. Castaldi and Earl F. Hoerner, editors.<br>260&nbsp; Philadelphia, PA : ǂb ASTM, ǂc c1989-&lt;c2004&gt;<br>300&nbsp; v. &lt;1-4&gt; : ǂb ill. ; ǂc 24 cm.<br>4901 STP ; ǂv 1050, 1212, 1341, 1446<br>500&nbsp; Vol. 2 (STP ; 1212) edited also by P.J. Bishop; v. 3 edited by Alan B. Ashare.<br>500&nbsp; Vol. 4 (STP ; 1446) edited by D.J. Pearsall and A.B. Ashare.</p><p>Whether to catalog something as a set is often a matter of judgment.&nbsp;&nbsp; Lately, LC seems less and less likely to do so when there are advantages to individual treatment (for example, varying editors and subtitles).&nbsp; In general, follow LC, PCC or other reputable cataloging agencies, unless they are clearly in error.&nbsp; If we have already cataloged a possible set as several single volumes, generally do not recatalog unless there is good copy for the set.&nbsp;&nbsp;&nbsp;</p><p><a name=\"accompanying\"></a></p><p><strong>8. Accompanying material </strong></p><p></p><p class=\"MsoNormal\" style=\"margin-bottom: 7.5pt; vertical-align: baseline; line-height: 16.8pt;\"><span style=\"font-size: 10.5pt; font-family: 'Helvetica',sans-serif; color: #333333; mso-ansi-language: EN;\" lang=\"EN\">If accompanying material is housed in a pocket of the work it is accompanies, it is recorded in [a] note[s] in the item record (see the section on Materials in pockets above).&nbsp;</span></p><p class=\"MsoNormal\" style=\"margin-bottom: 7.5pt; vertical-align: baseline; line-height: 16.8pt;\"><span style=\"font-size: 10.5pt; font-family: 'Helvetica',sans-serif; color: #333333; mso-ansi-language: EN;\" lang=\"EN\">If accompanying material is housed separately and can circulate on its own, it must have a separate item record.<br></span></p><p class=\"MsoNormal\" style=\"margin-bottom: 7.5pt; vertical-align: baseline; line-height: 16.8pt;\"><span style=\"font-size: 10.5pt; font-family: 'Helvetica',sans-serif; color: #333333; mso-ansi-language: EN;\" lang=\"EN\">The rules for how to record accompanying material in the description do not take into account whether the material is in a pocket, or circulates on its own. <br></span></p><p class=\"MsoNormal\" style=\"margin-bottom: 7.5pt; vertical-align: baseline; line-height: 16.8pt;\"><span style=\"font-size: 10.5pt; font-family: 'Helvetica',sans-serif; color: #333333; mso-ansi-language: EN;\" lang=\"EN\">RDA rules are evolving.&nbsp; As in AACR2 there are various options, including a separate record for the accompanying material. If accompanying material is described in the same record as the main work, it can appear in the 300 field (example: 271 p. : illustrations ; 21 cm. + 1 atlas) or in a note.&nbsp; Or, text and accompanying material can be considered volumes of a set, with “made-up” numbering.&nbsp; In recent years, there has been a trend to this method at LC.&nbsp; For example:<br><br>&nbsp;&nbsp;&nbsp;&nbsp;&nbsp;&nbsp;&nbsp;&nbsp;&nbsp;&nbsp;&nbsp;&nbsp;&nbsp;&nbsp;&nbsp; 300&nbsp; 2 volumes<br><br>&nbsp;&nbsp;&nbsp;&nbsp;&nbsp;&nbsp;&nbsp;&nbsp;&nbsp;&nbsp;&nbsp;&nbsp;&nbsp;&nbsp;&nbsp; 505&nbsp; [v.1] Text – [v.2] Plates.<br><br>A new option with RDA is to repeat the 300 field:<br><br>&nbsp;&nbsp;&nbsp;&nbsp;&nbsp;&nbsp;&nbsp;&nbsp;&nbsp;&nbsp;&nbsp; 300&nbsp; 254 pages<br>&nbsp;&nbsp;&nbsp;&nbsp;&nbsp;&nbsp;&nbsp;&nbsp;&nbsp;&nbsp;&nbsp; 300&nbsp; 1 workbook (85 pages)<br><br>In the past, accompanying material was always recorded in the holdings record.&nbsp; Beginning in July 2016, works consisting of one volume with one piece of accompanying material are considered single volumes, although they have two item records.&nbsp; In the example above with two 300 fields, the second item record has “workbook” in the “description” element.&nbsp; In the example “271 p. : illustrations ; 21 cm. + 1 atlas” it would be “atlas”.&nbsp; The holdings record has no 866, 853 or 854, and is coded type x.<br><br>The definition of “volume” in this context is “physical piece.”&nbsp; For example, a container of 2 videodiscs with an accompanying booklet gets a type x holdings record, without an 866 or 853/4.&nbsp; There are two items.&nbsp; The item for the discs has either the default “c.1” or nothing at all in the “description” element.&nbsp; The item for the accompanying booklet has “booklet” in the “description” element.&nbsp; The number of discs is recorded in a circ note: “check for __ discs”.<br><br>If copy (especially LC copy) numbers text and accompanying material as volumes, generally leave this unedited and edit the holdings and items record to match.&nbsp; However, when the cataloger has the opportunity to make the decision, preference should be given to the user-friendly op</span></p><p><a name=\"appendix\"></a></p><p><strong>APPENDIX 1: Volumes added after initial cataloging.</strong></p><p>When a set has already been cataloged, and additional volumes are received by the Monographic Acquisitions staff handling standing order sets (Antha Marshall), she updates the cataloging record to reflect the additional volumes.&nbsp; In other cases, additional volumes may not be part of a standing order, and may be received by other staff in Monographic Acquistions. These are put on the CatS shelves, and original catalogers update the existing record.</p><p>Many older sets will have been cataloged using 863/864/865 fields.&nbsp; These should be translated into 866/867/868 fields as additional volumes are added.&nbsp; The old fields do not need to be deleted. However, if there are not many, the cataloger may choose to delete, for example replacing an 863 \"1-2\" with and 866 \"v.1-v.3\". &nbsp; In cases of very complicated holdings, the cataloger may add items without editing the holdings.</p><p>Policies for set cataloging, both national and local, have evolved over the years, so when adding volumes, catalogers must deal with a range of practice.&nbsp;&nbsp; Perhaps the most significant trend is to favor national over local policy.&nbsp; For example, in the past we have sometimes expanded on \"the rule of three\" for making added entries for volume editors.&nbsp;&nbsp; The current departmental policy is to absolutely minimize local policy.&nbsp; See the introduction to \"Standards\" at https://intranet.lib.duke.edu/groups/monographic-cataloging/Documentation/standards.</p><p>Another trend is the one away from layers of cataloging for sets and analytics.&nbsp;&nbsp; Current policy (both national and local) is to either catalog a set as unanalyzed, or do the analytics classed separately, without a set record.&nbsp;&nbsp; However, we follow the older practice when adding volumes to an existing analyzed set.&nbsp; This is not an absolute rule, because the changing nature of sets may call for a change in cataloging.&nbsp;</p><p>One problem with the old practice of cataloging both sets and analytics is confusion about where the barcode, and therefore the circulation status, is found.&nbsp; At one time, item records were created for both the set and the analytic, but currently records from analyzed sets should not have item records or 863 fields.&nbsp; The holdings are summarized in a 866 field.&nbsp; Over time, we have used various notes on the set holdings record to refer users to the analytic records.&nbsp; The latest wording of the note is given in the example below:</p><p>866 0 $$8 0 $$a For information about individual volumes in this set, search records listed under set title: Oxford history of the United States.<br>866 0 $$8 0 $$a Library has: v. 2, 6, 9-10</p><p>Planning is underway to suppress bibliographic holdings records for analyzed sets and series.&nbsp; In the meantime, these records should be suppressed as they are encountered.</p><p>Changes in title</p><p>Occasionally, later volumes of a set will have a different title than earlier ones.&nbsp;&nbsp; AACR2 21.2A1 reads \"If a change occurs in the title proper of a multipart monograph between parts, give/retain the title proper of the first or earliest part as the title proper of the whole monograph. In general, give the later title proper in a note and make an added entry as instructed in 21.30J1.\"&nbsp;</p><p>This means to make a 246, with an explanation of the title change in the $i, for example:<br>&nbsp;&nbsp; 246 1&nbsp;&nbsp;&nbsp; $i Title of vol. 6- : $a And now for something completely different,</p><p>Changes from a set to a series</p><p>A work that is initially cataloged as a set may turn out to be a series.&nbsp;&nbsp; If LC or another reputable cataloging agency changes the cataloging from a set to a series, or if for whatever reason it seems advisable to do this, consult with a serials cataloger.&nbsp; The change may be associated with a title change.&nbsp;&nbsp; As noted above, changed titles of sets are recorded in 246 fields, but a major title change for a series requires a new record,</p><p>Replacing records on OCLC</p><p>Even after inital cataloging is completed,&nbsp; catalogers have the option of making changes nationally by replacing the master record in OCLC, then overlaying the Aleph record with the updated version.&nbsp;&nbsp; This is a real service to the cataloging community, especially when closing out a set.&nbsp; To avoid extra work, this is generally only done when OCLC is searched anyway, for example because of a problem with the Aleph copy.&nbsp;&nbsp; It is only done when the cataloger is confident that the changes are correct and a definite improvement to OCLC.</p><p>Local changes should not be made to the master record.&nbsp;&nbsp;&nbsp; LC holdings in &lt;&gt;'s in the 300 are considered local, as are 830's for non-consecutive numbers in a series.</p><p>When replacing a record, use the Connexion \"control headings\" feature to verify the headings.</p><p><a name=\"appendix2\"></a></p><p>Appendix 2. <strong>Volumes of sets in series in different binding units--local linking procedure</strong></p><p></p><p style=\"text-align: left;\" mce_style=\"text-align: left;\">When volumes of sets in series are in different binding units, create local records for the volumes that are in different binding units, with the volume number in the subfield n of the 245 field.</p><p></p><p style=\"text-align: left;\" mce_style=\"text-align: left;\">&nbsp;When cataloging the local record for each volume, duplicate the set bib record, and add a volume number in $$n to the title.</p><p></p><p>&nbsp;Also edit the following fields in the local record (parent record):</p><p></p><ol type=\"1\"><li>Change 008 field to single date of the volume;</li><li>Change 035 field to 935;</li><li>Change 040 field to $$c NDD $$d NDD;</li><li>Change 050 99 field to call number match the binding unit no.;</li><li>Change 260 field to the publication date of the volume;</li><li>Change 300 field to the page numbers of the volume;</li><li>Change 490 and 830 fields to individual vol. for series tracing;</li><li>Delete SRC and DRA fields, and keep OCL field.</li></ol><p></p><p>Create each local record same as above for the child record in the new binding unit, expect delete the 050 99 field and add a LKR field for each child record.</p><p></p><p>Add an 866 field in each set record: \"LIBRARY HAS: ... &nbsp;// For information about items not displayed here, search title: ...\"; delete the 863s from HOL record and items in different binding units from each set record.</p><p></p><p>Example for serial title: Studia warszawskie (DK4610 .S783)</p><p></p><p>. 12, 16, 22 belong to the set bib: 2502950</p><p></p><p>t. 7, 10, 17, 23 belong to the set bib: 2599498</p><p></p><p>t. 22-23 are bound together.</p><p></p><p>&nbsp;</p><p></p><p>New bib records were created:</p><p></p><p>t. 23 (bib: 4177841, parent record)</p><p></p><p>t. 22 (bib: 4177842, child record)</p><p></p><p>&nbsp;</p><p></p>",
            "revision_id" : 19619,
            "deleted" : 0,
            "body_format" : "full_html",
            "delta" : 0,
            "bundle" : "about_page",
            "entity_id" : 343,
            "body_summary" : "",
            "langcode" : "und"
         },
         "vuuid" : "77ee06d3-bb33-4cff-abb7-063882e7c881",
         "title" : "Multiple physical pieces",
         "node_revision__field_tags" : []
      }
   ]
}

