{
   "revisions" : [
      {
         "timestamp" : 1440177837,
         "uid" : 4,
         "promote" : 0,
         "sticky" : 0,
         "comment" : 1,
         "log" : "",
         "status" : 1,
         "field_revision" : {
            "title" : "Looking In, Looking Out",
            "changed" : null,
            "status" : 1,
            "uid" : 1,
            "langcode" : null,
            "created" : null,
            "revision_translation_affected" : 1,
            "sticky" : 0,
            "default_langcode" : 1
         },
         "node_revision__body" : {
            "body_summary" : "",
            "entity_id" : 1095,
            "langcode" : "und",
            "deleted" : 0,
            "body_format" : "full_html",
            "delta" : 0,
            "bundle" : "exhibit",
            "body_value" : "<p>This exhibit showcases the ways Duke's Thompson Writing Program faculty take student writing beyond the walls of their individual classrooms out into the public eye. Through exhibits of student work at the Nasher Museum and Perkins Library, public blogs, the Deliberations first year journal of writing, service learning projects in the Durham community, the annual \"Critical Ink\" research showcase, and the Reader Project, many first year Writing 20 students gain experience in how to write for a public audience.</p>",
            "revision_id" : 11083
         },
         "vuuid" : "c1ae6c04-89b9-4cb4-b6b7-38d05b386083",
         "title" : "Looking In, Looking Out",
         "node_revision__field_tags" : []
      }
   ],
   "node__body" : {
      "revision_id" : 11083,
      "body_value" : "<p>This exhibit showcases the ways Duke's Thompson Writing Program faculty take student writing beyond the walls of their individual classrooms out into the public eye. Through exhibits of student work at the Nasher Museum and Perkins Library, public blogs, the Deliberations first year journal of writing, service learning projects in the Durham community, the annual \"Critical Ink\" research showcase, and the Reader Project, many first year Writing 20 students gain experience in how to write for a public audience.</p>",
      "deleted" : 0,
      "delta" : 0,
      "body_format" : "full_html",
      "bundle" : "exhibit",
      "langcode" : "und",
      "entity_id" : 1095,
      "body_summary" : ""
   },
   "vid" : 11083,
   "field_image" : {
      "file_uuid" : "49fd3e8f-159f-4e5c-b639-129056399fb8",
      "language" : "und",
      "deleted" : 0,
      "field_image_fid" : 1671,
      "revision_id" : 11083,
      "field_image_target_id" : 1671,
      "entity_id" : 1095,
      "field_image_title" : "",
      "field_image_alt" : "",
      "field_image_width" : 387,
      "bundle" : "exhibit",
      "delta" : 0,
      "entity_type" : "node",
      "field_image_height" : 600,
      "langcode" : "und"
   },
   "nid" : "1095",
   "asidebox" : null,
   "langcode" : "und",
   "uuid" : "6ea58f53-9dca-46b5-a2c6-46f7423ab9d9",
   "type" : "exhibit",
   "node__field_image" : {},
   "field_tags" : [],
   "node_field_data" : {
      "type" : "exhibit",
      "changed" : null,
      "promote" : 0,
      "langcode" : "und",
      "uid" : 1,
      "revision_translation_affected" : 1,
      "title" : "Looking In, Looking Out",
      "created" : 1438983011,
      "status" : 1,
      "default_langcode" : 1,
      "sticky" : 0
   },
   "path_alias" : {
      "alias" : "/exhibits/2011/writing-for-the-public-eye",
      "pid" : 1585,
      "language" : "und",
      "langcode" : "und",
      "status" : 0
   },
   "node_access" : {
      "grant_view" : 1,
      "grant_update" : 0,
      "nid" : 1095,
      "grant_delete" : 0,
      "realm" : "all",
      "langcode" : "und",
      "gid" : 0
   }
}

