{
   "type" : "about_page",
   "field_image" : null,
   "uuid" : "6f114181-ab69-4c45-9517-6f794035ecad",
   "vid" : 14814,
   "node__body" : {
      "body_value" : "<ul>\r\n\t<li>Do not leave personal belongings unattended. &nbsp;</li>\r\n\t<li>You are responsible for your belongings at all times. &nbsp;</li>\r\n\t<li>When leaving your seat, please take your things with you.&nbsp;</li>\r\n\t<li>Do not leave your belongings to reserve a study space.&nbsp;</li>\r\n\t<li>Belongings left unattended in a group study room for more than 15 minutes may be removed to the nearest lost and found.&nbsp;</li>\r\n\t<li><strong>There is a risk of theft if you leave your laptop, phone, or other personal belongings unattended.</strong></li>\r\n</ul>\r\n\r\n<p>If you are a graduate student and need a place to keep personal belongings in the Perkins &amp; Bostock Libraries or at Lilly Library, consider&nbsp;<a href=\"/using/lockers\">requesting a locker</a>.</p>\r\n\r\n<p>If you are searching for a lost item, go to the Service Desk in Perkins Library or Lilly Library. &nbsp;Additionally, you can consult&nbsp;<a href=\"https://today.duke.edu/working\" target=\"_blank\">Working@Duke</a>&#39;s campus map of&nbsp;<a href=\"https://www.google.com/maps/d/viewer?mid=zEd2cIh6UBF0.k4JcQpB_fhmo\">lost and found locations</a>&nbsp;and contact&nbsp;<a href=\"https://police.duke.edu/services/lost_found.php\" target=\"_blank\">Duke Police</a>.</p>\r\n",
      "revision_id" : 14814,
      "deleted" : 0,
      "delta" : 0,
      "body_format" : "full_html",
      "bundle" : "about_page",
      "entity_id" : 1251,
      "body_summary" : "",
      "langcode" : "und"
   },
   "langcode" : "und",
   "revisions" : [
      {
         "log" : "",
         "sticky" : 0,
         "comment" : 1,
         "status" : 1,
         "field_revision" : {
            "status" : 1,
            "uid" : 1,
            "langcode" : null,
            "created" : null,
            "revision_translation_affected" : 1,
            "sticky" : 0,
            "default_langcode" : 1,
            "title" : "Unattended Personal Belongings Policy",
            "changed" : null
         },
         "node_revision__body" : {
            "body_value" : "<ul>\r\n\t<li>Do not leave personal belongings unattended. &nbsp;</li>\r\n\t<li>You are responsible for your belongings at all times. &nbsp;</li>\r\n\t<li>When leaving your seat, please take your things with you.&nbsp;</li>\r\n\t<li>Do not leave your belongings to reserve a study space.&nbsp;</li>\r\n\t<li>Belongings left unattended in a group study room for more than 15 minutes may be removed to the nearest lost and found.&nbsp;</li>\r\n\t<li><strong>There is a risk of theft if you leave your laptop, phone, or other personal belongings unattended.</strong></li>\r\n</ul>\r\n\r\n<p>If you are a graduate student and need a place to keep personal belongings in the Perkins &amp; Bostock Libraries or at Lilly Library, consider&nbsp;<a href=\"/using/lockers\">requesting a locker</a>.</p>\r\n\r\n<p>If you are searching for a lost item, go to the Service Desk in Perkins Library or Lilly Library. &nbsp;Additionally, you can consult&nbsp;<a href=\"https://today.duke.edu/working\" target=\"_blank\">Working@Duke</a>&#39;s campus map of&nbsp;<a href=\"https://www.google.com/maps/d/viewer?mid=zEd2cIh6UBF0.k4JcQpB_fhmo\">lost and found locations</a>&nbsp;and contact&nbsp;<a href=\"https://police.duke.edu/services/lost_found.php\" target=\"_blank\">Duke Police</a>.</p>\r\n",
            "revision_id" : 14814,
            "deleted" : 0,
            "delta" : 0,
            "body_format" : "full_html",
            "bundle" : "about_page",
            "entity_id" : 1251,
            "body_summary" : "",
            "langcode" : "und"
         },
         "title" : "Unattended Personal Belongings Policy",
         "vuuid" : "3450a52a-5492-4958-892b-aa5a71923f82",
         "node_revision__field_tags" : [],
         "timestamp" : 1482330520,
         "uid" : 4,
         "promote" : 0
      }
   ],
   "node_access" : null,
   "asidebox" : {
      "status" : "disabled",
      "block_delta" : null,
      "body_value" : null,
      "block_module" : null,
      "body_format" : null,
      "vid" : 14814,
      "bid" : null,
      "body_title" : "",
      "nid" : 1251
   },
   "nid" : "1251",
   "node_field_data" : {
      "uid" : 1,
      "langcode" : "und",
      "revision_translation_affected" : 1,
      "type" : "about_page",
      "promote" : 0,
      "changed" : null,
      "created" : 1449514894,
      "status" : 1,
      "default_langcode" : 1,
      "sticky" : 0,
      "title" : "Unattended Personal Belongings Policy"
   },
   "path_alias" : {
      "alias" : "/using/policies/personal-belongings",
      "pid" : 1775,
      "language" : "und",
      "status" : 0,
      "langcode" : "und"
   },
   "field_tags" : []
}

