{
   "node_access" : null,
   "asidebox" : {
      "status" : "html",
      "block_delta" : "14",
      "body_format" : "full_html",
      "block_module" : "block",
      "body_value" : "<div style=\"text-align: center; padding: 10px;\"><img src=\"/sites/default/files/dul/users/megan.crain/8119100157_72a6fd6f61.jpg\" alt=\"Duke University Libraries\" width=\"300\" height=\"200\"></div><div style=\"text-align: center; padding: 10px;\"><a href=\"https://www.gifts.duke.edu/library\"> <button style=\"width: 100%;\" class=\"btn btn-large btn-primary\"> Give Now </button> </a></div><p style=\"text-align: center; padding: 10px;\"><a href=\"/about/depts/colldev/gifts-in-kind\" title=\"Donating Materials to Duke University Libraries\"> Donating Materials </a></p><p style=\"text-align: center; padding: 10px;\"><a href=\"/services/visitors\" title=\"Visiting the Libraries\"> Visiting the Libraries </a></p>",
      "nid" : 248,
      "body_title" : "",
      "vid" : 30460,
      "bid" : 467
   },
   "nid" : "248",
   "field_tags" : [],
   "node_field_data" : {
      "promote" : 0,
      "changed" : null,
      "type" : "library_services_page",
      "revision_translation_affected" : 1,
      "langcode" : "und",
      "uid" : 1,
      "title" : "Services for Donors",
      "sticky" : 0,
      "default_langcode" : 1,
      "status" : 1,
      "created" : 1376509025
   },
   "path_alias" : {
      "language" : "und",
      "pid" : 422,
      "alias" : "/services/donors",
      "status" : 0,
      "langcode" : "und"
   },
   "field_image" : null,
   "type" : "library_services_page",
   "node__body" : {
      "body_summary" : "",
      "entity_id" : 248,
      "langcode" : "und",
      "deleted" : 0,
      "delta" : 0,
      "body_format" : "full_html",
      "bundle" : "library_services_page",
      "body_value" : "<h2>Service Changes for 2021</h2><p>For the time being, library buildings and services remain closed to the general public and are only accessible to Duke students, faculty, and staff with a valid Duke ID.</p><h2>Borrow Items</h2><p>If you do not have a current affiliation with Duke, you can obtain borrowing privileges for one year by joining the <a href=\"https://library.duke.edu/support/friends/membership-benefits\"> Friends of the Duke University Libraries </a> with a minimum donation of $100.&nbsp;&nbsp;</p><p>A Friends' borrowing card allows you to check out print materials from:</p><ul><li><a href=\"/\" title=\"Duke University Libraries Catalog\"> Perkins and Bostock Libraries </a></li><li><a href=\"https://library.divinity.duke.edu/\" title=\"Divinity School Library\"> Divinity School Library </a></li><li><a href=\"/lilly/\" title=\"Lilly Library\"> Lilly Library </a></li><li><a href=\"/music/\"> Music Library </a></li><li><a href=\"https://law.duke.edu/lib/\"> Goodson Law Library </a></li></ul><p>To receive a borrowing card, please visit the Circulation Desk at Perkins, Lilly or Goodson Library, or visit the Friends of the Duke University Libraries <a href=\"https://library.duke.edu/support/friends\"> website </a> for more information on how to give. &nbsp;A minimum gift of <strong> $100 </strong> is required to obtain or renew a borrowing card. &nbsp;If you plan to <a href=\"https://www.gifts.duke.edu/library\"> give online </a> , please allow at least 48 hours before requesting a card to allow your gift to process. &nbsp;</p><p><strong> Please note: </strong> Materials may not be removed from the Rubenstein Rare Book &amp; Manuscript Library. &nbsp;Learn more about using the <a href=\"/rubenstein/research/readingroom\" title=\"Rubenstein Reading Room\"> Rubenstein Reading Room </a> .&nbsp; Please contact the <a href=\"https://library.fuqua.duke.edu/\"> Ford Library </a> at the Fuqua School of Business directly for information about borrowing materials from their collections.</p><p><strong> Off-campus access </strong> to e-journals and databases is not available for Friends of the Duke University Libraries. &nbsp;If you are interested in accessing an online database or e-journal, please <a href=\"/services/visitors\"> visit </a> one of our locations. &nbsp;</p><p>Use Online Services</p><ul><li><a href=\"/research/ask\" title=\"Ask Us\"> Ask a reference librarian </a></li><li><a href=\"/digitalcollections/\" title=\"Duke University Libraries Digital Collections\"> Browse digital collections </a></li><li><a href=\"https://dukealumni.com/forever-learning/dukereads\" title=\"DukeReads\"> Join DukeReads </a></li><li><a href=\"https://blogs.library.duke.edu/\" title=\"News, Events, &amp; Exhibits\"> Catch up on library news </a></li><li><a href=\"https://colldev.lib.duke.edu/request\"> Suggest a Purchase </a></li></ul>",
      "revision_id" : 30460
   },
   "vid" : 30460,
   "uuid" : "6f8dd529-3807-45ce-bca4-758885ca3187",
   "langcode" : "und",
   "revisions" : [
      {
         "uid" : 25,
         "timestamp" : 1617806414,
         "promote" : 0,
         "field_revision" : {
            "revision_translation_affected" : 1,
            "sticky" : 0,
            "default_langcode" : 1,
            "uid" : 1,
            "status" : 1,
            "langcode" : null,
            "created" : null,
            "changed" : null,
            "title" : "Services for Donors"
         },
         "status" : 1,
         "comment" : 1,
         "sticky" : 0,
         "log" : "",
         "node_revision__field_tags" : [],
         "title" : "Services for Donors",
         "vuuid" : "f313e78f-85d6-4a00-828c-f7eecac05672",
         "node_revision__body" : {
            "revision_id" : 30460,
            "body_value" : "<h2>Service Changes for 2021</h2><p>For the time being, library buildings and services remain closed to the general public and are only accessible to Duke students, faculty, and staff with a valid Duke ID.</p><h2>Borrow Items</h2><p>If you do not have a current affiliation with Duke, you can obtain borrowing privileges for one year by joining the <a href=\"https://library.duke.edu/support/friends/membership-benefits\"> Friends of the Duke University Libraries </a> with a minimum donation of $100.&nbsp;&nbsp;</p><p>A Friends' borrowing card allows you to check out print materials from:</p><ul><li><a href=\"/\" title=\"Duke University Libraries Catalog\"> Perkins and Bostock Libraries </a></li><li><a href=\"https://library.divinity.duke.edu/\" title=\"Divinity School Library\"> Divinity School Library </a></li><li><a href=\"/lilly/\" title=\"Lilly Library\"> Lilly Library </a></li><li><a href=\"/music/\"> Music Library </a></li><li><a href=\"https://law.duke.edu/lib/\"> Goodson Law Library </a></li></ul><p>To receive a borrowing card, please visit the Circulation Desk at Perkins, Lilly or Goodson Library, or visit the Friends of the Duke University Libraries <a href=\"https://library.duke.edu/support/friends\"> website </a> for more information on how to give. &nbsp;A minimum gift of <strong> $100 </strong> is required to obtain or renew a borrowing card. &nbsp;If you plan to <a href=\"https://www.gifts.duke.edu/library\"> give online </a> , please allow at least 48 hours before requesting a card to allow your gift to process. &nbsp;</p><p><strong> Please note: </strong> Materials may not be removed from the Rubenstein Rare Book &amp; Manuscript Library. &nbsp;Learn more about using the <a href=\"/rubenstein/research/readingroom\" title=\"Rubenstein Reading Room\"> Rubenstein Reading Room </a> .&nbsp; Please contact the <a href=\"https://library.fuqua.duke.edu/\"> Ford Library </a> at the Fuqua School of Business directly for information about borrowing materials from their collections.</p><p><strong> Off-campus access </strong> to e-journals and databases is not available for Friends of the Duke University Libraries. &nbsp;If you are interested in accessing an online database or e-journal, please <a href=\"/services/visitors\"> visit </a> one of our locations. &nbsp;</p><p>Use Online Services</p><ul><li><a href=\"/research/ask\" title=\"Ask Us\"> Ask a reference librarian </a></li><li><a href=\"/digitalcollections/\" title=\"Duke University Libraries Digital Collections\"> Browse digital collections </a></li><li><a href=\"https://dukealumni.com/forever-learning/dukereads\" title=\"DukeReads\"> Join DukeReads </a></li><li><a href=\"https://blogs.library.duke.edu/\" title=\"News, Events, &amp; Exhibits\"> Catch up on library news </a></li><li><a href=\"https://colldev.lib.duke.edu/request\"> Suggest a Purchase </a></li></ul>",
            "body_format" : "full_html",
            "delta" : 0,
            "bundle" : "library_services_page",
            "deleted" : 0,
            "entity_id" : 248,
            "body_summary" : "",
            "langcode" : "und"
         }
      }
   ]
}

