{
   "nid" : "1971",
   "field_tags" : [],
   "node_field_data" : {
      "promote" : 1,
      "changed" : null,
      "type" : "jobs_field_experience",
      "revision_translation_affected" : 1,
      "langcode" : "und",
      "uid" : 1,
      "title" : "Diversity, Equity, and Inclusion Field Experience (unpaid)",
      "default_langcode" : 1,
      "sticky" : 0,
      "created" : 1522246625,
      "status" : 1
   },
   "path_alias" : {
      "langcode" : "und",
      "status" : 0,
      "language" : "und",
      "alias" : "/about/jobs/diversity-equity-and-inclusion-field-experience-unpaid",
      "pid" : 4053
   },
   "node_access" : null,
   "asidebox" : {
      "block_delta" : null,
      "status" : "disabled",
      "nid" : 1971,
      "body_title" : "",
      "vid" : 21591,
      "bid" : null,
      "body_format" : null,
      "block_module" : null,
      "body_value" : null
   },
   "revisions" : [
      {
         "uid" : 3,
         "timestamp" : 1549899535,
         "promote" : 1,
         "status" : 1,
         "field_revision" : {
            "created" : null,
            "status" : 1,
            "uid" : 1,
            "langcode" : null,
            "default_langcode" : 1,
            "revision_translation_affected" : 1,
            "sticky" : 0,
            "title" : "Diversity, Equity, and Inclusion Field Experience (unpaid)",
            "changed" : null
         },
         "log" : "",
         "sticky" : 0,
         "comment" : 1,
         "title" : "Diversity, Equity, and Inclusion Field Experience (unpaid)",
         "vuuid" : "062ef9e3-4203-4a84-940b-28a8ccfc9c4e",
         "node_revision__field_tags" : [],
         "node_revision__body" : {
            "body_value" : "<p style=\"box-sizing: border-box; margin-top: 0px; margin-bottom: 12px; color: #333333; font-family: 'Source Sans Pro', Calibri, Candara, Arial, sans-serif; font-size: 17px;\">The Library Human Resources Department at Duke University Libraries (DUL) has an unpaid field experience opportunity for library school students interested in diversity, equity, and inclusion initiatives in libraries.</p><p class=\"MsoNormal\"></p><p style=\"box-sizing: border-box; margin-top: 0px; margin-bottom: 12px; color: #333333; font-family: 'Source Sans Pro', Calibri, Candara, Arial, sans-serif; font-size: 17px;\">This is a flexible position, interested individuals should submit a statement of interest outlining specific areas of interest as it pertains to the field of librarianship and library management.&nbsp; &nbsp;The statement should include proposed learning objectives.&nbsp; &nbsp; We will then work applicants to try to identify projects at DUL that align with the individual's interest.&nbsp;</p><p style=\"box-sizing: border-box; margin-top: 0px; margin-bottom: 12px; color: #333333; font-family: 'Source Sans Pro', Calibri, Candara, Arial, sans-serif; font-size: 17px;\"><b style=\"box-sizing: border-box;\">Requirements</b>: Current enrollment in an MLS program accredited by the American Library Association or equivalent, interest in library management</p><p style=\"box-sizing: border-box; margin-top: 0px; margin-bottom: 12px; color: #333333; font-family: 'Source Sans Pro', Calibri, Candara, Arial, sans-serif; font-size: 17px;\"><b style=\"box-sizing: border-box;\">Time frame:</b>&nbsp; flexible</p><p style=\"box-sizing: border-box; margin-top: 0px; margin-bottom: 12px; color: #333333; font-family: 'Source Sans Pro', Calibri, Candara, Arial, sans-serif; font-size: 17px;\"><b style=\"box-sizing: border-box;\">Hours:&nbsp;</b>&nbsp;&nbsp;Flexible, during normal business hours (8am-5pm)</p><p style=\"box-sizing: border-box; margin-top: 0px; margin-bottom: 12px; color: #333333; font-family: 'Source Sans Pro', Calibri, Candara, Arial, sans-serif; font-size: 17px;\"><b style=\"box-sizing: border-box;\">Location:</b>&nbsp;Library Human Resources, 363 Rubenstein Library</p><p style=\"box-sizing: border-box; margin-top: 0px; margin-bottom: 12px; color: #333333; font-family: 'Source Sans Pro', Calibri, Candara, Arial, sans-serif; font-size: 17px;\"><b style=\"box-sizing: border-box;\">Contact:</b>&nbsp;&nbsp; Kim Burhop-Service,&nbsp;<a href=\"https://mail.google.com/mail/?view=cm&amp;fs=1&amp;tf=1&amp;to=kburhop@gmail.com\" target=\"_blank\" style=\"box-sizing: border-box; background-color: transparent; color: #053482; text-decoration-line: underline; text-decoration-color: #c0cce0;\">kim.burhop@duke.edu</a>, 919.660.5937</p>",
            "revision_id" : 21591,
            "deleted" : 0,
            "delta" : 0,
            "body_format" : "full_html",
            "bundle" : "jobs_field_experience",
            "entity_id" : 1971,
            "body_summary" : "",
            "langcode" : "und"
         }
      }
   ],
   "langcode" : "und",
   "vid" : 21591,
   "node__body" : {
      "body_format" : "full_html",
      "bundle" : "jobs_field_experience",
      "delta" : 0,
      "deleted" : 0,
      "body_value" : "<p style=\"box-sizing: border-box; margin-top: 0px; margin-bottom: 12px; color: #333333; font-family: 'Source Sans Pro', Calibri, Candara, Arial, sans-serif; font-size: 17px;\">The Library Human Resources Department at Duke University Libraries (DUL) has an unpaid field experience opportunity for library school students interested in diversity, equity, and inclusion initiatives in libraries.</p><p class=\"MsoNormal\"></p><p style=\"box-sizing: border-box; margin-top: 0px; margin-bottom: 12px; color: #333333; font-family: 'Source Sans Pro', Calibri, Candara, Arial, sans-serif; font-size: 17px;\">This is a flexible position, interested individuals should submit a statement of interest outlining specific areas of interest as it pertains to the field of librarianship and library management.&nbsp; &nbsp;The statement should include proposed learning objectives.&nbsp; &nbsp; We will then work applicants to try to identify projects at DUL that align with the individual's interest.&nbsp;</p><p style=\"box-sizing: border-box; margin-top: 0px; margin-bottom: 12px; color: #333333; font-family: 'Source Sans Pro', Calibri, Candara, Arial, sans-serif; font-size: 17px;\"><b style=\"box-sizing: border-box;\">Requirements</b>: Current enrollment in an MLS program accredited by the American Library Association or equivalent, interest in library management</p><p style=\"box-sizing: border-box; margin-top: 0px; margin-bottom: 12px; color: #333333; font-family: 'Source Sans Pro', Calibri, Candara, Arial, sans-serif; font-size: 17px;\"><b style=\"box-sizing: border-box;\">Time frame:</b>&nbsp; flexible</p><p style=\"box-sizing: border-box; margin-top: 0px; margin-bottom: 12px; color: #333333; font-family: 'Source Sans Pro', Calibri, Candara, Arial, sans-serif; font-size: 17px;\"><b style=\"box-sizing: border-box;\">Hours:&nbsp;</b>&nbsp;&nbsp;Flexible, during normal business hours (8am-5pm)</p><p style=\"box-sizing: border-box; margin-top: 0px; margin-bottom: 12px; color: #333333; font-family: 'Source Sans Pro', Calibri, Candara, Arial, sans-serif; font-size: 17px;\"><b style=\"box-sizing: border-box;\">Location:</b>&nbsp;Library Human Resources, 363 Rubenstein Library</p><p style=\"box-sizing: border-box; margin-top: 0px; margin-bottom: 12px; color: #333333; font-family: 'Source Sans Pro', Calibri, Candara, Arial, sans-serif; font-size: 17px;\"><b style=\"box-sizing: border-box;\">Contact:</b>&nbsp;&nbsp; Kim Burhop-Service,&nbsp;<a href=\"https://mail.google.com/mail/?view=cm&amp;fs=1&amp;tf=1&amp;to=kburhop@gmail.com\" target=\"_blank\" style=\"box-sizing: border-box; background-color: transparent; color: #053482; text-decoration-line: underline; text-decoration-color: #c0cce0;\">kim.burhop@duke.edu</a>, 919.660.5937</p>",
      "revision_id" : 21591,
      "langcode" : "und",
      "body_summary" : "",
      "entity_id" : 1971
   },
   "uuid" : "6ff1bb45-87e0-4139-b456-f6bca53e48e5",
   "field_image" : null,
   "type" : "jobs_field_experience"
}

