{
   "node__body" : {
      "revision_id" : 28101,
      "body_value" : "<p>Getting Started</p><ul><li>Get research help from the librarian! <a href=\"mailto:heidi.madden@duke.edu\"> Make an appointment online</a>.</li><li><a href=\"https://guides.library.duke.edu/italian\">Research Guides </a></li><li><a href=\"https://guides.library.duke.edu/italian\">Specialized Databases </a></li><li><a href=\"https://guides.library.duke.edu/film-and-video-resources\">Film</a></li><li><a href=\"/data/\">Numeric Data &amp; Statistics</a></li><li><a href=\"https://guides.library.duke.edu/content.php?pid=19534&amp;sid=136335\">Primary Sources </a></li><li><a href=\"https://guides.library.duke.edu/content.php?pid=19534&amp;sid=4046808\">Learning Italian </a></li><li><a href=\"https://guides.library.duke.edu/europe_archives\">Conducting Research in Italy </a></li><li><a href=\"https://guides.library.duke.edu/content.php?pid=19534&amp;sid=4046480\">Description of the Collection </a></li></ul><p>Librarian for Italian Studies</p><p><br> <a href=\"https://library.duke.edu/about/directory/staff/heidi.madden\">Heidi Madden, Ph.D., M.L.S.</a><br> 232 Bostock Library<br> <a href=\"tel:+19196605984\">(919) 660-5984</a><br> <a href=\"mailto:heidi.madden@duke.edu\">heidi.madden@duke.edu</a></p>",
      "delta" : 0,
      "body_format" : "full_html",
      "bundle" : "research_page",
      "deleted" : 0,
      "entity_id" : 537,
      "body_summary" : "",
      "langcode" : "und"
   },
   "vid" : 28101,
   "uuid" : "7083d50a-701d-44ab-9e40-c1c63eabb877",
   "field_image" : null,
   "type" : "research_page",
   "revisions" : [
      {
         "node_revision__body" : {
            "revision_id" : 28101,
            "body_value" : "<p>Getting Started</p><ul><li>Get research help from the librarian! <a href=\"mailto:heidi.madden@duke.edu\"> Make an appointment online</a>.</li><li><a href=\"https://guides.library.duke.edu/italian\">Research Guides </a></li><li><a href=\"https://guides.library.duke.edu/italian\">Specialized Databases </a></li><li><a href=\"https://guides.library.duke.edu/film-and-video-resources\">Film</a></li><li><a href=\"/data/\">Numeric Data &amp; Statistics</a></li><li><a href=\"https://guides.library.duke.edu/content.php?pid=19534&amp;sid=136335\">Primary Sources </a></li><li><a href=\"https://guides.library.duke.edu/content.php?pid=19534&amp;sid=4046808\">Learning Italian </a></li><li><a href=\"https://guides.library.duke.edu/europe_archives\">Conducting Research in Italy </a></li><li><a href=\"https://guides.library.duke.edu/content.php?pid=19534&amp;sid=4046480\">Description of the Collection </a></li></ul><p>Librarian for Italian Studies</p><p><br> <a href=\"https://library.duke.edu/about/directory/staff/heidi.madden\">Heidi Madden, Ph.D., M.L.S.</a><br> 232 Bostock Library<br> <a href=\"tel:+19196605984\">(919) 660-5984</a><br> <a href=\"mailto:heidi.madden@duke.edu\">heidi.madden@duke.edu</a></p>",
            "deleted" : 0,
            "body_format" : "full_html",
            "bundle" : "research_page",
            "delta" : 0,
            "entity_id" : 537,
            "body_summary" : "",
            "langcode" : "und"
         },
         "vuuid" : "b808bb8a-e3eb-4b71-baa9-836d74151543",
         "title" : "Italian Studies",
         "node_revision__field_tags" : [],
         "sticky" : 0,
         "comment" : 1,
         "log" : "",
         "status" : 1,
         "field_revision" : {
            "title" : "Italian Studies",
            "changed" : null,
            "uid" : 1,
            "langcode" : null,
            "status" : 1,
            "created" : null,
            "revision_translation_affected" : 1,
            "sticky" : 0,
            "default_langcode" : 1
         },
         "promote" : 0,
         "timestamp" : 1583168478,
         "uid" : 61
      }
   ],
   "langcode" : "und",
   "nid" : "537",
   "field_tags" : [],
   "path_alias" : {
      "langcode" : "und",
      "status" : 0,
      "pid" : 819,
      "alias" : "/research/international/italian",
      "language" : "und"
   },
   "node_field_data" : {
      "default_langcode" : 1,
      "sticky" : 0,
      "created" : 1390496887,
      "status" : 1,
      "title" : "Italian Studies",
      "revision_translation_affected" : 1,
      "uid" : 1,
      "langcode" : "und",
      "changed" : null,
      "promote" : 0,
      "type" : "research_page"
   },
   "node_access" : null,
   "asidebox" : {
      "nid" : 537,
      "body_title" : "",
      "bid" : null,
      "vid" : 28101,
      "body_format" : "full_html",
      "body_value" : "<p style=\"text-align: center;\"><img src=\"/sites/default/files/dul/research-support/international/italian_studies.jpg\" alt=\"Italian Studies\" width=\"400\" height=\"379\" class=\"img-responsive\"></p>",
      "block_module" : null,
      "block_delta" : null,
      "status" : "html"
   }
}

