{
   "asidebox" : null,
   "nid" : "2369",
   "revisions" : [
      {
         "promote" : 0,
         "uid" : 47,
         "timestamp" : 1604957471,
         "node_revision__field_tags" : [],
         "title" : "Seeing the Invisible",
         "vuuid" : "7d1510fa-4a56-4c3a-b6fe-b13fb131c58a",
         "node_revision__body" : {
            "langcode" : "und",
            "entity_id" : 2369,
            "body_summary" : "",
            "body_value" : "<p>While visualizing proteins over decades, the Richardson Lab at Duke University has built and shaped a scientific community aiming to understand the molecular building blocks of life and of their associated medical applications. This exhibition explores the history of protein visualization by following the contribution of the Richardsons, who have been intimately involved with the various advances over the last half century.</p><p><strong>PLEASE NOTE</strong>: The library is currently closed to the public, but Duke students, faculty and staff can reserve a time slot to come and visit the exhibit in person during hours that the library is open-please visit&nbsp;<span style=\"font-size: 13.008px;\"></span><a href=\"https://duke.libcal.com/reserve/exhibition-viewing\" style=\"font-size: 13.008px;\">https://duke.libcal.com/reserve/exhibition-viewing&nbsp;</a><span style=\"font-size: 13.008px;\">and sign up today!</span></p>",
            "revision_id" : 26869,
            "deleted" : 0,
            "bundle" : "exhibit",
            "body_format" : "full_html",
            "delta" : 0
         },
         "field_revision" : {
            "sticky" : 0,
            "revision_translation_affected" : 1,
            "default_langcode" : 1,
            "uid" : 1,
            "langcode" : null,
            "status" : 1,
            "created" : null,
            "changed" : null,
            "title" : "Seeing the Invisible"
         },
         "status" : 1,
         "log" : "",
         "comment" : 1,
         "sticky" : 0
      }
   ],
   "field_image" : {
      "entity_type" : "node",
      "field_image_height" : 600,
      "langcode" : "und",
      "field_image_alt" : "",
      "field_image_width" : 790,
      "delta" : 0,
      "bundle" : "exhibit",
      "field_image_target_id" : 4709,
      "entity_id" : 2369,
      "field_image_title" : "",
      "language" : "und",
      "file_uuid" : "da0683ca-9a17-499e-9b50-d7682ffa2dc0",
      "deleted" : 0,
      "field_image_fid" : 4709,
      "revision_id" : 26869
   },
   "node__body" : {
      "deleted" : 0,
      "bundle" : "exhibit",
      "body_format" : "full_html",
      "delta" : 0,
      "body_value" : "<p>While visualizing proteins over decades, the Richardson Lab at Duke University has built and shaped a scientific community aiming to understand the molecular building blocks of life and of their associated medical applications. This exhibition explores the history of protein visualization by following the contribution of the Richardsons, who have been intimately involved with the various advances over the last half century.</p><p><strong>PLEASE NOTE</strong>: The library is currently closed to the public, but Duke students, faculty and staff can reserve a time slot to come and visit the exhibit in person during hours that the library is open-please visit&nbsp;<span style=\"font-size: 13.008px;\"></span><a href=\"https://duke.libcal.com/reserve/exhibition-viewing\" style=\"font-size: 13.008px;\">https://duke.libcal.com/reserve/exhibition-viewing&nbsp;</a><span style=\"font-size: 13.008px;\">and sign up today!</span></p>",
      "revision_id" : 26869,
      "body_summary" : "",
      "entity_id" : 2369,
      "langcode" : "und"
   },
   "vid" : 26869,
   "node__field_image" : {},
   "node_access" : null,
   "field_tags" : [],
   "path_alias" : {
      "langcode" : "und",
      "status" : 0,
      "language" : "und",
      "pid" : 4585,
      "alias" : "/exhibits/2020/seeingtheinvisible"
   },
   "node_field_data" : {
      "sticky" : 0,
      "default_langcode" : 1,
      "status" : 1,
      "created" : 1568831902,
      "title" : "Seeing the Invisible",
      "revision_translation_affected" : 1,
      "langcode" : "und",
      "uid" : 1,
      "changed" : null,
      "promote" : 0,
      "type" : "exhibit"
   },
   "langcode" : "und",
   "type" : "exhibit",
   "uuid" : "71ec5232-0384-4945-9c6d-2de7aed0c3fc"
}

