{
   "node_access" : null,
   "asidebox" : {
      "vid" : 30521,
      "bid" : null,
      "body_title" : "",
      "nid" : 2547,
      "body_value" : null,
      "block_module" : null,
      "body_format" : null,
      "block_delta" : null,
      "status" : "disabled"
   },
   "nid" : "2547",
   "path_alias" : {
      "alias" : "/support/2021-andrew-t-nadell-prize-book-collecting",
      "pid" : 4858,
      "language" : "und",
      "langcode" : "und",
      "status" : 0
   },
   "node_field_data" : {
      "changed" : null,
      "promote" : 0,
      "type" : "support_page",
      "revision_translation_affected" : 1,
      "langcode" : "und",
      "uid" : 1,
      "title" : "2021 Andrew T. Nadell Prize for Book Collecting",
      "default_langcode" : 1,
      "sticky" : 0,
      "created" : 1618854417,
      "status" : 1
   },
   "field_tags" : [],
   "type" : "support_page",
   "field_image" : null,
   "uuid" : "755f5e62-2fd8-4578-adbe-7acab93c2e61",
   "node__body" : {
      "bundle" : "support_page",
      "body_format" : "full_html",
      "delta" : 0,
      "deleted" : 0,
      "revision_id" : 30521,
      "body_value" : "<p class=\"MsoNoSpacing\"><strong><span style=\"font-family: 'Cambria',serif;\">Announcing the winners of the 2021 Andrew T. Nadell Prize for Book Collecting</span></strong></p><p class=\"MsoNoSpacing\"><span style=\"font-family: 'Cambria',serif;\"></span><span style=\"font-family: 'Cambria',serif;\">We are pleased to announce the winners for the 2021 Andrew T. Nadell Prize for Book Collecting. Because of COVID restrictions, contestants were unable to display their collections as they have done in the past; nevertheless, the submitted collections were outstanding and the judges found it challenging to select the winners.</span></p><p class=\"MsoNoSpacing\"><span style=\"font-family: 'Cambria',serif;\"></span><span style=\"font-family: 'Cambria',serif;\">In the Undergraduate category, Olivia Votava, an Environmental Science and Linguistics major, won first place for her collection “Murder, Mystery, and Serial Magazines: The Evolution of Detective Stories to Tales of International Crime.” Second place went to Morgan Hundley, an Ancient Religion and Society major (Interdepartmental - Religion &amp; Classics), for her collection “From Caesar to Billy Graham: My Journey from Rome to Fundamentalist Southern Baptists.” And Anthony Cardellini, an English major, won honorable mention for his collection “Masters of the short form: Discovering my artistic passion through great short fiction.”</span></p><p class=\"MsoNoSpacing\"><span style=\"font-family: 'Cambria',serif;\"></span><span style=\"font-family: 'Cambria',serif;\">In the Graduate/Professional Schools category, first place went to Joseph Hiller, a doctoral candidate in the Department of Cultural Anthropology, for his collection “Como un detective salvaje: Gathering Small Press, Experimental, and Untranslated Latin American Literature.”</span><b style=\"font-family: Cambria, serif;\"> </b><span style=\"font-family: 'Cambria',serif;\">Jonathan Choi, Duke School of Law and Nicholas School of the Environment, won second place for his collection “How Do We Save This Planet?”</span><b style=\"font-family: Cambria, serif;\"> </b><span style=\"font-family: 'Cambria',serif;\">And honorable mention went to Caroline Blount, a graduate student in German, won honorable mention for her collection “Eine Buchreihe: German Literature and its Publishers.”</span></p><p class=\"MsoNoSpacing\"><span style=\"font-family: 'Cambria',serif;\"></span><span style=\"font-family: 'Cambria',serif;\">In addition to cash prizes ($1,500 for first, $750 for second, $500 for honorable mention), all six winners will receive any in-print Grolier Club book of their choice and a three-year membership in the Bibliographical Society of America.</span></p><p class=\"MsoNoSpacing\"><span style=\"font-family: 'Cambria',serif;\"></span><span style=\"font-family: 'Cambria',serif;\">Since 1947, the Duke University Libraries have awarded the prize in alternate years to promote reading for enjoyment and the development of students' personal libraries.&nbsp; In recent years, winners of the Andrew T. Nadell Prize for Book Collecting have gone on to place highly at the National Collegiate Book Collecting Contest, hosted by the Library of Congress. The Andrew T. Nadell Prize for Book Collecting is named for Dr. Andrew T. Nadell M'74, who began collecting rare books when he was a student at Duke. &nbsp;He now collects early books and manuscripts on the learned professions and skilled trades, an expansion of his earlier interest in medicine as a profession. &nbsp;With his wife, Eleanore Edwards Ramsey, he also collects the nineteenth-century Gothic Revival. &nbsp;He credits his interest in rare books to two of his mentors at Duke, Professor of Medical Bibliography G.S.T. Cavanagh and Professor of the History of Medicine Gert H. Brieger. We greatly appreciate Dr. Nadell’s support of this prize.</span></p>",
      "body_summary" : "",
      "entity_id" : 2547,
      "langcode" : "und"
   },
   "vid" : 30521,
   "langcode" : "und",
   "revisions" : [
      {
         "promote" : 0,
         "timestamp" : 1618925186,
         "uid" : 64,
         "node_revision__body" : {
            "revision_id" : 30521,
            "body_value" : "<p class=\"MsoNoSpacing\"><strong><span style=\"font-family: 'Cambria',serif;\">Announcing the winners of the 2021 Andrew T. Nadell Prize for Book Collecting</span></strong></p><p class=\"MsoNoSpacing\"><span style=\"font-family: 'Cambria',serif;\"></span><span style=\"font-family: 'Cambria',serif;\">We are pleased to announce the winners for the 2021 Andrew T. Nadell Prize for Book Collecting. Because of COVID restrictions, contestants were unable to display their collections as they have done in the past; nevertheless, the submitted collections were outstanding and the judges found it challenging to select the winners.</span></p><p class=\"MsoNoSpacing\"><span style=\"font-family: 'Cambria',serif;\"></span><span style=\"font-family: 'Cambria',serif;\">In the Undergraduate category, Olivia Votava, an Environmental Science and Linguistics major, won first place for her collection “Murder, Mystery, and Serial Magazines: The Evolution of Detective Stories to Tales of International Crime.” Second place went to Morgan Hundley, an Ancient Religion and Society major (Interdepartmental - Religion &amp; Classics), for her collection “From Caesar to Billy Graham: My Journey from Rome to Fundamentalist Southern Baptists.” And Anthony Cardellini, an English major, won honorable mention for his collection “Masters of the short form: Discovering my artistic passion through great short fiction.”</span></p><p class=\"MsoNoSpacing\"><span style=\"font-family: 'Cambria',serif;\"></span><span style=\"font-family: 'Cambria',serif;\">In the Graduate/Professional Schools category, first place went to Joseph Hiller, a doctoral candidate in the Department of Cultural Anthropology, for his collection “Como un detective salvaje: Gathering Small Press, Experimental, and Untranslated Latin American Literature.”</span><b style=\"font-family: Cambria, serif;\"> </b><span style=\"font-family: 'Cambria',serif;\">Jonathan Choi, Duke School of Law and Nicholas School of the Environment, won second place for his collection “How Do We Save This Planet?”</span><b style=\"font-family: Cambria, serif;\"> </b><span style=\"font-family: 'Cambria',serif;\">And honorable mention went to Caroline Blount, a graduate student in German, won honorable mention for her collection “Eine Buchreihe: German Literature and its Publishers.”</span></p><p class=\"MsoNoSpacing\"><span style=\"font-family: 'Cambria',serif;\"></span><span style=\"font-family: 'Cambria',serif;\">In addition to cash prizes ($1,500 for first, $750 for second, $500 for honorable mention), all six winners will receive any in-print Grolier Club book of their choice and a three-year membership in the Bibliographical Society of America.</span></p><p class=\"MsoNoSpacing\"><span style=\"font-family: 'Cambria',serif;\"></span><span style=\"font-family: 'Cambria',serif;\">Since 1947, the Duke University Libraries have awarded the prize in alternate years to promote reading for enjoyment and the development of students' personal libraries.&nbsp; In recent years, winners of the Andrew T. Nadell Prize for Book Collecting have gone on to place highly at the National Collegiate Book Collecting Contest, hosted by the Library of Congress. The Andrew T. Nadell Prize for Book Collecting is named for Dr. Andrew T. Nadell M'74, who began collecting rare books when he was a student at Duke. &nbsp;He now collects early books and manuscripts on the learned professions and skilled trades, an expansion of his earlier interest in medicine as a profession. &nbsp;With his wife, Eleanore Edwards Ramsey, he also collects the nineteenth-century Gothic Revival. &nbsp;He credits his interest in rare books to two of his mentors at Duke, Professor of Medical Bibliography G.S.T. Cavanagh and Professor of the History of Medicine Gert H. Brieger. We greatly appreciate Dr. Nadell’s support of this prize.</span></p>",
            "bundle" : "support_page",
            "body_format" : "full_html",
            "delta" : 0,
            "deleted" : 0,
            "entity_id" : 2547,
            "body_summary" : "",
            "langcode" : "und"
         },
         "node_revision__field_tags" : [],
         "title" : "2021 Andrew T. Nadell Prize for Book Collecting",
         "vuuid" : "ea8ff24c-6e1b-4902-9285-612f3de7edaf",
         "comment" : 1,
         "sticky" : 0,
         "log" : "",
         "field_revision" : {
            "title" : "2021 Andrew T. Nadell Prize for Book Collecting",
            "changed" : null,
            "uid" : 1,
            "langcode" : null,
            "status" : 1,
            "created" : null,
            "revision_translation_affected" : 1,
            "sticky" : 0,
            "default_langcode" : 1
         },
         "status" : 1
      }
   ]
}

