{
   "asidebox" : {
      "body_title" : "",
      "nid" : 335,
      "vid" : 30164,
      "bid" : null,
      "body_format" : null,
      "block_module" : null,
      "body_value" : null,
      "block_delta" : null,
      "status" : "disabled"
   },
   "node_access" : null,
   "field_tags" : [],
   "node_field_data" : {
      "revision_translation_affected" : 1,
      "langcode" : "und",
      "uid" : 1,
      "changed" : null,
      "promote" : 0,
      "type" : "about_page",
      "sticky" : 0,
      "default_langcode" : 1,
      "status" : 1,
      "created" : 1377801810,
      "title" : "Nicholas Family International Reading Room"
   },
   "path_alias" : {
      "language" : "und",
      "pid" : 514,
      "alias" : "/about/depts/ias/nicholas",
      "status" : 0,
      "langcode" : "und"
   },
   "nid" : "335",
   "langcode" : "und",
   "revisions" : [
      {
         "promote" : 0,
         "uid" : 42,
         "timestamp" : 1610737372,
         "node_revision__field_tags" : [],
         "title" : "Nicholas Family International Reading Room",
         "vuuid" : "6d41962b-2630-4d4d-a30c-0d8d67def8db",
         "node_revision__body" : {
            "langcode" : "und",
            "entity_id" : 335,
            "body_summary" : "",
            "body_value" : "<p>The Nicholas Family International Reading Room is home to a collection of international books materials and serves as an <a href=\"https://library.duke.edu/using/policies/quiet-study\"> Absolute Quiet Study Zone </a> . It contains reference books in the following languages:</p><ul class=\"list-inline list-styled\"><li>Arabic</li><li>French</li><li>German</li><li>Hebrew</li><li>Hindi</li><li>Persian</li><li>Polish</li><li>Russian</li><li>Chinese</li><li>Japanese</li><li>Korean</li></ul><p>The&nbsp;<a href=\"https://naming.library.duke.edu/room/5012\">East Asia Tower Reading Room</a>&nbsp;is at the far end of the Nicholas Reading Room. The East Asia Tower Reading Room houses journals and magazines from China, Japan, and Korea.</p><p>These are open study spaces. All are welcome.</p><p><img src=\"/sites/default/files/dul/about/nicholas.jpg\" alt=\"A photograph of the inside of the Nicholas Family International Reading Room\" width=\"500\" height=\"333\" class=\"image-right img-responsive img-thumbnail\"></p><h2>Find the room</h2><p>The Nicholas Family International Reading Room is located on the second floor of Bostock Library, next to the offices for International &amp; Area Studies librarians and the East Asian Collection.</p><h2>Ask us a question</h2><p>The Nicholas Family International Reading Room is managed by Duke Libraries' <a href=\"https://library.duke.edu/about/depts/ias\"> International &amp; Area Studies (IAS) department</a>, which supports global interdisciplinary research, teaching, and outreach inititatives. If you have a reference question, please&nbsp;<a href=\"https://library.duke.edu/about/depts/ias/librarians\">email us </a> to set up an appointment.</p>",
            "revision_id" : 30164,
            "bundle" : "about_page",
            "body_format" : "full_html",
            "delta" : 0,
            "deleted" : 0
         },
         "field_revision" : {
            "title" : "Nicholas Family International Reading Room",
            "changed" : null,
            "uid" : 1,
            "langcode" : null,
            "status" : 1,
            "created" : null,
            "sticky" : 0,
            "revision_translation_affected" : 1,
            "default_langcode" : 1
         },
         "status" : 1,
         "log" : "",
         "comment" : 1,
         "sticky" : 0
      }
   ],
   "field_image" : null,
   "type" : "about_page",
   "vid" : 30164,
   "node__body" : {
      "body_summary" : "",
      "entity_id" : 335,
      "langcode" : "und",
      "deleted" : 0,
      "body_format" : "full_html",
      "bundle" : "about_page",
      "delta" : 0,
      "revision_id" : 30164,
      "body_value" : "<p>The Nicholas Family International Reading Room is home to a collection of international books materials and serves as an <a href=\"https://library.duke.edu/using/policies/quiet-study\"> Absolute Quiet Study Zone </a> . It contains reference books in the following languages:</p><ul class=\"list-inline list-styled\"><li>Arabic</li><li>French</li><li>German</li><li>Hebrew</li><li>Hindi</li><li>Persian</li><li>Polish</li><li>Russian</li><li>Chinese</li><li>Japanese</li><li>Korean</li></ul><p>The&nbsp;<a href=\"https://naming.library.duke.edu/room/5012\">East Asia Tower Reading Room</a>&nbsp;is at the far end of the Nicholas Reading Room. The East Asia Tower Reading Room houses journals and magazines from China, Japan, and Korea.</p><p>These are open study spaces. All are welcome.</p><p><img src=\"/sites/default/files/dul/about/nicholas.jpg\" alt=\"A photograph of the inside of the Nicholas Family International Reading Room\" width=\"500\" height=\"333\" class=\"image-right img-responsive img-thumbnail\"></p><h2>Find the room</h2><p>The Nicholas Family International Reading Room is located on the second floor of Bostock Library, next to the offices for International &amp; Area Studies librarians and the East Asian Collection.</p><h2>Ask us a question</h2><p>The Nicholas Family International Reading Room is managed by Duke Libraries' <a href=\"https://library.duke.edu/about/depts/ias\"> International &amp; Area Studies (IAS) department</a>, which supports global interdisciplinary research, teaching, and outreach inititatives. If you have a reference question, please&nbsp;<a href=\"https://library.duke.edu/about/depts/ias/librarians\">email us </a> to set up an appointment.</p>"
   },
   "uuid" : "75b17d3c-7589-4c78-abb4-de09d437c7f6"
}

