{
   "node_access" : null,
   "asidebox" : {
      "status" : "html",
      "block_delta" : null,
      "body_value" : "<ul><li><a href=\"/services/disabilities\" title=\"library services\">Learn about our services for patrons with disabilities</a></li><li><a href=\"/about/accessible-parking\" title=\"ADA Parking Maps\">Find out where to park</a></li><li><a href=\"/about/library-building-access\" title=\"library building entrances\">Locate accessible entrances</a></li><li><a href=\"/about/accessibility-services-contacts\" title=\"Library contacts Disability\">Contact us</a></li></ul>",
      "block_module" : null,
      "body_format" : "full_html",
      "vid" : 30041,
      "bid" : null,
      "nid" : 153,
      "body_title" : ""
   },
   "nid" : "153",
   "node_field_data" : {
      "title" : "Assistive Technology Room",
      "status" : 1,
      "created" : 1375379127,
      "sticky" : 0,
      "default_langcode" : 1,
      "type" : "about_page",
      "changed" : null,
      "promote" : 0,
      "uid" : 1,
      "langcode" : "und",
      "revision_translation_affected" : 1
   },
   "path_alias" : {
      "status" : 0,
      "langcode" : "und",
      "language" : "und",
      "pid" : 313,
      "alias" : "/about/assistive-technology-room"
   },
   "field_tags" : [
      {
         "language" : "und",
         "revision_id" : 30041,
         "deleted" : 0,
         "bundle" : "about_page",
         "delta" : 0,
         "entity_id" : 153,
         "term_uuid" : "9d1436a6-9ce1-4322-bff5-c605c38a8102",
         "langcode" : "und",
         "field_tags_target_id" : 141
      },
      {
         "revision_id" : 30041,
         "bundle" : "about_page",
         "delta" : 1,
         "deleted" : 0,
         "language" : "und",
         "langcode" : "und",
         "field_tags_target_id" : 143,
         "entity_id" : 153,
         "term_uuid" : "57d1c549-8659-41b3-8444-c5bcc83c3ef8"
      },
      {
         "language" : "und",
         "revision_id" : 30041,
         "bundle" : "about_page",
         "delta" : 2,
         "deleted" : 0,
         "entity_id" : 153,
         "term_uuid" : "32d0d855-6cb0-43c5-a566-3945bd04b1d3",
         "langcode" : "und",
         "field_tags_target_id" : 45
      },
      {
         "field_tags_target_id" : 81,
         "langcode" : "und",
         "term_uuid" : "f9779577-b699-4f25-91e9-0d99a38e0813",
         "entity_id" : 153,
         "bundle" : "about_page",
         "delta" : 3,
         "deleted" : 0,
         "revision_id" : 30041,
         "language" : "und"
      }
   ],
   "type" : "about_page",
   "field_image" : null,
   "uuid" : "774b1ccb-7981-49e8-acd6-4c18da85d2f2",
   "node__body" : {
      "deleted" : 0,
      "bundle" : "about_page",
      "body_format" : "full_html",
      "delta" : 0,
      "body_value" : "<h3>Assistive Technology Room Policy</h3><ul><li>The Assistive Technology Room, now located in Project Room 9 of the Edge in Bostock Library, is available to patrons who require assistive technology.</li><li>Patrons who are signed up with SDAO (Student Disability Access Office) may book the room.</li><li>Email&nbsp;Ciara Healy&nbsp;at <a href=\"mailto:ciara.healy@duke.edu\">ciara.healy at duke.edu</a>&nbsp;with questions.</li></ul><h3>Available Software</h3><ul><li>Dragon Naturally Speaking (Speech-to-Text software)</li><li>Kurzweil 1000 (PDF Scan-to-Text-to-Speech software)</li><li>JAWS 8.0 (Screen Reader)</li><li>ZoomText 11 (screen magnifier)</li><li><!--[if gte mso 9]><xml>\r\n <o:OfficeDocumentSettings>\r\n  <o:AllowPNG></o:AllowPNG>\r\n </o:OfficeDocumentSettings>\r\n</xml><![endif]--><a href=\"https://access.duke.edu/alternative_media/submit.php\" target=\"_blank\" title=\"tagged accesible PDF link\">SensusAcees</a> (turns almost file into an accessible file; max 64 MB)</li></ul><h3>Available Hardware</h3><ul><li>1 large computer monitor</li><li>1 scanner</li><li>1 adjustible table</li><li>1 pair of headphones with boom microphone</li></ul>",
      "revision_id" : 30041,
      "body_summary" : "",
      "entity_id" : 153,
      "langcode" : "und"
   },
   "vid" : 30041,
   "langcode" : "und",
   "revisions" : [
      {
         "uid" : 114,
         "timestamp" : 1608132709,
         "promote" : 0,
         "status" : 1,
         "field_revision" : {
            "changed" : null,
            "title" : "Assistive Technology Room",
            "default_langcode" : 1,
            "sticky" : 0,
            "revision_translation_affected" : 1,
            "created" : null,
            "uid" : 1,
            "status" : 1,
            "langcode" : null
         },
         "log" : "",
         "sticky" : 0,
         "comment" : 1,
         "title" : "Assistive Technology Room",
         "vuuid" : "3e4de945-c425-40e2-b46b-3d751684f809",
         "node_revision__field_tags" : [
            {
               "deleted" : 0,
               "bundle" : "about_page",
               "delta" : 0,
               "revision_id" : 30041,
               "language" : "und",
               "field_tags_target_id" : 141,
               "langcode" : "und",
               "entity_id" : 153
            },
            {
               "field_tags_target_id" : 143,
               "langcode" : "und",
               "entity_id" : 153,
               "delta" : 1,
               "bundle" : "about_page",
               "deleted" : 0,
               "revision_id" : 30041,
               "language" : "und"
            },
            {
               "langcode" : "und",
               "field_tags_target_id" : 45,
               "entity_id" : 153,
               "revision_id" : 30041,
               "bundle" : "about_page",
               "delta" : 2,
               "deleted" : 0,
               "language" : "und"
            },
            {
               "language" : "und",
               "revision_id" : 30041,
               "delta" : 3,
               "bundle" : "about_page",
               "deleted" : 0,
               "entity_id" : 153,
               "langcode" : "und",
               "field_tags_target_id" : 81
            }
         ],
         "node_revision__body" : {
            "revision_id" : 30041,
            "body_value" : "<h3>Assistive Technology Room Policy</h3><ul><li>The Assistive Technology Room, now located in Project Room 9 of the Edge in Bostock Library, is available to patrons who require assistive technology.</li><li>Patrons who are signed up with SDAO (Student Disability Access Office) may book the room.</li><li>Email&nbsp;Ciara Healy&nbsp;at <a href=\"mailto:ciara.healy@duke.edu\">ciara.healy at duke.edu</a>&nbsp;with questions.</li></ul><h3>Available Software</h3><ul><li>Dragon Naturally Speaking (Speech-to-Text software)</li><li>Kurzweil 1000 (PDF Scan-to-Text-to-Speech software)</li><li>JAWS 8.0 (Screen Reader)</li><li>ZoomText 11 (screen magnifier)</li><li><!--[if gte mso 9]><xml>\r\n <o:OfficeDocumentSettings>\r\n  <o:AllowPNG></o:AllowPNG>\r\n </o:OfficeDocumentSettings>\r\n</xml><![endif]--><a href=\"https://access.duke.edu/alternative_media/submit.php\" target=\"_blank\" title=\"tagged accesible PDF link\">SensusAcees</a> (turns almost file into an accessible file; max 64 MB)</li></ul><h3>Available Hardware</h3><ul><li>1 large computer monitor</li><li>1 scanner</li><li>1 adjustible table</li><li>1 pair of headphones with boom microphone</li></ul>",
            "deleted" : 0,
            "body_format" : "full_html",
            "delta" : 0,
            "bundle" : "about_page",
            "entity_id" : 153,
            "body_summary" : "",
            "langcode" : "und"
         }
      }
   ]
}

