{
   "node_access" : null,
   "asidebox" : {
      "bid" : null,
      "vid" : 29513,
      "nid" : 2520,
      "body_title" : "",
      "block_module" : null,
      "body_value" : null,
      "body_format" : null,
      "block_delta" : null,
      "status" : "disabled"
   },
   "nid" : "2520",
   "node_field_data" : {
      "type" : "page",
      "promote" : 0,
      "changed" : null,
      "uid" : 1,
      "langcode" : "und",
      "revision_translation_affected" : 1,
      "title" : "Fall 2020 | Support for Teaching and Learning",
      "status" : 1,
      "created" : 1597423303,
      "sticky" : 0,
      "default_langcode" : 1
   },
   "path_alias" : {
      "status" : 0,
      "langcode" : "und",
      "language" : "und",
      "pid" : 4808,
      "alias" : "/about/fall2020/teaching-learning"
   },
   "field_tags" : [],
   "type" : "page",
   "field_image" : null,
   "uuid" : "78ee2821-06cc-444f-9396-29222dc58a3d",
   "vid" : 29513,
   "node__body" : {
      "body_summary" : "",
      "entity_id" : 2520,
      "langcode" : "und",
      "deleted" : 0,
      "body_format" : "full_html",
      "delta" : 0,
      "bundle" : "page",
      "body_value" : "<p>Library staff are available to assist faculty with teaching and to support students with research projects and assignments.</p><h2>Materials for your course</h2><p>We will try to find electronic versions of resources for use by instructors in their courses. For placing reserve requests, please fill out the <a href=\"https://library.duke.edu/course-support/course-reserves\">Place Items on Reserve</a> form and choose the appropriate format at the bottom of the first screen.</p><p>For questions about:</p><ul class=\"underlined-li-links\"><li>Access to publisher and open access resources or alternative materials: <a href=\"mailto:perkins-reserves@duke.edu\">perkins-reserves@duke.edu</a></li><li>Film reserves and streaming films: <a href=\"mailto:lilly-requests@duke.edu\">lilly-requests@duke.edu</a></li><li>Music reserves: <a href=\"mailto:music-requests@duke.edu\">music-requests@duke.edu</a>.</li></ul><p>Faculty can also consult with our staff on digital archives and rare books at Duke and receive help identifying digitized items at other institutions: <a href=\"mailto:special-collections@duke.edu\">special-collections@duke.edu</a></p><p>Students can learn more about <a href=\"https://library.duke.edu/course-support/course-reserves\">accessing course reserves online</a>.</p><h2>Support of teaching: remote instruction</h2><ul class=\"underlined-li-links\"><li>Library staff are available to provide instruction in locating and using online information, both through synchronous workshops via Zoom or through recorded presentations, videos, and web guides (<a href=\"https://library.duke.edu/course-support/guides\">example guides</a>). We can also assist you with designing assignments using library materials without physical access to collections. Just contact us at <a href=\"https://library.duke.edu/research/ask\">Ask a Librarian</a> and we'll put you in touch with the best librarians to help. You may also contact the <a href=\"https://library.duke.edu/about/directory/subject-specialists/\">subject specialist librarian</a> who works with your discipline</li><li><a href=\"https://library.duke.edu/rubenstein/instruction\">Rubenstein librarians</a> are available to provide online instruction and assist in designing assignments using Duke’s digital archives and rare material or digitized items from other repositories.</li><li><a href=\"https://library.duke.edu/data/\">CDVS</a> provides <a href=\"https://library.duke.edu/data/workshops\">online workshops</a> and online course based instruction on a variety of data topics including data visualization, digital mapping, data management, and data science topics. Contact <a href=\"mailto:askdata@duke.edu\">askdata@duke.edu</a> for more details.</li></ul><h2>Support of online learning: research consultations</h2><ul class=\"underlined-li-links\"><li>The library provides an <a href=\"https://library.duke.edu/research/ask\">Ask a Librarian</a> chat option for quick communication with a librarian.</li><li>Librarians can provide one-on-one or group consultations online via Zoom or via email related to research projects and assignments. <a href=\"https://duke.qualtrics.com/jfe/form/SV_6osqxk8Xh1NEIRL?Q_JFE=qdg\">Request a consultation appointment</a></li><li>The ScholarWorks Center consults with scholars and students on a range of digital humanities, publishing, and copyright needs. Email <a href=\"mailto:scholarworks@duke.edu\">scholarworks@duke.edu</a> with questions or to schedule an online consultation.</li><li>Rubenstein Rare Book &amp; Manuscript Library staff can provide consultations on archival and rare material at Duke as well as digitized primary source material at other institutions via Zoom or email, <a href=\"mailto:special-collections@duke.edu\">special-collections@duke.edu</a>.</li><li>The Center for Data and Visualization Sciences provides online consultations (zoom) on a wide range of data related research methods, sources, and tools. Email <a href=\"mailto:askdata@duke.edu\">askdata@duke.edu</a> for more details.</li></ul>",
      "revision_id" : 29513
   },
   "langcode" : "und",
   "revisions" : [
      {
         "uid" : 114,
         "timestamp" : 1597423380,
         "promote" : 0,
         "status" : 1,
         "field_revision" : {
            "default_langcode" : 1,
            "sticky" : 0,
            "revision_translation_affected" : 1,
            "created" : null,
            "status" : 1,
            "uid" : 1,
            "langcode" : null,
            "changed" : null,
            "title" : "Fall 2020 | Support for Teaching and Learning"
         },
         "sticky" : 0,
         "comment" : 1,
         "log" : "",
         "title" : "Fall 2020 | Support for Teaching and Learning",
         "vuuid" : "3830d414-17b3-48de-9162-f351b37fb435",
         "node_revision__field_tags" : [],
         "node_revision__body" : {
            "langcode" : "und",
            "body_summary" : "",
            "entity_id" : 2520,
            "deleted" : 0,
            "delta" : 0,
            "body_format" : "full_html",
            "bundle" : "page",
            "revision_id" : 29513,
            "body_value" : "<p>Library staff are available to assist faculty with teaching and to support students with research projects and assignments.</p><h2>Materials for your course</h2><p>We will try to find electronic versions of resources for use by instructors in their courses. For placing reserve requests, please fill out the <a href=\"https://library.duke.edu/course-support/course-reserves\">Place Items on Reserve</a> form and choose the appropriate format at the bottom of the first screen.</p><p>For questions about:</p><ul class=\"underlined-li-links\"><li>Access to publisher and open access resources or alternative materials: <a href=\"mailto:perkins-reserves@duke.edu\">perkins-reserves@duke.edu</a></li><li>Film reserves and streaming films: <a href=\"mailto:lilly-requests@duke.edu\">lilly-requests@duke.edu</a></li><li>Music reserves: <a href=\"mailto:music-requests@duke.edu\">music-requests@duke.edu</a>.</li></ul><p>Faculty can also consult with our staff on digital archives and rare books at Duke and receive help identifying digitized items at other institutions: <a href=\"mailto:special-collections@duke.edu\">special-collections@duke.edu</a></p><p>Students can learn more about <a href=\"https://library.duke.edu/course-support/course-reserves\">accessing course reserves online</a>.</p><h2>Support of teaching: remote instruction</h2><ul class=\"underlined-li-links\"><li>Library staff are available to provide instruction in locating and using online information, both through synchronous workshops via Zoom or through recorded presentations, videos, and web guides (<a href=\"https://library.duke.edu/course-support/guides\">example guides</a>). We can also assist you with designing assignments using library materials without physical access to collections. Just contact us at <a href=\"https://library.duke.edu/research/ask\">Ask a Librarian</a> and we'll put you in touch with the best librarians to help. You may also contact the <a href=\"https://library.duke.edu/about/directory/subject-specialists/\">subject specialist librarian</a> who works with your discipline</li><li><a href=\"https://library.duke.edu/rubenstein/instruction\">Rubenstein librarians</a> are available to provide online instruction and assist in designing assignments using Duke’s digital archives and rare material or digitized items from other repositories.</li><li><a href=\"https://library.duke.edu/data/\">CDVS</a> provides <a href=\"https://library.duke.edu/data/workshops\">online workshops</a> and online course based instruction on a variety of data topics including data visualization, digital mapping, data management, and data science topics. Contact <a href=\"mailto:askdata@duke.edu\">askdata@duke.edu</a> for more details.</li></ul><h2>Support of online learning: research consultations</h2><ul class=\"underlined-li-links\"><li>The library provides an <a href=\"https://library.duke.edu/research/ask\">Ask a Librarian</a> chat option for quick communication with a librarian.</li><li>Librarians can provide one-on-one or group consultations online via Zoom or via email related to research projects and assignments. <a href=\"https://duke.qualtrics.com/jfe/form/SV_6osqxk8Xh1NEIRL?Q_JFE=qdg\">Request a consultation appointment</a></li><li>The ScholarWorks Center consults with scholars and students on a range of digital humanities, publishing, and copyright needs. Email <a href=\"mailto:scholarworks@duke.edu\">scholarworks@duke.edu</a> with questions or to schedule an online consultation.</li><li>Rubenstein Rare Book &amp; Manuscript Library staff can provide consultations on archival and rare material at Duke as well as digitized primary source material at other institutions via Zoom or email, <a href=\"mailto:special-collections@duke.edu\">special-collections@duke.edu</a>.</li><li>The Center for Data and Visualization Sciences provides online consultations (zoom) on a wide range of data related research methods, sources, and tools. Email <a href=\"mailto:askdata@duke.edu\">askdata@duke.edu</a> for more details.</li></ul>"
         }
      }
   ]
}

