{
   "revisions" : [
      {
         "promote" : 0,
         "uid" : 25,
         "timestamp" : 1593722381,
         "node_revision__field_tags" : [],
         "vuuid" : "6c6494c7-5f38-4279-9ecb-d30d7085669c",
         "title" : "Science Research Databases",
         "node_revision__body" : {
            "body_format" : "full_html",
            "delta" : 0,
            "bundle" : "research_page",
            "deleted" : 0,
            "revision_id" : 29171,
            "body_value" : "<h5><a href=\"https://guides.library.duke.edu/go.php?c=11694302\" target=\"_blank\"> Web of Science </a></h5><p>A huge database of scholarly literature across the sciences, strong in both historical and current coverage. Includes extensive citation mapping</p><p></p><h5><a href=\"https://login.proxy.lib.duke.edu/login?url=http://www.scopus.com\" target=\"_blank\"> Scopus </a></h5><p>Another broad literature database with strengths in current scientific publications and citation mapping.</p><p></p><h5><a href=\"https://guides.library.duke.edu/go.php?c=11694170\" target=\"_blank\"> PubMed </a></h5><p>A large database of biomedical and related literature. It's strengths are controlled subject searching and linking with other NCBI resources.&nbsp; Has international coverage and content includes grey literature and material not included in other databases.</p><p></p><h5><a href=\"https://login.proxy.lib.duke.edu/login?url=http://www.engineeringvillage.com\" target=\"_blank\"> Compendex (Engineering Village) </a></h5><p>Provides access to bibliographic records in engineering and physics literature from a range of trusted sources: scholarly journals, trade publications, government reports, reference books and conference proceedings.&nbsp; Includes the engineering index Compendex and the physics index Inspec along with many others.</p><p></p><p></p><h5><a href=\"https://login.proxy.lib.duke.edu/login?url=http://www.annualreviews.org/\" target=\"_blank\"> Annual Reviews </a></h5><p>Collections of critical reviews written by leading scholars in 40 focused disciplines -- mostly in scientific and social science disciplines.</p>",
            "body_summary" : "",
            "entity_id" : 711,
            "langcode" : "und"
         },
         "field_revision" : {
            "changed" : null,
            "title" : "Science Research Databases",
            "revision_translation_affected" : 1,
            "sticky" : 0,
            "default_langcode" : 1,
            "langcode" : null,
            "uid" : 1,
            "status" : 1,
            "created" : null
         },
         "status" : 1,
         "comment" : 1,
         "sticky" : 0,
         "log" : ""
      }
   ],
   "langcode" : "und",
   "uuid" : "7bb4b4f8-c5b5-43b9-9525-2b8790e6c082",
   "node__body" : {
      "langcode" : "und",
      "entity_id" : 711,
      "body_summary" : "",
      "body_value" : "<h5><a href=\"https://guides.library.duke.edu/go.php?c=11694302\" target=\"_blank\"> Web of Science </a></h5><p>A huge database of scholarly literature across the sciences, strong in both historical and current coverage. Includes extensive citation mapping</p><p></p><h5><a href=\"https://login.proxy.lib.duke.edu/login?url=http://www.scopus.com\" target=\"_blank\"> Scopus </a></h5><p>Another broad literature database with strengths in current scientific publications and citation mapping.</p><p></p><h5><a href=\"https://guides.library.duke.edu/go.php?c=11694170\" target=\"_blank\"> PubMed </a></h5><p>A large database of biomedical and related literature. It's strengths are controlled subject searching and linking with other NCBI resources.&nbsp; Has international coverage and content includes grey literature and material not included in other databases.</p><p></p><h5><a href=\"https://login.proxy.lib.duke.edu/login?url=http://www.engineeringvillage.com\" target=\"_blank\"> Compendex (Engineering Village) </a></h5><p>Provides access to bibliographic records in engineering and physics literature from a range of trusted sources: scholarly journals, trade publications, government reports, reference books and conference proceedings.&nbsp; Includes the engineering index Compendex and the physics index Inspec along with many others.</p><p></p><p></p><h5><a href=\"https://login.proxy.lib.duke.edu/login?url=http://www.annualreviews.org/\" target=\"_blank\"> Annual Reviews </a></h5><p>Collections of critical reviews written by leading scholars in 40 focused disciplines -- mostly in scientific and social science disciplines.</p>",
      "revision_id" : 29171,
      "deleted" : 0,
      "body_format" : "full_html",
      "delta" : 0,
      "bundle" : "research_page"
   },
   "vid" : 29171,
   "type" : "research_page",
   "field_image" : null,
   "nid" : "711",
   "node_field_data" : {
      "title" : "Science Research Databases",
      "status" : 1,
      "created" : 1413307742,
      "sticky" : 0,
      "default_langcode" : 1,
      "type" : "research_page",
      "promote" : 0,
      "changed" : null,
      "uid" : 1,
      "langcode" : "und",
      "revision_translation_affected" : 1
   },
   "path_alias" : {
      "langcode" : "und",
      "status" : 0,
      "language" : "und",
      "pid" : 1089,
      "alias" : "/research/science/science-databases"
   },
   "field_tags" : [],
   "node_access" : null,
   "asidebox" : {
      "block_module" : null,
      "body_value" : "<p><a href=\"https://guides.library.duke.edu/recommended-astronomy\" target=\"_blank\"> Astronomy / Astrophysics </a></p><p><a href=\"https://guides.library.duke.edu/recommended-biology\" target=\"_blank\"> Biological Sciences </a></p><p><a href=\"https://guides.library.duke.edu/recommended-chemistry\" target=\"_blank\"> Chemistry </a></p><p><a href=\"https://guides.library.duke.edu/recommended-compsci\" target=\"_blank\"> Computer Science </a></p><p><a href=\"https://guides.library.duke.edu/recommended-earth\" target=\"_blank\"> Earth &amp; Ocean Science </a></p><p><a href=\"https://guides.library.duke.edu/recommended-engineering\" target=\"_blank\"> Engineering </a></p><p><a href=\"https://guides.library.duke.edu/recommended-envirosci\" target=\"_blank\"> Environmental Sciences </a></p><p><a href=\"https://guides.library.duke.edu/recommended-evanth\" target=\"_blank\" title=\"link evolutionary anthropology recommened databases\"> Evolutionary Anthropology </a></p><p><a href=\"https://guides.library.duke.edu/recommended-marinesciences\" target=\"_blank\"> Marine Science </a></p><p><a href=\"https://guides.library.duke.edu/recommended-mathematics\" target=\"_blank\"> Mathematics </a></p><p><a href=\"https://guides.library.duke.edu/recommendedmed\" target=\"_blank\"> Medicine </a></p><p><a href=\"https://guides.library.duke.edu/recommendedneuroscience\" target=\"_blank\"> Neuroscience </a></p><p><a href=\"https://guides.library.duke.edu/recommended-physics\" target=\"_blank\"> Physics </a></p><p><a href=\"https://guides.library.duke.edu/recommendedpsychology\" target=\"_blank\"> Psychology </a></p><p><a href=\"https://guides.library.duke.edu/statistics\" target=\"_blank\"> Statistics </a></p>",
      "body_format" : "full_html",
      "vid" : 29171,
      "bid" : null,
      "body_title" : "Subject-Specific Databases",
      "nid" : 711,
      "status" : "html",
      "block_delta" : null
   }
}

