{
   "type" : "page",
   "field_image" : null,
   "uuid" : "855b9d88-6a72-4d6a-83c0-1e976c8b7561",
   "vid" : 30461,
   "node__body" : {
      "deleted" : 0,
      "body_format" : "full_html_no_wysiwyg",
      "bundle" : "page",
      "delta" : 0,
      "body_value" : "<h2>Thanks</h2>\r\n<p>Your suggestion has been submitted to Collection Development in Perkins Library for consideration.</p>",
      "revision_id" : 30461,
      "langcode" : "und",
      "body_summary" : "",
      "entity_id" : 430
   },
   "langcode" : "und",
   "revisions" : [
      {
         "promote" : 0,
         "uid" : 25,
         "timestamp" : 1617806759,
         "title" : "Suggest a Purchase for the Perkins Library Collection",
         "vuuid" : "1b42a95b-0f34-413d-8ef6-ea3978f3e00b",
         "node_revision__field_tags" : [],
         "node_revision__body" : {
            "entity_id" : 430,
            "body_summary" : "",
            "langcode" : "und",
            "body_value" : "<h2>Thanks</h2>\r\n<p>Your suggestion has been submitted to Collection Development in Perkins Library for consideration.</p>",
            "revision_id" : 30461,
            "bundle" : "page",
            "body_format" : "full_html_no_wysiwyg",
            "delta" : 0,
            "deleted" : 0
         },
         "status" : 1,
         "field_revision" : {
            "title" : "Suggest a Purchase for the Perkins Library Collection",
            "changed" : null,
            "created" : null,
            "uid" : 1,
            "status" : 1,
            "langcode" : null,
            "default_langcode" : 1,
            "revision_translation_affected" : 1,
            "sticky" : 0
         },
         "sticky" : 0,
         "comment" : 1,
         "log" : ""
      }
   ],
   "node_access" : null,
   "asidebox" : {
      "block_delta" : null,
      "status" : "disabled",
      "body_title" : "",
      "nid" : 430,
      "vid" : 30461,
      "bid" : null,
      "body_format" : null,
      "body_value" : null,
      "block_module" : null
   },
   "nid" : "430",
   "node_field_data" : {
      "langcode" : "und",
      "uid" : 1,
      "revision_translation_affected" : 1,
      "type" : "page",
      "promote" : 0,
      "changed" : null,
      "created" : 1380308349,
      "status" : 1,
      "default_langcode" : 1,
      "sticky" : 0,
      "title" : "Suggest a Purchase for the Perkins Library Collection"
   },
   "path_alias" : {
      "alias" : "/services/forms/suggestpurchase-thanks",
      "pid" : 628,
      "language" : "und",
      "status" : 0,
      "langcode" : "und"
   },
   "field_tags" : []
}

