{
   "field_tags" : [
      {
         "delta" : 0,
         "bundle" : "about_page",
         "deleted" : 0,
         "revision_id" : 24677,
         "language" : "und",
         "field_tags_target_id" : 84,
         "langcode" : "und",
         "term_uuid" : "aef7fd6d-9979-4add-a439-f030a5855dcf",
         "entity_id" : 104
      },
      {
         "field_tags_target_id" : 30,
         "langcode" : "und",
         "term_uuid" : "9c1b2af3-c475-41c7-8262-b1a74a6b3c84",
         "entity_id" : 104,
         "delta" : 1,
         "bundle" : "about_page",
         "deleted" : 0,
         "revision_id" : 24677,
         "language" : "und"
      },
      {
         "term_uuid" : "3e608d69-affe-41d4-b7f3-95c131670b0a",
         "entity_id" : 104,
         "field_tags_target_id" : 85,
         "langcode" : "und",
         "language" : "und",
         "delta" : 2,
         "bundle" : "about_page",
         "deleted" : 0,
         "revision_id" : 24677
      },
      {
         "term_uuid" : "130be207-ac9d-42d7-ac49-d8276cf5e807",
         "entity_id" : 104,
         "field_tags_target_id" : 29,
         "langcode" : "und",
         "language" : "und",
         "bundle" : "about_page",
         "delta" : 3,
         "deleted" : 0,
         "revision_id" : 24677
      },
      {
         "language" : "und",
         "revision_id" : 24677,
         "deleted" : 0,
         "delta" : 4,
         "bundle" : "about_page",
         "entity_id" : 104,
         "term_uuid" : "41838187-ddf6-4012-98d8-61d84e8351a1",
         "langcode" : "und",
         "field_tags_target_id" : 86
      }
   ],
   "node_field_data" : {
      "title" : "Conservation FAQ",
      "sticky" : 0,
      "default_langcode" : 1,
      "status" : 1,
      "created" : 1374776372,
      "promote" : 0,
      "changed" : null,
      "type" : "about_page",
      "revision_translation_affected" : 1,
      "uid" : 1,
      "langcode" : "und"
   },
   "path_alias" : {
      "alias" : "/about/depts/conservation/faq",
      "pid" : 241,
      "language" : "und",
      "langcode" : "und",
      "status" : 0
   },
   "nid" : "104",
   "asidebox" : {
      "block_delta" : null,
      "status" : "html",
      "bid" : null,
      "vid" : 24677,
      "nid" : 104,
      "body_title" : "Our Work by Numbers",
      "body_value" : "<h3>FY 2014</h3><ul><li>3,999 book repairs/pamphlets</li><li>533 flat paper repairs</li><li>4,755 custom enclosures</li><li>20% from Perkins and Bostock Libraries</li><li>65% from Rubenstein Rare Book &amp; Manuscript Library</li><li>16% from all other libraries</li></ul><h3>FY 2003-2014</h3><ul><li>63,844 book repairs/pamphlets</li><li>4,646 flat paper repairs</li><li>83,569 custom enclosures</li><li>164,798 all productivity</li></ul>",
      "block_module" : null,
      "body_format" : "full_html"
   },
   "node_access" : null,
   "vid" : 24677,
   "node__body" : {
      "delta" : 0,
      "body_format" : "full_html",
      "bundle" : "about_page",
      "deleted" : 0,
      "body_value" : "<ul><li><a href=\"#difference\">What is the difference between \"preservation\" and \"conservation?\"</a></li><li><a href=\"#services\">What core services does the Conservation Services Department provide?</a></li><li><a href=\"#materials\">Where do the materials come from that are in the conservation lab?</a></li><li><a href=\"#support\">How can I support Conservation's work?</a></li><li><a href=\"#learn\">How do you learn to be a conservator?</a></li><li><a href=\"#book\">I have a book that needs to be fixed. Can Duke do that for me?</a></li><li><a href=\"#resources\">What other useful resources can you tell me about?</a></li><li><a href=\"https://blogs.library.duke.edu/preservation/\">Do you have a blog? Yes we do, it's called Preservation Underground.</a></li><li><a href=\"https://www.facebook.com/pages/Preservation-Department-Duke-University-Libraries/80011146692\">Are you on Facebook? Yes we are.</a></li></ul><h2><a name=\"difference\"></a>What is the difference between Preservation and Conservation?</h2><p>The core mission of a preservation program is to keep materials in usable condition for both current and future users. This includes monitoring the environment, providing training for the safe handling of materials, planning and training for disasters and developing sound policies that will extend the use of the collections.</p><p>Conservation, a subset of preservation, focuses on the <strong>physical protection and treatment of materials.</strong> Our goal is to save as much of the original materials as possible while being sure that they can be safely used by patrons without causing further loss or damage. For up-to-date information, follow us on <a href=\"https://blogs.library.duke.edu/preservation/\">Preservation Underground</a> and <a href=\"https://www.facebook.com/pages/Preservation-Department-Duke-University-Libraries/80011146692\">Facebook</a>.</p><h2><a name=\"services\"></a>What core services does the Conservation Services Department provide?</h2><p>Our staff provides the following services to the libraries:</p><ul><li>conservation services for books, flat paper and some non-print media</li></ul><ul><li>construction of custom housings</li></ul><ul><li>CoLibri™ book jackets for the New &amp; Noteworthy and similar collections</li><li>digitization project support (pre- and post-imaging conservation services)</li><li>disaster recovery</li><li>education and outreach</li></ul><ul><li>exhibit preparation</li><li>handling and care training</li></ul><ul><li>pamphlet binding</li></ul><h2><a name=\"materials\"></a>Where do the materials come from that are in the conservation lab?</h2><p>We get materials from <strong>both general collections </strong><strong>(circulating)</strong><strong> and special collections (non-circulating)</strong> from the Perkins Library system. They can come from several workflows including circulation, exhibits, digitization projects and&nbsp;technical services.<br> <br> Currently about 23% of our work is from Perkins Library, and 61% is from the Rubenstein Rare Book &amp; Manuscript Library. The remaining work comes from the Music Library, Lilly Library and our other branches. Our fastest growing workflows are those that support the Library’s Exhibit Program and Digital Collections Program.</p><h2><a name=\"support\"></a>How can I support Conservation's work?</h2><p>By donating to the Duke University Libraries <a href=\"/about/adopt-book-program\" title=\"adopt a book\">Adopt-a-Book Program</a> you directly support the Conservation Department and our mission. We will recognize your gift with an electronic bookplate that will display in the online catalog, and you will be acknowledged on our website (unless you wish to remain anonymous). This is a great way to honor someone important like your mom on Mother's Day, or to recognize an important event such as graduation.</p><h2><a name=\"learn\"></a>How do you learn to be a conservator?</h2><p>There are many paths to the conservation profession including learning from a master conservator (the traditional apprenticeship model) or through a post-graduate master's program in conservation of cultural property.</p><p>The following links provide more information on some of the training opportunities available in the United States and abroad, although the list does not imply endorsement by Duke University or Duke University Libraries.</p><h3>Master's programs</h3><ul><li><a href=\"https://en.wikipedia.org/wiki/Art_conservation_training\">Art Conservation Training on Wikipedia</a> (an extensive listing of U.S. and non-U.S. programs)</li><li><a href=\"http://www.artcons.udel.edu/\">University of Delaware/Winterthur</a> (this program has a library-conservation track)</li><li><a href=\"http://www.buffalostate.edu/depts/artconservation/\">Buffalo State University</a></li><li><a href=\"http://www.nyu.edu/gsas/dept/fineart/conservation/index.htm\">New York University</a></li><li><a href=\"http://www.queensu.ca/art/art-conservation\">Queens University (Canada)</a></li><li><a href=\"http://www.arts.ac.uk/camberwell/courses/postgraduate/ma-conservation/\">Camberwell University (England)</a></li><li><a href=\"http://www.northumbria.ac.uk/sd/academic/sass/about/arts/subart/cu/\">Northumbria University (England)</a></li></ul><h3>Bookbinding</h3><ul><li><a href=\"http://guildofbookworkers.org/\">Guild of Bookworkers</a></li><li><a href=\"http://www.nbss.edu/\">North Bennet Street School</a></li><li><a href=\"http://book.grad.uiowa.edu/\">University of Iowa Center for the Book</a></li><li><a href=\"http://www.ahhaa.org/academy-bookbinding/\">American Academy of Bookbinding</a></li><li><a href=\"http://www.garageannexschool.com/\">Garage Annex School</a></li><li><a href=\"http://www.ashevillebookworks.com/\">Asheville Book Works</a></li></ul><h2><a name=\"book\"></a>I have a book that needs to be fixed. Can Duke do that for me?</h2><p>Conservation Services does not undertake private work. The following resources can help you find and work with a conservator either in &nbsp;private practice or at a regional conservation center. <strong>Prior to hiring a private conservator or sending your materials to a regional conservation center, w</strong><strong>e encourage you to read the <a href=\"https://www.conservation-us.org/\">American Institute for Conservation</a> documents on finding, choosing and working with a conservator.&nbsp;</strong>All AIC members agree to working within the&nbsp;<a href=\"https://www.conservation-us.org/about-us/core-documents/code-of-ethics#.UtguNLTVHSg\">AIC Code of Ethics and Guidelines of Practice</a></p><p>If after reading the AIC documentation you still have questions, please contact the Head of Conservation Services at <a href=\"tel:9196605985\">(919) 660-5985</a>. The University of Michigan has a brief but detailed document called <a href=\"https://www.lib.umich.edu/sites/default/files/services/preservation/please_repair_my_book.pdf\">\"Please Repair My Book\"</a> that outlines things to consider prior to talking to a conservator or to a bookbinder. Also, see our <a href=\"#resources\">Useful Resources</a> section for more information including a few vendors that sell supplies for preserving and housing your personal collections.</p><h3>American Institute for Conservation (AIC)</h3><ul><li><a href=\"https://www.conservation-us.org/membership/find-a-conservator#.WOawlWfas3E\">Find a conservator</a></li><li><a href=\"https://www.conservation-us.org/membership/find-a-conservator/guide-to-finding-a-conservator#.WOaw2Wfas3E\">How to choose a conservator</a></li><li><a href=\"https://www.conservation-us.org/about-conservation/caring-for-your-treasures#.WOaxFGfas3E\">How to care for your treasures</a></li></ul><h3>Regional Conservation Centers</h3><p><strong>Please note that this listing does not imply endorsement by Duke University or Duke University Libraries.</strong></p><ul><li><a href=\"http://www.ccaha.org/\">Center for the Conservation of Art and Historic Artifacts (PA)</a></li><li><a href=\"http://www.etheringtoncs.com/\">Etherington Conservation Services (NC)</a></li><li><a href=\"http://www.nedcc.org/home.php\">Northeast Document Conservation Center (MA)</a></li><li><a href=\"http://www.preserveart.org/\">Upper Midwest Conservation Center (MN)</a></li></ul><p>&nbsp;</p><p>Many independent bookbinders offer boxing and repair services. Again, you should read the AIC documentation prior to hiring someone. You can often find reputable bookbinders through the <a href=\"http://guildofbookworkers.org/\">Guild of Bookworkers</a> or other regional bookbinding associations.</p><p><strong>&nbsp;</strong></p><h2><a name=\"resources\"></a>Useful Resources</h2><h3>Professional Organizations</h3><ul><li><a href=\"http://aic.stanford.edu/\" title=\"American Institute for Conservation of Historic &amp; Artistic Work\">American Institute for Conservation of Historic &amp; Artistic Work (AIC)</a>&nbsp;</li><li><a href=\"http://www.ala.org/ala/mgrps/divs/alcts/mgrps/pars/index.cfm\">American Library Association -Preservation and Reformatting Section (ALA-PARS)</a>&nbsp;</li><li><a href=\"http://www.rap-arcc.org/\">Regional Alliance for Preservation (RAP)</a></li></ul><h3>Regional Conservation Centers</h3><ul><li><a href=\"http://www.etheringtoncs.com/\">Etherington Conservation Services</a></li><li><a href=\"http://www.ccaha.org/\" title=\"Conservation Center for Art and Historic Arftifacts\">Conservation Center for Art and Historic Artifacts (CCAHA)</a></li><li><a href=\"http://www.nedcc.org/home.php\" title=\"Northeast Document Conservation Center\">Northeast Document Conservation Center (NEDCC)</a></li></ul><h3>Other Professional Resources</h3><ul><li><a href=\"https://www.lyrasis.org/LYRASIS%20Digital/Pages/Preservation-Services.aspx\">LYRASIS&nbsp;</a></li><li><a href=\"https://www.lib.ncsu.edu/department/preservation\">North Carolina State University (NCSU) Preservation Department</a></li><li><a href=\"https://library.unc.edu/preservation/\">UNC-Chapel Hill Preservation Department&nbsp;</a></li><li><a href=\"https://library.unc.edu/about/dept/university-libraries/wilson-library/conservation/\">UNC-Chapel Hill Special Collections Conservation</a></li></ul><h3>Preservation Supplies</h3><ul><li><a href=\"http://www.conservationresources.com/\">Conservation Resources</a></li><li><a href=\"http://www.gaylord.com/c/Archival\">Gaylord</a> (See the \"archival\" section)</li><li><a href=\"http://www.talasonline.com/\">Talas</a></li><li><a href=\"https://www.universityproducts.com/\">University Products</a> (See the \"archival\" section)</li><li><a href=\"http://www.hollingermetaledge.com/\">Hollinger Metal Edge</a></li></ul><p><strong>Please note that this listing does not imply endorsement by Duke University or Duke University Libraries.</strong></p>",
      "revision_id" : 24677,
      "body_summary" : "",
      "entity_id" : 104,
      "langcode" : "und"
   },
   "uuid" : "85905dc3-da2a-45b1-9b61-bee1f09a0751",
   "field_image" : null,
   "type" : "about_page",
   "revisions" : [
      {
         "uid" : 69,
         "timestamp" : 1553707235,
         "promote" : 0,
         "status" : 1,
         "field_revision" : {
            "uid" : 1,
            "langcode" : null,
            "status" : 1,
            "created" : null,
            "sticky" : 0,
            "revision_translation_affected" : 1,
            "default_langcode" : 1,
            "title" : "Conservation FAQ",
            "changed" : null
         },
         "sticky" : 0,
         "comment" : 1,
         "log" : "",
         "vuuid" : "12190cfa-cb04-40be-9559-502c87585ecf",
         "title" : "Conservation FAQ",
         "node_revision__field_tags" : [
            {
               "revision_id" : 24677,
               "bundle" : "about_page",
               "delta" : 0,
               "deleted" : 0,
               "language" : "und",
               "langcode" : "und",
               "field_tags_target_id" : 84,
               "entity_id" : 104
            },
            {
               "entity_id" : 104,
               "field_tags_target_id" : 30,
               "langcode" : "und",
               "language" : "und",
               "deleted" : 0,
               "delta" : 1,
               "bundle" : "about_page",
               "revision_id" : 24677
            },
            {
               "entity_id" : 104,
               "field_tags_target_id" : 85,
               "langcode" : "und",
               "language" : "und",
               "delta" : 2,
               "bundle" : "about_page",
               "deleted" : 0,
               "revision_id" : 24677
            },
            {
               "field_tags_target_id" : 29,
               "langcode" : "und",
               "entity_id" : 104,
               "delta" : 3,
               "bundle" : "about_page",
               "deleted" : 0,
               "revision_id" : 24677,
               "language" : "und"
            },
            {
               "langcode" : "und",
               "field_tags_target_id" : 86,
               "entity_id" : 104,
               "revision_id" : 24677,
               "deleted" : 0,
               "bundle" : "about_page",
               "delta" : 4,
               "language" : "und"
            }
         ],
         "node_revision__body" : {
            "langcode" : "und",
            "entity_id" : 104,
            "body_summary" : "",
            "body_value" : "<ul><li><a href=\"#difference\">What is the difference between \"preservation\" and \"conservation?\"</a></li><li><a href=\"#services\">What core services does the Conservation Services Department provide?</a></li><li><a href=\"#materials\">Where do the materials come from that are in the conservation lab?</a></li><li><a href=\"#support\">How can I support Conservation's work?</a></li><li><a href=\"#learn\">How do you learn to be a conservator?</a></li><li><a href=\"#book\">I have a book that needs to be fixed. Can Duke do that for me?</a></li><li><a href=\"#resources\">What other useful resources can you tell me about?</a></li><li><a href=\"https://blogs.library.duke.edu/preservation/\">Do you have a blog? Yes we do, it's called Preservation Underground.</a></li><li><a href=\"https://www.facebook.com/pages/Preservation-Department-Duke-University-Libraries/80011146692\">Are you on Facebook? Yes we are.</a></li></ul><h2><a name=\"difference\"></a>What is the difference between Preservation and Conservation?</h2><p>The core mission of a preservation program is to keep materials in usable condition for both current and future users. This includes monitoring the environment, providing training for the safe handling of materials, planning and training for disasters and developing sound policies that will extend the use of the collections.</p><p>Conservation, a subset of preservation, focuses on the <strong>physical protection and treatment of materials.</strong> Our goal is to save as much of the original materials as possible while being sure that they can be safely used by patrons without causing further loss or damage. For up-to-date information, follow us on <a href=\"https://blogs.library.duke.edu/preservation/\">Preservation Underground</a> and <a href=\"https://www.facebook.com/pages/Preservation-Department-Duke-University-Libraries/80011146692\">Facebook</a>.</p><h2><a name=\"services\"></a>What core services does the Conservation Services Department provide?</h2><p>Our staff provides the following services to the libraries:</p><ul><li>conservation services for books, flat paper and some non-print media</li></ul><ul><li>construction of custom housings</li></ul><ul><li>CoLibri™ book jackets for the New &amp; Noteworthy and similar collections</li><li>digitization project support (pre- and post-imaging conservation services)</li><li>disaster recovery</li><li>education and outreach</li></ul><ul><li>exhibit preparation</li><li>handling and care training</li></ul><ul><li>pamphlet binding</li></ul><h2><a name=\"materials\"></a>Where do the materials come from that are in the conservation lab?</h2><p>We get materials from <strong>both general collections </strong><strong>(circulating)</strong><strong> and special collections (non-circulating)</strong> from the Perkins Library system. They can come from several workflows including circulation, exhibits, digitization projects and&nbsp;technical services.<br> <br> Currently about 23% of our work is from Perkins Library, and 61% is from the Rubenstein Rare Book &amp; Manuscript Library. The remaining work comes from the Music Library, Lilly Library and our other branches. Our fastest growing workflows are those that support the Library’s Exhibit Program and Digital Collections Program.</p><h2><a name=\"support\"></a>How can I support Conservation's work?</h2><p>By donating to the Duke University Libraries <a href=\"/about/adopt-book-program\" title=\"adopt a book\">Adopt-a-Book Program</a> you directly support the Conservation Department and our mission. We will recognize your gift with an electronic bookplate that will display in the online catalog, and you will be acknowledged on our website (unless you wish to remain anonymous). This is a great way to honor someone important like your mom on Mother's Day, or to recognize an important event such as graduation.</p><h2><a name=\"learn\"></a>How do you learn to be a conservator?</h2><p>There are many paths to the conservation profession including learning from a master conservator (the traditional apprenticeship model) or through a post-graduate master's program in conservation of cultural property.</p><p>The following links provide more information on some of the training opportunities available in the United States and abroad, although the list does not imply endorsement by Duke University or Duke University Libraries.</p><h3>Master's programs</h3><ul><li><a href=\"https://en.wikipedia.org/wiki/Art_conservation_training\">Art Conservation Training on Wikipedia</a> (an extensive listing of U.S. and non-U.S. programs)</li><li><a href=\"http://www.artcons.udel.edu/\">University of Delaware/Winterthur</a> (this program has a library-conservation track)</li><li><a href=\"http://www.buffalostate.edu/depts/artconservation/\">Buffalo State University</a></li><li><a href=\"http://www.nyu.edu/gsas/dept/fineart/conservation/index.htm\">New York University</a></li><li><a href=\"http://www.queensu.ca/art/art-conservation\">Queens University (Canada)</a></li><li><a href=\"http://www.arts.ac.uk/camberwell/courses/postgraduate/ma-conservation/\">Camberwell University (England)</a></li><li><a href=\"http://www.northumbria.ac.uk/sd/academic/sass/about/arts/subart/cu/\">Northumbria University (England)</a></li></ul><h3>Bookbinding</h3><ul><li><a href=\"http://guildofbookworkers.org/\">Guild of Bookworkers</a></li><li><a href=\"http://www.nbss.edu/\">North Bennet Street School</a></li><li><a href=\"http://book.grad.uiowa.edu/\">University of Iowa Center for the Book</a></li><li><a href=\"http://www.ahhaa.org/academy-bookbinding/\">American Academy of Bookbinding</a></li><li><a href=\"http://www.garageannexschool.com/\">Garage Annex School</a></li><li><a href=\"http://www.ashevillebookworks.com/\">Asheville Book Works</a></li></ul><h2><a name=\"book\"></a>I have a book that needs to be fixed. Can Duke do that for me?</h2><p>Conservation Services does not undertake private work. The following resources can help you find and work with a conservator either in &nbsp;private practice or at a regional conservation center. <strong>Prior to hiring a private conservator or sending your materials to a regional conservation center, w</strong><strong>e encourage you to read the <a href=\"https://www.conservation-us.org/\">American Institute for Conservation</a> documents on finding, choosing and working with a conservator.&nbsp;</strong>All AIC members agree to working within the&nbsp;<a href=\"https://www.conservation-us.org/about-us/core-documents/code-of-ethics#.UtguNLTVHSg\">AIC Code of Ethics and Guidelines of Practice</a></p><p>If after reading the AIC documentation you still have questions, please contact the Head of Conservation Services at <a href=\"tel:9196605985\">(919) 660-5985</a>. The University of Michigan has a brief but detailed document called <a href=\"https://www.lib.umich.edu/sites/default/files/services/preservation/please_repair_my_book.pdf\">\"Please Repair My Book\"</a> that outlines things to consider prior to talking to a conservator or to a bookbinder. Also, see our <a href=\"#resources\">Useful Resources</a> section for more information including a few vendors that sell supplies for preserving and housing your personal collections.</p><h3>American Institute for Conservation (AIC)</h3><ul><li><a href=\"https://www.conservation-us.org/membership/find-a-conservator#.WOawlWfas3E\">Find a conservator</a></li><li><a href=\"https://www.conservation-us.org/membership/find-a-conservator/guide-to-finding-a-conservator#.WOaw2Wfas3E\">How to choose a conservator</a></li><li><a href=\"https://www.conservation-us.org/about-conservation/caring-for-your-treasures#.WOaxFGfas3E\">How to care for your treasures</a></li></ul><h3>Regional Conservation Centers</h3><p><strong>Please note that this listing does not imply endorsement by Duke University or Duke University Libraries.</strong></p><ul><li><a href=\"http://www.ccaha.org/\">Center for the Conservation of Art and Historic Artifacts (PA)</a></li><li><a href=\"http://www.etheringtoncs.com/\">Etherington Conservation Services (NC)</a></li><li><a href=\"http://www.nedcc.org/home.php\">Northeast Document Conservation Center (MA)</a></li><li><a href=\"http://www.preserveart.org/\">Upper Midwest Conservation Center (MN)</a></li></ul><p>&nbsp;</p><p>Many independent bookbinders offer boxing and repair services. Again, you should read the AIC documentation prior to hiring someone. You can often find reputable bookbinders through the <a href=\"http://guildofbookworkers.org/\">Guild of Bookworkers</a> or other regional bookbinding associations.</p><p><strong>&nbsp;</strong></p><h2><a name=\"resources\"></a>Useful Resources</h2><h3>Professional Organizations</h3><ul><li><a href=\"http://aic.stanford.edu/\" title=\"American Institute for Conservation of Historic &amp; Artistic Work\">American Institute for Conservation of Historic &amp; Artistic Work (AIC)</a>&nbsp;</li><li><a href=\"http://www.ala.org/ala/mgrps/divs/alcts/mgrps/pars/index.cfm\">American Library Association -Preservation and Reformatting Section (ALA-PARS)</a>&nbsp;</li><li><a href=\"http://www.rap-arcc.org/\">Regional Alliance for Preservation (RAP)</a></li></ul><h3>Regional Conservation Centers</h3><ul><li><a href=\"http://www.etheringtoncs.com/\">Etherington Conservation Services</a></li><li><a href=\"http://www.ccaha.org/\" title=\"Conservation Center for Art and Historic Arftifacts\">Conservation Center for Art and Historic Artifacts (CCAHA)</a></li><li><a href=\"http://www.nedcc.org/home.php\" title=\"Northeast Document Conservation Center\">Northeast Document Conservation Center (NEDCC)</a></li></ul><h3>Other Professional Resources</h3><ul><li><a href=\"https://www.lyrasis.org/LYRASIS%20Digital/Pages/Preservation-Services.aspx\">LYRASIS&nbsp;</a></li><li><a href=\"https://www.lib.ncsu.edu/department/preservation\">North Carolina State University (NCSU) Preservation Department</a></li><li><a href=\"https://library.unc.edu/preservation/\">UNC-Chapel Hill Preservation Department&nbsp;</a></li><li><a href=\"https://library.unc.edu/about/dept/university-libraries/wilson-library/conservation/\">UNC-Chapel Hill Special Collections Conservation</a></li></ul><h3>Preservation Supplies</h3><ul><li><a href=\"http://www.conservationresources.com/\">Conservation Resources</a></li><li><a href=\"http://www.gaylord.com/c/Archival\">Gaylord</a> (See the \"archival\" section)</li><li><a href=\"http://www.talasonline.com/\">Talas</a></li><li><a href=\"https://www.universityproducts.com/\">University Products</a> (See the \"archival\" section)</li><li><a href=\"http://www.hollingermetaledge.com/\">Hollinger Metal Edge</a></li></ul><p><strong>Please note that this listing does not imply endorsement by Duke University or Duke University Libraries.</strong></p>",
            "revision_id" : 24677,
            "body_format" : "full_html",
            "delta" : 0,
            "bundle" : "about_page",
            "deleted" : 0
         }
      }
   ],
   "langcode" : "und"
}

