{
   "node__body" : null,
   "vid" : 13431,
   "uuid" : "8666a5b3-a9a5-466d-a740-6b595944ccac",
   "field_image" : null,
   "type" : "exhibit",
   "revisions" : [
      {
         "title" : "WISER",
         "vuuid" : "c3a09e45-a774-49a5-8056-aed5a1bdaa04",
         "node_revision__field_tags" : [],
         "node_revision__body" : {
            "langcode" : null
         },
         "status" : 1,
         "field_revision" : {
            "created" : null,
            "langcode" : null,
            "uid" : 1,
            "status" : 1,
            "default_langcode" : 1,
            "revision_translation_affected" : 1,
            "sticky" : 0,
            "title" : "WISER",
            "changed" : null
         },
         "sticky" : 0,
         "comment" : 1,
         "log" : "",
         "promote" : 0,
         "uid" : 3,
         "timestamp" : 1538408018
      }
   ],
   "langcode" : "und",
   "field_tags" : [],
   "path_alias" : {
      "status" : 0,
      "langcode" : "und",
      "language" : "und",
      "pid" : 1909,
      "alias" : "/exhibits/2015/wiser"
   },
   "node_field_data" : {
      "changed" : null,
      "promote" : 0,
      "type" : "exhibit",
      "revision_translation_affected" : 1,
      "uid" : 1,
      "langcode" : "und",
      "title" : "WISER",
      "sticky" : 0,
      "default_langcode" : 1,
      "status" : 1,
      "created" : 1462296726
   },
   "nid" : "1347",
   "asidebox" : null,
   "node_access" : null
}

