{
   "revisions" : [
      {
         "promote" : 0,
         "uid" : 63,
         "timestamp" : 1381369348,
         "node_revision__field_tags" : [],
         "vuuid" : "a3014cde-2693-45fc-8f89-cff824350598",
         "title" : "Find Books",
         "node_revision__body" : {
            "body_format" : "full_html",
            "bundle" : "research_page",
            "delta" : 0,
            "deleted" : 0,
            "body_value" : "<h2>How Do I…</h2><ul><li>Find Books by Research Topic</li><li>Find a Specific Book</li><li>Locate the Book in the Library</li><li>Expand My Search for Books Beyond Duke</li></ul><h3><a name=\"particular-topic\"></a>Find Books by Research Topic</h3><p>....</p><h4>Search Books and More:</h4><ul><li><a href=\"/find/databases\" target=\"_blank\" title=\"Browse Databases\">&nbsp;</a></li></ul><h3><a name=\"specific-article\"></a>Find a Specific Book</h3><ul><li>To find a book you will need some of the key details: book title, author.</li><li>Use the Books search and limit your search to title or author.</li></ul><ul style=\"list-style-type: disc;\"><li>If in doubt, <a href=\"/services/ask\" target=\"_blank\" title=\"Ask a Librarian\">ask a librarian for help</a>.</li></ul><h3><a name=\"full-text\"></a>Locate the Book in the Library</h3><ul><li>When searching for books in the library, you will need: call number, library, location, and availability.</li><li>For ebooks, click on the &nbsp;<img src=\"http://lgimages.s3.amazonaws.com/data/imagemanager/53289/getitatduke.gif\" width=\"58\" height=\"16\">&nbsp;link to access the book online. See ebooks guide for more information.</li><li><img src=\"http://lgimages.s3.amazonaws.com/data/imagemanager/53289/getitatduke.gif\" width=\"58\" height=\"16\"> may redirect you directly to another database that contains the full text of the article.</li></ul><h3><a name=\"online-journal-titles\"></a>Expand Search to Books Beyond Duke</h3><ul><li>Use the Worldcat catalog to search for books worldwide.</li><li>Click on the title of a book and then \"Get it at Duke\" to begin the request process.&nbsp;</li></ul><p><!--[if gte mso 9]><xml>\r\n <o:OfficeDocumentSettings>\r\n  <o:AllowPNG></o:AllowPNG>\r\n </o:OfficeDocumentSettings>\r\n</xml><![endif]--></p>",
            "revision_id" : 3982,
            "langcode" : "und",
            "body_summary" : "",
            "entity_id" : 450
         },
         "field_revision" : {
            "uid" : 1,
            "langcode" : null,
            "status" : 0,
            "created" : null,
            "revision_translation_affected" : 1,
            "sticky" : 0,
            "default_langcode" : 1,
            "title" : "Find Books",
            "changed" : null
         },
         "status" : 0,
         "comment" : 1,
         "sticky" : 0,
         "log" : ""
      }
   ],
   "langcode" : "und",
   "node__body" : {
      "langcode" : "und",
      "body_summary" : "",
      "entity_id" : 450,
      "deleted" : 0,
      "body_format" : "full_html",
      "bundle" : "research_page",
      "delta" : 0,
      "body_value" : "<h2>How Do I…</h2><ul><li>Find Books by Research Topic</li><li>Find a Specific Book</li><li>Locate the Book in the Library</li><li>Expand My Search for Books Beyond Duke</li></ul><h3><a name=\"particular-topic\"></a>Find Books by Research Topic</h3><p>....</p><h4>Search Books and More:</h4><ul><li><a href=\"/find/databases\" target=\"_blank\" title=\"Browse Databases\">&nbsp;</a></li></ul><h3><a name=\"specific-article\"></a>Find a Specific Book</h3><ul><li>To find a book you will need some of the key details: book title, author.</li><li>Use the Books search and limit your search to title or author.</li></ul><ul style=\"list-style-type: disc;\"><li>If in doubt, <a href=\"/services/ask\" target=\"_blank\" title=\"Ask a Librarian\">ask a librarian for help</a>.</li></ul><h3><a name=\"full-text\"></a>Locate the Book in the Library</h3><ul><li>When searching for books in the library, you will need: call number, library, location, and availability.</li><li>For ebooks, click on the &nbsp;<img src=\"http://lgimages.s3.amazonaws.com/data/imagemanager/53289/getitatduke.gif\" width=\"58\" height=\"16\">&nbsp;link to access the book online. See ebooks guide for more information.</li><li><img src=\"http://lgimages.s3.amazonaws.com/data/imagemanager/53289/getitatduke.gif\" width=\"58\" height=\"16\"> may redirect you directly to another database that contains the full text of the article.</li></ul><h3><a name=\"online-journal-titles\"></a>Expand Search to Books Beyond Duke</h3><ul><li>Use the Worldcat catalog to search for books worldwide.</li><li>Click on the title of a book and then \"Get it at Duke\" to begin the request process.&nbsp;</li></ul><p><!--[if gte mso 9]><xml>\r\n <o:OfficeDocumentSettings>\r\n  <o:AllowPNG></o:AllowPNG>\r\n </o:OfficeDocumentSettings>\r\n</xml><![endif]--></p>",
      "revision_id" : 3982
   },
   "vid" : 3982,
   "uuid" : "87182e8d-05b9-483d-b241-83882a274b71",
   "field_image" : null,
   "type" : "research_page",
   "nid" : "450",
   "field_tags" : [],
   "node_field_data" : {
      "uid" : 1,
      "langcode" : "und",
      "revision_translation_affected" : 1,
      "type" : "research_page",
      "changed" : null,
      "promote" : 0,
      "status" : 0,
      "created" : 1381369348,
      "sticky" : 0,
      "default_langcode" : 1,
      "title" : "Find Books"
   },
   "path_alias" : {
      "language" : "und",
      "pid" : 652,
      "alias" : "/research/find-books",
      "langcode" : "und",
      "status" : 0
   },
   "node_access" : {
      "realm" : "view_unpublished_content",
      "langcode" : "und",
      "grant_delete" : 0,
      "gid" : 1,
      "grant_update" : 0,
      "grant_view" : 1,
      "nid" : 450
   },
   "asidebox" : null
}

