{
   "node__field_image" : {},
   "field_tags" : [],
   "node_field_data" : {
      "sticky" : 0,
      "default_langcode" : 1,
      "status" : 1,
      "created" : 1552507571,
      "title" : "Seeing Science: Exploring Humanity in STEM ",
      "revision_translation_affected" : 1,
      "uid" : 1,
      "langcode" : "und",
      "changed" : null,
      "promote" : 0,
      "type" : "exhibit"
   },
   "path_alias" : {
      "langcode" : "und",
      "status" : 0,
      "language" : "und",
      "pid" : 4345,
      "alias" : "/exhibits/2019/mayoclinic"
   },
   "node_access" : null,
   "langcode" : "und",
   "uuid" : "88038c9a-223c-4f04-abf9-cd4ba866c5aa",
   "type" : "exhibit",
   "nid" : "2191",
   "asidebox" : null,
   "revisions" : [
      {
         "promote" : 0,
         "uid" : 2213,
         "timestamp" : 1576089921,
         "node_revision__field_tags" : [],
         "vuuid" : "6b507ab0-03eb-43b5-bd52-c02f43ffd0f3",
         "title" : "Seeing Science: Exploring Humanity in STEM ",
         "node_revision__body" : {
            "entity_id" : 2191,
            "body_summary" : "",
            "langcode" : "und",
            "revision_id" : 24575,
            "body_value" : "<pre><span style=\"font-size: 16px;\">Seeing Science: Exploring Humanity in STEM<br><br></span></pre><pre></pre><pre><span style=\"font-size: 16px;\">The Seeing Science Project seeks to study how life experience and sociocultural expectations influence 1) an individual’s choice to pursue a career in science and 2) how the individual experiences a life dedicated to science and discovery. The project focuses intentionally on the experiences of diverse scientists – individuals of underrepresented minority groups and international origin, LGBTQIA+ community members, women, individuals with disabilities, and more. We need more open discussion about biases in science and the challenges associated with pursuing a career that demands truth above all else. This project is one small way to start these necessary conversations.<br><br></span></pre><pre></pre><pre><span style=\"font-size: 16px;\">The participants included in this exhibition come from all walks of life, but many were interviewed as part of a summer project at the Mayo Clinic in 2018. They study brain cancer and spinal cord injury, administrate programs aimed at increasing diversity in the sciences, and communicate their love for what they do with their peers and the public alike. It is my hope that their photographs and selected quotes will help to paint a picture of what the modern scientist looks like – diverse, brilliant, and unlike any previous generation has ever seen.<br><br></span></pre><pre></pre><pre><span style=\"font-size: 16px;\">Questions about the project? Want to participate in an upcoming interview? Email Samantha Bouchal at smb116@duke.edu.</span></pre><pre></pre>",
            "deleted" : 0,
            "bundle" : "exhibit",
            "body_format" : "full_html",
            "delta" : 0
         },
         "field_revision" : {
            "created" : null,
            "uid" : 1,
            "langcode" : null,
            "status" : 1,
            "default_langcode" : 1,
            "revision_translation_affected" : 1,
            "sticky" : 0,
            "title" : "Seeing Science: Exploring Humanity in STEM ",
            "changed" : null
         },
         "status" : 1,
         "log" : "",
         "comment" : 1,
         "sticky" : 0
      }
   ],
   "node__body" : {
      "deleted" : 0,
      "body_format" : "full_html",
      "delta" : 0,
      "bundle" : "exhibit",
      "revision_id" : 24575,
      "body_value" : "<pre><span style=\"font-size: 16px;\">Seeing Science: Exploring Humanity in STEM<br><br></span></pre><pre></pre><pre><span style=\"font-size: 16px;\">The Seeing Science Project seeks to study how life experience and sociocultural expectations influence 1) an individual’s choice to pursue a career in science and 2) how the individual experiences a life dedicated to science and discovery. The project focuses intentionally on the experiences of diverse scientists – individuals of underrepresented minority groups and international origin, LGBTQIA+ community members, women, individuals with disabilities, and more. We need more open discussion about biases in science and the challenges associated with pursuing a career that demands truth above all else. This project is one small way to start these necessary conversations.<br><br></span></pre><pre></pre><pre><span style=\"font-size: 16px;\">The participants included in this exhibition come from all walks of life, but many were interviewed as part of a summer project at the Mayo Clinic in 2018. They study brain cancer and spinal cord injury, administrate programs aimed at increasing diversity in the sciences, and communicate their love for what they do with their peers and the public alike. It is my hope that their photographs and selected quotes will help to paint a picture of what the modern scientist looks like – diverse, brilliant, and unlike any previous generation has ever seen.<br><br></span></pre><pre></pre><pre><span style=\"font-size: 16px;\">Questions about the project? Want to participate in an upcoming interview? Email Samantha Bouchal at smb116@duke.edu.</span></pre><pre></pre>",
      "langcode" : "und",
      "body_summary" : "",
      "entity_id" : 2191
   },
   "vid" : 24575,
   "field_image" : {
      "field_image_width" : 800,
      "field_image_alt" : "",
      "bundle" : "exhibit",
      "delta" : 0,
      "entity_type" : "node",
      "field_image_height" : 387,
      "langcode" : "und",
      "file_uuid" : "80b78307-40ce-403d-8609-f9bcc879e638",
      "language" : "und",
      "deleted" : 0,
      "field_image_fid" : 4723,
      "revision_id" : 24575,
      "field_image_target_id" : 4723,
      "entity_id" : 2191,
      "field_image_title" : ""
   }
}

