{
   "revisions" : [
      {
         "timestamp" : 1526339760,
         "uid" : 73,
         "promote" : 0,
         "log" : "",
         "comment" : 1,
         "sticky" : 0,
         "field_revision" : {
            "title" : "Corriher Publishes the Peace Agent",
            "changed" : null,
            "uid" : 1,
            "status" : 1,
            "langcode" : null,
            "created" : null,
            "revision_translation_affected" : 1,
            "sticky" : 0,
            "default_langcode" : 1
         },
         "status" : 1,
         "node_revision__body" : {
            "body_value" : "<h2><em>Chronicle</em> Article</h2><ul><li><a href=\"/sites/default/files/dul/research/student-activism/Chroniclemarch171936peaceagent.pdf\" target=\"_blank\">March 17, 1936</a> (PDF, 1 MB) | <a href=\"https://library.duke.edu/digitalcollections/dukechronicle_dchnp57042/\" target=\"_blank\">Full issue</a></li></ul><hr class=\"dashed\"><p></p><h2>Other Related Documents</h2><div class=\"col-md-12\"><a href=\"/sites/default/files/dul/research/student-activism/peaceagentfeb101936combinedrevised.pdf\" target=\"_blank\" title=\"Peace Agent, February 10, 1936\"><img src=\"/sites/default/files/dul/research/student-activism/peaceagentfeb101936%281%29_0.jpg\" alt=\"Newsletter\" title=\"Peace Agent, February 10, 1936\" width=\"250\" height=\"407\" class=\"caption-left\"></a> <a href=\"/sites/default/files/dul/research/student-activism/peaceagentfeb241936combinedrevised.pdf\" target=\"_blank\" title=\"Peace Agent, February 24, 1936\"><img src=\"/sites/default/files/dul/research/student-activism/peaceagentfeb241936%281%29.jpg\" alt=\"Newsletter\" title=\"Peace Agent, February 24, 1936\" width=\"250\" height=\"407\" class=\"caption-left\"></a> <a href=\"/sites/default/files/dul/research/student-activism/peaceagentmarch91936combinedrevised.pdf\" target=\"_blank\" title=\"Peace Agent, March 9, 1936\"><img src=\"/sites/default/files/dul/research/student-activism/peaceagentmarch91936%281%29.jpg\" alt=\"Newsletter\" title=\"Peace Agent, March 9, 1936\" width=\"250\" height=\"407\" class=\"caption-left\"></a></div><div class=\"col-md-12\"><a href=\"/sites/default/files/dul/research/student-activism/peaceagentmarch231936combinedrevised.pdf\" target=\"_blank\" title=\"Peace Agent, March 23, 1936\"><img src=\"/sites/default/files/dul/research/student-activism/peaceagentmarch231936%281%29.jpg\" alt=\"Newsletter\" title=\"Peace Agent, March 23, 1936\" width=\"250\" height=\"408\" class=\"caption-left\"></a> <a href=\"/sites/default/files/dul/research/student-activism/peaceagentapril151936combinedrevised.pdf\" target=\"_blank\" title=\"Peace Agent, April 15, 1936\"><img src=\"/sites/default/files/dul/research/student-activism/peaceagentapril161936%281%29.jpg\" alt=\"Newsletter\" title=\"Peace Agent, April 15, 1936\" width=\"250\" height=\"408\" class=\"caption-left\"></a> <a href=\"/sites/default/files/dul/research/student-activism/peaceagentmay41936combinedrevised.pdf\" target=\"_blank\" title=\"Peace Agent, May 4, 1936\"><img src=\"/sites/default/files/dul/research/student-activism/peaceagentmay41936%281%29.jpg\" alt=\"Newsletter\" title=\"Peace Agent, May 4, 1936\" width=\"250\" height=\"408\" class=\"caption-left\"></a></div><div class=\"col-md-12\"><a href=\"/sites/default/files/dul/research/student-activism/corrihertosharpefeb101936.jpg\" target=\"_blank\" title=\"Corriher to Courtney Sharpe, February 10, 1936\"><img src=\"/sites/default/files/dul/research/student-activism/corrihertosharpefeb101936tn_1.jpg\" alt=\"Letter\" title=\"Corriher to Courtney Sharpe, February 10, 1936\" width=\"250\" height=\"325\" class=\"caption-left\"></a> <a href=\"/sites/default/files/dul/research/student-activism/corrihertosharpefeb281936.jpg\" target=\"_blank\" title=\"Corriher to Sharpe, February 28, 1936\"><img src=\"/sites/default/files/dul/research/student-activism/corrihertosharpefeb281936tn.jpg\" alt=\"Letter\" title=\"Corriher to Sharpe, February 28, 1936\" width=\"250\" height=\"325\" class=\"caption-left\"></a> <a href=\"/sites/default/files/dul/research/student-activism/corrihertosharpemarch121936.jpg\" target=\"_blank\" title=\"Corriher to  Sharpe, March 12, 1936\"><img src=\"/sites/default/files/dul/research/student-activism/corrihertosharpemarch121936tn.jpg\" alt=\"Letter\" title=\"Corriher to Sharpe, March 12, 1936\" width=\"250\" height=\"325\" class=\"caption-left\"></a></div><div class=\"col-md-12\"><hr class=\"dashed\"><p><small>Correspondence is from the <a href=\"http://finding-aids.lib.unc.edu/05687/\" target=\"_blank\">Courtney Sharpe Ward Papers</a> (Box 1, Folder 20), <a href=\"http://library.unc.edu/wilson/shc/\">Southern Historical Collection</a>, Wilson Library, University of North Carolina at Chapel Hill. The <em>Peace Agents</em> dated 2/10, 2/24, 3/9, 3/23, and 4/15 are from the same collection (Box 1, Folder 28). The <em>Peace Agent</em> dated 5/4 is from the <a href=\"http://libcdm1.uncg.edu/cdm/ref/collection/ui/id/30722\">YWCA Scrapbook, Vol. IV, 1935-1936</a>, <a href=\"https://library.uncg.edu/info/depts/scua/\">Martha Blakeney Hodges Special Collections and University Archives</a>, University of North Carolina at Greensboro Libraries.<br></small></p></div>",
            "revision_id" : 22353,
            "body_format" : "full_html",
            "delta" : 0,
            "bundle" : "page",
            "deleted" : 0,
            "entity_id" : 1753,
            "body_summary" : "",
            "langcode" : "und"
         },
         "node_revision__field_tags" : [],
         "title" : "Corriher Publishes the Peace Agent",
         "vuuid" : "26f2c495-87ca-4dd8-b3e1-2d8d6ce374b5"
      }
   ],
   "langcode" : "und",
   "vid" : 22353,
   "node__body" : {
      "body_value" : "<h2><em>Chronicle</em> Article</h2><ul><li><a href=\"/sites/default/files/dul/research/student-activism/Chroniclemarch171936peaceagent.pdf\" target=\"_blank\">March 17, 1936</a> (PDF, 1 MB) | <a href=\"https://library.duke.edu/digitalcollections/dukechronicle_dchnp57042/\" target=\"_blank\">Full issue</a></li></ul><hr class=\"dashed\"><p></p><h2>Other Related Documents</h2><div class=\"col-md-12\"><a href=\"/sites/default/files/dul/research/student-activism/peaceagentfeb101936combinedrevised.pdf\" target=\"_blank\" title=\"Peace Agent, February 10, 1936\"><img src=\"/sites/default/files/dul/research/student-activism/peaceagentfeb101936%281%29_0.jpg\" alt=\"Newsletter\" title=\"Peace Agent, February 10, 1936\" width=\"250\" height=\"407\" class=\"caption-left\"></a> <a href=\"/sites/default/files/dul/research/student-activism/peaceagentfeb241936combinedrevised.pdf\" target=\"_blank\" title=\"Peace Agent, February 24, 1936\"><img src=\"/sites/default/files/dul/research/student-activism/peaceagentfeb241936%281%29.jpg\" alt=\"Newsletter\" title=\"Peace Agent, February 24, 1936\" width=\"250\" height=\"407\" class=\"caption-left\"></a> <a href=\"/sites/default/files/dul/research/student-activism/peaceagentmarch91936combinedrevised.pdf\" target=\"_blank\" title=\"Peace Agent, March 9, 1936\"><img src=\"/sites/default/files/dul/research/student-activism/peaceagentmarch91936%281%29.jpg\" alt=\"Newsletter\" title=\"Peace Agent, March 9, 1936\" width=\"250\" height=\"407\" class=\"caption-left\"></a></div><div class=\"col-md-12\"><a href=\"/sites/default/files/dul/research/student-activism/peaceagentmarch231936combinedrevised.pdf\" target=\"_blank\" title=\"Peace Agent, March 23, 1936\"><img src=\"/sites/default/files/dul/research/student-activism/peaceagentmarch231936%281%29.jpg\" alt=\"Newsletter\" title=\"Peace Agent, March 23, 1936\" width=\"250\" height=\"408\" class=\"caption-left\"></a> <a href=\"/sites/default/files/dul/research/student-activism/peaceagentapril151936combinedrevised.pdf\" target=\"_blank\" title=\"Peace Agent, April 15, 1936\"><img src=\"/sites/default/files/dul/research/student-activism/peaceagentapril161936%281%29.jpg\" alt=\"Newsletter\" title=\"Peace Agent, April 15, 1936\" width=\"250\" height=\"408\" class=\"caption-left\"></a> <a href=\"/sites/default/files/dul/research/student-activism/peaceagentmay41936combinedrevised.pdf\" target=\"_blank\" title=\"Peace Agent, May 4, 1936\"><img src=\"/sites/default/files/dul/research/student-activism/peaceagentmay41936%281%29.jpg\" alt=\"Newsletter\" title=\"Peace Agent, May 4, 1936\" width=\"250\" height=\"408\" class=\"caption-left\"></a></div><div class=\"col-md-12\"><a href=\"/sites/default/files/dul/research/student-activism/corrihertosharpefeb101936.jpg\" target=\"_blank\" title=\"Corriher to Courtney Sharpe, February 10, 1936\"><img src=\"/sites/default/files/dul/research/student-activism/corrihertosharpefeb101936tn_1.jpg\" alt=\"Letter\" title=\"Corriher to Courtney Sharpe, February 10, 1936\" width=\"250\" height=\"325\" class=\"caption-left\"></a> <a href=\"/sites/default/files/dul/research/student-activism/corrihertosharpefeb281936.jpg\" target=\"_blank\" title=\"Corriher to Sharpe, February 28, 1936\"><img src=\"/sites/default/files/dul/research/student-activism/corrihertosharpefeb281936tn.jpg\" alt=\"Letter\" title=\"Corriher to Sharpe, February 28, 1936\" width=\"250\" height=\"325\" class=\"caption-left\"></a> <a href=\"/sites/default/files/dul/research/student-activism/corrihertosharpemarch121936.jpg\" target=\"_blank\" title=\"Corriher to  Sharpe, March 12, 1936\"><img src=\"/sites/default/files/dul/research/student-activism/corrihertosharpemarch121936tn.jpg\" alt=\"Letter\" title=\"Corriher to Sharpe, March 12, 1936\" width=\"250\" height=\"325\" class=\"caption-left\"></a></div><div class=\"col-md-12\"><hr class=\"dashed\"><p><small>Correspondence is from the <a href=\"http://finding-aids.lib.unc.edu/05687/\" target=\"_blank\">Courtney Sharpe Ward Papers</a> (Box 1, Folder 20), <a href=\"http://library.unc.edu/wilson/shc/\">Southern Historical Collection</a>, Wilson Library, University of North Carolina at Chapel Hill. The <em>Peace Agents</em> dated 2/10, 2/24, 3/9, 3/23, and 4/15 are from the same collection (Box 1, Folder 28). The <em>Peace Agent</em> dated 5/4 is from the <a href=\"http://libcdm1.uncg.edu/cdm/ref/collection/ui/id/30722\">YWCA Scrapbook, Vol. IV, 1935-1936</a>, <a href=\"https://library.uncg.edu/info/depts/scua/\">Martha Blakeney Hodges Special Collections and University Archives</a>, University of North Carolina at Greensboro Libraries.<br></small></p></div>",
      "revision_id" : 22353,
      "deleted" : 0,
      "body_format" : "full_html",
      "bundle" : "page",
      "delta" : 0,
      "langcode" : "und",
      "entity_id" : 1753,
      "body_summary" : ""
   },
   "uuid" : "8d52a8f9-d25d-4a99-9ad5-097ca6f97677",
   "field_image" : null,
   "type" : "page",
   "field_tags" : [],
   "path_alias" : {
      "langcode" : "und",
      "status" : 0,
      "pid" : 3805,
      "alias" : "/research/student-activism/documents/peaceagent",
      "language" : "und"
   },
   "node_field_data" : {
      "promote" : 0,
      "changed" : null,
      "type" : "page",
      "revision_translation_affected" : 1,
      "uid" : 1,
      "langcode" : "und",
      "title" : "Corriher Publishes the Peace Agent",
      "default_langcode" : 1,
      "sticky" : 0,
      "created" : 1509119390,
      "status" : 1
   },
   "nid" : "1753",
   "asidebox" : {
      "block_delta" : null,
      "status" : "disabled",
      "vid" : 22353,
      "bid" : null,
      "nid" : 1753,
      "body_title" : "",
      "block_module" : null,
      "body_value" : null,
      "body_format" : null
   },
   "node_access" : null
}

