{
   "nid" : "601",
   "path_alias" : {
      "language" : "und",
      "pid" : 915,
      "alias" : "/about/jobs/students",
      "langcode" : "und",
      "status" : 0
   },
   "node_field_data" : {
      "title" : "Student Employment in the Library",
      "status" : 1,
      "created" : 1394485402,
      "sticky" : 0,
      "default_langcode" : 1,
      "type" : "page",
      "promote" : 0,
      "changed" : null,
      "langcode" : "und",
      "uid" : 1,
      "revision_translation_affected" : 1
   },
   "field_tags" : [],
   "node_access" : null,
   "asidebox" : {
      "status" : "disabled",
      "block_delta" : null,
      "body_format" : null,
      "block_module" : null,
      "body_value" : null,
      "body_title" : "",
      "nid" : 601,
      "vid" : 30225,
      "bid" : null
   },
   "revisions" : [
      {
         "node_revision__body" : {
            "langcode" : "und",
            "body_summary" : "",
            "entity_id" : 601,
            "deleted" : 0,
            "body_format" : "full_html",
            "bundle" : "page",
            "delta" : 0,
            "body_value" : "<p class=\"p1\">Each year Duke University Libraries employs over 250 students to work in a variety of jobs. For example, library student assistants process new materials, staff public service desks, search computer databases and edit on-line records, mend old and worn books, shelve thousands of volumes which have circulated to our patrons, perform clerical duties, and engage in many other activities. We offer a wide variety of employment opportunities, competitive wages starting at $10.25 per hour, a flexible work schedule, and an opportunity to meet many interesting people. Positions are available on East and West Campus.&nbsp; In addition, our student assistants have the opportunity to learn to use the Library more effectively and to enhance their research skills.</p><p class=\"p1\">We urge you to consider us for employment. All of our student positions are <a href=\"https://dukelist.duke.edu/advert-category/on-campus-student-jobs/\" target=\"_blank\">posted online</a>.</p><p class=\"p1\">The positions are searchable by location, work study requirements, and qualifications.</p><p class=\"p1\">For students who are not currently on the Duke payroll, proper identification is required by law before individuals are able to begin working. A list of acceptable documents is provided by the Library's Human Resources Office. Students who are on Work-Study should bring Work-Study verification forms to the Human Resources Office before beginning employment.</p>",
            "revision_id" : 30225
         },
         "vuuid" : "6be909fc-35cb-4c74-8c9e-6b9f5049f6b5",
         "title" : "Student Employment in the Library",
         "node_revision__field_tags" : [],
         "sticky" : 0,
         "comment" : 1,
         "log" : "",
         "status" : 1,
         "field_revision" : {
            "default_langcode" : 1,
            "sticky" : 0,
            "revision_translation_affected" : 1,
            "created" : null,
            "uid" : 1,
            "langcode" : null,
            "status" : 1,
            "changed" : null,
            "title" : "Student Employment in the Library"
         },
         "promote" : 0,
         "timestamp" : 1613054161,
         "uid" : 2275
      }
   ],
   "langcode" : "und",
   "uuid" : "8df9e399-ad8b-4899-9fd9-d26d5b43b6d4",
   "node__body" : {
      "langcode" : "und",
      "body_summary" : "",
      "entity_id" : 601,
      "deleted" : 0,
      "body_format" : "full_html",
      "bundle" : "page",
      "delta" : 0,
      "revision_id" : 30225,
      "body_value" : "<p class=\"p1\">Each year Duke University Libraries employs over 250 students to work in a variety of jobs. For example, library student assistants process new materials, staff public service desks, search computer databases and edit on-line records, mend old and worn books, shelve thousands of volumes which have circulated to our patrons, perform clerical duties, and engage in many other activities. We offer a wide variety of employment opportunities, competitive wages starting at $10.25 per hour, a flexible work schedule, and an opportunity to meet many interesting people. Positions are available on East and West Campus.&nbsp; In addition, our student assistants have the opportunity to learn to use the Library more effectively and to enhance their research skills.</p><p class=\"p1\">We urge you to consider us for employment. All of our student positions are <a href=\"https://dukelist.duke.edu/advert-category/on-campus-student-jobs/\" target=\"_blank\">posted online</a>.</p><p class=\"p1\">The positions are searchable by location, work study requirements, and qualifications.</p><p class=\"p1\">For students who are not currently on the Duke payroll, proper identification is required by law before individuals are able to begin working. A list of acceptable documents is provided by the Library's Human Resources Office. Students who are on Work-Study should bring Work-Study verification forms to the Human Resources Office before beginning employment.</p>"
   },
   "vid" : 30225,
   "type" : "page",
   "field_image" : null
}

