{
   "field_image" : null,
   "type" : "support_page",
   "node__body" : {
      "langcode" : "und",
      "entity_id" : 2357,
      "body_summary" : "",
      "body_value" : "<p>Modern (20<sup>th</sup> and 21<sup>st</sup> c.) art is the largest area of interest among visual studies disciplines at Duke University.&nbsp; The Department of Art, Art History and Visual Studies has four faculty who teach 20<sup>th</sup> and 21<sup>st</sup> century art exclusively and their courses comprise the highest Departmental enrollment.&nbsp; The modern area accounts for the greatest number of graduate students in Visual Studies as well. &nbsp;The Nasher Museum of Art at Duke collects in, and primarily mounts exhibitions of, modern and post-modern art (two of the four Nasher curators are modernists); their museology courses focus strictly on modern art.&nbsp; Interest in the modern period of art in general, like all American universities, is predominant.&nbsp;</p><p>The literature in this field is also the largest within art.&nbsp; Formats include exhibition catalogs, catalogues raisonnés, monographs, biennal- and fair catalogs, as well as private dealer publications.&nbsp; While some information is free and online, intellectual property rights of image holders mandate that most of the literature is still issued in print form.&nbsp; Duke works closely with UNC-CH to cover this massive area based on school interests.&nbsp; Still, to cover our respective areas even cursorily is difficult.&nbsp;</p><p>The library has been fortunate to have a powerful base collection of such material through donations of contemporary collectors and the generosity of faculty.&nbsp; Relying on such sources creates inevitable gaps and cannot be counted upon for ongoing acquisitions.&nbsp;</p><h2>Establish a collection endowment ($300,000)</h2><p>Despite Duke University Libraries wealth of materials in the area of modern art collections, there exist several target areas for collecting that would greatly benefit from the establishment of a collection endowment.&nbsp; A need exists to acquire the ephemeral material that documents new artists collected by the Nasher, emerging art studied by class inquiry, and historic cultural initiatives.&nbsp;&nbsp;</p><p>The Rubenstein Library has art collections in the areas of artists’ books by women and contemporary photography.&nbsp; The requested material would support these collections as well.&nbsp; Contemporary artist’s material is genuinely more unique among libraries holdings and less easily loanable.&nbsp; Duke Libraries is a vigorous lender of material and increased ownership of such genres would add to the greater NC resources.&nbsp;</p><p>We have need for catalogues raisonnés of targeted contemporary artists, specifically of women artists and performance art.&nbsp; This would be retrospective as well as a base-line addition to the collection.&nbsp; An endowment would also enable us to expand our contemporary exhibition catalogs: Lilly Library subscribes to current ex cats of 17 major art museums, so additional funding would allow us to purchase designated smaller galleries, especially those documenting Hispanic-lineage artists and LGBTQ-artists and themes.&nbsp; The endowment would also allow us to purchase artists’ statements, manifesti, and other primary-source material, with an emphasis on world artists and emerging cultures.</p>",
      "revision_id" : 26513,
      "deleted" : 0,
      "body_format" : "full_html",
      "delta" : 0,
      "bundle" : "support_page"
   },
   "vid" : 26513,
   "uuid" : "8fc2c300-dfc0-4ced-b90c-bf010837f5e4",
   "langcode" : "und",
   "revisions" : [
      {
         "promote" : 0,
         "timestamp" : 1565982412,
         "uid" : 3,
         "node_revision__body" : {
            "body_value" : "<p>Modern (20<sup>th</sup> and 21<sup>st</sup> c.) art is the largest area of interest among visual studies disciplines at Duke University.&nbsp; The Department of Art, Art History and Visual Studies has four faculty who teach 20<sup>th</sup> and 21<sup>st</sup> century art exclusively and their courses comprise the highest Departmental enrollment.&nbsp; The modern area accounts for the greatest number of graduate students in Visual Studies as well. &nbsp;The Nasher Museum of Art at Duke collects in, and primarily mounts exhibitions of, modern and post-modern art (two of the four Nasher curators are modernists); their museology courses focus strictly on modern art.&nbsp; Interest in the modern period of art in general, like all American universities, is predominant.&nbsp;</p><p>The literature in this field is also the largest within art.&nbsp; Formats include exhibition catalogs, catalogues raisonnés, monographs, biennal- and fair catalogs, as well as private dealer publications.&nbsp; While some information is free and online, intellectual property rights of image holders mandate that most of the literature is still issued in print form.&nbsp; Duke works closely with UNC-CH to cover this massive area based on school interests.&nbsp; Still, to cover our respective areas even cursorily is difficult.&nbsp;</p><p>The library has been fortunate to have a powerful base collection of such material through donations of contemporary collectors and the generosity of faculty.&nbsp; Relying on such sources creates inevitable gaps and cannot be counted upon for ongoing acquisitions.&nbsp;</p><h2>Establish a collection endowment ($300,000)</h2><p>Despite Duke University Libraries wealth of materials in the area of modern art collections, there exist several target areas for collecting that would greatly benefit from the establishment of a collection endowment.&nbsp; A need exists to acquire the ephemeral material that documents new artists collected by the Nasher, emerging art studied by class inquiry, and historic cultural initiatives.&nbsp;&nbsp;</p><p>The Rubenstein Library has art collections in the areas of artists’ books by women and contemporary photography.&nbsp; The requested material would support these collections as well.&nbsp; Contemporary artist’s material is genuinely more unique among libraries holdings and less easily loanable.&nbsp; Duke Libraries is a vigorous lender of material and increased ownership of such genres would add to the greater NC resources.&nbsp;</p><p>We have need for catalogues raisonnés of targeted contemporary artists, specifically of women artists and performance art.&nbsp; This would be retrospective as well as a base-line addition to the collection.&nbsp; An endowment would also enable us to expand our contemporary exhibition catalogs: Lilly Library subscribes to current ex cats of 17 major art museums, so additional funding would allow us to purchase designated smaller galleries, especially those documenting Hispanic-lineage artists and LGBTQ-artists and themes.&nbsp; The endowment would also allow us to purchase artists’ statements, manifesti, and other primary-source material, with an emphasis on world artists and emerging cultures.</p>",
            "revision_id" : 26513,
            "deleted" : 0,
            "body_format" : "full_html",
            "bundle" : "support_page",
            "delta" : 0,
            "langcode" : "und",
            "entity_id" : 2357,
            "body_summary" : ""
         },
         "title" : "Funding Opportunities for Modern Art Collections at Duke University Libraries",
         "vuuid" : "4514fbdb-0e10-484a-b824-6c32ce92f7c4",
         "node_revision__field_tags" : [],
         "log" : "",
         "sticky" : 0,
         "comment" : 1,
         "status" : 1,
         "field_revision" : {
            "revision_translation_affected" : 1,
            "sticky" : 0,
            "default_langcode" : 1,
            "status" : 1,
            "uid" : 1,
            "langcode" : null,
            "created" : null,
            "changed" : null,
            "title" : "Funding Opportunities for Modern Art Collections at Duke University Libraries"
         }
      }
   ],
   "node_access" : null,
   "asidebox" : {
      "block_delta" : null,
      "status" : "html",
      "nid" : 2357,
      "body_title" : "",
      "bid" : null,
      "vid" : 26513,
      "body_format" : "full_html",
      "block_module" : null,
      "body_value" : "<p style=\"text-align: center;\"><a href=\"/sites/default/files/dul/support/ModernArtCollections.pdf\">View PDF Version (47KB)</a></p>"
   },
   "nid" : "2357",
   "field_tags" : [],
   "path_alias" : {
      "language" : "und",
      "pid" : 4529,
      "alias" : "/support/giving-opportunities/collection-endowments/modern-art-collections",
      "langcode" : "und",
      "status" : 0
   },
   "node_field_data" : {
      "langcode" : "und",
      "uid" : 1,
      "revision_translation_affected" : 1,
      "type" : "support_page",
      "changed" : null,
      "promote" : 0,
      "created" : 1565982412,
      "status" : 1,
      "default_langcode" : 1,
      "sticky" : 0,
      "title" : "Funding Opportunities for Modern Art Collections at Duke University Libraries"
   }
}

