{
   "langcode" : "und",
   "revisions" : [
      {
         "status" : 1,
         "field_revision" : {
            "created" : null,
            "uid" : 1,
            "status" : 1,
            "langcode" : null,
            "default_langcode" : 1,
            "sticky" : 0,
            "revision_translation_affected" : 1,
            "title" : "League of Women Voters Skit ",
            "changed" : null
         },
         "sticky" : 0,
         "comment" : 1,
         "log" : "",
         "title" : "League of Women Voters Skit ",
         "vuuid" : "a13f3ac4-9d8b-4606-b358-c89230557afd",
         "node_revision__field_tags" : [],
         "node_revision__body" : {
            "delta" : 0,
            "body_format" : "full_html",
            "bundle" : "page",
            "deleted" : 0,
            "revision_id" : 22111,
            "body_value" : "<h2><em>Chronicle</em> Article</h2><ul><li><a href=\"https://library.duke.edu/sites/default/files/dul/research/student-activism/chroniclefeb121930lwvplay.pdf\" target=\"_blank\"> February 12, 1930 </a> (PDF, 1 MB) | <a href=\"https://library.duke.edu/digitalcollections/dukechronicle_dchnp51017/\" target=\"_blank\"> Full issue </a></li></ul><hr class=\"dashed\"><p></p><h2>Other Related Documents</h2><p><a href=\"/sites/default/files/dul/research/student-activism/votinginncmanuscript.pdf\" target=\"_blank\"> <img src=\"/sites/default/files/dul/research/student-activism/lwv%20skit%20opt%20page%201tn.jpg\" alt=\"Voting\" title=\"Voting in NC Manuscript\" width=\"250\" height=\"329\" style=\"margin: 10px;\" class=\"caption-left\"> </a> <a href=\"/sites/default/files/dul/research/student-activism/voting_in_nc.pdf\" target=\"_blank\"> <img src=\"/sites/default/files/dul/research/student-activism/VotingNCp1tn.jpg\" alt=\"Voting\" title=\"Voting in NC Transcription\" width=\"250\" height=\"324\" class=\"caption-left\"> </a></p><div class=\"col-md-12\"><hr><p>Skit is in the <a href=\"https://library.duke.edu/rubenstein/findingaids/cowper/\" target=\"_blank\">Mary Octavine Thompson Cowper Papers</a> (Box 11); slide image of Cowper is from the same collection (Box 12),&nbsp; <a href=\"https://library.duke.edu/rubenstein/findingaids/cowper/\" target=\"_blank\">Duke University Archives </a></p><p></p></div>",
            "langcode" : "und",
            "body_summary" : "",
            "entity_id" : 1891
         },
         "uid" : 3,
         "timestamp" : 1524670099,
         "promote" : 0
      }
   ],
   "type" : "page",
   "field_image" : null,
   "uuid" : "90682ee2-db4d-4795-b78b-5d0aa16c0cbf",
   "vid" : 22111,
   "node__body" : {
      "delta" : 0,
      "body_format" : "full_html",
      "bundle" : "page",
      "deleted" : 0,
      "body_value" : "<h2><em>Chronicle</em> Article</h2><ul><li><a href=\"https://library.duke.edu/sites/default/files/dul/research/student-activism/chroniclefeb121930lwvplay.pdf\" target=\"_blank\"> February 12, 1930 </a> (PDF, 1 MB) | <a href=\"https://library.duke.edu/digitalcollections/dukechronicle_dchnp51017/\" target=\"_blank\"> Full issue </a></li></ul><hr class=\"dashed\"><p></p><h2>Other Related Documents</h2><p><a href=\"/sites/default/files/dul/research/student-activism/votinginncmanuscript.pdf\" target=\"_blank\"> <img src=\"/sites/default/files/dul/research/student-activism/lwv%20skit%20opt%20page%201tn.jpg\" alt=\"Voting\" title=\"Voting in NC Manuscript\" width=\"250\" height=\"329\" style=\"margin: 10px;\" class=\"caption-left\"> </a> <a href=\"/sites/default/files/dul/research/student-activism/voting_in_nc.pdf\" target=\"_blank\"> <img src=\"/sites/default/files/dul/research/student-activism/VotingNCp1tn.jpg\" alt=\"Voting\" title=\"Voting in NC Transcription\" width=\"250\" height=\"324\" class=\"caption-left\"> </a></p><div class=\"col-md-12\"><hr><p>Skit is in the <a href=\"https://library.duke.edu/rubenstein/findingaids/cowper/\" target=\"_blank\">Mary Octavine Thompson Cowper Papers</a> (Box 11); slide image of Cowper is from the same collection (Box 12),&nbsp; <a href=\"https://library.duke.edu/rubenstein/findingaids/cowper/\" target=\"_blank\">Duke University Archives </a></p><p></p></div>",
      "revision_id" : 22111,
      "langcode" : "und",
      "body_summary" : "",
      "entity_id" : 1891
   },
   "node_access" : null,
   "asidebox" : {
      "status" : "disabled",
      "block_delta" : null,
      "block_module" : null,
      "body_value" : null,
      "body_format" : null,
      "vid" : 22111,
      "bid" : null,
      "nid" : 1891,
      "body_title" : ""
   },
   "nid" : "1891",
   "path_alias" : {
      "status" : 0,
      "langcode" : "und",
      "language" : "und",
      "alias" : "/research/student-activism/documents/lwvplay",
      "pid" : 3951
   },
   "node_field_data" : {
      "type" : "page",
      "changed" : null,
      "promote" : 0,
      "uid" : 1,
      "langcode" : "und",
      "revision_translation_affected" : 1,
      "title" : "League of Women Voters Skit ",
      "created" : 1516138726,
      "status" : 1,
      "default_langcode" : 1,
      "sticky" : 0
   },
   "field_tags" : []
}

