{
   "path_alias" : {
      "language" : "und",
      "alias" : "/exhibits/2018/page",
      "pid" : 4215,
      "status" : 0,
      "langcode" : "und"
   },
   "node_field_data" : {
      "title" : "The Partnership for Appalachian Girls’ Education (PAGE)",
      "created" : 1535486169,
      "status" : 1,
      "default_langcode" : 1,
      "sticky" : 0,
      "type" : "exhibit",
      "promote" : 0,
      "changed" : null,
      "uid" : 1,
      "langcode" : "und",
      "revision_translation_affected" : 1
   },
   "field_tags" : [],
   "node_access" : null,
   "node__field_image" : {},
   "uuid" : "90938d59-25fc-421b-9962-9675091d1db2",
   "type" : "exhibit",
   "langcode" : "und",
   "nid" : "2099",
   "asidebox" : null,
   "vid" : 23581,
   "node__body" : null,
   "field_image" : {
      "bundle" : "exhibit",
      "delta" : 0,
      "field_image_width" : 400,
      "field_image_alt" : "",
      "langcode" : "und",
      "field_image_height" : 300,
      "entity_type" : "node",
      "revision_id" : 23581,
      "field_image_fid" : 4283,
      "deleted" : 0,
      "language" : "und",
      "file_uuid" : "a491f29e-c5da-4a73-aba7-7eae17555f93",
      "field_image_title" : "",
      "entity_id" : 2099,
      "field_image_target_id" : 4283
   },
   "revisions" : [
      {
         "title" : "The Partnership for Appalachian Girls’ Education (PAGE)",
         "vuuid" : "681c19ff-ecd4-4cb0-b18c-f775da547253",
         "node_revision__field_tags" : [],
         "node_revision__body" : {
            "langcode" : null
         },
         "status" : 1,
         "field_revision" : {
            "created" : null,
            "uid" : 1,
            "langcode" : null,
            "status" : 1,
            "default_langcode" : 1,
            "revision_translation_affected" : 1,
            "sticky" : 0,
            "title" : "The Partnership for Appalachian Girls’ Education (PAGE)",
            "changed" : null
         },
         "log" : "",
         "sticky" : 0,
         "comment" : 1,
         "promote" : 0,
         "uid" : 3,
         "timestamp" : 1538411762
      }
   ]
}

