{
   "revisions" : [
      {
         "log" : "",
         "sticky" : 0,
         "comment" : 1,
         "status" : 1,
         "field_revision" : {
            "default_langcode" : 1,
            "revision_translation_affected" : 1,
            "sticky" : 0,
            "created" : null,
            "uid" : 1,
            "langcode" : null,
            "status" : 1,
            "changed" : null,
            "title" : "2018 Student and Faculty Surveys"
         },
         "node_revision__body" : {
            "body_summary" : "",
            "entity_id" : 2031,
            "langcode" : "und",
            "bundle" : "about_page",
            "body_format" : "full_html_no_wysiwyg",
            "delta" : 0,
            "deleted" : 0,
            "body_value" : "<p>Use the dashboards and instructions below to explore data from the 2018 Student and Faculty Surveys conducted by the Assessment and User Experience department. If you have questions, contact <a href=\"mailto:joyce.chapman@duke.edu\">joyce.chapman@duke.edu</a>. Data for the Law, Business, and Medical School Libraries is not included in these dashboards.</p><p></p>\r\n<ul>\r\n<li><a href=\"/sites/default/files/dul/users/Joyce%20Chapman/Word%20versions.zip\" target=\"_blank\">Survey instruments</a> (zip file): Microsoft Word versions of the survey instruments (built in Qualtrics).&nbsp;</li>\r\n<li><a href=\"/sites/default/files/dul/users/Joyce%20Chapman/Instructions-tableau-dashboards2018_2.pdf\" target=\"_blank\">Instructions</a> (PDF): how to use the Tableau dashboards</li>\r\n<li><a href=\"#studentdashboard\">Student dashboard</a>: Explore every survey question by library and demographics facet</li>\r\n<li><a href=\"#facultydashboard\">Faculty dashboard</a>: Explore every survey question by library and demographics facet</li>\r\n<li><a href=\"#commentsdashboard\">Comments dashboard</a>: Explore the topical tags of the 2,500+ survey comments left by students and faculty by demographics facet  (<a href=\"https://tableau.oit.duke.edu/#/site/prod/views/Studentsurvey2018-comments/Comments?:iid=2\">Staff-only version)</a></li>\r\n<li><a href=\"#extendedservicesdashboard\">Extended services comments dashboard</a>: Explore the topical tags of the 1,600+ survey comments left in response to a question about which extended services would improve student and faculty library experiences. These responses are coded with different and more specific code sets than the general comments dashboard. \r\n<a href=\"https://tableau.oit.duke.edu/#/site/prod/views/Studentsurvey2018-ExtendedServicescomments/Comments?:iid=1\">(Staff-only version)</a></li>\r\n</ul><p></p>\r\n\r\n<h2><a name=\"studentdashboard\"></a>Student survey dashboard</h2><p>Note: if the embedded dashboard does not appear, <a href=\"https://public.tableau.com/views/DULstudentsurvey2018/Dashboard?:embed=y&:display_count=yes&publish=yes\">view it here</a></p>\r\n\r\n<div class='tableauPlaceholder' id='viz1527789435275' style='position: relative'><noscript><a href='#'><img alt='Dashboard ' src='https:&#47;&#47;public.tableau.com&#47;static&#47;images&#47;DU&#47;DULstudentsurvey2018&#47;Dashboard&#47;1_rss.png' style='border: none' /></a></noscript><object class='tableauViz'  style='display:none;'><param name='host_url' value='https%3A%2F%2Fpublic.tableau.com%2F' /> <param name='embed_code_version' value='3' /> <param name='site_root' value='' /><param name='name' value='DULstudentsurvey2018&#47;Dashboard' /><param name='tabs' value='no' /><param name='toolbar' value='yes' /><param name='static_image' value='https:&#47;&#47;public.tableau.com&#47;static&#47;images&#47;DU&#47;DULstudentsurvey2018&#47;Dashboard&#47;1.png' /> <param name='animate_transition' value='yes' /><param name='display_static_image' value='yes' /><param name='display_spinner' value='yes' /><param name='display_overlay' value='yes' /><param name='display_count' value='yes' /></object></div>                <script type='text/javascript'>                    var divElement = document.getElementById('viz1527789435275');                    var vizElement = divElement.getElementsByTagName('object')[0];                    vizElement.style.width='1000px';vizElement.style.height='827px';                    var scriptElement = document.createElement('script');                    scriptElement.src = 'https://public.tableau.com/javascripts/api/viz_v1.js';                    vizElement.parentNode.insertBefore(scriptElement, vizElement);                </script>\r\n\r\n\r\n<h2><a name=\"facultydashboard\"></a>Faculty survey dashboard</h2><p>Note: if the embedded dashboard does not appear, <a href=\"https://public.tableau.com/views/DULfacultysurvey2018_0/Dashboard?:embed=y&:display_count=yes\">view it here</a></p>\r\n\r\n<div class='tableauPlaceholder' id='viz1527789698280' style='position: relative'><noscript><a href='#'><img alt='Dashboard ' src='https:&#47;&#47;public.tableau.com&#47;static&#47;images&#47;DU&#47;DULfacultysurvey2018_0&#47;Dashboard&#47;1_rss.png' style='border: none' /></a></noscript><object class='tableauViz'  style='display:none;'><param name='host_url' value='https%3A%2F%2Fpublic.tableau.com%2F' /> <param name='embed_code_version' value='3' /> <param name='site_root' value='' /><param name='name' value='DULfacultysurvey2018_0&#47;Dashboard' /><param name='tabs' value='no' /><param name='toolbar' value='yes' /><param name='static_image' value='https:&#47;&#47;public.tableau.com&#47;static&#47;images&#47;DU&#47;DULfacultysurvey2018_0&#47;Dashboard&#47;1.png' /> <param name='animate_transition' value='yes' /><param name='display_static_image' value='yes' /><param name='display_spinner' value='yes' /><param name='display_overlay' value='yes' /><param name='display_count' value='yes' /></object></div>                <script type='text/javascript'>                    var divElement = document.getElementById('viz1527789698280');                    var vizElement = divElement.getElementsByTagName('object')[0];                    vizElement.style.width='1000px';vizElement.style.height='827px';                    var scriptElement = document.createElement('script');                    scriptElement.src = 'https://public.tableau.com/javascripts/api/viz_v1.js';                    vizElement.parentNode.insertBefore(scriptElement, vizElement);                </script>\r\n\r\n<h2><a name=\"commentsdashboard\"></a>Comments dashboard (students and faculty)</h2><p>Note: if the embedded dashboard does not appear, <a href=\"https://public.tableau.com/views/2018bienniallibrarysurveycomments/Comments?:embed=y&:display_count=yes\">view it here</a></p>\r\n\r\n<div class='tableauPlaceholder' id='viz1527789779484' style='position: relative'><noscript><a href='#'><img alt='Comments ' src='https:&#47;&#47;public.tableau.com&#47;static&#47;images&#47;20&#47;2018bienniallibrarysurveycomments&#47;Comments&#47;1_rss.png' style='border: none' /></a></noscript><object class='tableauViz'  style='display:none;'><param name='host_url' value='https%3A%2F%2Fpublic.tableau.com%2F' /> <param name='embed_code_version' value='3' /> <param name='site_root' value='' /><param name='name' value='2018bienniallibrarysurveycomments&#47;Comments' /><param name='tabs' value='no' /><param name='toolbar' value='yes' /><param name='static_image' value='https:&#47;&#47;public.tableau.com&#47;static&#47;images&#47;20&#47;2018bienniallibrarysurveycomments&#47;Comments&#47;1.png' /> <param name='animate_transition' value='yes' /><param name='display_static_image' value='yes' /><param name='display_spinner' value='yes' /><param name='display_overlay' value='yes' /><param name='display_count' value='yes' /></object></div>                <script type='text/javascript'>                    var divElement = document.getElementById('viz1527789779484');                    var vizElement = divElement.getElementsByTagName('object')[0];                    vizElement.style.width='1000px';vizElement.style.height='1527px';                    var scriptElement = document.createElement('script');                    scriptElement.src = 'https://public.tableau.com/javascripts/api/viz_v1.js';                    vizElement.parentNode.insertBefore(scriptElement, vizElement);                </script>\r\n\r\n<h2><a name=\"extendedservicesdashboard\"></a>Extended services comments dashboard (students and faculty)</h2><p>Note: if the embedded dashboard does not appear, <a href=\"https://public.tableau.com/views/2018bienniallibrarysurvey-extendedservicescomments/Comments?:embed=y&:display_count=yes\">view it here</a></p>\r\n\r\n<div class='tableauPlaceholder' id='viz1529330232799' style='position: relative'><noscript><a href='#'><img alt='Comments ' src='https:&#47;&#47;public.tableau.com&#47;static&#47;images&#47;20&#47;2018bienniallibrarysurvey-extendedservicescomments&#47;Comments&#47;1_rss.png' style='border: none' /></a></noscript><object class='tableauViz'  style='display:none;'><param name='host_url' value='https%3A%2F%2Fpublic.tableau.com%2F' /> <param name='embed_code_version' value='3' /> <param name='site_root' value='' /><param name='name' value='2018bienniallibrarysurvey-extendedservicescomments&#47;Comments' /><param name='tabs' value='no' /><param name='toolbar' value='yes' /><param name='static_image' value='https:&#47;&#47;public.tableau.com&#47;static&#47;images&#47;20&#47;2018bienniallibrarysurvey-extendedservicescomments&#47;Comments&#47;1.png' /> <param name='animate_transition' value='yes' /><param name='display_static_image' value='yes' /><param name='display_spinner' value='yes' /><param name='display_overlay' value='yes' /><param name='display_count' value='yes' /></object></div>                <script type='text/javascript'>                    var divElement = document.getElementById('viz1529330232799');                    var vizElement = divElement.getElementsByTagName('object')[0];                    vizElement.style.width='1000px';vizElement.style.height='1527px';                    var scriptElement = document.createElement('script');                    scriptElement.src = 'https://public.tableau.com/javascripts/api/viz_v1.js';                    vizElement.parentNode.insertBefore(scriptElement, vizElement);                </script>\r\n",
            "revision_id" : 28067
         },
         "title" : "2018 Student and Faculty Surveys",
         "vuuid" : "aaccad13-0f06-4c61-b247-d819c9264732",
         "node_revision__field_tags" : [],
         "timestamp" : 1582833650,
         "uid" : 313,
         "promote" : 0
      }
   ],
   "langcode" : "und",
   "vid" : 28067,
   "node__body" : {
      "body_value" : "<p>Use the dashboards and instructions below to explore data from the 2018 Student and Faculty Surveys conducted by the Assessment and User Experience department. If you have questions, contact <a href=\"mailto:joyce.chapman@duke.edu\">joyce.chapman@duke.edu</a>. Data for the Law, Business, and Medical School Libraries is not included in these dashboards.</p><p></p>\r\n<ul>\r\n<li><a href=\"/sites/default/files/dul/users/Joyce%20Chapman/Word%20versions.zip\" target=\"_blank\">Survey instruments</a> (zip file): Microsoft Word versions of the survey instruments (built in Qualtrics).&nbsp;</li>\r\n<li><a href=\"/sites/default/files/dul/users/Joyce%20Chapman/Instructions-tableau-dashboards2018_2.pdf\" target=\"_blank\">Instructions</a> (PDF): how to use the Tableau dashboards</li>\r\n<li><a href=\"#studentdashboard\">Student dashboard</a>: Explore every survey question by library and demographics facet</li>\r\n<li><a href=\"#facultydashboard\">Faculty dashboard</a>: Explore every survey question by library and demographics facet</li>\r\n<li><a href=\"#commentsdashboard\">Comments dashboard</a>: Explore the topical tags of the 2,500+ survey comments left by students and faculty by demographics facet  (<a href=\"https://tableau.oit.duke.edu/#/site/prod/views/Studentsurvey2018-comments/Comments?:iid=2\">Staff-only version)</a></li>\r\n<li><a href=\"#extendedservicesdashboard\">Extended services comments dashboard</a>: Explore the topical tags of the 1,600+ survey comments left in response to a question about which extended services would improve student and faculty library experiences. These responses are coded with different and more specific code sets than the general comments dashboard. \r\n<a href=\"https://tableau.oit.duke.edu/#/site/prod/views/Studentsurvey2018-ExtendedServicescomments/Comments?:iid=1\">(Staff-only version)</a></li>\r\n</ul><p></p>\r\n\r\n<h2><a name=\"studentdashboard\"></a>Student survey dashboard</h2><p>Note: if the embedded dashboard does not appear, <a href=\"https://public.tableau.com/views/DULstudentsurvey2018/Dashboard?:embed=y&:display_count=yes&publish=yes\">view it here</a></p>\r\n\r\n<div class='tableauPlaceholder' id='viz1527789435275' style='position: relative'><noscript><a href='#'><img alt='Dashboard ' src='https:&#47;&#47;public.tableau.com&#47;static&#47;images&#47;DU&#47;DULstudentsurvey2018&#47;Dashboard&#47;1_rss.png' style='border: none' /></a></noscript><object class='tableauViz'  style='display:none;'><param name='host_url' value='https%3A%2F%2Fpublic.tableau.com%2F' /> <param name='embed_code_version' value='3' /> <param name='site_root' value='' /><param name='name' value='DULstudentsurvey2018&#47;Dashboard' /><param name='tabs' value='no' /><param name='toolbar' value='yes' /><param name='static_image' value='https:&#47;&#47;public.tableau.com&#47;static&#47;images&#47;DU&#47;DULstudentsurvey2018&#47;Dashboard&#47;1.png' /> <param name='animate_transition' value='yes' /><param name='display_static_image' value='yes' /><param name='display_spinner' value='yes' /><param name='display_overlay' value='yes' /><param name='display_count' value='yes' /></object></div>                <script type='text/javascript'>                    var divElement = document.getElementById('viz1527789435275');                    var vizElement = divElement.getElementsByTagName('object')[0];                    vizElement.style.width='1000px';vizElement.style.height='827px';                    var scriptElement = document.createElement('script');                    scriptElement.src = 'https://public.tableau.com/javascripts/api/viz_v1.js';                    vizElement.parentNode.insertBefore(scriptElement, vizElement);                </script>\r\n\r\n\r\n<h2><a name=\"facultydashboard\"></a>Faculty survey dashboard</h2><p>Note: if the embedded dashboard does not appear, <a href=\"https://public.tableau.com/views/DULfacultysurvey2018_0/Dashboard?:embed=y&:display_count=yes\">view it here</a></p>\r\n\r\n<div class='tableauPlaceholder' id='viz1527789698280' style='position: relative'><noscript><a href='#'><img alt='Dashboard ' src='https:&#47;&#47;public.tableau.com&#47;static&#47;images&#47;DU&#47;DULfacultysurvey2018_0&#47;Dashboard&#47;1_rss.png' style='border: none' /></a></noscript><object class='tableauViz'  style='display:none;'><param name='host_url' value='https%3A%2F%2Fpublic.tableau.com%2F' /> <param name='embed_code_version' value='3' /> <param name='site_root' value='' /><param name='name' value='DULfacultysurvey2018_0&#47;Dashboard' /><param name='tabs' value='no' /><param name='toolbar' value='yes' /><param name='static_image' value='https:&#47;&#47;public.tableau.com&#47;static&#47;images&#47;DU&#47;DULfacultysurvey2018_0&#47;Dashboard&#47;1.png' /> <param name='animate_transition' value='yes' /><param name='display_static_image' value='yes' /><param name='display_spinner' value='yes' /><param name='display_overlay' value='yes' /><param name='display_count' value='yes' /></object></div>                <script type='text/javascript'>                    var divElement = document.getElementById('viz1527789698280');                    var vizElement = divElement.getElementsByTagName('object')[0];                    vizElement.style.width='1000px';vizElement.style.height='827px';                    var scriptElement = document.createElement('script');                    scriptElement.src = 'https://public.tableau.com/javascripts/api/viz_v1.js';                    vizElement.parentNode.insertBefore(scriptElement, vizElement);                </script>\r\n\r\n<h2><a name=\"commentsdashboard\"></a>Comments dashboard (students and faculty)</h2><p>Note: if the embedded dashboard does not appear, <a href=\"https://public.tableau.com/views/2018bienniallibrarysurveycomments/Comments?:embed=y&:display_count=yes\">view it here</a></p>\r\n\r\n<div class='tableauPlaceholder' id='viz1527789779484' style='position: relative'><noscript><a href='#'><img alt='Comments ' src='https:&#47;&#47;public.tableau.com&#47;static&#47;images&#47;20&#47;2018bienniallibrarysurveycomments&#47;Comments&#47;1_rss.png' style='border: none' /></a></noscript><object class='tableauViz'  style='display:none;'><param name='host_url' value='https%3A%2F%2Fpublic.tableau.com%2F' /> <param name='embed_code_version' value='3' /> <param name='site_root' value='' /><param name='name' value='2018bienniallibrarysurveycomments&#47;Comments' /><param name='tabs' value='no' /><param name='toolbar' value='yes' /><param name='static_image' value='https:&#47;&#47;public.tableau.com&#47;static&#47;images&#47;20&#47;2018bienniallibrarysurveycomments&#47;Comments&#47;1.png' /> <param name='animate_transition' value='yes' /><param name='display_static_image' value='yes' /><param name='display_spinner' value='yes' /><param name='display_overlay' value='yes' /><param name='display_count' value='yes' /></object></div>                <script type='text/javascript'>                    var divElement = document.getElementById('viz1527789779484');                    var vizElement = divElement.getElementsByTagName('object')[0];                    vizElement.style.width='1000px';vizElement.style.height='1527px';                    var scriptElement = document.createElement('script');                    scriptElement.src = 'https://public.tableau.com/javascripts/api/viz_v1.js';                    vizElement.parentNode.insertBefore(scriptElement, vizElement);                </script>\r\n\r\n<h2><a name=\"extendedservicesdashboard\"></a>Extended services comments dashboard (students and faculty)</h2><p>Note: if the embedded dashboard does not appear, <a href=\"https://public.tableau.com/views/2018bienniallibrarysurvey-extendedservicescomments/Comments?:embed=y&:display_count=yes\">view it here</a></p>\r\n\r\n<div class='tableauPlaceholder' id='viz1529330232799' style='position: relative'><noscript><a href='#'><img alt='Comments ' src='https:&#47;&#47;public.tableau.com&#47;static&#47;images&#47;20&#47;2018bienniallibrarysurvey-extendedservicescomments&#47;Comments&#47;1_rss.png' style='border: none' /></a></noscript><object class='tableauViz'  style='display:none;'><param name='host_url' value='https%3A%2F%2Fpublic.tableau.com%2F' /> <param name='embed_code_version' value='3' /> <param name='site_root' value='' /><param name='name' value='2018bienniallibrarysurvey-extendedservicescomments&#47;Comments' /><param name='tabs' value='no' /><param name='toolbar' value='yes' /><param name='static_image' value='https:&#47;&#47;public.tableau.com&#47;static&#47;images&#47;20&#47;2018bienniallibrarysurvey-extendedservicescomments&#47;Comments&#47;1.png' /> <param name='animate_transition' value='yes' /><param name='display_static_image' value='yes' /><param name='display_spinner' value='yes' /><param name='display_overlay' value='yes' /><param name='display_count' value='yes' /></object></div>                <script type='text/javascript'>                    var divElement = document.getElementById('viz1529330232799');                    var vizElement = divElement.getElementsByTagName('object')[0];                    vizElement.style.width='1000px';vizElement.style.height='1527px';                    var scriptElement = document.createElement('script');                    scriptElement.src = 'https://public.tableau.com/javascripts/api/viz_v1.js';                    vizElement.parentNode.insertBefore(scriptElement, vizElement);                </script>\r\n",
      "revision_id" : 28067,
      "deleted" : 0,
      "bundle" : "about_page",
      "body_format" : "full_html_no_wysiwyg",
      "delta" : 0,
      "entity_id" : 2031,
      "body_summary" : "",
      "langcode" : "und"
   },
   "uuid" : "93b9940b-8880-4cb8-a373-888c5db14146",
   "field_image" : null,
   "type" : "about_page",
   "field_tags" : [],
   "node_field_data" : {
      "title" : "2018 Student and Faculty Surveys",
      "status" : 1,
      "created" : 1525356182,
      "sticky" : 0,
      "default_langcode" : 1,
      "type" : "about_page",
      "promote" : 0,
      "changed" : null,
      "uid" : 1,
      "langcode" : "und",
      "revision_translation_affected" : 1
   },
   "path_alias" : {
      "alias" : "/about/2018-student-and-faculty-surveys",
      "pid" : 4115,
      "language" : "und",
      "status" : 0,
      "langcode" : "und"
   },
   "nid" : "2031",
   "asidebox" : {
      "body_value" : null,
      "block_module" : null,
      "body_format" : null,
      "vid" : 28067,
      "bid" : null,
      "body_title" : "",
      "nid" : 2031,
      "status" : "disabled",
      "block_delta" : null
   },
   "node_access" : null
}

