{
   "node__field_image" : {},
   "node_access" : null,
   "field_tags" : [],
   "node_field_data" : {
      "status" : 1,
      "created" : 1438805452,
      "sticky" : 0,
      "default_langcode" : 1,
      "title" : "Songs of Glory, Songs of Sorrow",
      "uid" : 1,
      "langcode" : "und",
      "revision_translation_affected" : 1,
      "type" : "exhibit",
      "promote" : 0,
      "changed" : null
   },
   "path_alias" : {
      "language" : "und",
      "pid" : 1513,
      "alias" : "/exhibits/2008/songs-of-glory",
      "langcode" : "und",
      "status" : 0
   },
   "langcode" : "und",
   "type" : "exhibit",
   "uuid" : "950451f4-4676-46ca-85ec-bb37597d1e33",
   "asidebox" : null,
   "nid" : "1025",
   "revisions" : [
      {
         "promote" : 0,
         "uid" : 3,
         "timestamp" : 1612551421,
         "node_revision__field_tags" : [],
         "title" : "Songs of Glory, Songs of Sorrow",
         "vuuid" : "1fc2a224-ef55-4825-8f16-05eceefd1135",
         "node_revision__body" : {
            "delta" : 0,
            "body_format" : "full_html",
            "bundle" : "exhibit",
            "deleted" : 0,
            "revision_id" : 11009,
            "body_value" : "<p>The American Civil War remains the most devastating war in United States history, with deaths numbering about 618,000–more than in all the nation’s other wars combined, from the Revolutionary War through the Iraq War. This exhibit features sheet music and broadside verse expressing the triumphs and tragedies of the war’s battles, grieving mothers, soldier boys, flags, military officers, and even humor. Themes specific to the Civil War yet universal to all armed conflicts remind us of the high cost paid when peaceful solutions and diplomacy fail to win the day.</p><p></p><hr><p></p><p>The online exhibit is no longer available, but an archived version <a href=\"https://web.archive.org/web/20081114222845/http://library.duke.edu/exhibits/civil-war-music/\">can be viewed at the Internet Archive</a>.<a href=\"https://web.archive.org/web/20081114222845/http://library.duke.edu/exhibits/civil-war-music/\"><br></a></p>",
            "langcode" : "und",
            "body_summary" : "",
            "entity_id" : 1025
         },
         "field_revision" : {
            "changed" : null,
            "title" : "Songs of Glory, Songs of Sorrow",
            "default_langcode" : 1,
            "sticky" : 0,
            "revision_translation_affected" : 1,
            "created" : null,
            "langcode" : null,
            "uid" : 1,
            "status" : 1
         },
         "status" : 1,
         "log" : "",
         "comment" : 1,
         "sticky" : 0
      }
   ],
   "field_image" : {
      "delta" : 0,
      "bundle" : "exhibit",
      "field_image_alt" : "",
      "field_image_width" : 471,
      "langcode" : "und",
      "field_image_height" : 600,
      "entity_type" : "node",
      "revision_id" : 11009,
      "field_image_fid" : 1601,
      "deleted" : 0,
      "language" : "und",
      "file_uuid" : "e73b81a6-1745-4128-ad7e-541a1f9192ef",
      "field_image_title" : "",
      "entity_id" : 1025,
      "field_image_target_id" : 1601
   },
   "vid" : 11009,
   "node__body" : {
      "revision_id" : 11009,
      "body_value" : "<p>The American Civil War remains the most devastating war in United States history, with deaths numbering about 618,000–more than in all the nation’s other wars combined, from the Revolutionary War through the Iraq War. This exhibit features sheet music and broadside verse expressing the triumphs and tragedies of the war’s battles, grieving mothers, soldier boys, flags, military officers, and even humor. Themes specific to the Civil War yet universal to all armed conflicts remind us of the high cost paid when peaceful solutions and diplomacy fail to win the day.</p><p></p><hr><p></p><p>The online exhibit is no longer available, but an archived version <a href=\"https://web.archive.org/web/20081114222845/http://library.duke.edu/exhibits/civil-war-music/\">can be viewed at the Internet Archive</a>.<a href=\"https://web.archive.org/web/20081114222845/http://library.duke.edu/exhibits/civil-war-music/\"><br></a></p>",
      "deleted" : 0,
      "body_format" : "full_html",
      "delta" : 0,
      "bundle" : "exhibit",
      "entity_id" : 1025,
      "body_summary" : "",
      "langcode" : "und"
   }
}

