{
   "langcode" : "und",
   "revisions" : [
      {
         "timestamp" : 1479231596,
         "uid" : 4,
         "promote" : 0,
         "log" : "seanaery@duke.edu replaced <em class=\"placeholder\">class=&quot;muted</em> with <em class=\"placeholder\">class=&quot;text-muted</em> via Scanner Search and Replace module.",
         "comment" : 1,
         "sticky" : 0,
         "field_revision" : {
            "title" : "Baskin Kiosk",
            "changed" : null,
            "uid" : 1,
            "langcode" : null,
            "status" : 1,
            "created" : null,
            "sticky" : 0,
            "revision_translation_affected" : 1,
            "default_langcode" : 1
         },
         "status" : 1,
         "node_revision__body" : {
            "langcode" : "und",
            "body_summary" : "",
            "entity_id" : 1261,
            "deleted" : 0,
            "body_format" : "full_html_no_wysiwyg",
            "bundle" : "page",
            "delta" : 0,
            "revision_id" : 14756,
            "body_value" : "<style type=\"text/css\">\r\n  .row-collapsed { display: none; }\r\n  #cboxLoadedContent p { max-width: 450px; } /* else captions are making popup box much wider than image contained */\r\n\r\n  #section-header,\r\n  #section-footer,\r\n  #page-title {\r\n    display: none;\r\n  }\r\n  \r\n  body {\r\n    width: 100%;\r\n    padding: 0;\r\n  }\r\n\r\n</style>\r\n\r\n<h1 class=\"title\">Lisa Unger Baskin Collection</h1>\r\n\r\n<div class=\"jumbotron\" style=\"padding:20px;\">\r\n\r\n\t<div class=\"row\">\r\n\t\t<div class=\"col-md-4 tip\" title=\"Pseudo Petrarch, Vite dei Pontefici e Imperatori Romani, 1478\">\r\n\t\t\t<a class=\"colorbox-inline\" href=\"?&inline=true#image-1\"><img src=\"/rubenstein/sites/default/files/rubenstein/bingham/collections/baskin/300x300/1478---Petrarch_marginalia---D.jpg\" width=\"300\" height=\"300\" /></a>\r\n\t\t\t<div style=\"display:none;\">\r\n\t\t\t\t<div id=\"image-1\">\r\n\t\t\t\t\t<img src=\"/rubenstein/sites/default/files/rubenstein/bingham/collections/baskin/1478---Petrarch_marginalia---D.jpg\" style=\"max-height:600px;\" alt=\"\" />\r\n\t\t\t\t\t<hr/>\r\n\t\t\t\t\t<p>\r\n\t\t\t\t\t<strong>Pseudo Petrarch, Vite dei Pontefici e Imperatori Romani, 1478</strong><br/>\r\n\t\t\t\t\tAnnotated entry on Pope Joan<br/>\r\n\t\t\t\t\t<span class=\"text-muted small\">Lisa Unger Baskin Collection, Rubenstein Library, Duke University</span>\r\n\t\t\t\t\t</p>\r\n\t\t\t\t</div>\r\n\t\t\t</div>\r\n\t\t</div>\r\n\t\t<div class=\"col-md-4 tip\" title=\"Isotta Nogarola, humanist, 1418-1466, from Jacopo Philippo Bergomensis' De Claris Mulieribus, 1497\">\r\n\t\t\t<a class=\"colorbox-inline\" href=\"?&inline=true#image-2\"><img src=\"/rubenstein/sites/default/files/rubenstein/bingham/collections/baskin/300x300/1497---Bergomensis_Nogarola---LUB.jpg\" width=\"300\" height=\"300\" /></a>\r\n\t\t\t<div style=\"display:none;\">\r\n\t\t\t\t<div id=\"image-2\">\r\n\t\t\t\t\t<img src=\"/rubenstein/sites/default/files/rubenstein/bingham/collections/baskin/1497---Bergomensis_Nogarola---LUB.jpg\" style=\"max-height:600px;\" alt=\"\" />\r\n\t\t\t\t\t<hr/>\r\n\t\t\t\t\t<p>\r\n\t\t\t\t\t<strong>Isotta Nogarola, humanist, 1418-1466, from Jacopo Philippo Bergomensis' De Claris Mulieribus, 1497</strong><br/>\r\n\t\t\t\t\t<span class=\"text-muted small\">Lisa Unger Baskin Collection, Rubenstein Library, Duke University</span>\r\n\t\t\t\t\t</p>\r\n\t\t\t\t</div>\r\n\t\t\t</div>\r\n\t\t</div>\r\n\t\t<div class=\"col-md-4 tip\" title=\"Detail from Antonius Augustinus' Dialoghi Intorno Alle Medaglie, 1592, showing the signature of Geronima Parasole, which includes a knife to indicate that she cut the woodcut illustrations herself\">\r\n\t\t\t<a class=\"colorbox-inline\" href=\"?&inline=true#image-3\"><img src=\"/rubenstein/sites/default/files/rubenstein/bingham/collections/baskin/300x300/1592---Parasole_signature---D.jpg\" width=\"300\" height=\"300\" /></a>\r\n\t\t\t<div style=\"display:none;\">\r\n\t\t\t\t<div id=\"image-3\">\r\n\t\t\t\t\t<img src=\"/rubenstein/sites/default/files/rubenstein/bingham/collections/baskin/1592---Parasole_signature---D.jpg\" style=\"max-height:600px;\" alt=\"\" />\r\n\t\t\t\t\t<hr/>\r\n\t\t\t\t\t<p>\r\n\t\t\t\t\t<strong>Detail from Antonius Augustinus' Dialoghi Intorno Alle Medaglie, 1592, showing the signature of Geronima Parasole, which includes a knife to indicate that she cut the woodcut illustrations herself</strong><br/>\r\n\t\t\t\t\t<span class=\"text-muted small\">Lisa Unger Baskin Collection, Rubenstein Library, Duke University</span>\r\n\t\t\t\t\t</p>\r\n\t\t\t\t</div>\r\n\t\t\t</div>\r\n\t\t</div>\t\t\r\n\r\n\r\n\t</div>\r\n\r\n\t<div class=\"row row-collapsable row-collapsed\" style=\"margin-top: 2.2%\">\r\n\t\t<div class=\"col-md-4 tip\" title=\"Title page of the first book on obstetrics to be published by a woman. Written by French midwife Louise Bourgeois, 1642.\">\r\n\t\t\t<a class=\"colorbox-inline\" href=\"?&inline=true#image-4\"><img src=\"/rubenstein/sites/default/files/rubenstein/bingham/collections/baskin/300x300/1642---Bourgeois_titlepage---D.jpg\" width=\"300\" height=\"300\"/></a>\r\n\t\t\t<div style=\"display:none;\">\r\n\t\t\t\t<div id=\"image-4\">\r\n\t\t\t\t\t<img src=\"/rubenstein/sites/default/files/rubenstein/bingham/collections/baskin/1642---Bourgeois_titlepage---D.jpg\" style=\"max-height:600px;\" alt=\"\" />\r\n\t\t\t\t\t<hr/>\r\n\t\t\t\t\t<p>\r\n\t\t\t\t\t<strong>Title page of the first book on obstetrics to be published by a woman. Written by French midwife Louise Bourgeois, 1642.</strong><br/>\r\n\t\t\t\t\t<span class=\"text-muted small\">Lisa Unger Baskin Collection, Rubenstein Library, Duke University</span>\r\n\t\t\t\t\t</p>\r\n\t\t\t\t</div>\r\n\t\t\t</div>\r\n\t\t</div>\t\t\r\n\t\t<div class=\"col-md-4 tip\" title=\"Memorandum book of the Hausley family of Oxfordshire, c. 1649\">\r\n\t\t\t<a class=\"colorbox-inline\" href=\"?&inline=true#image-5\"><img src=\"/rubenstein/sites/default/files/rubenstein/bingham/collections/baskin/300x300/1649---HausleyFamilyMemoBook_RearCover---D.jpg\" width=\"300\" height=\"300\" /></a>\r\n\t\t\t<div style=\"display:none;\">\r\n\t\t\t\t<div id=\"image-5\">\r\n\t\t\t\t\t<img src=\"/rubenstein/sites/default/files/rubenstein/bingham/collections/baskin/1649---HausleyFamilyMemoBook_RearCover---D.jpg\" style=\"max-height:600px;\" alt=\"\" />\r\n\t\t\t\t\t<hr/>\r\n\t\t\t\t\t<p>\r\n\t\t\t\t\t<strong>Memorandum book of the Hausley family of Oxfordshire, c. 1649</strong><br/>\r\n\t\t\t\t\tEmbroidered binding; erasable pages<br/>\r\n\t\t\t\t\t<span class=\"text-muted small\">Lisa Unger Baskin Collection, Rubenstein Library, Duke University</span>\r\n\t\t\t\t\t</p>\r\n\t\t\t\t</div>\r\n\t\t\t</div>\r\n\t\t</div>\r\n\t\t<div class=\"col-md-4 tip\" title=\"First folio edition of Maria Sibylla Merian's De Europische Insecten, 1730\">\r\n\t\t\t<a class=\"colorbox-inline\" href=\"?&inline=true#image-6\"><img src=\"/rubenstein/sites/default/files/rubenstein/bingham/collections/baskin/300x300/1730---Merian_XLVII---NN.jpg\" width=\"300\" height=\"300\" /></a>\r\n\t\t\t<div style=\"display:none;\">\r\n\t\t\t\t<div id=\"image-6\">\r\n\t\t\t\t\t<img src=\"/rubenstein/sites/default/files/rubenstein/bingham/collections/baskin/1730---Merian_XLVII---NN.jpg\" style=\"max-height:600px;\" alt=\"\" />\r\n\t\t\t\t\t<hr/>\r\n\t\t\t\t\t<p>\r\n\t\t\t\t\t<strong>First folio edition of Maria Sibylla Merian's De Europische Insecten, 1730</strong><br/>\r\n\t\t\t\t\t<span class=\"text-muted small\">Lisa Unger Baskin Collection, Rubenstein Library, Duke University</span>\r\n\t\t\t\t\t</p>\r\n\t\t\t\t</div>\r\n\t\t\t</div>\r\n\t\t</div>\r\n\r\n\t</div>\r\n\r\n\t<div class=\"row row-collapsable row-collapsed\" style=\"margin-top: 2.2%\">\r\n\t\t<div class=\"col-md-4 tip\" title=\"Susie Thompson's Alphabet Illustrated, Kennebunkport, ME, manuscript, ca. 1830\">\r\n\t\t\t<a class=\"colorbox-inline\" href=\"?&inline=true#image-7\"><img src=\"/rubenstein/sites/default/files/rubenstein/bingham/collections/baskin/300x300/1830---AlphabetBook---NN.jpg\" width=\"300\" height=\"300\"/></a>\r\n\t\t\t<div style=\"display:none;\">\r\n\t\t\t\t<div id=\"image-7\">\r\n\t\t\t\t\t<img src=\"/rubenstein/sites/default/files/rubenstein/bingham/collections/baskin/1830---AlphabetBook---NN.jpg\" style=\"max-height:600px;\" alt=\"\" />\r\n\t\t\t\t\t<hr/>\r\n\t\t\t\t\t<p>\r\n\t\t\t\t\t<strong>Susie Thompson's Alphabet Illustrated, Kennebunkport, ME, manuscript, ca. 1830</strong><br/>\r\n\t\t\t\t\t<span class=\"text-muted small\">Lisa Unger Baskin Collection, Rubenstein Library, Duke University</span>\r\n\t\t\t\t\t</p>\r\n\t\t\t\t</div>\r\n\t\t\t</div>\r\n\t\t</div>\t\t\r\n\t\t<div class=\"col-md-4 tip\">\r\n\t\t\t<a class=\"colorbox-inline\" href=\"?&inline=true#image-8\"><img src=\"/rubenstein/sites/default/files/rubenstein/bingham/collections/baskin/300x300/1840---BronteSampler.jpg\" width=\"300\" height=\"300\" /></a>\r\n\t\t\t<div style=\"display:none;\">\r\n\t\t\t\t<div id=\"image-8\">\r\n\t\t\t\t\t<img src=\"/rubenstein/sites/default/files/rubenstein/bingham/collections/baskin/1840---BronteSampler.jpg\" style=\"max-height:600px;\" alt=\"\" />\r\n\t\t\t\t\t<hr/>\r\n\t\t\t\t\t<p>\r\n\t\t\t\t\t<span class=\"text-muted small\">Lisa Unger Baskin Collection, Rubenstein Library, Duke University</span>\r\n\t\t\t\t\t</p>\r\n\t\t\t\t</div>\r\n\t\t\t</div>\r\n\t\t</div>\r\n\t\t<div class=\"col-md-4 tip\" title=\"Harriet Beecher Stowe's blurb for the Narrative of Sojourner Truth, a Northern Slave, ca. 1850\">\r\n\t\t\t<a class=\"colorbox-inline\" href=\"?&inline=true#image-9\"><img src=\"/rubenstein/sites/default/files/rubenstein/bingham/collections/baskin/300x300/1850---StoweBlurb---D.jpg\" width=\"300\" height=\"300\" /></a>\r\n\t\t\t<div style=\"display:none;\">\r\n\t\t\t\t<div id=\"image-9\">\r\n\t\t\t\t\t<img src=\"/rubenstein/sites/default/files/rubenstein/bingham/collections/baskin/1850---StoweBlurb---D.jpg\" style=\"max-height:600px;\" alt=\"\" />\r\n\t\t\t\t\t<hr/>\r\n\t\t\t\t\t<p>\r\n\t\t\t\t\t<strong>Harriet Beecher Stowe's blurb for the Narrative of Sojourner Truth, a Northern Slave, ca. 1850</strong><br/>\r\n\t\t\t\t\t<span class=\"text-muted small\">Lisa Unger Baskin Collection, Rubenstein Library, Duke University</span>\r\n\t\t\t\t\t</p>\r\n\t\t\t\t</div>\r\n\t\t\t</div>\r\n\t\t</div>\r\n\r\n\t</div>\r\n\r\n\t<div class=\"row row-collapsable row-collapsed\" style=\"margin-top: 2.2%\">\r\n\t\t<div class=\"col-md-4 tip\" title=\"Cabinet card sold by Sojourner Truth to support her work, 1864\">\r\n\t\t\t<a class=\"colorbox-inline\" href=\"?&inline=true#image-10\" ><img src=\"/rubenstein/sites/default/files/rubenstein/bingham/collections/baskin/300x300/1864---TruthCabinetCard---D.jpg\" width=\"300\" height=\"300\"/></a>\r\n\t\t\t<div style=\"display:none;\">\r\n\t\t\t\t<div id=\"image-10\">\r\n\t\t\t\t\t<img src=\"/rubenstein/sites/default/files/rubenstein/bingham/collections/baskin/1864---TruthCabinetCard---D.jpg\" style=\"max-height:600px;\" alt=\"\" />\r\n\t\t\t\t\t<hr/>\r\n\t\t\t\t\t<p>\r\n\t\t\t\t\t<strong>Cabinet card sold by Sojourner Truth to support her work, 1864</strong><br/>\r\n\t\t\t\t\tPhotographer is unknown<br/>\t\t\t\t\t\r\n\t\t\t\t\t<span class=\"text-muted small\">Lisa Unger Baskin Collection, Rubenstein Library, Duke University</span>\r\n\t\t\t\t\t</p>\r\n\t\t\t\t</div>\r\n\t\t\t</div>\r\n\t\t</div>\t\t\r\n\t\t<div class=\"col-md-4 tip\" title=\"Alfred Lord Tennyson's In Memorium\">\r\n\t\t\t<a class=\"colorbox-inline\" href=\"?&inline=true#image-12\"><img src=\"/rubenstein/sites/default/files/rubenstein/bingham/collections/baskin/300x300/1892---Tennyson_detail---D.jpg\" width=\"300\" height=\"300\" /></a>\r\n\t\t\t<div style=\"display:none;\">\r\n\t\t\t\t<div id=\"image-12\">\r\n\t\t\t\t\t<img src=\"/rubenstein/sites/default/files/rubenstein/bingham/collections/baskin/1892---Tennyson_detail---D.jpg\" style=\"max-height:600px;\" alt=\"\" />\r\n\t\t\t\t\t<hr/>\r\n\t\t\t\t\t<p>\r\n\t\t\t\t\t<strong>Alfred Lord Tennyson's In Memorium</strong><br/>\r\n\t\t\t\t\tManuscript illustrated and bound by Phoebe Anna Traquair, 1889-1892<br/>\r\n\t\t\t\t\t90 leaves total, including the page from which this detail was taken<br/>\r\n\t\t\t\t\t<span class=\"text-muted small\">Lisa Unger Baskin Collection, Rubenstein Library, Duke University</span>\r\n\t\t\t\t\t</p>\r\n\t\t\t\t</div>\r\n\t\t\t</div>\r\n\t\t</div>\r\n\t\t<div class=\"col-md-4 tip\" title=\"English Lyrics from Spenser to Milton, 1898\">\r\n\t\t\t<a class=\"colorbox-inline\" href=\"?&inline=true#image-11\"><img src=\"/rubenstein/sites/default/files/rubenstein/bingham/collections/baskin/300x300/1898---ShepherdBinding---NN.jpg\" width=\"300\" height=\"300\" /></a>\r\n\t\t\t<div style=\"display:none;\">\r\n\t\t\t\t<div id=\"image-11\">\r\n\t\t\t\t\t<img src=\"/rubenstein/sites/default/files/rubenstein/bingham/collections/baskin/1898---ShepherdBinding---NN.jpg\" style=\"max-height:600px;\" alt=\"\" />\r\n\t\t\t\t\t<hr/>\r\n\t\t\t\t\t<p>\r\n\t\t\t\t\t<strong>English Lyrics from Spenser to Milton, 1898</strong><br/>\t\r\n\t\t\t\t\tBinding design by Granville Fell, executed by Alice Shepherd of the Cedric Chivers bindery<br/>\t\t\t\t\t\r\n\t\t\t\t\t<span class=\"text-muted small\">Lisa Unger Baskin Collection, Rubenstein Library, Duke University</span>\r\n\t\t\t\t\t</p>\r\n\t\t\t\t</div>\r\n\t\t\t</div>\r\n\t\t</div>\t\t\r\n\r\n\t</div>\r\n\r\n\t<div class=\"row row-collapsable row-collapsed\" style=\"margin-top: 2.2%\">\r\n\t\t<div class=\"col-md-4 tip\" title=\"Women's Social and Political Union banner, Ilford (London), ca. 1909\">\r\n\t\t\t<a class=\"colorbox-inline\" href=\"?&inline=true#image-13\"><img src=\"/rubenstein/sites/default/files/rubenstein/bingham/collections/baskin/300x300/1909---WSPUBanner---D.jpg\" width=\"300\" height=\"300\"/></a>\r\n\t\t\t<div style=\"display:none;\">\r\n\t\t\t\t<div id=\"image-13\">\r\n\t\t\t\t\t<img src=\"/rubenstein/sites/default/files/rubenstein/bingham/collections/baskin/1909---WSPUBanner---D.jpg\" style=\"max-height:600px;\" alt=\"\" />\r\n\t\t\t\t\t<hr/>\r\n\t\t\t\t\t<p>\r\n\t\t\t\t\t<strong>Women's Social and Political Union banner, Ilford (London), ca. 1909</strong><br/>\r\n\t\t\t\t\tSilk and linen with applique and needlework, 42 inches x 88 inches<br/>\t\t\t\t\t\r\n\t\t\t\t\t<span class=\"text-muted small\">Lisa Unger Baskin Collection, Rubenstein Library, Duke University</span>\r\n\t\t\t\t\t</p>\r\n\t\t\t\t</div>\r\n\t\t\t</div>\r\n\t\t</div>\t\t\r\n\t\t<div class=\"col-md-4 tip\" title=\"Viriginia Woolf's Writing Desk\">\r\n\t\t\t<a class=\"colorbox-inline\" href=\"?&inline=true#image-14\"><img src=\"/rubenstein/sites/default/files/rubenstein/bingham/collections/baskin/300x300/1920s---WoolfDesk---Schlechter.jpg\" width=\"300\" height=\"300\" /></a>\r\n\t\t\t<div style=\"display:none;\">\r\n\t\t\t\t<div id=\"image-14\">\r\n\t\t\t\t\t<img src=\"/rubenstein/sites/default/files/rubenstein/bingham/collections/baskin/1920s---WoolfDesk---Schlechter.jpg\" style=\"max-height:600px;\" alt=\"\" />\r\n\t\t\t\t\t<hr/>\r\n\t\t\t\t\t<p>\r\n\t\t\t\t\t<strong>Viriginia Woolf's Writing Desk</strong><br/>\t\r\n\t\t\t\t\tPainted by her nephew Quentin Bell, c. 1929<br/>\t\t\t\t\t\r\n\t\t\t\t\t<span class=\"text-muted small\">Lisa Unger Baskin Collection, Rubenstein Library, Duke University<br/>Photograph by Annie Schlechter</span>\r\n\t\t\t\t\t</p>\r\n\t\t\t\t</div>\r\n\t\t\t</div>\r\n\t\t</div>\r\n\t\t<div class=\"col-md-4 tip\" title=\"Selections from the Emma Goldman Collections\">\r\n\t\t\t<a class=\"colorbox-inline\" href=\"?&inline=true#image-15\"><img src=\"/rubenstein/sites/default/files/rubenstein/bingham/collections/baskin/300x300/1930s---Goldman_Letters---D.jpg\" width=\"300\" height=\"300\" /></a>\r\n\t\t\t<div style=\"display:none;\">\r\n\t\t\t\t<div id=\"image-15\">\r\n\t\t\t\t\t<img src=\"/rubenstein/sites/default/files/rubenstein/bingham/collections/baskin/1930s---Goldman_Letters---D.jpg\" style=\"max-height:600px;\" alt=\"\" />\r\n\t\t\t\t\t<hr/>\r\n\t\t\t\t\t<p>\r\n\t\t\t\t\t<strong>Selections from the Emma Goldman Collections</strong><br/>\r\n\t\t\t\t\t<span class=\"text-muted small\">Lisa Unger Baskin Collection, Rubenstein Library, Duke University</span>\r\n\t\t\t\t\t</p>\r\n\t\t\t\t</div>\r\n\t\t\t</div>\r\n\t\t</div>\r\n\r\n\t</div>\r\n\r\n\t\r\n\t<button id=\"image-grid-expand\" class=\"btn btn-default collapsed\" style=\"width:100%; margin-top:20px;\"><span class=\"text-muted\">More Images &#9660;</span></button>\r\n</div>\r\n\r\n\r\n<div class=\"tabbable tabs-right\"> <!-- Only required for left/right tabs -->\r\n\r\n  <ul class=\"nav nav-tabs\" data-spy=\"affix affix-top\" data-offset-top=\"200\" style=\"min-width: 175px;\">\r\n\t<li class=\"active\" style=\"padding-top: 20px;\"><a href=\"#overview\" data-toggle=\"tab\"><strong>Overview</strong></a></li>\r\n\t<li style=\"padding: 30px 12px 12px 12px\"><strong class=\"text-muted\">Collection Highlights &#9660;</strong></li>\r\n    <li><a href=\"#early-works\" data-toggle=\"tab\">Early works to 1700</a></li>\r\n    <li><a href=\"#history-of-medicine\" data-toggle=\"tab\">History of Medicine</a></li>\r\n    <li><a href=\"#suffrage\" data-toggle=\"tab\">Suffrage and Anti-Slavery</a></li>\r\n    <li><a href=\"#women-artists\" data-toggle=\"tab\">Women Artists</a></li>\r\n    <li><a href=\"#literature\" data-toggle=\"tab\">Literature</a></li>\r\n    <li><a href=\"#other-notable-titles\" data-toggle=\"tab\">Other Selected Titles</a></li>\r\n\t<li style=\"padding: 24px;\">&nbsp;</li>\r\n\t\r\n  </ul>\r\n  <div class=\"tab-content\">\r\n    <div class=\"tab-pane active\" id=\"overview\">\r\n\t\t<blockquote>\r\n\t\t\t<p>We are honored to be the institutional home of this spectacular collection.</p>\r\n\t\t\t<small><strong>Deborah Jakubs</strong><br/>\r\n\t\t\tRita DiGiallonardo Holloway University Librarian and Vice Provost for Library Affairs</small>\r\n\t\t</blockquote>\r\n\t\t\r\n      \t<h2>The Lisa Unger Baskin Collection: Overview</h2>\r\n\r\n\t\t<p>The Lisa Unger Baskin Collection documents women’s work, broadly conceived, from the mid-fifteenth century to the mid-twentieth century.  In Baskin’s own words, “The unifying thread is that women have always been productive and working people and this history essentially has been hidden.”  This collection brings women’s contributions across the centuries to light.</p>\r\n\r\n\t\t<p>Carefully assembled over 45 years by noted bibliophile, activist and collector Lisa Unger Baskin, the collection includes more than 8,600 rare books and thousands of manuscripts, journals, ephemera and artifacts. Among the works are many well-known monuments of women’s history and literature, as well as lesser-known works produced by female scholars, printers, publishers, scientists, artists and political activists. Taken together, they comprise a mosaic of the ways that women have been productive, creative, and socially engaged over more than 500 years.</p>\r\n\r\n\t\t<p>The materials range in date from a 1240 manuscript documenting a respite home for women in Italy to a large collection of letters and manuscripts by the 20th-century anarchist Emma Goldman.  The majority of the materials were created between the mid-15th and mid-20th centuries. Other significant items include correspondence by legendary American and English suffragists and abolitionists Susan B. Anthony, Elizabeth Cady Stanton, Emmeline Pankhurst and Lucretia Mott; Harriet Beecher Stowe’s publicity blurb for Sojourner Truth’s <em>Narrative</em>, written in Stowe’s own hand; exquisite decorated bindings by the celebrated turn-of-the-century British binders Sarah Prideaux, Katharine Adams, and Sybil Pye; and English writer Virginia Woolf’s writing desk, which she designed herself.  A few highlights from the collection are described in this website.</p>    \r\n\r\n\t\t<p>Baskin and her late husband, the artist Leonard Baskin, were both avid book collectors. Leonard also founded The Gehenna Press, one of the preeminent American private presses of the 20th century. Lisa Unger Baskin began collecting materials on women’s history in the 1960s after attending Cornell University. She is a member of the Grolier Club, the oldest American society of bibliophiles.</p>\r\n\r\n\t\t<p>“I am delighted that my collection will be available to students, scholars and the community at Duke University, a great teaching and research institution,” Baskin said. “Because of Duke’s powerful commitment to the central role of libraries, and digitization in teaching, it is clear to me that my collection will be an integral part of the university in the coming years and long into the future. I trust that this new and exciting life for my books and manuscripts will help to transform and enlarge the notion of what history is about, deeply reflecting my own interests.”</p> \r\n\r\n\t\t<p>Materials from the collection will be available to researchers once they have been cataloged. Some items will be on display in the renovated Rubenstein Library when it reopens to the public at the end of August 2015.</p> \r\n\r\n\r\n    </div>\t\r\n    <div class=\"tab-pane\" id=\"early-works\">\r\n      \t<h2>The Lisa Unger Baskin Collection: Early works to 1700</h2>\r\n\r\n\t\t<p>Lisa Baskin considers the early works in her collection to be its heart.  The Lisa Unger Baskin Collection includes critical early landmarks in women’s history as well as extraordinary examples of women’s contributions across a range of disciplines, arts, and crafts.</p>\r\n\t\t\r\n\t\t<p>The Baskin Collection contains Jacopo Philippo Bergomensis’ <em>De Claris Mulieribus</em> (1497), one of the earliest collections of women’s biographies ever published.  This work borrows heavily from Boccaccio’s earlier work of the same title.  It is one of the finest early Italian illustrated books, and the first to attempt life-like portraits.  The final seven woodcuts are portraits of contemporary women, including Catherine of Siena and Margaret Queen of Scotland. The work is monumental in scale, an impressive folio comprising 186 biographies.</p>\r\n\r\n\t\t<p>Other early works within the collection include two copies of the pseudo Petrarchian text <em>Vite dei Pontefici e Imperatori Romani</em> (1478), one of the first books typeset by women; a beautiful book of hours printed for Louise de Bourbon by Yolande de Bonhomme, <em>Hor[a]e beatissime virginis Marie</em> (1546); and Marguerite de Navarre’s <em>Marguerites de la Marguerite des princesses</em> (1549), a magnificent copy of one of the landmarks of French poetry; written by the first “Modern Woman.”</p>\r\n\r\n\t\t<p>The collection also contains a letter from Artemisia Gentileschi to Italian scholar and patron of the arts Cassiano dal Pozzo in August 1630.  Gentileschi was one of the most accomplished artists of the 17th century and was the first female painter to become a member of the Accademia di Arti del Disegno in Florence. She is perhaps best known for her <em>Judith Slaying Holofernes</em>, now in the Uffizi.  The letter concerns her request for a license for her assistant to carry arms and refers to a self-portrait that dal Pozzo had commissioned Gentileschi to paint. This was the only known Gentileschi letter remaining in private hands.</p>\r\n    </div>\r\n\r\n    <div class=\"tab-pane\" id=\"history-of-medicine\">\r\n      \t<h2>The Lisa Unger Baskin Collection: History of Medicine</h2>\r\n\r\n\t\t<p>The Lisa Unger Baskin Collection traces the evolution of the understanding of women’s reproductive health and documents the contributions of female medical practitioners and professionals.</p>\r\n\r\n\t\t<p>The Baskin Collection includes <em>Observations Diverses, sur la Sterilité, perte de Fruict, Foecondité, Accouchements et Maladies des Femmes, et Enfantes Nouveaux Naiz</em>, (1642) by Louise Bourgeois, the first book on obstetrics to be published by a woman. Bourgeois was an official midwife for the French court for 26 years.  Her most famous patient was Marie de Medici.  This first collected edition of her lectures was translated into Dutch, German and English, underscoring the breadth of her reputation across Europe. The collection also holds the London, 1663 and Leyden, 1707 editions of this work.</p>\r\n\r\n\t\t<p>The collection also holds a first edition of Jean Palfyn’s <em>Description Anatomique des Parties de la Femme, qui fervent a la Generation</em> (1708); Nicholas Culpeper’s <em>Compleat and Experienced Midwife</em> (1751), the first book on midwifery in English when it appeared in 1651; William Smellie’s <em>An Abridgement of the Practice of Midwifery</em> (1786), the first illustrated medical book and first book of obstetrics published in the United States; and William Osborne’s <em>Essays on the Practice of Midwifery, in Natural and Difficult Labours</em> (1792).</p> \r\n\r\n\t\t<p>More recent materials within the collection include <em>Family Limitation</em> (for private circulation, 1914) by Margaret Sanger, who popularized the term birth control, opened the first birth control clinic in the United States, and established organizations that evolved into the Planned Parenthood Federation of America; and Marie Stopes’ <em>Contraception (Birth Control): Its Theory, History and Practice: A Manual For The Medical And Legal Professions</em> (1923).  Stopes was a paleobotanist, author, and social activist best known for her efforts in the early half of the 20th century to promote safe birth control for women.</p> \r\n\r\n\t\t<p>Other notable materials related to the history of medicine include a collection of family papers of Elizabeth Blackwell, the first woman to receive an M.D. degree from an American medical school; her sister Emily was the third.  The Blackwell family was known for their activism on behalf of women's rights and the Anti-Slavery movement.  This significant group of materials dated 1845-1972 includes materials related to Elizabeth Blackwell, Anna Blackwell, Lucy Stone, Alice Stone Blackwell, and Emma Blackwell.</p> \r\n\r\n\t\r\n    </div>\r\n\r\n\r\n\r\n    <div class=\"tab-pane\" id=\"suffrage\">\r\n      \t<h2>The Lisa Unger Baskin Collection: Suffrage and Anti-Slavery</h2>\r\n\r\n\t\t<p>Lisa Baskin placed an early emphasis on the British and American suffrage and Anti-slavery movements in her collecting, and she has an extraordinary gathering of materials related to the fight for equality.  The collection includes important materials related to the leadership of these movements--such as correspondence from Susan B. Anthony, Lucy Stone, Elizabeth Cady Stanton, Lucretia Mott and Lydia Maria Child--and a significant collection of family papers related to the British Pankhurst and Pethick-Lawrence families. (The Pankhursts and Pethick-Lawrence families provided leadership for the militant suffrage movement in Great Britain). These include the Pethick-Lawrence annotated court depositions for their trial of 1912 and the Pethick-Lawrence pamphlet collection. There are scrapbooks and manuscript journals documenting the Suffrage Pilgrimage of 1913 from Carlisle and Birkenhead to London. Also present are three works bound together that document Stanton’s work to revise Christianity in the name of women’s rights:  <em>Bible and Church Degrade Woman</em> (third edition); <em>The Woman’s Bible, Part I</em> (third American edition); and <em>The Woman’s Bible, Part II</em> (first edition.)</p>\r\n\r\n\t\t<p>Among the rare serials in the collection (including <em>The Una</em>, <em>The Forerunner</em>, <em>The Alpha</em>, <em>Votes for Women</em>, <em>Lucifer</em>, <em>The Free Inquirer</em>, and <em>Mother Earth</em>), Baskin holds the most complete run of Susan B. Anthony’s <em>The Revolution</em> (1868-1872), the first women’s rights weekly journal. Although its circulation never exceeded 3,000, The Revolution’s influence on the national woman’s rights movement was enormous. The paper confronted subjects not discussed in most mainstream publications of the time including sex education, rape, domestic violence, divorce, prostitution and reproductive rights. It was instrumental in attracting working-class women to the movement by devoting columns to concerns such as unionization and discrimination against female workers.  Rare pamphlets in the collection include Rev. Alexander Crummell’s <em>Hope for Africa. A Sermon on Behalf of The Ladies’ Negro Education Society</em> (1853). Only four other copies are known.</p>\r\n\r\n\t\t<p>The material culture of the Suffrage and Anti-Slavery movement is documented through a British suffrage tea set (the most complete known of its kind), an Abolitionist dessert service, Anti-Slavery tokens, a very rare large two-sided silk banner reading “Justice” carried in parades by the Ilford (London) Women's Social and Political Union in 1909-1910, several card and board games sold to support the movement, and the preparatory portrait photographs (several signed) used by the sculptor Adelaide Johnson in modeling the sculpture of Stanton, Anthony and Mott (now in the Capitol Rotunda).</p> \r\n\r\n\t\r\n    </div>\r\n\r\n    <div class=\"tab-pane\" id=\"women-artists\">\r\n      \t<h2>The Lisa Unger Baskin Collection: Women Artists</h2>\r\n\r\n\t\t<p>Lisa Baskin’s interest in female artists and their work is wide ranging and includes painters, photographers, illustrators, bookbinders, metalworkers, embroiderers, calligraphers, and graphic designers.  The collection holds exquisite, highly decorated bindings by the celebrated turn-of-the-century British binders Sarah Prideaux, Katharine Adams, and Sybil Pye, as well as by the Guild of Women Book Binders.  Book historian Marianne Tidcombe has noted that these female binders, working at a time when binding was still more of a trade than an art form, tended to produce more innovative designs than their male counterparts.  These examples and others found throughout the collection are an important part of the history of the book as object, typified by Phoebe Anna Traquair’s illuminated manuscript of Tennyson’s <em>In Memoriam</em>, a stunning work by the leading artist of Scotland’s Arts and Crafts Movement, in Traquair’s own binding.</p>\r\n\r\n\t\t<p>The earliest book in which illustrations by a woman appears is likely to be Antonius Augustinus’ <em>Dialoghi Intorno Alle Medaglie</em> (Rome, 1592).  The woodcut illustrations were cut and signed by Geronima Parasole.  Her woodcut for the title page is spectacular.  The signature she often used combines her initials with a small knife, indicating that she cut the images herself.</p>\r\n\r\n\t\t<p>The collection also includes correspondence by English artisan, designer and socialist May Morris (the daughter of William Morris, the figurehead of the Arts and Crafts movement.)  May Morris became director of the embroidery department for Morris &amp; Company at age 26 and later co-founded the Women’s Guild of Arts.  The collection holds an exquisite needlework pouch May Morris made to house a Kelmscott Press edition of <em>Of the Friendship of Amis and Amile</em>, bound by Katherine Adams, which she inscribed for her lover, the American lawyer, John Quinn.</p>\r\n\r\n\t\t<p>Dutch artist and naturalist Maria Sibylla Merian, who raised the artistic standard of natural history illustration and helped to transform the field of entomology, was the first to observe and depict the process of metamorphosis in the field.  During her career, she described and illustrated the life cycles of 186 insect species from direct observation of live insects.  The Baskin Collection includes the first folio edition of Merian’s <em>De Europische Insecten</em> (1730) and <em>Erucarum Ortus, Alimentum et Paradoxa Metamorphosis</em> (1718).  Both of these copies have hand-colored illustrations.</p>\r\n\r\n\t\t<p>Baskin has sought out early daguerreotypes and cartes-de-visite taken by women photographers.  It is painstaking work to identify these photographers as they are often known only by their first initials, as were many women printers.  The bodies of work she has reassembled offer a unique window into the early history of photography and to women’s role in that history.</p> \r\n\r\n\t\r\n    </div>\r\n\r\n\r\n    <div class=\"tab-pane\" id=\"literature\">\r\n      \t<h2>The Lisa Unger Baskin Collection: Literature</h2>\r\n\r\n\t\t<p>Lisa Baskin has emphasized women’s social history in her collecting, but she did acquire some extraordinary works related to women’s literature.  The volumes, manuscripts, and artifacts speak to the work and craft of writing and to the networks and connections between creative women.</p>\r\n\r\n\t\t<p>Virginia Woolf’s writing desk is one of the most iconic items within the Baskin Collection.  Designed by the author herself, the desk is perhaps the most evocative artifact associated with women’s literature, providing a tangible expression of the “room of one’s own” that Woolf so famously invoked in her 1929 essay of the same name.  Painted decoration was later added by her nephew Quentin Bell. The Baskin Collection also holds a collection of letters to Aileen Pippett, author of <em>The Moth and the Star</em>, the first full-length biography of Woolf to be published.  Her correspondents include Mary McCarthy, Elizabeth Aiken, Conrad Aiken, Vanessa Bell, and many others.</p>  \r\n\r\n\t\t<p>Other materials related to British Literature include a number of items associated with the Brontë family, including a handwritten letter from Charlotte Brontë to her lifelong friend and former schoolmate Ellen Nussey, penned in November 1840.  Brontë’s letters to Nussey are intimate and revealing, and have been used extensively by Brontë scholars.  The collection also includes a piece of needlework completed by Charlotte Brontë  in the early 1830s and a letter from Brontë’s friend and biographer Elizabeth Cleghorn Gaskell to Ellen Nussey (July 1855) documenting her early steps in writing this first biography of Charlotte Brontë.</p>\r\n\r\n\t\t<p>Baskin has also acquired some of the most important works of American literature.  For example, the collection contains a first edition of <em>The Tenth Muse lately sprung up in America</em> (1650) by Anne Bradstreet, the first female writer in the British North American colonies to be published.  It includes a signed first edition of Phillis Wheatley’s <em>Poems on Various Subjects Religious and Moral</em> (London: for A. Bell, 1773), the first work to be published by an African American.  This copy has been mended by hand by an early owner and bears the inscription “Melatiah Bents Book, Milton, [MA,] 1783.”  Bents was a widowed tavern keeper at the time she acquired this book, and her inscription indicates how widely Wheatley was known in the late eighteenth century.  The collection also contains a first edition of the first biography of Wheatley (B. B. Thatcher, <em>Memoir of Phillis Wheatley</em>, 1834).</p>  \r\n\r\n\t\t<p>Five volumes in the Baskin Collection were previously owned by American novelist Willa Cather.  Three of them testify to her close relationship with her mentor Sarah Orne Jewett.  The first is a copy of Jewett’s <em>The Country of the Pointed Firs</em> (1894) in a binding designed by Sarah Wyman Whitman.  The second, Jewett’s <em>Strangers and Wayfarers</em>, is also in a binding by Whitman and was inscribed by Cather to her partner Edith Lewis in 1908. The third is a copy of Henry James’ <em>The Ambassadors</em> (1903) from Jewett’s library that subsequently became a part of Cather’s library.</p>\r\n\r\n\t\t<p>The Baskin Collection also includes several significant works by Edith Wharton.  Wharton was the first woman to win the Pulitzer Prize (for <em>The Age of Innocence</em>, 1920).  A typescript in Italian of “La Duchessa in Preghiera” (The Duchess at Prayer) has manuscript corrections in Wharton’s hand.  This short story formed part of her 1901 collection <em>Crucial Instances</em>.  A limited first edition copy of <em>Twelve Poems</em> (London: Medici Society, 1926) is in its original wrapper and was inscribed by the author “To Trix and Max” (her niece and her niece’s husband). Beatrix Farrand (Trix) was one of the most renowned American landscape architects.  Dumbarton Oaks is her finest surviving work.  She was the only woman among the eleven founding members of the American Society of Landscape Architects.  Max Farrand was the first director of the Huntington Library.</p> \r\n\r\n\t\r\n    </div>\r\n\r\n    <div class=\"tab-pane\" id=\"other-notable-titles\">\r\n      \t<h2>The Lisa Unger Baskin Collection: Other Selected Titles</h2>\r\n\r\n\t\t<p>The highlights presented in this website begin to provide a sense of the depth and breadth of the Lisa Unger Baskin Collection, but the Collection, itself, encompasses far more than these few categories.  The thread binding the collection together is the wide variety of ways that women have made a living over the centuries and the importance of their contributions to human progress.</p>\r\n\r\n\t\t<ul class=\"spacing-lrg bullet-green\">\r\n\t\t\t\r\n\t\t\t<li>The Ladies of Llangollen collection.  Eleanor Butler (1739-1829) and Sarah Ponsonby (1755-1832), members of the Anglo-Irish aristocracy, determined that they would forego heterosexual marriage and eloped to Northern Wales.  Their choice thrust them into the limelight of nineteenth-century press.  They were part of a larger culture of ‘romantic friendship’ where other cohabiting women behaved in similar ways.  While they lived a life of rural retreat, the Ladies’ relative celebrity and social status attracted many visitors, including poets such as Wordsworth and Byron, and even such luminaries as Queen Charlotte.  This large collection includes 380 letters, four poetry manuscripts by Ponsonby, souvenirs sold to visitors, books from their library, and accounts of visits to their home.</li>\r\n\r\n\t\t\t<li>A supportive blurb in manuscript form by Harriett Beecher Stowe of Sojourner Truth’s autobiography (1850).  Truth had personally requested that Stowe write the blurb, and she incorporated this text in later editions of the work.  Truth sold her autobiography to support herself.  The collection also includes a cabinet card of Truth taken in Michigan in 1864, noting “I sell the Shadow to Support the Substance.” </li>\r\n\r\n\t\t\t<li>Florence Nightingale’s <em>Suggestions for Thought to the Searchers After Truth Among the Artizans of England</em> (1860).  Though best known as the founder of modern nursing, Nightingale was also at the forefront of religious and philosophical thought.  In this very rare three-volume work, Nightingale presents her radical spiritual and feminist views.  She also addressed the question of why there are so few women artists.  Only six copies were printed for private distribution.  This copy was previously owned by Ray Strachey, important feminist historian and author of <em>The Cause: a short history of the women's movement in Great Britain</em> (1928).</li>\r\n\r\n\t\t\t<li>Over 250 unpublished letters and manuscripts by the American anarchist and activist Emma Goldman (1869-1940), including extensive correspondence with Thomas Keell (editor of the journal <em>Freedom</em>) and Alexander Berkman (Goldman’s lover, life-long comrade, and editor of her journal <em>Mother Earth</em> and his journal <em>The Blast</em>) and manuscripts by Goldman and Berkman. Two letters from Eugene V. Debs to W.S. Van Valkenburgh in 1926 discuss Goldman and Berkman's treatment in the Soviet Union.  Also present are several letters from Goldman to American anarchist Harry Kelly, a manuscript by the Italian Revolutionary anarchist Errico Malatesta, an anonymous anti-Goldman note written on the back of a flyer for a Goldman appearance in Philadelphia, and a photograph of Goldman at a young age that may be unique</li>\r\n\t\t</ul>\r\n    </div>\r\n\r\n  </div>\r\n\r\n</div>\r\n<div style=\"padding:10px;\">\r\n<hr/>\r\n<p class=\"text-muted small\"><em>Explore more highlights using the links at right.</em></p>\r\n</div>\r\n\r\n"
         },
         "node_revision__field_tags" : [],
         "title" : "Baskin Kiosk",
         "vuuid" : "11fb2c6f-c20b-4b59-a096-eb32a6d5bb0c"
      }
   ],
   "field_image" : null,
   "type" : "page",
   "vid" : 14756,
   "node__body" : {
      "deleted" : 0,
      "body_format" : "full_html_no_wysiwyg",
      "delta" : 0,
      "bundle" : "page",
      "body_value" : "<style type=\"text/css\">\r\n  .row-collapsed { display: none; }\r\n  #cboxLoadedContent p { max-width: 450px; } /* else captions are making popup box much wider than image contained */\r\n\r\n  #section-header,\r\n  #section-footer,\r\n  #page-title {\r\n    display: none;\r\n  }\r\n  \r\n  body {\r\n    width: 100%;\r\n    padding: 0;\r\n  }\r\n\r\n</style>\r\n\r\n<h1 class=\"title\">Lisa Unger Baskin Collection</h1>\r\n\r\n<div class=\"jumbotron\" style=\"padding:20px;\">\r\n\r\n\t<div class=\"row\">\r\n\t\t<div class=\"col-md-4 tip\" title=\"Pseudo Petrarch, Vite dei Pontefici e Imperatori Romani, 1478\">\r\n\t\t\t<a class=\"colorbox-inline\" href=\"?&inline=true#image-1\"><img src=\"/rubenstein/sites/default/files/rubenstein/bingham/collections/baskin/300x300/1478---Petrarch_marginalia---D.jpg\" width=\"300\" height=\"300\" /></a>\r\n\t\t\t<div style=\"display:none;\">\r\n\t\t\t\t<div id=\"image-1\">\r\n\t\t\t\t\t<img src=\"/rubenstein/sites/default/files/rubenstein/bingham/collections/baskin/1478---Petrarch_marginalia---D.jpg\" style=\"max-height:600px;\" alt=\"\" />\r\n\t\t\t\t\t<hr/>\r\n\t\t\t\t\t<p>\r\n\t\t\t\t\t<strong>Pseudo Petrarch, Vite dei Pontefici e Imperatori Romani, 1478</strong><br/>\r\n\t\t\t\t\tAnnotated entry on Pope Joan<br/>\r\n\t\t\t\t\t<span class=\"text-muted small\">Lisa Unger Baskin Collection, Rubenstein Library, Duke University</span>\r\n\t\t\t\t\t</p>\r\n\t\t\t\t</div>\r\n\t\t\t</div>\r\n\t\t</div>\r\n\t\t<div class=\"col-md-4 tip\" title=\"Isotta Nogarola, humanist, 1418-1466, from Jacopo Philippo Bergomensis' De Claris Mulieribus, 1497\">\r\n\t\t\t<a class=\"colorbox-inline\" href=\"?&inline=true#image-2\"><img src=\"/rubenstein/sites/default/files/rubenstein/bingham/collections/baskin/300x300/1497---Bergomensis_Nogarola---LUB.jpg\" width=\"300\" height=\"300\" /></a>\r\n\t\t\t<div style=\"display:none;\">\r\n\t\t\t\t<div id=\"image-2\">\r\n\t\t\t\t\t<img src=\"/rubenstein/sites/default/files/rubenstein/bingham/collections/baskin/1497---Bergomensis_Nogarola---LUB.jpg\" style=\"max-height:600px;\" alt=\"\" />\r\n\t\t\t\t\t<hr/>\r\n\t\t\t\t\t<p>\r\n\t\t\t\t\t<strong>Isotta Nogarola, humanist, 1418-1466, from Jacopo Philippo Bergomensis' De Claris Mulieribus, 1497</strong><br/>\r\n\t\t\t\t\t<span class=\"text-muted small\">Lisa Unger Baskin Collection, Rubenstein Library, Duke University</span>\r\n\t\t\t\t\t</p>\r\n\t\t\t\t</div>\r\n\t\t\t</div>\r\n\t\t</div>\r\n\t\t<div class=\"col-md-4 tip\" title=\"Detail from Antonius Augustinus' Dialoghi Intorno Alle Medaglie, 1592, showing the signature of Geronima Parasole, which includes a knife to indicate that she cut the woodcut illustrations herself\">\r\n\t\t\t<a class=\"colorbox-inline\" href=\"?&inline=true#image-3\"><img src=\"/rubenstein/sites/default/files/rubenstein/bingham/collections/baskin/300x300/1592---Parasole_signature---D.jpg\" width=\"300\" height=\"300\" /></a>\r\n\t\t\t<div style=\"display:none;\">\r\n\t\t\t\t<div id=\"image-3\">\r\n\t\t\t\t\t<img src=\"/rubenstein/sites/default/files/rubenstein/bingham/collections/baskin/1592---Parasole_signature---D.jpg\" style=\"max-height:600px;\" alt=\"\" />\r\n\t\t\t\t\t<hr/>\r\n\t\t\t\t\t<p>\r\n\t\t\t\t\t<strong>Detail from Antonius Augustinus' Dialoghi Intorno Alle Medaglie, 1592, showing the signature of Geronima Parasole, which includes a knife to indicate that she cut the woodcut illustrations herself</strong><br/>\r\n\t\t\t\t\t<span class=\"text-muted small\">Lisa Unger Baskin Collection, Rubenstein Library, Duke University</span>\r\n\t\t\t\t\t</p>\r\n\t\t\t\t</div>\r\n\t\t\t</div>\r\n\t\t</div>\t\t\r\n\r\n\r\n\t</div>\r\n\r\n\t<div class=\"row row-collapsable row-collapsed\" style=\"margin-top: 2.2%\">\r\n\t\t<div class=\"col-md-4 tip\" title=\"Title page of the first book on obstetrics to be published by a woman. Written by French midwife Louise Bourgeois, 1642.\">\r\n\t\t\t<a class=\"colorbox-inline\" href=\"?&inline=true#image-4\"><img src=\"/rubenstein/sites/default/files/rubenstein/bingham/collections/baskin/300x300/1642---Bourgeois_titlepage---D.jpg\" width=\"300\" height=\"300\"/></a>\r\n\t\t\t<div style=\"display:none;\">\r\n\t\t\t\t<div id=\"image-4\">\r\n\t\t\t\t\t<img src=\"/rubenstein/sites/default/files/rubenstein/bingham/collections/baskin/1642---Bourgeois_titlepage---D.jpg\" style=\"max-height:600px;\" alt=\"\" />\r\n\t\t\t\t\t<hr/>\r\n\t\t\t\t\t<p>\r\n\t\t\t\t\t<strong>Title page of the first book on obstetrics to be published by a woman. Written by French midwife Louise Bourgeois, 1642.</strong><br/>\r\n\t\t\t\t\t<span class=\"text-muted small\">Lisa Unger Baskin Collection, Rubenstein Library, Duke University</span>\r\n\t\t\t\t\t</p>\r\n\t\t\t\t</div>\r\n\t\t\t</div>\r\n\t\t</div>\t\t\r\n\t\t<div class=\"col-md-4 tip\" title=\"Memorandum book of the Hausley family of Oxfordshire, c. 1649\">\r\n\t\t\t<a class=\"colorbox-inline\" href=\"?&inline=true#image-5\"><img src=\"/rubenstein/sites/default/files/rubenstein/bingham/collections/baskin/300x300/1649---HausleyFamilyMemoBook_RearCover---D.jpg\" width=\"300\" height=\"300\" /></a>\r\n\t\t\t<div style=\"display:none;\">\r\n\t\t\t\t<div id=\"image-5\">\r\n\t\t\t\t\t<img src=\"/rubenstein/sites/default/files/rubenstein/bingham/collections/baskin/1649---HausleyFamilyMemoBook_RearCover---D.jpg\" style=\"max-height:600px;\" alt=\"\" />\r\n\t\t\t\t\t<hr/>\r\n\t\t\t\t\t<p>\r\n\t\t\t\t\t<strong>Memorandum book of the Hausley family of Oxfordshire, c. 1649</strong><br/>\r\n\t\t\t\t\tEmbroidered binding; erasable pages<br/>\r\n\t\t\t\t\t<span class=\"text-muted small\">Lisa Unger Baskin Collection, Rubenstein Library, Duke University</span>\r\n\t\t\t\t\t</p>\r\n\t\t\t\t</div>\r\n\t\t\t</div>\r\n\t\t</div>\r\n\t\t<div class=\"col-md-4 tip\" title=\"First folio edition of Maria Sibylla Merian's De Europische Insecten, 1730\">\r\n\t\t\t<a class=\"colorbox-inline\" href=\"?&inline=true#image-6\"><img src=\"/rubenstein/sites/default/files/rubenstein/bingham/collections/baskin/300x300/1730---Merian_XLVII---NN.jpg\" width=\"300\" height=\"300\" /></a>\r\n\t\t\t<div style=\"display:none;\">\r\n\t\t\t\t<div id=\"image-6\">\r\n\t\t\t\t\t<img src=\"/rubenstein/sites/default/files/rubenstein/bingham/collections/baskin/1730---Merian_XLVII---NN.jpg\" style=\"max-height:600px;\" alt=\"\" />\r\n\t\t\t\t\t<hr/>\r\n\t\t\t\t\t<p>\r\n\t\t\t\t\t<strong>First folio edition of Maria Sibylla Merian's De Europische Insecten, 1730</strong><br/>\r\n\t\t\t\t\t<span class=\"text-muted small\">Lisa Unger Baskin Collection, Rubenstein Library, Duke University</span>\r\n\t\t\t\t\t</p>\r\n\t\t\t\t</div>\r\n\t\t\t</div>\r\n\t\t</div>\r\n\r\n\t</div>\r\n\r\n\t<div class=\"row row-collapsable row-collapsed\" style=\"margin-top: 2.2%\">\r\n\t\t<div class=\"col-md-4 tip\" title=\"Susie Thompson's Alphabet Illustrated, Kennebunkport, ME, manuscript, ca. 1830\">\r\n\t\t\t<a class=\"colorbox-inline\" href=\"?&inline=true#image-7\"><img src=\"/rubenstein/sites/default/files/rubenstein/bingham/collections/baskin/300x300/1830---AlphabetBook---NN.jpg\" width=\"300\" height=\"300\"/></a>\r\n\t\t\t<div style=\"display:none;\">\r\n\t\t\t\t<div id=\"image-7\">\r\n\t\t\t\t\t<img src=\"/rubenstein/sites/default/files/rubenstein/bingham/collections/baskin/1830---AlphabetBook---NN.jpg\" style=\"max-height:600px;\" alt=\"\" />\r\n\t\t\t\t\t<hr/>\r\n\t\t\t\t\t<p>\r\n\t\t\t\t\t<strong>Susie Thompson's Alphabet Illustrated, Kennebunkport, ME, manuscript, ca. 1830</strong><br/>\r\n\t\t\t\t\t<span class=\"text-muted small\">Lisa Unger Baskin Collection, Rubenstein Library, Duke University</span>\r\n\t\t\t\t\t</p>\r\n\t\t\t\t</div>\r\n\t\t\t</div>\r\n\t\t</div>\t\t\r\n\t\t<div class=\"col-md-4 tip\">\r\n\t\t\t<a class=\"colorbox-inline\" href=\"?&inline=true#image-8\"><img src=\"/rubenstein/sites/default/files/rubenstein/bingham/collections/baskin/300x300/1840---BronteSampler.jpg\" width=\"300\" height=\"300\" /></a>\r\n\t\t\t<div style=\"display:none;\">\r\n\t\t\t\t<div id=\"image-8\">\r\n\t\t\t\t\t<img src=\"/rubenstein/sites/default/files/rubenstein/bingham/collections/baskin/1840---BronteSampler.jpg\" style=\"max-height:600px;\" alt=\"\" />\r\n\t\t\t\t\t<hr/>\r\n\t\t\t\t\t<p>\r\n\t\t\t\t\t<span class=\"text-muted small\">Lisa Unger Baskin Collection, Rubenstein Library, Duke University</span>\r\n\t\t\t\t\t</p>\r\n\t\t\t\t</div>\r\n\t\t\t</div>\r\n\t\t</div>\r\n\t\t<div class=\"col-md-4 tip\" title=\"Harriet Beecher Stowe's blurb for the Narrative of Sojourner Truth, a Northern Slave, ca. 1850\">\r\n\t\t\t<a class=\"colorbox-inline\" href=\"?&inline=true#image-9\"><img src=\"/rubenstein/sites/default/files/rubenstein/bingham/collections/baskin/300x300/1850---StoweBlurb---D.jpg\" width=\"300\" height=\"300\" /></a>\r\n\t\t\t<div style=\"display:none;\">\r\n\t\t\t\t<div id=\"image-9\">\r\n\t\t\t\t\t<img src=\"/rubenstein/sites/default/files/rubenstein/bingham/collections/baskin/1850---StoweBlurb---D.jpg\" style=\"max-height:600px;\" alt=\"\" />\r\n\t\t\t\t\t<hr/>\r\n\t\t\t\t\t<p>\r\n\t\t\t\t\t<strong>Harriet Beecher Stowe's blurb for the Narrative of Sojourner Truth, a Northern Slave, ca. 1850</strong><br/>\r\n\t\t\t\t\t<span class=\"text-muted small\">Lisa Unger Baskin Collection, Rubenstein Library, Duke University</span>\r\n\t\t\t\t\t</p>\r\n\t\t\t\t</div>\r\n\t\t\t</div>\r\n\t\t</div>\r\n\r\n\t</div>\r\n\r\n\t<div class=\"row row-collapsable row-collapsed\" style=\"margin-top: 2.2%\">\r\n\t\t<div class=\"col-md-4 tip\" title=\"Cabinet card sold by Sojourner Truth to support her work, 1864\">\r\n\t\t\t<a class=\"colorbox-inline\" href=\"?&inline=true#image-10\" ><img src=\"/rubenstein/sites/default/files/rubenstein/bingham/collections/baskin/300x300/1864---TruthCabinetCard---D.jpg\" width=\"300\" height=\"300\"/></a>\r\n\t\t\t<div style=\"display:none;\">\r\n\t\t\t\t<div id=\"image-10\">\r\n\t\t\t\t\t<img src=\"/rubenstein/sites/default/files/rubenstein/bingham/collections/baskin/1864---TruthCabinetCard---D.jpg\" style=\"max-height:600px;\" alt=\"\" />\r\n\t\t\t\t\t<hr/>\r\n\t\t\t\t\t<p>\r\n\t\t\t\t\t<strong>Cabinet card sold by Sojourner Truth to support her work, 1864</strong><br/>\r\n\t\t\t\t\tPhotographer is unknown<br/>\t\t\t\t\t\r\n\t\t\t\t\t<span class=\"text-muted small\">Lisa Unger Baskin Collection, Rubenstein Library, Duke University</span>\r\n\t\t\t\t\t</p>\r\n\t\t\t\t</div>\r\n\t\t\t</div>\r\n\t\t</div>\t\t\r\n\t\t<div class=\"col-md-4 tip\" title=\"Alfred Lord Tennyson's In Memorium\">\r\n\t\t\t<a class=\"colorbox-inline\" href=\"?&inline=true#image-12\"><img src=\"/rubenstein/sites/default/files/rubenstein/bingham/collections/baskin/300x300/1892---Tennyson_detail---D.jpg\" width=\"300\" height=\"300\" /></a>\r\n\t\t\t<div style=\"display:none;\">\r\n\t\t\t\t<div id=\"image-12\">\r\n\t\t\t\t\t<img src=\"/rubenstein/sites/default/files/rubenstein/bingham/collections/baskin/1892---Tennyson_detail---D.jpg\" style=\"max-height:600px;\" alt=\"\" />\r\n\t\t\t\t\t<hr/>\r\n\t\t\t\t\t<p>\r\n\t\t\t\t\t<strong>Alfred Lord Tennyson's In Memorium</strong><br/>\r\n\t\t\t\t\tManuscript illustrated and bound by Phoebe Anna Traquair, 1889-1892<br/>\r\n\t\t\t\t\t90 leaves total, including the page from which this detail was taken<br/>\r\n\t\t\t\t\t<span class=\"text-muted small\">Lisa Unger Baskin Collection, Rubenstein Library, Duke University</span>\r\n\t\t\t\t\t</p>\r\n\t\t\t\t</div>\r\n\t\t\t</div>\r\n\t\t</div>\r\n\t\t<div class=\"col-md-4 tip\" title=\"English Lyrics from Spenser to Milton, 1898\">\r\n\t\t\t<a class=\"colorbox-inline\" href=\"?&inline=true#image-11\"><img src=\"/rubenstein/sites/default/files/rubenstein/bingham/collections/baskin/300x300/1898---ShepherdBinding---NN.jpg\" width=\"300\" height=\"300\" /></a>\r\n\t\t\t<div style=\"display:none;\">\r\n\t\t\t\t<div id=\"image-11\">\r\n\t\t\t\t\t<img src=\"/rubenstein/sites/default/files/rubenstein/bingham/collections/baskin/1898---ShepherdBinding---NN.jpg\" style=\"max-height:600px;\" alt=\"\" />\r\n\t\t\t\t\t<hr/>\r\n\t\t\t\t\t<p>\r\n\t\t\t\t\t<strong>English Lyrics from Spenser to Milton, 1898</strong><br/>\t\r\n\t\t\t\t\tBinding design by Granville Fell, executed by Alice Shepherd of the Cedric Chivers bindery<br/>\t\t\t\t\t\r\n\t\t\t\t\t<span class=\"text-muted small\">Lisa Unger Baskin Collection, Rubenstein Library, Duke University</span>\r\n\t\t\t\t\t</p>\r\n\t\t\t\t</div>\r\n\t\t\t</div>\r\n\t\t</div>\t\t\r\n\r\n\t</div>\r\n\r\n\t<div class=\"row row-collapsable row-collapsed\" style=\"margin-top: 2.2%\">\r\n\t\t<div class=\"col-md-4 tip\" title=\"Women's Social and Political Union banner, Ilford (London), ca. 1909\">\r\n\t\t\t<a class=\"colorbox-inline\" href=\"?&inline=true#image-13\"><img src=\"/rubenstein/sites/default/files/rubenstein/bingham/collections/baskin/300x300/1909---WSPUBanner---D.jpg\" width=\"300\" height=\"300\"/></a>\r\n\t\t\t<div style=\"display:none;\">\r\n\t\t\t\t<div id=\"image-13\">\r\n\t\t\t\t\t<img src=\"/rubenstein/sites/default/files/rubenstein/bingham/collections/baskin/1909---WSPUBanner---D.jpg\" style=\"max-height:600px;\" alt=\"\" />\r\n\t\t\t\t\t<hr/>\r\n\t\t\t\t\t<p>\r\n\t\t\t\t\t<strong>Women's Social and Political Union banner, Ilford (London), ca. 1909</strong><br/>\r\n\t\t\t\t\tSilk and linen with applique and needlework, 42 inches x 88 inches<br/>\t\t\t\t\t\r\n\t\t\t\t\t<span class=\"text-muted small\">Lisa Unger Baskin Collection, Rubenstein Library, Duke University</span>\r\n\t\t\t\t\t</p>\r\n\t\t\t\t</div>\r\n\t\t\t</div>\r\n\t\t</div>\t\t\r\n\t\t<div class=\"col-md-4 tip\" title=\"Viriginia Woolf's Writing Desk\">\r\n\t\t\t<a class=\"colorbox-inline\" href=\"?&inline=true#image-14\"><img src=\"/rubenstein/sites/default/files/rubenstein/bingham/collections/baskin/300x300/1920s---WoolfDesk---Schlechter.jpg\" width=\"300\" height=\"300\" /></a>\r\n\t\t\t<div style=\"display:none;\">\r\n\t\t\t\t<div id=\"image-14\">\r\n\t\t\t\t\t<img src=\"/rubenstein/sites/default/files/rubenstein/bingham/collections/baskin/1920s---WoolfDesk---Schlechter.jpg\" style=\"max-height:600px;\" alt=\"\" />\r\n\t\t\t\t\t<hr/>\r\n\t\t\t\t\t<p>\r\n\t\t\t\t\t<strong>Viriginia Woolf's Writing Desk</strong><br/>\t\r\n\t\t\t\t\tPainted by her nephew Quentin Bell, c. 1929<br/>\t\t\t\t\t\r\n\t\t\t\t\t<span class=\"text-muted small\">Lisa Unger Baskin Collection, Rubenstein Library, Duke University<br/>Photograph by Annie Schlechter</span>\r\n\t\t\t\t\t</p>\r\n\t\t\t\t</div>\r\n\t\t\t</div>\r\n\t\t</div>\r\n\t\t<div class=\"col-md-4 tip\" title=\"Selections from the Emma Goldman Collections\">\r\n\t\t\t<a class=\"colorbox-inline\" href=\"?&inline=true#image-15\"><img src=\"/rubenstein/sites/default/files/rubenstein/bingham/collections/baskin/300x300/1930s---Goldman_Letters---D.jpg\" width=\"300\" height=\"300\" /></a>\r\n\t\t\t<div style=\"display:none;\">\r\n\t\t\t\t<div id=\"image-15\">\r\n\t\t\t\t\t<img src=\"/rubenstein/sites/default/files/rubenstein/bingham/collections/baskin/1930s---Goldman_Letters---D.jpg\" style=\"max-height:600px;\" alt=\"\" />\r\n\t\t\t\t\t<hr/>\r\n\t\t\t\t\t<p>\r\n\t\t\t\t\t<strong>Selections from the Emma Goldman Collections</strong><br/>\r\n\t\t\t\t\t<span class=\"text-muted small\">Lisa Unger Baskin Collection, Rubenstein Library, Duke University</span>\r\n\t\t\t\t\t</p>\r\n\t\t\t\t</div>\r\n\t\t\t</div>\r\n\t\t</div>\r\n\r\n\t</div>\r\n\r\n\t\r\n\t<button id=\"image-grid-expand\" class=\"btn btn-default collapsed\" style=\"width:100%; margin-top:20px;\"><span class=\"text-muted\">More Images &#9660;</span></button>\r\n</div>\r\n\r\n\r\n<div class=\"tabbable tabs-right\"> <!-- Only required for left/right tabs -->\r\n\r\n  <ul class=\"nav nav-tabs\" data-spy=\"affix affix-top\" data-offset-top=\"200\" style=\"min-width: 175px;\">\r\n\t<li class=\"active\" style=\"padding-top: 20px;\"><a href=\"#overview\" data-toggle=\"tab\"><strong>Overview</strong></a></li>\r\n\t<li style=\"padding: 30px 12px 12px 12px\"><strong class=\"text-muted\">Collection Highlights &#9660;</strong></li>\r\n    <li><a href=\"#early-works\" data-toggle=\"tab\">Early works to 1700</a></li>\r\n    <li><a href=\"#history-of-medicine\" data-toggle=\"tab\">History of Medicine</a></li>\r\n    <li><a href=\"#suffrage\" data-toggle=\"tab\">Suffrage and Anti-Slavery</a></li>\r\n    <li><a href=\"#women-artists\" data-toggle=\"tab\">Women Artists</a></li>\r\n    <li><a href=\"#literature\" data-toggle=\"tab\">Literature</a></li>\r\n    <li><a href=\"#other-notable-titles\" data-toggle=\"tab\">Other Selected Titles</a></li>\r\n\t<li style=\"padding: 24px;\">&nbsp;</li>\r\n\t\r\n  </ul>\r\n  <div class=\"tab-content\">\r\n    <div class=\"tab-pane active\" id=\"overview\">\r\n\t\t<blockquote>\r\n\t\t\t<p>We are honored to be the institutional home of this spectacular collection.</p>\r\n\t\t\t<small><strong>Deborah Jakubs</strong><br/>\r\n\t\t\tRita DiGiallonardo Holloway University Librarian and Vice Provost for Library Affairs</small>\r\n\t\t</blockquote>\r\n\t\t\r\n      \t<h2>The Lisa Unger Baskin Collection: Overview</h2>\r\n\r\n\t\t<p>The Lisa Unger Baskin Collection documents women’s work, broadly conceived, from the mid-fifteenth century to the mid-twentieth century.  In Baskin’s own words, “The unifying thread is that women have always been productive and working people and this history essentially has been hidden.”  This collection brings women’s contributions across the centuries to light.</p>\r\n\r\n\t\t<p>Carefully assembled over 45 years by noted bibliophile, activist and collector Lisa Unger Baskin, the collection includes more than 8,600 rare books and thousands of manuscripts, journals, ephemera and artifacts. Among the works are many well-known monuments of women’s history and literature, as well as lesser-known works produced by female scholars, printers, publishers, scientists, artists and political activists. Taken together, they comprise a mosaic of the ways that women have been productive, creative, and socially engaged over more than 500 years.</p>\r\n\r\n\t\t<p>The materials range in date from a 1240 manuscript documenting a respite home for women in Italy to a large collection of letters and manuscripts by the 20th-century anarchist Emma Goldman.  The majority of the materials were created between the mid-15th and mid-20th centuries. Other significant items include correspondence by legendary American and English suffragists and abolitionists Susan B. Anthony, Elizabeth Cady Stanton, Emmeline Pankhurst and Lucretia Mott; Harriet Beecher Stowe’s publicity blurb for Sojourner Truth’s <em>Narrative</em>, written in Stowe’s own hand; exquisite decorated bindings by the celebrated turn-of-the-century British binders Sarah Prideaux, Katharine Adams, and Sybil Pye; and English writer Virginia Woolf’s writing desk, which she designed herself.  A few highlights from the collection are described in this website.</p>    \r\n\r\n\t\t<p>Baskin and her late husband, the artist Leonard Baskin, were both avid book collectors. Leonard also founded The Gehenna Press, one of the preeminent American private presses of the 20th century. Lisa Unger Baskin began collecting materials on women’s history in the 1960s after attending Cornell University. She is a member of the Grolier Club, the oldest American society of bibliophiles.</p>\r\n\r\n\t\t<p>“I am delighted that my collection will be available to students, scholars and the community at Duke University, a great teaching and research institution,” Baskin said. “Because of Duke’s powerful commitment to the central role of libraries, and digitization in teaching, it is clear to me that my collection will be an integral part of the university in the coming years and long into the future. I trust that this new and exciting life for my books and manuscripts will help to transform and enlarge the notion of what history is about, deeply reflecting my own interests.”</p> \r\n\r\n\t\t<p>Materials from the collection will be available to researchers once they have been cataloged. Some items will be on display in the renovated Rubenstein Library when it reopens to the public at the end of August 2015.</p> \r\n\r\n\r\n    </div>\t\r\n    <div class=\"tab-pane\" id=\"early-works\">\r\n      \t<h2>The Lisa Unger Baskin Collection: Early works to 1700</h2>\r\n\r\n\t\t<p>Lisa Baskin considers the early works in her collection to be its heart.  The Lisa Unger Baskin Collection includes critical early landmarks in women’s history as well as extraordinary examples of women’s contributions across a range of disciplines, arts, and crafts.</p>\r\n\t\t\r\n\t\t<p>The Baskin Collection contains Jacopo Philippo Bergomensis’ <em>De Claris Mulieribus</em> (1497), one of the earliest collections of women’s biographies ever published.  This work borrows heavily from Boccaccio’s earlier work of the same title.  It is one of the finest early Italian illustrated books, and the first to attempt life-like portraits.  The final seven woodcuts are portraits of contemporary women, including Catherine of Siena and Margaret Queen of Scotland. The work is monumental in scale, an impressive folio comprising 186 biographies.</p>\r\n\r\n\t\t<p>Other early works within the collection include two copies of the pseudo Petrarchian text <em>Vite dei Pontefici e Imperatori Romani</em> (1478), one of the first books typeset by women; a beautiful book of hours printed for Louise de Bourbon by Yolande de Bonhomme, <em>Hor[a]e beatissime virginis Marie</em> (1546); and Marguerite de Navarre’s <em>Marguerites de la Marguerite des princesses</em> (1549), a magnificent copy of one of the landmarks of French poetry; written by the first “Modern Woman.”</p>\r\n\r\n\t\t<p>The collection also contains a letter from Artemisia Gentileschi to Italian scholar and patron of the arts Cassiano dal Pozzo in August 1630.  Gentileschi was one of the most accomplished artists of the 17th century and was the first female painter to become a member of the Accademia di Arti del Disegno in Florence. She is perhaps best known for her <em>Judith Slaying Holofernes</em>, now in the Uffizi.  The letter concerns her request for a license for her assistant to carry arms and refers to a self-portrait that dal Pozzo had commissioned Gentileschi to paint. This was the only known Gentileschi letter remaining in private hands.</p>\r\n    </div>\r\n\r\n    <div class=\"tab-pane\" id=\"history-of-medicine\">\r\n      \t<h2>The Lisa Unger Baskin Collection: History of Medicine</h2>\r\n\r\n\t\t<p>The Lisa Unger Baskin Collection traces the evolution of the understanding of women’s reproductive health and documents the contributions of female medical practitioners and professionals.</p>\r\n\r\n\t\t<p>The Baskin Collection includes <em>Observations Diverses, sur la Sterilité, perte de Fruict, Foecondité, Accouchements et Maladies des Femmes, et Enfantes Nouveaux Naiz</em>, (1642) by Louise Bourgeois, the first book on obstetrics to be published by a woman. Bourgeois was an official midwife for the French court for 26 years.  Her most famous patient was Marie de Medici.  This first collected edition of her lectures was translated into Dutch, German and English, underscoring the breadth of her reputation across Europe. The collection also holds the London, 1663 and Leyden, 1707 editions of this work.</p>\r\n\r\n\t\t<p>The collection also holds a first edition of Jean Palfyn’s <em>Description Anatomique des Parties de la Femme, qui fervent a la Generation</em> (1708); Nicholas Culpeper’s <em>Compleat and Experienced Midwife</em> (1751), the first book on midwifery in English when it appeared in 1651; William Smellie’s <em>An Abridgement of the Practice of Midwifery</em> (1786), the first illustrated medical book and first book of obstetrics published in the United States; and William Osborne’s <em>Essays on the Practice of Midwifery, in Natural and Difficult Labours</em> (1792).</p> \r\n\r\n\t\t<p>More recent materials within the collection include <em>Family Limitation</em> (for private circulation, 1914) by Margaret Sanger, who popularized the term birth control, opened the first birth control clinic in the United States, and established organizations that evolved into the Planned Parenthood Federation of America; and Marie Stopes’ <em>Contraception (Birth Control): Its Theory, History and Practice: A Manual For The Medical And Legal Professions</em> (1923).  Stopes was a paleobotanist, author, and social activist best known for her efforts in the early half of the 20th century to promote safe birth control for women.</p> \r\n\r\n\t\t<p>Other notable materials related to the history of medicine include a collection of family papers of Elizabeth Blackwell, the first woman to receive an M.D. degree from an American medical school; her sister Emily was the third.  The Blackwell family was known for their activism on behalf of women's rights and the Anti-Slavery movement.  This significant group of materials dated 1845-1972 includes materials related to Elizabeth Blackwell, Anna Blackwell, Lucy Stone, Alice Stone Blackwell, and Emma Blackwell.</p> \r\n\r\n\t\r\n    </div>\r\n\r\n\r\n\r\n    <div class=\"tab-pane\" id=\"suffrage\">\r\n      \t<h2>The Lisa Unger Baskin Collection: Suffrage and Anti-Slavery</h2>\r\n\r\n\t\t<p>Lisa Baskin placed an early emphasis on the British and American suffrage and Anti-slavery movements in her collecting, and she has an extraordinary gathering of materials related to the fight for equality.  The collection includes important materials related to the leadership of these movements--such as correspondence from Susan B. Anthony, Lucy Stone, Elizabeth Cady Stanton, Lucretia Mott and Lydia Maria Child--and a significant collection of family papers related to the British Pankhurst and Pethick-Lawrence families. (The Pankhursts and Pethick-Lawrence families provided leadership for the militant suffrage movement in Great Britain). These include the Pethick-Lawrence annotated court depositions for their trial of 1912 and the Pethick-Lawrence pamphlet collection. There are scrapbooks and manuscript journals documenting the Suffrage Pilgrimage of 1913 from Carlisle and Birkenhead to London. Also present are three works bound together that document Stanton’s work to revise Christianity in the name of women’s rights:  <em>Bible and Church Degrade Woman</em> (third edition); <em>The Woman’s Bible, Part I</em> (third American edition); and <em>The Woman’s Bible, Part II</em> (first edition.)</p>\r\n\r\n\t\t<p>Among the rare serials in the collection (including <em>The Una</em>, <em>The Forerunner</em>, <em>The Alpha</em>, <em>Votes for Women</em>, <em>Lucifer</em>, <em>The Free Inquirer</em>, and <em>Mother Earth</em>), Baskin holds the most complete run of Susan B. Anthony’s <em>The Revolution</em> (1868-1872), the first women’s rights weekly journal. Although its circulation never exceeded 3,000, The Revolution’s influence on the national woman’s rights movement was enormous. The paper confronted subjects not discussed in most mainstream publications of the time including sex education, rape, domestic violence, divorce, prostitution and reproductive rights. It was instrumental in attracting working-class women to the movement by devoting columns to concerns such as unionization and discrimination against female workers.  Rare pamphlets in the collection include Rev. Alexander Crummell’s <em>Hope for Africa. A Sermon on Behalf of The Ladies’ Negro Education Society</em> (1853). Only four other copies are known.</p>\r\n\r\n\t\t<p>The material culture of the Suffrage and Anti-Slavery movement is documented through a British suffrage tea set (the most complete known of its kind), an Abolitionist dessert service, Anti-Slavery tokens, a very rare large two-sided silk banner reading “Justice” carried in parades by the Ilford (London) Women's Social and Political Union in 1909-1910, several card and board games sold to support the movement, and the preparatory portrait photographs (several signed) used by the sculptor Adelaide Johnson in modeling the sculpture of Stanton, Anthony and Mott (now in the Capitol Rotunda).</p> \r\n\r\n\t\r\n    </div>\r\n\r\n    <div class=\"tab-pane\" id=\"women-artists\">\r\n      \t<h2>The Lisa Unger Baskin Collection: Women Artists</h2>\r\n\r\n\t\t<p>Lisa Baskin’s interest in female artists and their work is wide ranging and includes painters, photographers, illustrators, bookbinders, metalworkers, embroiderers, calligraphers, and graphic designers.  The collection holds exquisite, highly decorated bindings by the celebrated turn-of-the-century British binders Sarah Prideaux, Katharine Adams, and Sybil Pye, as well as by the Guild of Women Book Binders.  Book historian Marianne Tidcombe has noted that these female binders, working at a time when binding was still more of a trade than an art form, tended to produce more innovative designs than their male counterparts.  These examples and others found throughout the collection are an important part of the history of the book as object, typified by Phoebe Anna Traquair’s illuminated manuscript of Tennyson’s <em>In Memoriam</em>, a stunning work by the leading artist of Scotland’s Arts and Crafts Movement, in Traquair’s own binding.</p>\r\n\r\n\t\t<p>The earliest book in which illustrations by a woman appears is likely to be Antonius Augustinus’ <em>Dialoghi Intorno Alle Medaglie</em> (Rome, 1592).  The woodcut illustrations were cut and signed by Geronima Parasole.  Her woodcut for the title page is spectacular.  The signature she often used combines her initials with a small knife, indicating that she cut the images herself.</p>\r\n\r\n\t\t<p>The collection also includes correspondence by English artisan, designer and socialist May Morris (the daughter of William Morris, the figurehead of the Arts and Crafts movement.)  May Morris became director of the embroidery department for Morris &amp; Company at age 26 and later co-founded the Women’s Guild of Arts.  The collection holds an exquisite needlework pouch May Morris made to house a Kelmscott Press edition of <em>Of the Friendship of Amis and Amile</em>, bound by Katherine Adams, which she inscribed for her lover, the American lawyer, John Quinn.</p>\r\n\r\n\t\t<p>Dutch artist and naturalist Maria Sibylla Merian, who raised the artistic standard of natural history illustration and helped to transform the field of entomology, was the first to observe and depict the process of metamorphosis in the field.  During her career, she described and illustrated the life cycles of 186 insect species from direct observation of live insects.  The Baskin Collection includes the first folio edition of Merian’s <em>De Europische Insecten</em> (1730) and <em>Erucarum Ortus, Alimentum et Paradoxa Metamorphosis</em> (1718).  Both of these copies have hand-colored illustrations.</p>\r\n\r\n\t\t<p>Baskin has sought out early daguerreotypes and cartes-de-visite taken by women photographers.  It is painstaking work to identify these photographers as they are often known only by their first initials, as were many women printers.  The bodies of work she has reassembled offer a unique window into the early history of photography and to women’s role in that history.</p> \r\n\r\n\t\r\n    </div>\r\n\r\n\r\n    <div class=\"tab-pane\" id=\"literature\">\r\n      \t<h2>The Lisa Unger Baskin Collection: Literature</h2>\r\n\r\n\t\t<p>Lisa Baskin has emphasized women’s social history in her collecting, but she did acquire some extraordinary works related to women’s literature.  The volumes, manuscripts, and artifacts speak to the work and craft of writing and to the networks and connections between creative women.</p>\r\n\r\n\t\t<p>Virginia Woolf’s writing desk is one of the most iconic items within the Baskin Collection.  Designed by the author herself, the desk is perhaps the most evocative artifact associated with women’s literature, providing a tangible expression of the “room of one’s own” that Woolf so famously invoked in her 1929 essay of the same name.  Painted decoration was later added by her nephew Quentin Bell. The Baskin Collection also holds a collection of letters to Aileen Pippett, author of <em>The Moth and the Star</em>, the first full-length biography of Woolf to be published.  Her correspondents include Mary McCarthy, Elizabeth Aiken, Conrad Aiken, Vanessa Bell, and many others.</p>  \r\n\r\n\t\t<p>Other materials related to British Literature include a number of items associated with the Brontë family, including a handwritten letter from Charlotte Brontë to her lifelong friend and former schoolmate Ellen Nussey, penned in November 1840.  Brontë’s letters to Nussey are intimate and revealing, and have been used extensively by Brontë scholars.  The collection also includes a piece of needlework completed by Charlotte Brontë  in the early 1830s and a letter from Brontë’s friend and biographer Elizabeth Cleghorn Gaskell to Ellen Nussey (July 1855) documenting her early steps in writing this first biography of Charlotte Brontë.</p>\r\n\r\n\t\t<p>Baskin has also acquired some of the most important works of American literature.  For example, the collection contains a first edition of <em>The Tenth Muse lately sprung up in America</em> (1650) by Anne Bradstreet, the first female writer in the British North American colonies to be published.  It includes a signed first edition of Phillis Wheatley’s <em>Poems on Various Subjects Religious and Moral</em> (London: for A. Bell, 1773), the first work to be published by an African American.  This copy has been mended by hand by an early owner and bears the inscription “Melatiah Bents Book, Milton, [MA,] 1783.”  Bents was a widowed tavern keeper at the time she acquired this book, and her inscription indicates how widely Wheatley was known in the late eighteenth century.  The collection also contains a first edition of the first biography of Wheatley (B. B. Thatcher, <em>Memoir of Phillis Wheatley</em>, 1834).</p>  \r\n\r\n\t\t<p>Five volumes in the Baskin Collection were previously owned by American novelist Willa Cather.  Three of them testify to her close relationship with her mentor Sarah Orne Jewett.  The first is a copy of Jewett’s <em>The Country of the Pointed Firs</em> (1894) in a binding designed by Sarah Wyman Whitman.  The second, Jewett’s <em>Strangers and Wayfarers</em>, is also in a binding by Whitman and was inscribed by Cather to her partner Edith Lewis in 1908. The third is a copy of Henry James’ <em>The Ambassadors</em> (1903) from Jewett’s library that subsequently became a part of Cather’s library.</p>\r\n\r\n\t\t<p>The Baskin Collection also includes several significant works by Edith Wharton.  Wharton was the first woman to win the Pulitzer Prize (for <em>The Age of Innocence</em>, 1920).  A typescript in Italian of “La Duchessa in Preghiera” (The Duchess at Prayer) has manuscript corrections in Wharton’s hand.  This short story formed part of her 1901 collection <em>Crucial Instances</em>.  A limited first edition copy of <em>Twelve Poems</em> (London: Medici Society, 1926) is in its original wrapper and was inscribed by the author “To Trix and Max” (her niece and her niece’s husband). Beatrix Farrand (Trix) was one of the most renowned American landscape architects.  Dumbarton Oaks is her finest surviving work.  She was the only woman among the eleven founding members of the American Society of Landscape Architects.  Max Farrand was the first director of the Huntington Library.</p> \r\n\r\n\t\r\n    </div>\r\n\r\n    <div class=\"tab-pane\" id=\"other-notable-titles\">\r\n      \t<h2>The Lisa Unger Baskin Collection: Other Selected Titles</h2>\r\n\r\n\t\t<p>The highlights presented in this website begin to provide a sense of the depth and breadth of the Lisa Unger Baskin Collection, but the Collection, itself, encompasses far more than these few categories.  The thread binding the collection together is the wide variety of ways that women have made a living over the centuries and the importance of their contributions to human progress.</p>\r\n\r\n\t\t<ul class=\"spacing-lrg bullet-green\">\r\n\t\t\t\r\n\t\t\t<li>The Ladies of Llangollen collection.  Eleanor Butler (1739-1829) and Sarah Ponsonby (1755-1832), members of the Anglo-Irish aristocracy, determined that they would forego heterosexual marriage and eloped to Northern Wales.  Their choice thrust them into the limelight of nineteenth-century press.  They were part of a larger culture of ‘romantic friendship’ where other cohabiting women behaved in similar ways.  While they lived a life of rural retreat, the Ladies’ relative celebrity and social status attracted many visitors, including poets such as Wordsworth and Byron, and even such luminaries as Queen Charlotte.  This large collection includes 380 letters, four poetry manuscripts by Ponsonby, souvenirs sold to visitors, books from their library, and accounts of visits to their home.</li>\r\n\r\n\t\t\t<li>A supportive blurb in manuscript form by Harriett Beecher Stowe of Sojourner Truth’s autobiography (1850).  Truth had personally requested that Stowe write the blurb, and she incorporated this text in later editions of the work.  Truth sold her autobiography to support herself.  The collection also includes a cabinet card of Truth taken in Michigan in 1864, noting “I sell the Shadow to Support the Substance.” </li>\r\n\r\n\t\t\t<li>Florence Nightingale’s <em>Suggestions for Thought to the Searchers After Truth Among the Artizans of England</em> (1860).  Though best known as the founder of modern nursing, Nightingale was also at the forefront of religious and philosophical thought.  In this very rare three-volume work, Nightingale presents her radical spiritual and feminist views.  She also addressed the question of why there are so few women artists.  Only six copies were printed for private distribution.  This copy was previously owned by Ray Strachey, important feminist historian and author of <em>The Cause: a short history of the women's movement in Great Britain</em> (1928).</li>\r\n\r\n\t\t\t<li>Over 250 unpublished letters and manuscripts by the American anarchist and activist Emma Goldman (1869-1940), including extensive correspondence with Thomas Keell (editor of the journal <em>Freedom</em>) and Alexander Berkman (Goldman’s lover, life-long comrade, and editor of her journal <em>Mother Earth</em> and his journal <em>The Blast</em>) and manuscripts by Goldman and Berkman. Two letters from Eugene V. Debs to W.S. Van Valkenburgh in 1926 discuss Goldman and Berkman's treatment in the Soviet Union.  Also present are several letters from Goldman to American anarchist Harry Kelly, a manuscript by the Italian Revolutionary anarchist Errico Malatesta, an anonymous anti-Goldman note written on the back of a flyer for a Goldman appearance in Philadelphia, and a photograph of Goldman at a young age that may be unique</li>\r\n\t\t</ul>\r\n    </div>\r\n\r\n  </div>\r\n\r\n</div>\r\n<div style=\"padding:10px;\">\r\n<hr/>\r\n<p class=\"text-muted small\"><em>Explore more highlights using the links at right.</em></p>\r\n</div>\r\n\r\n",
      "revision_id" : 14756,
      "langcode" : "und",
      "body_summary" : "",
      "entity_id" : 1261
   },
   "uuid" : "96577699-3319-46ee-a670-10818fa4f261",
   "node_access" : null,
   "asidebox" : {
      "vid" : 14756,
      "bid" : null,
      "nid" : 1261,
      "body_title" : "",
      "body_value" : null,
      "block_module" : null,
      "body_format" : null,
      "block_delta" : null,
      "status" : "disabled"
   },
   "nid" : "1261",
   "field_tags" : [],
   "node_field_data" : {
      "promote" : 0,
      "changed" : null,
      "type" : "page",
      "revision_translation_affected" : 1,
      "uid" : 1,
      "langcode" : "und",
      "title" : "Baskin Kiosk",
      "sticky" : 0,
      "default_langcode" : 1,
      "status" : 1,
      "created" : 1452612001
   },
   "path_alias" : {
      "language" : "und",
      "pid" : 1789,
      "alias" : "/kiosks/ipad/baskin",
      "status" : 0,
      "langcode" : "und"
   }
}

