{
   "node_access" : null,
   "asidebox" : {
      "block_delta" : null,
      "status" : "disabled",
      "nid" : 2289,
      "body_title" : "",
      "vid" : 26537,
      "bid" : null,
      "body_format" : null,
      "body_value" : null,
      "block_module" : null
   },
   "nid" : "2289",
   "node_field_data" : {
      "title" : "Digital Swag / Marbled Paper",
      "created" : 1565638092,
      "status" : 1,
      "default_langcode" : 1,
      "sticky" : 0,
      "type" : "about_page",
      "promote" : 0,
      "changed" : null,
      "uid" : 1,
      "langcode" : "und",
      "revision_translation_affected" : 1
   },
   "path_alias" : {
      "langcode" : "und",
      "status" : 0,
      "language" : "und",
      "pid" : 4457,
      "alias" : "/about/digital-swag/marbled-paper"
   },
   "field_tags" : [],
   "langcode" : "und",
   "revisions" : [
      {
         "promote" : 0,
         "uid" : 60,
         "timestamp" : 1566227585,
         "node_revision__field_tags" : [],
         "vuuid" : "5bafd62c-1546-4374-870f-3b3b70a6bd45",
         "title" : "Digital Swag / Marbled Paper",
         "node_revision__body" : {
            "body_value" : "<p><a href=\"https://library.duke.edu/about/digital-swag\"><button type=\"button\" class=\"btn btn-info btn-sm\">← Digital Swag Themes</button></a></p><h4>Beautiful surprises can be found in almost any library book, such as this lovely marbled endpaper from the <em>Dictionnaire Biographique Des Sciences, Des Lettres et Des Arts en Belgique</em> (1937) in the Perkins Reference Collection.</h4><br/><h4><em>Click the thumbnail to view the full-size image. Then right-click to save to your computer, or press and hold to save to your mobile device.</em></h4><hr><div class=\"row\"><div class=\"col-sm-12\"><h2>Mobile</h2></div><div class=\"col-sm-4\"><h4>Phone</h4><a href=\"https://blogs.library.duke.edu/wp-content/uploads/2019/08/Marbled-Paper-Phone-1080-x-1920.jpg\" target=\"_blank\"> <img src=\"/sites/default/files/dul/users/aaron.welborn/Marbled%20Paper%20Phone%201080%20x%201920.jpg\" alt=\"Marbled Paper\" width=\"200\" height=\"356\" class=\"img-responsive\"> </a></div><div class=\"col-sm-4\"><h4>Tablet</h4><a href=\"https://blogs.library.duke.edu/wp-content/uploads/2019/08/Marbled-Paper-Tablet-1536-x-2048.jpg\" target=\"_blank\"> <img src=\"/sites/default/files/dul/users/aaron.welborn/Marbled%20Paper%20Tablet%201536%20x%202048.jpg\" alt=\"Marbled Paper\" width=\"300\" height=\"400\" class=\"img-responsive\"> </a></div></div><div class=\"row\"><div class=\"col-sm-12\"><h2>Desktop</h2></div><div class=\"col-sm-5\"><h4>16 x 9</h4><a href=\"https://blogs.library.duke.edu/wp-content/uploads/2019/08/Marbled-Paper-Desktop-1920-x-1080.jpg\" target=\"_blank\"> <img src=\"/sites/default/files/dul/users/aaron.welborn/Marbled%20Paper%20Desktop%201920%20x%201080.jpg\" alt=\"Marbled Paper\" width=\"400\" height=\"225\" class=\"img-responsive\"> </a></div><div class=\"col-sm-5\"><h4>16 x 10</h4><a href=\"https://blogs.library.duke.edu/wp-content/uploads/2019/08/Marbled-Paper-Desktop-1920-x-1200.jpg\" target=\"_blank\"> <img src=\"/sites/default/files/dul/users/aaron.welborn/Marbled%20Paper%20Desktop%201920%20x%201200.jpg\" alt=\"Marbled Paper\" width=\"400\" height=\"250\" class=\"img-responsive\"> </a></div></div><div class=\"row\"><div class=\"col-sm-12\"><h2>Social Media</h2></div><div class=\"col-sm-5\"><h4>Facebook Cover</h4><a href=\"https://blogs.library.duke.edu/wp-content/uploads/2019/08/Marbled-Paper-Facebook-820-x-312.jpg\" target=\"_blank\"> <img src=\"/sites/default/files/dul/users/aaron.welborn/Marbled%20Paper%20Facebook%20820%20x%20312.jpg\" alt=\"Marbled Paper\" width=\"400\" height=\"152\" class=\"img-responsive\"> </a></div><div class=\"col-sm-5\"><h4>Twitter Header</h4><a href=\"https://blogs.library.duke.edu/wp-content/uploads/2019/08/Marbled-Paper-Twitter-1500-x-500.jpg\" target=\"_blank\"> <img src=\"/sites/default/files/dul/users/aaron.welborn/Marbled%20Paper%20Twitter%201500%20x%20500.jpg\" alt=\"Marbled Paper\" width=\"400\" height=\"133\" class=\"img-responsive\"> </a></div></div>",
            "revision_id" : 26537,
            "body_format" : "full_html_no_wysiwyg",
            "delta" : 0,
            "bundle" : "about_page",
            "deleted" : 0,
            "entity_id" : 2289,
            "body_summary" : "",
            "langcode" : "und"
         },
         "field_revision" : {
            "uid" : 1,
            "status" : 1,
            "langcode" : null,
            "created" : null,
            "sticky" : 0,
            "revision_translation_affected" : 1,
            "default_langcode" : 1,
            "title" : "Digital Swag / Marbled Paper",
            "changed" : null
         },
         "status" : 1,
         "log" : "",
         "comment" : 1,
         "sticky" : 0
      }
   ],
   "type" : "about_page",
   "field_image" : null,
   "uuid" : "989f340f-c62c-4a38-8407-56cfd20c677d",
   "vid" : 26537,
   "node__body" : {
      "revision_id" : 26537,
      "body_value" : "<p><a href=\"https://library.duke.edu/about/digital-swag\"><button type=\"button\" class=\"btn btn-info btn-sm\">← Digital Swag Themes</button></a></p><h4>Beautiful surprises can be found in almost any library book, such as this lovely marbled endpaper from the <em>Dictionnaire Biographique Des Sciences, Des Lettres et Des Arts en Belgique</em> (1937) in the Perkins Reference Collection.</h4><br/><h4><em>Click the thumbnail to view the full-size image. Then right-click to save to your computer, or press and hold to save to your mobile device.</em></h4><hr><div class=\"row\"><div class=\"col-sm-12\"><h2>Mobile</h2></div><div class=\"col-sm-4\"><h4>Phone</h4><a href=\"https://blogs.library.duke.edu/wp-content/uploads/2019/08/Marbled-Paper-Phone-1080-x-1920.jpg\" target=\"_blank\"> <img src=\"/sites/default/files/dul/users/aaron.welborn/Marbled%20Paper%20Phone%201080%20x%201920.jpg\" alt=\"Marbled Paper\" width=\"200\" height=\"356\" class=\"img-responsive\"> </a></div><div class=\"col-sm-4\"><h4>Tablet</h4><a href=\"https://blogs.library.duke.edu/wp-content/uploads/2019/08/Marbled-Paper-Tablet-1536-x-2048.jpg\" target=\"_blank\"> <img src=\"/sites/default/files/dul/users/aaron.welborn/Marbled%20Paper%20Tablet%201536%20x%202048.jpg\" alt=\"Marbled Paper\" width=\"300\" height=\"400\" class=\"img-responsive\"> </a></div></div><div class=\"row\"><div class=\"col-sm-12\"><h2>Desktop</h2></div><div class=\"col-sm-5\"><h4>16 x 9</h4><a href=\"https://blogs.library.duke.edu/wp-content/uploads/2019/08/Marbled-Paper-Desktop-1920-x-1080.jpg\" target=\"_blank\"> <img src=\"/sites/default/files/dul/users/aaron.welborn/Marbled%20Paper%20Desktop%201920%20x%201080.jpg\" alt=\"Marbled Paper\" width=\"400\" height=\"225\" class=\"img-responsive\"> </a></div><div class=\"col-sm-5\"><h4>16 x 10</h4><a href=\"https://blogs.library.duke.edu/wp-content/uploads/2019/08/Marbled-Paper-Desktop-1920-x-1200.jpg\" target=\"_blank\"> <img src=\"/sites/default/files/dul/users/aaron.welborn/Marbled%20Paper%20Desktop%201920%20x%201200.jpg\" alt=\"Marbled Paper\" width=\"400\" height=\"250\" class=\"img-responsive\"> </a></div></div><div class=\"row\"><div class=\"col-sm-12\"><h2>Social Media</h2></div><div class=\"col-sm-5\"><h4>Facebook Cover</h4><a href=\"https://blogs.library.duke.edu/wp-content/uploads/2019/08/Marbled-Paper-Facebook-820-x-312.jpg\" target=\"_blank\"> <img src=\"/sites/default/files/dul/users/aaron.welborn/Marbled%20Paper%20Facebook%20820%20x%20312.jpg\" alt=\"Marbled Paper\" width=\"400\" height=\"152\" class=\"img-responsive\"> </a></div><div class=\"col-sm-5\"><h4>Twitter Header</h4><a href=\"https://blogs.library.duke.edu/wp-content/uploads/2019/08/Marbled-Paper-Twitter-1500-x-500.jpg\" target=\"_blank\"> <img src=\"/sites/default/files/dul/users/aaron.welborn/Marbled%20Paper%20Twitter%201500%20x%20500.jpg\" alt=\"Marbled Paper\" width=\"400\" height=\"133\" class=\"img-responsive\"> </a></div></div>",
      "body_format" : "full_html_no_wysiwyg",
      "bundle" : "about_page",
      "delta" : 0,
      "deleted" : 0,
      "langcode" : "und",
      "entity_id" : 2289,
      "body_summary" : ""
   }
}

