{
   "path_alias" : {
      "status" : 0,
      "langcode" : "und",
      "language" : "und",
      "alias" : "/about/hours-draft-two",
      "pid" : 4817
   },
   "node_field_data" : {
      "changed" : null,
      "promote" : 0,
      "type" : "page",
      "revision_translation_affected" : 1,
      "langcode" : "und",
      "uid" : 1,
      "title" : "Library Hours (Draft)",
      "default_langcode" : 1,
      "sticky" : 0,
      "created" : 1604592652,
      "status" : 1
   },
   "field_tags" : [],
   "nid" : "2524",
   "asidebox" : {
      "status" : "disabled",
      "block_delta" : null,
      "body_value" : null,
      "block_module" : null,
      "body_format" : null,
      "vid" : 29915,
      "bid" : null,
      "nid" : 2524,
      "body_title" : ""
   },
   "node_access" : null,
   "uuid" : "9a36d5e3-2bc8-46af-a817-497d5e409760",
   "node__body" : {
      "body_value" : "<p>Click on a category below to see hours for that category.</p>\r\n\r\n<div class=\"row\">\r\n<div class=\"col-md-12\" style=\"padding-right: 15px;\">\r\n<div class=\"panel-group\" id=\"accordion4\">\r\n<!-- panel 1 -->\r\n<div class=\"panel panel-default\">\r\n<div class=\"panel-heading\">\r\n<a href=\"#faq1\" class=\"accordion-toggle collapsed\" id=\"heading-faq1\" data-toggle=\"collapse\" data-parent=\"#accordion4\">\r\nReservable Study Seats\r\n</a>\r\n</div>\r\n<div id=\"faq1\" class=\"panel-collapse collapse\">\r\n<div class=\"panel-body\">\r\n<p><a href=\"https://library.duke.edu/using/library-spaces/booking\">Reserve a Study Seat</a></p>\r\n<table class=\"table table-bordered table-condensed table-striped table-hover\">\r\n\t<thead>\r\n\t<tr>\r\n\t\t<th>Building</th> <th>Entrance</th> <th>Dates</th> <th>Hours</th>\r\n\t</tr>\r\n\t</thead>\r\n\t<tbody>\r\n\t<tr>\r\n\t\t<td>Bostock Library</td> <td><a href=\"https://library.duke.edu/sites/default/files/dul/libraries/bostock-entrance.png\">Bostock entrance</a></td> <td>Aug 17 - Nov 20</td> <td>6 pm - 11 pm Mon-Fri</td>\r\n\t</tr>\r\n\t<tr>\r\n\t\t<td></td> <td></td> <td>Nov 21 - Nov 22</td> <td>6 pm - 11 pm Sat-Sun</td>\r\n\t</tr>\r\n\t<tr>\r\n\t\t<td></td> <td></td> <td>Nov 23</td> <td>6 pm - 11 pm Mon</td>\r\n\t</tr>\r\n\t<tr>\r\n\t\t<td></td> <td></td> <td>Nov 24</td> <td>Closed</td>\r\n\t</tr>\r\n\t<tr>\r\n\t\t<td></td> <td></td> <td>Nov 25</td> <td>8:30 am - 3pm Wed</td>\r\n\t</tr>\r\n\t<tr>\r\n\t\t<td></td> <td></td> <td>Nov 26 - Dec 11</td> <td>Closed</td>\r\n\t</tr>\r\n\t<tr>\r\n\t\t<td>Lilly Library</td> <td>Main entrance</td> <td>Aug 17 - Nov 16</td> <td>2 - 11 pm Mon-Fri</td>\r\n\t</tr>\r\n\t<tr>\r\n\t\t<td></td> <td></td> <td>Nov 17 - Nov 20</td> <td>10 am - 11pm Tue - Fri</td>\r\n\t</tr>\r\n\t<tr>\r\n\t\t<td></td> <td></td> <td>Nov 21 - Nov 22</td> <td>8:30 am - 11 pm Sat-Sun</td>\r\n\t</tr>\r\n\t<tr>\r\n\t\t<td></td> <td></td> <td>Nov 23</td> <td>10 am - 11 pm Mon</td>\r\n\t</tr>\r\n\t<tr>\r\n\t\t<td></td> <td></td> <td>Nov 24</td> <td>10 am - 7 pm</td>\r\n\t</tr>\r\n\t<tr>\r\n\t\t<td></td> <td></td> <td>Nov 25</td> <td>12 noon - 3pm Wed</td>\r\n\t</tr>\r\n\t<tr>\r\n\t\t<td></td> <td></td> <td>Nov 26 - Nov 29</td> <td>Closed</td>\r\n\t</tr>\r\n\t<tr>\r\n\t\t<td></td> <td></td> <td>Nov 20 - Dec 11</td> <td>1 pm - 6 pm Mon-Fri</td>\r\n\t</tr>\r\n\t<tr>\r\n\t\t<td>Music Library</td> <td>Main entrance</td> <td>Aug 17 - Nov 25</td> <td>10 am - 2 pm Mon-Fri</td>\r\n\t</tr>\r\n\t<tr>\r\n\t\t<td></td> <td></td> <td>Nov 26 - Dec 11</td> <td>Closed</td>\r\n\t</tr>\r\n\t<tr>\r\n\t\t<td>Study Seats at the Perk (Von der Heyden Pavilion) </td> <td><a href=\"https://library.duke.edu/sites/default/files/dul/libraries/abele-quad-entrance.png\">Abele quad entrance</a></td> <td>Aug 17 - Nov 20</td> <td>8:30 am - 11 pm Mon-Fri</td>\r\n\t</tr>\r\n\t<tr>\r\n\t\t<td></td> <td></td> <td>Nov 21 - Nov 22</td> <td>8:30 am - 11 pm Sat-Sun</td>\r\n\t</tr>\r\n\t<tr>\r\n\t\t<td></td> <td></td> <td>Nov 23</td> <td>8:30 - 11 pm Mon</td>\r\n\t</tr>\r\n\t<tr>\r\n\t\t<td></td> <td></td> <td>Nov 24</td> <td>10 am - 6 pm Tue</td>\r\n\t</tr>\r\n\t<tr>\r\n\t\t<td></td> <td></td> <td>Nov 25</td> <td>8:30 am - 3 pm Wed</td>\r\n\t</tr>\r\n\t<tr>\r\n\t\t<td></td> <td></td> <td>Nov 26 - Dec 11</td> <td>Closed</td>\r\n\t</tr>\r\n\t<tr>\r\n\t\t<td>Rubenstein Library</td> <td><a href=\"https://library.duke.edu/sites/default/files/dul/libraries/rubenstein-entrance.png\">Rubenstein entrance</a></td> <td>Aug 17 - Nov 20</td> <td>8:30 am - 11 pm Mon-Fri</td>\r\n\t</tr>\r\n\t<tr>\r\n\t\t<td></td> <td></td> <td>Nov 21 - Nov 22</td> <td>8:30 am - 11 pm Sat-Sun</td>\r\n\t</tr>\r\n\t<tr>\r\n\t\t<td></td> <td></td> <td>Nov 23</td> <td>8:30 - 11 pm</td>\r\n\t</tr>\r\n\t<tr>\r\n\t\t<td></td> <td></td> <td>Nov 24</td> <td>10 am - 6 pm</td>\r\n\t</tr>\r\n\t<tr>\r\n\t\t<td></td> <td></td> <td>Nov 25</td> <td>8:30 am - 3pm Wed</td>\r\n\t</tr>\r\n\t<tr>\r\n\t\t<td></td> <td></td> <td>Nov 26 - Dec 11</td> <td>Closed</td>\r\n\t</tr>\r\n\t</tbody>\r\n</table>\r\n</div>\r\n</div>\r\n</div>\r\n<!-- panel 2 -->\r\n<div class=\"panel panel-default\">\r\n<div class=\"panel-heading\">\r\n<a href=\"#faq2\" class=\"accordion-toggle collapsed\" id=\"heading-faq2\" data-toggle=\"collapse\" data-parent=\"#accordion4\">\r\nReserve Equipment\r\n</a>\r\n</div>\r\n<div id=\"faq2\" class=\"panel-collapse collapse\">\r\n<div class=\"panel-body\">\r\n\r\nEquipment Info goes here\r\n\r\n</div>\r\n</div>\r\n</div>\r\n<!-- panel 3 -->\r\n<div class=\"panel panel-default\">\r\n<div class=\"panel-heading\">\r\n<a href=\"#faq3\" class=\"accordion-toggle collapsed\" id=\"heading-faq3\" data-toggle=\"collapse\" data-parent=\"#accordion4\">\r\nLibrary Takeout\r\n</a>\r\n</div>\r\n<div id=\"faq3\" class=\"panel-collapse collapse\">\r\n<div class=\"panel-body\">\r\n<p><a href=\"https://library.duke.edu/using/borrowing/pickup\">Learn how</a> to request Library Takeout</p>\r\n<table class=\"table table-bordered table-condensed table-striped table-hover\">\r\n\t<thead>\r\n\t<tr>\r\n\t\t<th>Building</th> <th>Entrance</th> <th>Dates</th> <th>Hours</th>\r\n\t</tr>\r\n\t</thead>\r\n\t<tbody>\r\n\t<tr>\r\n\t\t<td>Bostock Library</td> <td><a href=\"https://library.duke.edu/sites/default/files/dul/libraries/bostock-entrance.png\">Bostock entrance</a></td> <td>Aug 17 - Nov 16</td> <td>8:30 am - 6 pm Mon-Fri</td>\r\n\t</tr>\r\n\t<tr>\r\n\t\t<td></td> <td></td> <td>Nov 17 - Nov 20</td> <td>9:00 am - 6 pm Tue - Fri</td>\r\n\t</tr>\r\n\t<tr>\r\n\t\t<td></td> <td></td> <td>Nov 21 - Nov 22</td> <td>Closed</td>\r\n\t</tr>\r\n\t<tr>\r\n\t\t<td></td> <td></td> <td>Nov 23 - Nov 24</td> <td>9 am - 6 pm Mon - Tue</td>\r\n\t</tr>\r\n\t<tr>\r\n\t\t<td></td> <td></td> <td>Nov 25</td> <td>8:30 am - 3 pm Wed</td>\r\n\t</tr>\r\n\t<tr>\r\n\t\t<td></td> <td></td> <td>Nov 26 - Nov 29</td> <td>Closed</td>\r\n\t</tr>\r\n\t<tr>\r\n\t\t<td></td> <td></td> <td>Nov 30 - Dec 11</td> <td>11 am - 4 pm Mon - Fri</td>\r\n\t</tr>\r\n\t<tr>\r\n\t\t<td>Lilly Library</td> <td>Main entrance</td> <td>Aug 17 - Nov 16</td> <td>2 - 11 pm Mon-Fri</td>\r\n\t</tr>\r\n\t<tr>\r\n\t\t<td></td> <td></td> <td>Nov 17 - Nov 20</td> <td>2 pm - 6 pm Tue - Fri</td>\r\n\t</tr>\r\n\t<tr>\r\n\t\t<td></td> <td></td> <td>Nov 21 - Nov 22</td> <td>1 pm - 5 pm Sat-Sun</td>\r\n\t</tr>\r\n\t<tr>\r\n\t\t<td></td> <td></td> <td>Nov 23 - Nov 24</td> <td>2 pm - 6 pm Mon - Tue</td>\r\n\t</tr>\r\n\t<tr>\r\n\t\t<td></td> <td></td> <td>Nov 25</td> <td>12 noon - 3pm Wed</td>\r\n\t</tr>\r\n\t<tr>\r\n\t\t<td></td> <td></td> <td>Nov 26 - Nov 29</td> <td>Closed</td>\r\n\t</tr>\r\n\t<tr>\r\n\t\t<td></td> <td></td> <td>Nov 30 - Dec 11</td> <td>1 pm - 6 pm Mon-Fri</td>\r\n\t</tr>\r\n\t<tr>\r\n\t\t<td>Music Library</td> <td>Main entrance</td> <td>Aug 17 - Nov 25</td> <td>10 am - 2 pm Mon-Fri</td>\r\n\t</tr>\r\n\t<tr>\r\n\t\t<td></td> <td></td> <td>Nov 26 - Nov 29</td> <td>Closed</td>\r\n\t</tr>\r\n\t<tr>\r\n\t\t<td></td> <td></td> <td>Nov 30 - Dec 11</td> <td>12 noon - 2 pm Mon-Fri</td>\r\n\t</tr>\r\n\t</tbody>\r\n</table></div>\r\n</div>\r\n</div>\r\n<!-- panel 4 -->\r\n<div class=\"panel panel-default\">\r\n<div class=\"panel-heading\">\r\n<a href=\"#faq4\" class=\"accordion-toggle collapsed\" id=\"heading-faq4\" data-toggle=\"collapse\" data-parent=\"#accordion4\">\r\nePrint\r\n</a>\r\n</div>\r\n<div id=\"faq4\" class=\"panel-collapse collapse\">\r\n<div class=\"panel-body\">\r\n\r\nePrint info goes here\r\n\r\n</div>\r\n</div>\r\n</div>\r\n<!-- panel 5 -->\r\n<div class=\"panel panel-default\">\r\n<div class=\"panel-heading\">\r\n<a href=\"#faq5\" class=\"accordion-toggle collapsed\" id=\"heading-faq5\" data-toggle=\"collapse\" data-parent=\"#accordion4\">\r\nRubenstein Library Reading Room\r\n</a>\r\n</div>\r\n<div id=\"faq5\" class=\"panel-collapse collapse\">\r\n<div class=\"panel-body\">\r\n\r\nRubenstein Library Reading Room goes here\r\n\r\n</div>\r\n</div>\r\n</div>\r\n<!-- panel 6 -->\r\n<div class=\"panel panel-default\">\r\n<div class=\"panel-heading\">\r\n<a href=\"#faq6\" class=\"accordion-toggle collapsed\" id=\"heading-faq6\" data-toggle=\"collapse\" data-parent=\"#accordion4\">\r\nOther spaces or services\r\n</a>\r\n</div>\r\n<div id=\"faq6\" class=\"panel-collapse collapse\">\r\n<div class=\"panel-body\">\r\n\r\nOther spaces or services info goes here\r\n\r\n</div>\r\n</div>\r\n</div>\r\n</div>\r\n</div>\r\n</div>",
      "revision_id" : 29915,
      "bundle" : "page",
      "body_format" : "full_html_no_wysiwyg",
      "delta" : 0,
      "deleted" : 0,
      "entity_id" : 2524,
      "body_summary" : "",
      "langcode" : "und"
   },
   "vid" : 29915,
   "type" : "page",
   "field_image" : null,
   "revisions" : [
      {
         "node_revision__field_tags" : [],
         "vuuid" : "deb43f9d-0d58-4d04-87e9-268f31255acc",
         "title" : "Library Hours (Draft)",
         "node_revision__body" : {
            "entity_id" : 2524,
            "body_summary" : "",
            "langcode" : "und",
            "revision_id" : 29915,
            "body_value" : "<p>Click on a category below to see hours for that category.</p>\r\n\r\n<div class=\"row\">\r\n<div class=\"col-md-12\" style=\"padding-right: 15px;\">\r\n<div class=\"panel-group\" id=\"accordion4\">\r\n<!-- panel 1 -->\r\n<div class=\"panel panel-default\">\r\n<div class=\"panel-heading\">\r\n<a href=\"#faq1\" class=\"accordion-toggle collapsed\" id=\"heading-faq1\" data-toggle=\"collapse\" data-parent=\"#accordion4\">\r\nReservable Study Seats\r\n</a>\r\n</div>\r\n<div id=\"faq1\" class=\"panel-collapse collapse\">\r\n<div class=\"panel-body\">\r\n<p><a href=\"https://library.duke.edu/using/library-spaces/booking\">Reserve a Study Seat</a></p>\r\n<table class=\"table table-bordered table-condensed table-striped table-hover\">\r\n\t<thead>\r\n\t<tr>\r\n\t\t<th>Building</th> <th>Entrance</th> <th>Dates</th> <th>Hours</th>\r\n\t</tr>\r\n\t</thead>\r\n\t<tbody>\r\n\t<tr>\r\n\t\t<td>Bostock Library</td> <td><a href=\"https://library.duke.edu/sites/default/files/dul/libraries/bostock-entrance.png\">Bostock entrance</a></td> <td>Aug 17 - Nov 20</td> <td>6 pm - 11 pm Mon-Fri</td>\r\n\t</tr>\r\n\t<tr>\r\n\t\t<td></td> <td></td> <td>Nov 21 - Nov 22</td> <td>6 pm - 11 pm Sat-Sun</td>\r\n\t</tr>\r\n\t<tr>\r\n\t\t<td></td> <td></td> <td>Nov 23</td> <td>6 pm - 11 pm Mon</td>\r\n\t</tr>\r\n\t<tr>\r\n\t\t<td></td> <td></td> <td>Nov 24</td> <td>Closed</td>\r\n\t</tr>\r\n\t<tr>\r\n\t\t<td></td> <td></td> <td>Nov 25</td> <td>8:30 am - 3pm Wed</td>\r\n\t</tr>\r\n\t<tr>\r\n\t\t<td></td> <td></td> <td>Nov 26 - Dec 11</td> <td>Closed</td>\r\n\t</tr>\r\n\t<tr>\r\n\t\t<td>Lilly Library</td> <td>Main entrance</td> <td>Aug 17 - Nov 16</td> <td>2 - 11 pm Mon-Fri</td>\r\n\t</tr>\r\n\t<tr>\r\n\t\t<td></td> <td></td> <td>Nov 17 - Nov 20</td> <td>10 am - 11pm Tue - Fri</td>\r\n\t</tr>\r\n\t<tr>\r\n\t\t<td></td> <td></td> <td>Nov 21 - Nov 22</td> <td>8:30 am - 11 pm Sat-Sun</td>\r\n\t</tr>\r\n\t<tr>\r\n\t\t<td></td> <td></td> <td>Nov 23</td> <td>10 am - 11 pm Mon</td>\r\n\t</tr>\r\n\t<tr>\r\n\t\t<td></td> <td></td> <td>Nov 24</td> <td>10 am - 7 pm</td>\r\n\t</tr>\r\n\t<tr>\r\n\t\t<td></td> <td></td> <td>Nov 25</td> <td>12 noon - 3pm Wed</td>\r\n\t</tr>\r\n\t<tr>\r\n\t\t<td></td> <td></td> <td>Nov 26 - Nov 29</td> <td>Closed</td>\r\n\t</tr>\r\n\t<tr>\r\n\t\t<td></td> <td></td> <td>Nov 20 - Dec 11</td> <td>1 pm - 6 pm Mon-Fri</td>\r\n\t</tr>\r\n\t<tr>\r\n\t\t<td>Music Library</td> <td>Main entrance</td> <td>Aug 17 - Nov 25</td> <td>10 am - 2 pm Mon-Fri</td>\r\n\t</tr>\r\n\t<tr>\r\n\t\t<td></td> <td></td> <td>Nov 26 - Dec 11</td> <td>Closed</td>\r\n\t</tr>\r\n\t<tr>\r\n\t\t<td>Study Seats at the Perk (Von der Heyden Pavilion) </td> <td><a href=\"https://library.duke.edu/sites/default/files/dul/libraries/abele-quad-entrance.png\">Abele quad entrance</a></td> <td>Aug 17 - Nov 20</td> <td>8:30 am - 11 pm Mon-Fri</td>\r\n\t</tr>\r\n\t<tr>\r\n\t\t<td></td> <td></td> <td>Nov 21 - Nov 22</td> <td>8:30 am - 11 pm Sat-Sun</td>\r\n\t</tr>\r\n\t<tr>\r\n\t\t<td></td> <td></td> <td>Nov 23</td> <td>8:30 - 11 pm Mon</td>\r\n\t</tr>\r\n\t<tr>\r\n\t\t<td></td> <td></td> <td>Nov 24</td> <td>10 am - 6 pm Tue</td>\r\n\t</tr>\r\n\t<tr>\r\n\t\t<td></td> <td></td> <td>Nov 25</td> <td>8:30 am - 3 pm Wed</td>\r\n\t</tr>\r\n\t<tr>\r\n\t\t<td></td> <td></td> <td>Nov 26 - Dec 11</td> <td>Closed</td>\r\n\t</tr>\r\n\t<tr>\r\n\t\t<td>Rubenstein Library</td> <td><a href=\"https://library.duke.edu/sites/default/files/dul/libraries/rubenstein-entrance.png\">Rubenstein entrance</a></td> <td>Aug 17 - Nov 20</td> <td>8:30 am - 11 pm Mon-Fri</td>\r\n\t</tr>\r\n\t<tr>\r\n\t\t<td></td> <td></td> <td>Nov 21 - Nov 22</td> <td>8:30 am - 11 pm Sat-Sun</td>\r\n\t</tr>\r\n\t<tr>\r\n\t\t<td></td> <td></td> <td>Nov 23</td> <td>8:30 - 11 pm</td>\r\n\t</tr>\r\n\t<tr>\r\n\t\t<td></td> <td></td> <td>Nov 24</td> <td>10 am - 6 pm</td>\r\n\t</tr>\r\n\t<tr>\r\n\t\t<td></td> <td></td> <td>Nov 25</td> <td>8:30 am - 3pm Wed</td>\r\n\t</tr>\r\n\t<tr>\r\n\t\t<td></td> <td></td> <td>Nov 26 - Dec 11</td> <td>Closed</td>\r\n\t</tr>\r\n\t</tbody>\r\n</table>\r\n</div>\r\n</div>\r\n</div>\r\n<!-- panel 2 -->\r\n<div class=\"panel panel-default\">\r\n<div class=\"panel-heading\">\r\n<a href=\"#faq2\" class=\"accordion-toggle collapsed\" id=\"heading-faq2\" data-toggle=\"collapse\" data-parent=\"#accordion4\">\r\nReserve Equipment\r\n</a>\r\n</div>\r\n<div id=\"faq2\" class=\"panel-collapse collapse\">\r\n<div class=\"panel-body\">\r\n\r\nEquipment Info goes here\r\n\r\n</div>\r\n</div>\r\n</div>\r\n<!-- panel 3 -->\r\n<div class=\"panel panel-default\">\r\n<div class=\"panel-heading\">\r\n<a href=\"#faq3\" class=\"accordion-toggle collapsed\" id=\"heading-faq3\" data-toggle=\"collapse\" data-parent=\"#accordion4\">\r\nLibrary Takeout\r\n</a>\r\n</div>\r\n<div id=\"faq3\" class=\"panel-collapse collapse\">\r\n<div class=\"panel-body\">\r\n<p><a href=\"https://library.duke.edu/using/borrowing/pickup\">Learn how</a> to request Library Takeout</p>\r\n<table class=\"table table-bordered table-condensed table-striped table-hover\">\r\n\t<thead>\r\n\t<tr>\r\n\t\t<th>Building</th> <th>Entrance</th> <th>Dates</th> <th>Hours</th>\r\n\t</tr>\r\n\t</thead>\r\n\t<tbody>\r\n\t<tr>\r\n\t\t<td>Bostock Library</td> <td><a href=\"https://library.duke.edu/sites/default/files/dul/libraries/bostock-entrance.png\">Bostock entrance</a></td> <td>Aug 17 - Nov 16</td> <td>8:30 am - 6 pm Mon-Fri</td>\r\n\t</tr>\r\n\t<tr>\r\n\t\t<td></td> <td></td> <td>Nov 17 - Nov 20</td> <td>9:00 am - 6 pm Tue - Fri</td>\r\n\t</tr>\r\n\t<tr>\r\n\t\t<td></td> <td></td> <td>Nov 21 - Nov 22</td> <td>Closed</td>\r\n\t</tr>\r\n\t<tr>\r\n\t\t<td></td> <td></td> <td>Nov 23 - Nov 24</td> <td>9 am - 6 pm Mon - Tue</td>\r\n\t</tr>\r\n\t<tr>\r\n\t\t<td></td> <td></td> <td>Nov 25</td> <td>8:30 am - 3 pm Wed</td>\r\n\t</tr>\r\n\t<tr>\r\n\t\t<td></td> <td></td> <td>Nov 26 - Nov 29</td> <td>Closed</td>\r\n\t</tr>\r\n\t<tr>\r\n\t\t<td></td> <td></td> <td>Nov 30 - Dec 11</td> <td>11 am - 4 pm Mon - Fri</td>\r\n\t</tr>\r\n\t<tr>\r\n\t\t<td>Lilly Library</td> <td>Main entrance</td> <td>Aug 17 - Nov 16</td> <td>2 - 11 pm Mon-Fri</td>\r\n\t</tr>\r\n\t<tr>\r\n\t\t<td></td> <td></td> <td>Nov 17 - Nov 20</td> <td>2 pm - 6 pm Tue - Fri</td>\r\n\t</tr>\r\n\t<tr>\r\n\t\t<td></td> <td></td> <td>Nov 21 - Nov 22</td> <td>1 pm - 5 pm Sat-Sun</td>\r\n\t</tr>\r\n\t<tr>\r\n\t\t<td></td> <td></td> <td>Nov 23 - Nov 24</td> <td>2 pm - 6 pm Mon - Tue</td>\r\n\t</tr>\r\n\t<tr>\r\n\t\t<td></td> <td></td> <td>Nov 25</td> <td>12 noon - 3pm Wed</td>\r\n\t</tr>\r\n\t<tr>\r\n\t\t<td></td> <td></td> <td>Nov 26 - Nov 29</td> <td>Closed</td>\r\n\t</tr>\r\n\t<tr>\r\n\t\t<td></td> <td></td> <td>Nov 30 - Dec 11</td> <td>1 pm - 6 pm Mon-Fri</td>\r\n\t</tr>\r\n\t<tr>\r\n\t\t<td>Music Library</td> <td>Main entrance</td> <td>Aug 17 - Nov 25</td> <td>10 am - 2 pm Mon-Fri</td>\r\n\t</tr>\r\n\t<tr>\r\n\t\t<td></td> <td></td> <td>Nov 26 - Nov 29</td> <td>Closed</td>\r\n\t</tr>\r\n\t<tr>\r\n\t\t<td></td> <td></td> <td>Nov 30 - Dec 11</td> <td>12 noon - 2 pm Mon-Fri</td>\r\n\t</tr>\r\n\t</tbody>\r\n</table></div>\r\n</div>\r\n</div>\r\n<!-- panel 4 -->\r\n<div class=\"panel panel-default\">\r\n<div class=\"panel-heading\">\r\n<a href=\"#faq4\" class=\"accordion-toggle collapsed\" id=\"heading-faq4\" data-toggle=\"collapse\" data-parent=\"#accordion4\">\r\nePrint\r\n</a>\r\n</div>\r\n<div id=\"faq4\" class=\"panel-collapse collapse\">\r\n<div class=\"panel-body\">\r\n\r\nePrint info goes here\r\n\r\n</div>\r\n</div>\r\n</div>\r\n<!-- panel 5 -->\r\n<div class=\"panel panel-default\">\r\n<div class=\"panel-heading\">\r\n<a href=\"#faq5\" class=\"accordion-toggle collapsed\" id=\"heading-faq5\" data-toggle=\"collapse\" data-parent=\"#accordion4\">\r\nRubenstein Library Reading Room\r\n</a>\r\n</div>\r\n<div id=\"faq5\" class=\"panel-collapse collapse\">\r\n<div class=\"panel-body\">\r\n\r\nRubenstein Library Reading Room goes here\r\n\r\n</div>\r\n</div>\r\n</div>\r\n<!-- panel 6 -->\r\n<div class=\"panel panel-default\">\r\n<div class=\"panel-heading\">\r\n<a href=\"#faq6\" class=\"accordion-toggle collapsed\" id=\"heading-faq6\" data-toggle=\"collapse\" data-parent=\"#accordion4\">\r\nOther spaces or services\r\n</a>\r\n</div>\r\n<div id=\"faq6\" class=\"panel-collapse collapse\">\r\n<div class=\"panel-body\">\r\n\r\nOther spaces or services info goes here\r\n\r\n</div>\r\n</div>\r\n</div>\r\n</div>\r\n</div>\r\n</div>",
            "delta" : 0,
            "body_format" : "full_html_no_wysiwyg",
            "bundle" : "page",
            "deleted" : 0
         },
         "field_revision" : {
            "status" : 1,
            "uid" : 1,
            "langcode" : null,
            "created" : null,
            "revision_translation_affected" : 1,
            "sticky" : 0,
            "default_langcode" : 1,
            "title" : "Library Hours (Draft)",
            "changed" : null
         },
         "status" : 1,
         "log" : "",
         "comment" : 1,
         "sticky" : 0,
         "promote" : 0,
         "uid" : 25,
         "timestamp" : 1604601591
      }
   ],
   "langcode" : "und"
}

