{
   "field_tags" : [],
   "path_alias" : {
      "alias" : "/research/international/chinese-studies/about",
      "pid" : 504,
      "language" : "und",
      "langcode" : "und",
      "status" : 0
   },
   "node_field_data" : {
      "uid" : 1,
      "langcode" : "und",
      "revision_translation_affected" : 1,
      "type" : "research_page",
      "promote" : 0,
      "changed" : null,
      "created" : 1377719981,
      "status" : 1,
      "default_langcode" : 1,
      "sticky" : 0,
      "title" : "Chinese Collection at Duke"
   },
   "nid" : "325",
   "asidebox" : {
      "bid" : null,
      "vid" : 18321,
      "nid" : 325,
      "body_title" : "",
      "block_module" : null,
      "body_value" : null,
      "body_format" : null,
      "block_delta" : null,
      "status" : "disabled"
   },
   "node_access" : null,
   "revisions" : [
      {
         "sticky" : 0,
         "comment" : 1,
         "log" : "",
         "status" : 1,
         "field_revision" : {
            "changed" : null,
            "title" : "Chinese Collection at Duke",
            "revision_translation_affected" : 1,
            "sticky" : 0,
            "default_langcode" : 1,
            "uid" : 1,
            "status" : 1,
            "langcode" : null,
            "created" : null
         },
         "node_revision__body" : {
            "body_summary" : "",
            "entity_id" : 325,
            "langcode" : "und",
            "body_format" : "full_html",
            "bundle" : "research_page",
            "delta" : 0,
            "deleted" : 0,
            "revision_id" : 18321,
            "body_value" : "<h2>Chinese Collection Overview</h2><p>While the International and Area Studies (IAS) department regularly collects scholarly works in English to support Chinese Studies, it only recently established the Chinese language collection as a part of the East Asia Collection.</p><p>Duke’s Chinese collection focuses on the following:</p><ul><li>contemporary economics: statistical yearbooks, reports, etc.</li><li>politics and society</li><li>popular culture: films, TV dramas, fashion magazines, etc.</li><li>Buddhist and avant-garde art history</li></ul><p>In addition, the Rubenstein Rare Book &amp; Manuscript Library houses several collections on China:</p><ul><li>Sidney Gamble&nbsp;photographs, 1908-1932: <a href=\"/rubenstein/findingaids/gamblesidney/\">Finding Aids</a>, <a href=\"/digitalcollections/gamble/\">Digital Collection</a></li><li>William Shockley photographs, 1897-1922:&nbsp;<a href=\"/rubenstein/findingaids/shockleywilliamh/\">Finding Aids</a></li><li>Friedrich Carl Peetz photographs, 1900: <a href=\"/rubenstein/findingaids/peetzfriedrichcarl/\">Finding Aids</a>, <a href=\"/digitalcollections/friedrichcarlpeetz/\">Digital Collection</a></li><li>And the collection&nbsp;<a href=\"https://db.library.duke.edu/search?id=DUKE005138849\">Chinese Filmscript and Advertisement</a>, 1946-1985, 电影宣传资料: <a href=\"https://library.duke.edu/research/subject/guides/chinese-studies/research-guide/film-studies/chinese-filmscript-and-advertisement-collection\">Film Title Index</a></li></ul><h2>Collection Collaboration</h2><p>Duke has a long-standing cooperative collection development agreement with the University of North Carolina at Chapel Hill (UNC), which held collection responsibilities for Chinese materials for many years. This agreement was modified in 1996 in response to the dramatic growth in East Asian studies programs on both campuses.&nbsp;Duke is concentrating on materials that UNC does not collect extensively, especially popular culture and the contemporary social sciences. We have built a unique collection of Chinese film and TV dramas, core history and literature titles, popular magazines and statistical yearbooks.&nbsp;</p>"
         },
         "title" : "Chinese Collection at Duke",
         "vuuid" : "1b6f24c9-760d-4ac7-b3af-2d49176273ff",
         "node_revision__field_tags" : [],
         "timestamp" : 1506610540,
         "uid" : 3,
         "promote" : 0
      }
   ],
   "langcode" : "und",
   "vid" : 18321,
   "node__body" : {
      "body_summary" : "",
      "entity_id" : 325,
      "langcode" : "und",
      "bundle" : "research_page",
      "body_format" : "full_html",
      "delta" : 0,
      "deleted" : 0,
      "revision_id" : 18321,
      "body_value" : "<h2>Chinese Collection Overview</h2><p>While the International and Area Studies (IAS) department regularly collects scholarly works in English to support Chinese Studies, it only recently established the Chinese language collection as a part of the East Asia Collection.</p><p>Duke’s Chinese collection focuses on the following:</p><ul><li>contemporary economics: statistical yearbooks, reports, etc.</li><li>politics and society</li><li>popular culture: films, TV dramas, fashion magazines, etc.</li><li>Buddhist and avant-garde art history</li></ul><p>In addition, the Rubenstein Rare Book &amp; Manuscript Library houses several collections on China:</p><ul><li>Sidney Gamble&nbsp;photographs, 1908-1932: <a href=\"/rubenstein/findingaids/gamblesidney/\">Finding Aids</a>, <a href=\"/digitalcollections/gamble/\">Digital Collection</a></li><li>William Shockley photographs, 1897-1922:&nbsp;<a href=\"/rubenstein/findingaids/shockleywilliamh/\">Finding Aids</a></li><li>Friedrich Carl Peetz photographs, 1900: <a href=\"/rubenstein/findingaids/peetzfriedrichcarl/\">Finding Aids</a>, <a href=\"/digitalcollections/friedrichcarlpeetz/\">Digital Collection</a></li><li>And the collection&nbsp;<a href=\"https://db.library.duke.edu/search?id=DUKE005138849\">Chinese Filmscript and Advertisement</a>, 1946-1985, 电影宣传资料: <a href=\"https://library.duke.edu/research/subject/guides/chinese-studies/research-guide/film-studies/chinese-filmscript-and-advertisement-collection\">Film Title Index</a></li></ul><h2>Collection Collaboration</h2><p>Duke has a long-standing cooperative collection development agreement with the University of North Carolina at Chapel Hill (UNC), which held collection responsibilities for Chinese materials for many years. This agreement was modified in 1996 in response to the dramatic growth in East Asian studies programs on both campuses.&nbsp;Duke is concentrating on materials that UNC does not collect extensively, especially popular culture and the contemporary social sciences. We have built a unique collection of Chinese film and TV dramas, core history and literature titles, popular magazines and statistical yearbooks.&nbsp;</p>"
   },
   "uuid" : "9b855f58-b55f-4bcc-8c73-a6d1fbc4d785",
   "field_image" : null,
   "type" : "research_page"
}

