{
   "asidebox" : null,
   "node_access" : null,
   "field_tags" : [],
   "node_field_data" : {
      "revision_translation_affected" : 1,
      "langcode" : "und",
      "uid" : 1,
      "promote" : 0,
      "changed" : null,
      "type" : "page",
      "sticky" : 0,
      "default_langcode" : 1,
      "status" : 0,
      "created" : 1594737953,
      "title" : "Top 7 Questions"
   },
   "path_alias" : {
      "langcode" : "und",
      "status" : 0,
      "alias" : "/services/firstyeardev/questions",
      "pid" : 4789,
      "language" : "und"
   },
   "nid" : "2503",
   "langcode" : "und",
   "revisions" : [
      {
         "promote" : 0,
         "timestamp" : 1594737953,
         "uid" : 2405,
         "node_revision__body" : {
            "langcode" : "und",
            "entity_id" : 2503,
            "body_summary" : "",
            "body_value" : "<h3>What are the libraries’ hours?</h3>\r\n<p>Check out our <a href=\"/about/hours\" target=\"_blank\">Libraries Hours</a> page for up-to-date schedules for all the Duke Libraries.</p>\r\n<h3>How do I find a book?</h3>\r\n<p>Use the <a href=\"https://find.library.duke.edu/\" target=\"_blank\">Books & Media</a> search. Be sure to note the library, call number and status. Click on the map link under the location heading to find its location in the stacks. To find eBooks, search in the online catalog and limit to “available online.”  To check out a print book, all you need is your DukeCard or your NetID!</p>\r\n<h3>What else can I check out?</h3>\r\n<p>The Lilly and Music Libraries have large collections of <a href=\"/find/film-video\" target=\"_blank\">DVDs</a> and <a href=\"/music/new-additions/cds-dvds\" target=\"_blank\">CDs</a> for check-out.  We also have chargers, DVD drives, 3D scanners, and other loanable technology. Ask at the service desks.</p>\r\n<h3>What do I do if the book or article I want is not at Duke?</h3>\r\n<p>Don't worry, we can get books and articles for you through our Interlibrary Requests department. Just create an <a href=\"/using/interlibrary-requests\" target=\"_blank\">account</a> and request the items that  you need. You will be notified by email when your book arrives for pick-up; you can receive articles as PDFs directly to your email account. There is no charge for this service.</p>\r\n<h3>Where are the group and individual study spaces?</h3>\r\n<p>There are both <a href=\"/using/library-spaces\" target=\"_blank\">reservable and drop-in</a> places to study in the Lilly, Music, and Perkins & Bostock Libraries.</p>\r\n<h3>How do I cite my sources?</h3>\r\n<p>Check out our <a href=\"/research/citing\" target=\"_blank\">citing sources</a> page to get started. We also support a number of <a href=\"/research/citing/tools\" target=\"_blank\">citation management tools</a> which can be very helpful in creating in-text citations, footnotes, and works cited pages. Librarians are also here to help. Ask us citation questions in-person or via <a href=\"/research/ask\" target=\"_blank\">email or chat</a>.</p>\r\n<h3>Where can I print and scan?</h3>\r\n<p>There are <a href=\"https://oit.duke.edu/what-we-do/applications/eprint\" target=\"_blank\">eprint</a> stations and scanners in <a href=\"/lilly/about/equipment\" target=\"_blank\">Lilly</a>, <a href=\"/music/about/spaces-equipment\" target=\"_blank\">Music</a>, and the <a href=\"/using/printers\" target=\"_blank\">Perkins and Bostock Libraries</a> as well as <a href=\"https://eprint.oit.duke.edu/printers\" target=\"_blank\">other locations</a> throughout campus. 3D printing is available in the CoLab in Lilly. </p>\r\n\r\n",
            "revision_id" : 29192,
            "deleted" : 0,
            "body_format" : "full_html_no_wysiwyg",
            "bundle" : "page",
            "delta" : 0
         },
         "node_revision__field_tags" : [],
         "title" : "Top 7 Questions",
         "vuuid" : "1c69a250-e486-4cc1-b16a-77754a1c9d8e",
         "comment" : 1,
         "sticky" : 0,
         "log" : "",
         "field_revision" : {
            "revision_translation_affected" : 1,
            "sticky" : 0,
            "default_langcode" : 1,
            "langcode" : null,
            "uid" : 1,
            "status" : 0,
            "created" : null,
            "changed" : null,
            "title" : "Top 7 Questions"
         },
         "status" : 0
      }
   ],
   "field_image" : null,
   "type" : "page",
   "node__body" : {
      "langcode" : "und",
      "body_summary" : "",
      "entity_id" : 2503,
      "body_format" : "full_html_no_wysiwyg",
      "delta" : 0,
      "bundle" : "page",
      "deleted" : 0,
      "revision_id" : 29192,
      "body_value" : "<h3>What are the libraries’ hours?</h3>\r\n<p>Check out our <a href=\"/about/hours\" target=\"_blank\">Libraries Hours</a> page for up-to-date schedules for all the Duke Libraries.</p>\r\n<h3>How do I find a book?</h3>\r\n<p>Use the <a href=\"https://find.library.duke.edu/\" target=\"_blank\">Books & Media</a> search. Be sure to note the library, call number and status. Click on the map link under the location heading to find its location in the stacks. To find eBooks, search in the online catalog and limit to “available online.”  To check out a print book, all you need is your DukeCard or your NetID!</p>\r\n<h3>What else can I check out?</h3>\r\n<p>The Lilly and Music Libraries have large collections of <a href=\"/find/film-video\" target=\"_blank\">DVDs</a> and <a href=\"/music/new-additions/cds-dvds\" target=\"_blank\">CDs</a> for check-out.  We also have chargers, DVD drives, 3D scanners, and other loanable technology. Ask at the service desks.</p>\r\n<h3>What do I do if the book or article I want is not at Duke?</h3>\r\n<p>Don't worry, we can get books and articles for you through our Interlibrary Requests department. Just create an <a href=\"/using/interlibrary-requests\" target=\"_blank\">account</a> and request the items that  you need. You will be notified by email when your book arrives for pick-up; you can receive articles as PDFs directly to your email account. There is no charge for this service.</p>\r\n<h3>Where are the group and individual study spaces?</h3>\r\n<p>There are both <a href=\"/using/library-spaces\" target=\"_blank\">reservable and drop-in</a> places to study in the Lilly, Music, and Perkins & Bostock Libraries.</p>\r\n<h3>How do I cite my sources?</h3>\r\n<p>Check out our <a href=\"/research/citing\" target=\"_blank\">citing sources</a> page to get started. We also support a number of <a href=\"/research/citing/tools\" target=\"_blank\">citation management tools</a> which can be very helpful in creating in-text citations, footnotes, and works cited pages. Librarians are also here to help. Ask us citation questions in-person or via <a href=\"/research/ask\" target=\"_blank\">email or chat</a>.</p>\r\n<h3>Where can I print and scan?</h3>\r\n<p>There are <a href=\"https://oit.duke.edu/what-we-do/applications/eprint\" target=\"_blank\">eprint</a> stations and scanners in <a href=\"/lilly/about/equipment\" target=\"_blank\">Lilly</a>, <a href=\"/music/about/spaces-equipment\" target=\"_blank\">Music</a>, and the <a href=\"/using/printers\" target=\"_blank\">Perkins and Bostock Libraries</a> as well as <a href=\"https://eprint.oit.duke.edu/printers\" target=\"_blank\">other locations</a> throughout campus. 3D printing is available in the CoLab in Lilly. </p>\r\n\r\n"
   },
   "vid" : 29192,
   "uuid" : "9b863b0b-fa56-4c4c-84a0-d1240aba9fb2"
}

