{
   "asidebox" : {
      "block_delta" : null,
      "status" : "disabled",
      "bid" : null,
      "vid" : 5201,
      "nid" : 332,
      "body_title" : "",
      "body_value" : null,
      "block_module" : null,
      "body_format" : null
   },
   "node_access" : {
      "nid" : 332,
      "grant_view" : 1,
      "grant_update" : 0,
      "gid" : 0,
      "grant_delete" : 0,
      "langcode" : "und",
      "realm" : "all"
   },
   "path_alias" : {
      "alias" : "/signin",
      "pid" : 511,
      "language" : "und",
      "langcode" : "und",
      "status" : 0
   },
   "node_field_data" : {
      "default_langcode" : 1,
      "sticky" : 0,
      "created" : 1377793047,
      "status" : 1,
      "title" : "Library Sign In",
      "revision_translation_affected" : 1,
      "uid" : 1,
      "langcode" : "und",
      "changed" : null,
      "promote" : 0,
      "type" : "page"
   },
   "field_tags" : [],
   "nid" : "332",
   "langcode" : "und",
   "revisions" : [
      {
         "promote" : 0,
         "timestamp" : 1386013749,
         "uid" : 52,
         "node_revision__body" : {
            "delta" : 0,
            "body_format" : "full_html",
            "bundle" : "page",
            "deleted" : 0,
            "body_value" : "<p>Use the links below to sign in to the different site instances.</p><ul><li><a href=\"https://libcms.oit.duke.edu/listing/master\"><span style=\"line-height: 1.538em;\">DUL (main site)</span></a></li><li><a href=\"https://libcms.oit.duke.edu/east\"><span style=\"line-height: 1.538em;\">East</span></a></li><li><a href=\"https://libcms.oit.duke.edu/data/\"><span style=\"line-height: 1.538em;\">Data/GIS</span></a></li><li><a href=\"https://libcms.oit.duke.edu/rubenstein/listing/master\"><span style=\"line-height: 1.538em;\">Rubenstein</span></a></li></ul>",
            "revision_id" : 5201,
            "body_summary" : "",
            "entity_id" : 332,
            "langcode" : "und"
         },
         "vuuid" : "4f438eae-ba98-481e-aef7-9ff563907043",
         "title" : "Library Sign In",
         "node_revision__field_tags" : [],
         "sticky" : 0,
         "comment" : 1,
         "log" : "",
         "status" : 1,
         "field_revision" : {
            "sticky" : 0,
            "revision_translation_affected" : 1,
            "default_langcode" : 1,
            "langcode" : null,
            "uid" : 1,
            "status" : 1,
            "created" : null,
            "changed" : null,
            "title" : "Library Sign In"
         }
      }
   ],
   "type" : "page",
   "field_image" : null,
   "uuid" : "9b9e925c-b9e9-411d-972b-13df886a3ab2",
   "node__body" : {
      "body_summary" : "",
      "entity_id" : 332,
      "langcode" : "und",
      "delta" : 0,
      "body_format" : "full_html",
      "bundle" : "page",
      "deleted" : 0,
      "body_value" : "<p>Use the links below to sign in to the different site instances.</p><ul><li><a href=\"https://libcms.oit.duke.edu/listing/master\"><span style=\"line-height: 1.538em;\">DUL (main site)</span></a></li><li><a href=\"https://libcms.oit.duke.edu/east\"><span style=\"line-height: 1.538em;\">East</span></a></li><li><a href=\"https://libcms.oit.duke.edu/data/\"><span style=\"line-height: 1.538em;\">Data/GIS</span></a></li><li><a href=\"https://libcms.oit.duke.edu/rubenstein/listing/master\"><span style=\"line-height: 1.538em;\">Rubenstein</span></a></li></ul>",
      "revision_id" : 5201
   },
   "vid" : 5201
}

