{
   "uuid" : "9be3585a-ad1d-4436-93ab-a6f2c63d8143",
   "vid" : 29479,
   "node__body" : {
      "revision_id" : 29479,
      "body_value" : "<p>Please note: this page will <a href=\"/about/fall2020/faq\">redirect</a>.</p>",
      "bundle" : "about_page",
      "body_format" : "full_html",
      "delta" : 0,
      "deleted" : 0,
      "entity_id" : 2517,
      "body_summary" : "",
      "langcode" : "und"
   },
   "type" : "about_page",
   "field_image" : null,
   "revisions" : [
      {
         "uid" : 3,
         "timestamp" : 1597264041,
         "promote" : 0,
         "status" : 1,
         "field_revision" : {
            "created" : null,
            "status" : 1,
            "uid" : 1,
            "langcode" : null,
            "default_langcode" : 1,
            "revision_translation_affected" : 1,
            "sticky" : 0,
            "title" : "FAQ on Resuming Library Services (redirect)",
            "changed" : null
         },
         "sticky" : 0,
         "comment" : 1,
         "log" : "",
         "vuuid" : "212427f7-1231-4b9e-b0a9-4d9fdc82cd60",
         "title" : "FAQ on Resuming Library Services (redirect)",
         "node_revision__field_tags" : [],
         "node_revision__body" : {
            "entity_id" : 2517,
            "body_summary" : "",
            "langcode" : "und",
            "revision_id" : 29479,
            "body_value" : "<p>Please note: this page will <a href=\"/about/fall2020/faq\">redirect</a>.</p>",
            "bundle" : "about_page",
            "body_format" : "full_html",
            "delta" : 0,
            "deleted" : 0
         }
      }
   ],
   "langcode" : "und",
   "path_alias" : {
      "alias" : "/about/coronavirus/faq",
      "pid" : 4805,
      "language" : "und",
      "langcode" : "und",
      "status" : 0
   },
   "node_field_data" : {
      "changed" : null,
      "promote" : 0,
      "type" : "about_page",
      "revision_translation_affected" : 1,
      "uid" : 1,
      "langcode" : "und",
      "title" : "FAQ on Resuming Library Services (redirect)",
      "sticky" : 0,
      "default_langcode" : 1,
      "status" : 1,
      "created" : 1597264041
   },
   "field_tags" : [],
   "nid" : "2517",
   "asidebox" : {
      "status" : "disabled",
      "block_delta" : null,
      "body_value" : null,
      "block_module" : null,
      "body_format" : null,
      "bid" : null,
      "vid" : 29479,
      "nid" : 2517,
      "body_title" : ""
   },
   "node_access" : null
}

