{
   "type" : "exhibit",
   "uuid" : "9c85b5e2-1a7a-498d-8f73-1e60f861e774",
   "langcode" : "und",
   "node_access" : null,
   "path_alias" : {
      "status" : 0,
      "langcode" : "und",
      "language" : "und",
      "pid" : 3855,
      "alias" : "/exhibits/2018/wwI"
   },
   "node_field_data" : {
      "langcode" : "und",
      "uid" : 1,
      "revision_translation_affected" : 1,
      "type" : "exhibit",
      "changed" : null,
      "promote" : 0,
      "status" : 1,
      "created" : 1510865998,
      "sticky" : 0,
      "default_langcode" : 1,
      "title" : "Views of the Great War"
   },
   "field_tags" : [],
   "node__field_image" : {},
   "field_image" : {
      "bundle" : "exhibit",
      "delta" : 0,
      "field_image_alt" : "",
      "field_image_width" : 688,
      "langcode" : "und",
      "entity_type" : "node",
      "field_image_height" : 600,
      "deleted" : 0,
      "field_image_fid" : 3331,
      "revision_id" : 19557,
      "file_uuid" : "c564fd25-d6dc-47cc-91ee-808157a60824",
      "language" : "und",
      "field_image_title" : "",
      "field_image_target_id" : 3331,
      "entity_id" : 1803
   },
   "node__body" : {
      "body_value" : "<p class=\"MsoNormal\">Drawing from manuscripts, photographs, advertisements, posters, books, and other material from the David M. Rubenstein Rare Book &amp; Manuscript Library, the Duke University Archives, and Perkins and Lilly libraries, this exhibit explores the experiences of soldiers, doctors, nurses, and the folks back home during the “war to end all wars,” including the experiences of Trinity College students and alumni.</p><p class=\"MsoNormal\"><o:p> </o:p> <strong> EVENT: Lunch, Lecture and Exhibit Tour</strong></p><p class=\"MsoNormal\">Tuesday, November 6, 12:00-1:00. Light lunch provided. Holsti-Anderson Family Assembly Room (Room 153 Rubenstein Library), Duke University</p><p>Guest Speaker: Adriane Lentz-Smith, Ph.D., Associate Professor in the Department of History, Duke University. Author of the 2009 book, Freedom Struggles: African Americans and World War I.</p>",
      "revision_id" : 19557,
      "bundle" : "exhibit",
      "body_format" : "full_html",
      "delta" : 0,
      "deleted" : 0,
      "langcode" : "und",
      "entity_id" : 1803,
      "body_summary" : ""
   },
   "vid" : 19557,
   "revisions" : [
      {
         "timestamp" : 1538401897,
         "uid" : 3,
         "promote" : 0,
         "sticky" : 0,
         "comment" : 1,
         "log" : "",
         "status" : 1,
         "field_revision" : {
            "created" : null,
            "langcode" : null,
            "uid" : 1,
            "status" : 1,
            "default_langcode" : 1,
            "sticky" : 0,
            "revision_translation_affected" : 1,
            "title" : "Views of the Great War",
            "changed" : null
         },
         "node_revision__body" : {
            "entity_id" : 1803,
            "body_summary" : "",
            "langcode" : "und",
            "body_value" : "<p class=\"MsoNormal\">Drawing from manuscripts, photographs, advertisements, posters, books, and other material from the David M. Rubenstein Rare Book &amp; Manuscript Library, the Duke University Archives, and Perkins and Lilly libraries, this exhibit explores the experiences of soldiers, doctors, nurses, and the folks back home during the “war to end all wars,” including the experiences of Trinity College students and alumni.</p><p class=\"MsoNormal\"><o:p> </o:p> <strong> EVENT: Lunch, Lecture and Exhibit Tour</strong></p><p class=\"MsoNormal\">Tuesday, November 6, 12:00-1:00. Light lunch provided. Holsti-Anderson Family Assembly Room (Room 153 Rubenstein Library), Duke University</p><p>Guest Speaker: Adriane Lentz-Smith, Ph.D., Associate Professor in the Department of History, Duke University. Author of the 2009 book, Freedom Struggles: African Americans and World War I.</p>",
            "revision_id" : 19557,
            "deleted" : 0,
            "delta" : 0,
            "body_format" : "full_html",
            "bundle" : "exhibit"
         },
         "vuuid" : "2b8b82bb-eb59-43cf-bed1-8ac03d00059a",
         "title" : "Views of the Great War",
         "node_revision__field_tags" : []
      }
   ],
   "asidebox" : null,
   "nid" : "1803"
}

