{
   "asidebox" : null,
   "node_access" : {
      "gid" : 1,
      "grant_delete" : 0,
      "realm" : "view_unpublished_content",
      "langcode" : "und",
      "nid" : 859,
      "grant_view" : 1,
      "grant_update" : 0
   },
   "node_field_data" : {
      "created" : 1434637744,
      "status" : 0,
      "default_langcode" : 1,
      "sticky" : 0,
      "title" : "Images:   Finding, Using, Scanning, Publishing in Scholarship",
      "uid" : 1,
      "langcode" : "und",
      "revision_translation_affected" : 1,
      "type" : "library_services_page",
      "promote" : 0,
      "changed" : null
   },
   "path_alias" : {
      "alias" : "/research/image-collections-scholarship",
      "pid" : 1339,
      "language" : "und",
      "langcode" : "und",
      "status" : 0
   },
   "field_tags" : [],
   "nid" : "859",
   "langcode" : "und",
   "revisions" : [
      {
         "node_revision__body" : {
            "deleted" : 0,
            "body_format" : "full_html",
            "delta" : 0,
            "bundle" : "library_services_page",
            "body_value" : "<table border=\"0\"><tbody><tr><td></td></tr></tbody></table><table border=\"0\"><tbody><tr><td><a href=\"https://libcms.oit.duke.edu/using/image-collections-scholarship/copyright-images\">COPYRIGHT</a></td><td><a href=\"https://libcms.oit.duke.edu/research/image-collections-scholarship/obtaining-copyright-permissions-images\">OBTAINING PERMISSIONS</a></td><td>ORGANIZING YOUR OWN IMAGES</td><td colspan=\"4\">REVERSE IMAGE FINDERS</td></tr><tr><td></td><td></td><td></td><td colspan=\"4\"></td></tr></tbody></table><p></p><p><strong>General Collections</strong></p><p style=\"padding-left: 30px;\">These represent the largest image collections.&nbsp; Note that the free public collections may have unclear or make illegitimate copyright claims.&nbsp; Better to use proprietary and subject-based image collections for permanent scholarship.</p><p style=\"padding-left: 30px;\"><a href=\"https://www.flickr.com/\">Flickr</a> - Yahoo's image sharing site.&nbsp; ~100M images.&nbsp; Pro searching:&nbsp; Flickr accepts any language or script for searching.&nbsp; Use a translator to change <em>Shiva</em> to <span class=\"short_text\" id=\"result_box\" lang=\"hi\"><span class=\"hps\"><strong>शिव</strong> to find more relevant images.<br></span></span></p><p style=\"padding-left: 30px;\">Google Images</p><p style=\"padding-left: 30px;\">Pinterest</p><p>Duke (as Subject) Images</p><p style=\"padding-left: 30px;\">Duke University Archives</p><p style=\"padding-left: 30px;\">Duke's Flickr page (Duke Yearlook)</p>",
            "revision_id" : 13617,
            "body_summary" : "",
            "entity_id" : 859,
            "langcode" : "und"
         },
         "node_revision__field_tags" : [],
         "title" : "Images:   Finding, Using, Scanning, Publishing in Scholarship",
         "vuuid" : "66a32194-4c83-44a8-8c68-c7422fabfbd6",
         "log" : "",
         "comment" : 1,
         "sticky" : 0,
         "field_revision" : {
            "uid" : 1,
            "status" : 0,
            "langcode" : null,
            "created" : null,
            "sticky" : 0,
            "revision_translation_affected" : 1,
            "default_langcode" : 1,
            "title" : "Images:   Finding, Using, Scanning, Publishing in Scholarship",
            "changed" : null
         },
         "status" : 0,
         "promote" : 0,
         "timestamp" : 1465409964,
         "uid" : 48
      }
   ],
   "type" : "library_services_page",
   "field_image" : null,
   "uuid" : "9e1c0e57-5c25-4ae5-babf-d82fe67ced33",
   "vid" : 13617,
   "node__body" : {
      "langcode" : "und",
      "entity_id" : 859,
      "body_summary" : "",
      "body_value" : "<table border=\"0\"><tbody><tr><td></td></tr></tbody></table><table border=\"0\"><tbody><tr><td><a href=\"https://libcms.oit.duke.edu/using/image-collections-scholarship/copyright-images\">COPYRIGHT</a></td><td><a href=\"https://libcms.oit.duke.edu/research/image-collections-scholarship/obtaining-copyright-permissions-images\">OBTAINING PERMISSIONS</a></td><td>ORGANIZING YOUR OWN IMAGES</td><td colspan=\"4\">REVERSE IMAGE FINDERS</td></tr><tr><td></td><td></td><td></td><td colspan=\"4\"></td></tr></tbody></table><p></p><p><strong>General Collections</strong></p><p style=\"padding-left: 30px;\">These represent the largest image collections.&nbsp; Note that the free public collections may have unclear or make illegitimate copyright claims.&nbsp; Better to use proprietary and subject-based image collections for permanent scholarship.</p><p style=\"padding-left: 30px;\"><a href=\"https://www.flickr.com/\">Flickr</a> - Yahoo's image sharing site.&nbsp; ~100M images.&nbsp; Pro searching:&nbsp; Flickr accepts any language or script for searching.&nbsp; Use a translator to change <em>Shiva</em> to <span class=\"short_text\" id=\"result_box\" lang=\"hi\"><span class=\"hps\"><strong>शिव</strong> to find more relevant images.<br></span></span></p><p style=\"padding-left: 30px;\">Google Images</p><p style=\"padding-left: 30px;\">Pinterest</p><p>Duke (as Subject) Images</p><p style=\"padding-left: 30px;\">Duke University Archives</p><p style=\"padding-left: 30px;\">Duke's Flickr page (Duke Yearlook)</p>",
      "revision_id" : 13617,
      "deleted" : 0,
      "bundle" : "library_services_page",
      "body_format" : "full_html",
      "delta" : 0
   }
}

