{
   "type" : "about_page",
   "field_image" : null,
   "uuid" : "9f7088fa-ecea-4d18-a216-9e0b0cf3137b",
   "vid" : 18553,
   "node__body" : {
      "entity_id" : 459,
      "body_summary" : "",
      "langcode" : "und",
      "body_value" : "<style type=\"text/css\">\r\nul.nav-tabs {background:none;}\r\n.spnavig {border-bottom:rgb(221, 221, 221) 1px solid !important}\r\n</style>\r\n\r\n<p>\r\n    <img src=\"/sites/default/files/dul/about/researchteaching1.jpg\" alt=\"Ensure that the Libraries provide the best possible support for research and teaching by developing new strategies for working with users, collaborating with other groups and embedding staff and services at the right places in users' workflows.\"\r\n    class=\"img-rounded img-responsive\" height=\"300\" width=\"700\">\r\n</p>\r\n<p>\r\n</p>\r\n<p>\r\n</p>\r\n<div class=\"img-rounded\" style=\"display: block; padding-top: 10px; width: 680px; height: 50px; text-align: left; padding-left: 20px; color: #333333; text-shadow: 0px 1px 1px rgba(255, 255, 255, 0.75); background-color: #f5f5f5; background-image: linear-gradient(to bottom, #ffffff, #e6e6e6); background-repeat: repeat-x; border-width: 1px; border-style: solid; border-color: #cccccc #cccccc #b3b3b3; -moz-border-top-colors: none; -moz-border-right-colors: none; -moz-border-bottom-colors: none; -moz-border-left-colors: none; border-image: none; box-shadow: 0px 1px 0px rgba(255, 255, 255, 0.2) inset, 0px 1px 2px rgba(0, 0, 0, 0.05);\" id=\"nav\">\r\n    \r\n<ul class=\"nav nav-tabs\">\r\n\r\n<li><a href=\"#goals\" data-toggle=\"tab\" class=\"spnavig\">\r\n            Goals\r\n        </a></li><li>\r\n    <a a href=\"#activities\" data-toggle=\"tab\" class=\"spnavig\">\r\n            Activities\r\n        </a></li></ul>\r\n\r\n</div>\r\n\r\n<p>\r\n</p>\r\n<div class=\"tab-content\">\r\n    <div class=\"tab-pane active\" id=\"goals\">\r\n        <h2>\r\n            Goals for Developing New Partnerships\r\n        </h2>\r\n        <h5 style=\"margin-bottom: 25px;\">\r\n            Ensure that the Libraries provide the best possible support for research and teaching by developing new strategies for working\r\n            with users, collaborating with other groups and embedding staff and services at the right places in users' workflows. Use\r\n            what we learn from these partnerships to shape library collections and services.\r\n        </h5>\r\n        <ul class=\"list-unstyled spacing-xl\">\r\n            <li>\r\n                <span class=\"badge badge-info\">\r\n                    3.1\r\n                </span>\r\n                <strong>\r\n                    Encourage interaction of Libraries staff with all groups of users, with non-library groups at Duke, with other libraries\r\n                    and with additional organizations to identify opportunities for new collaborations.\r\n                </strong>\r\n                <ul class=\"bullet-green\">\r\n                    <li>\r\n                        Gather and share promising and successful models of new types of library organizations and collaborations.\r\n                    </li>\r\n                    <li>\r\n                        Continue participation in the\r\n                        <a href=\"https://www.kuali.org/ole\">\r\n                            Open Library Environment (OLE) Project\r\n                        </a>\r\n                        , in conjunction with other libraries, to develop better business technologies and to support emerging research and teaching\r\n                        workflows.\r\n                    </li>\r\n                </ul>\r\n            </li>\r\n            <li>\r\n                <span class=\"badge badge-info\">\r\n                    3.2\r\n                </span>\r\n                <strong>\r\n                    Be an active partner in the development of infrastructure that supports new types of research and publishing.\r\n                </strong>\r\n                <ul class=\"bullet-green\">\r\n                    <li>\r\n                        Participate in pilot projects around institutional repositories in connection with other units at Duke and beyond.\r\n                    </li>\r\n                    <li>\r\n                        Support open access publishing experiments in collaboration with scholars.\r\n                    </li>\r\n                    <li>\r\n                        Enhance our ability to support research for data, statistics and GIS services.\r\n                    </li>\r\n                </ul>\r\n            </li>\r\n            <li>\r\n                <span class=\"badge badge-info\">\r\n                    3.3\r\n                </span>\r\n                <strong>\r\n                    Expand Libraries partnerships that serve groups of constituents, such as Duke Engage, services for students studying abroad,\r\n                    and curriculum revision teams.\r\n                </strong>\r\n                <ul class=\"bullet-green\">\r\n                    <li>\r\n                        Define more consistent expectations for the level of interaction and services offered to departments, centers and institutes.\r\n                    </li>\r\n                </ul>\r\n            </li>\r\n            <li>\r\n                <span class=\"badge badge-info\">\r\n                    3.4\r\n                </span>\r\n                <strong>\r\n                    Develop a flexible organizational structure and encourage cross-department work.\r\n                </strong>\r\n                <ul class=\"bullet-green\">\r\n                    <li>\r\n                        Explore new organizations of Library staff and new service models, such as a team approach to consulting.\r\n                    </li>\r\n                </ul>\r\n            </li>\r\n        </ul>\r\n    </div>\r\n    <div class=\"tab-pane\" id=\"activities\">\r\n        <h2>\r\n            Activities Pertaining to Developing New Partnerships\r\n        </h2>\r\n        <ul>\r\n            <li>\r\n                Partnering with other libraries and Mellon foundation in\r\n                <a href=\"https://www.kuali.org/ole\">\r\n                    Kuali OLE\r\n                </a>\r\n                development of new library software\r\n            </li>\r\n            <li>\r\n                Collaborating with\r\n                <a href=\"https://www.trln.org/\">\r\n                    Triangle Research Libraries Network\r\n                </a>\r\n                on cross-institutional projects\r\n            </li>\r\n        </ul>\r\n    </div>\r\n    <p>\r\n        <br>\r\n        <br>\r\n        <br>\r\n        <a href=\"/support\" class=\"btn btn-primary\">\r\n            Support the Duke Libraries »\r\n        </a>\r\n    </p>\r\n</div>",
      "revision_id" : 18553,
      "deleted" : 0,
      "body_format" : "full_html_no_wysiwyg",
      "bundle" : "about_page",
      "delta" : 0
   },
   "langcode" : "und",
   "revisions" : [
      {
         "node_revision__field_tags" : [],
         "vuuid" : "c919dbaa-d7a9-4a36-b59a-1411f188960f",
         "title" : "Develop New Research & Teaching Partnerships",
         "node_revision__body" : {
            "body_value" : "<style type=\"text/css\">\r\nul.nav-tabs {background:none;}\r\n.spnavig {border-bottom:rgb(221, 221, 221) 1px solid !important}\r\n</style>\r\n\r\n<p>\r\n    <img src=\"/sites/default/files/dul/about/researchteaching1.jpg\" alt=\"Ensure that the Libraries provide the best possible support for research and teaching by developing new strategies for working with users, collaborating with other groups and embedding staff and services at the right places in users' workflows.\"\r\n    class=\"img-rounded img-responsive\" height=\"300\" width=\"700\">\r\n</p>\r\n<p>\r\n</p>\r\n<p>\r\n</p>\r\n<div class=\"img-rounded\" style=\"display: block; padding-top: 10px; width: 680px; height: 50px; text-align: left; padding-left: 20px; color: #333333; text-shadow: 0px 1px 1px rgba(255, 255, 255, 0.75); background-color: #f5f5f5; background-image: linear-gradient(to bottom, #ffffff, #e6e6e6); background-repeat: repeat-x; border-width: 1px; border-style: solid; border-color: #cccccc #cccccc #b3b3b3; -moz-border-top-colors: none; -moz-border-right-colors: none; -moz-border-bottom-colors: none; -moz-border-left-colors: none; border-image: none; box-shadow: 0px 1px 0px rgba(255, 255, 255, 0.2) inset, 0px 1px 2px rgba(0, 0, 0, 0.05);\" id=\"nav\">\r\n    \r\n<ul class=\"nav nav-tabs\">\r\n\r\n<li><a href=\"#goals\" data-toggle=\"tab\" class=\"spnavig\">\r\n            Goals\r\n        </a></li><li>\r\n    <a a href=\"#activities\" data-toggle=\"tab\" class=\"spnavig\">\r\n            Activities\r\n        </a></li></ul>\r\n\r\n</div>\r\n\r\n<p>\r\n</p>\r\n<div class=\"tab-content\">\r\n    <div class=\"tab-pane active\" id=\"goals\">\r\n        <h2>\r\n            Goals for Developing New Partnerships\r\n        </h2>\r\n        <h5 style=\"margin-bottom: 25px;\">\r\n            Ensure that the Libraries provide the best possible support for research and teaching by developing new strategies for working\r\n            with users, collaborating with other groups and embedding staff and services at the right places in users' workflows. Use\r\n            what we learn from these partnerships to shape library collections and services.\r\n        </h5>\r\n        <ul class=\"list-unstyled spacing-xl\">\r\n            <li>\r\n                <span class=\"badge badge-info\">\r\n                    3.1\r\n                </span>\r\n                <strong>\r\n                    Encourage interaction of Libraries staff with all groups of users, with non-library groups at Duke, with other libraries\r\n                    and with additional organizations to identify opportunities for new collaborations.\r\n                </strong>\r\n                <ul class=\"bullet-green\">\r\n                    <li>\r\n                        Gather and share promising and successful models of new types of library organizations and collaborations.\r\n                    </li>\r\n                    <li>\r\n                        Continue participation in the\r\n                        <a href=\"https://www.kuali.org/ole\">\r\n                            Open Library Environment (OLE) Project\r\n                        </a>\r\n                        , in conjunction with other libraries, to develop better business technologies and to support emerging research and teaching\r\n                        workflows.\r\n                    </li>\r\n                </ul>\r\n            </li>\r\n            <li>\r\n                <span class=\"badge badge-info\">\r\n                    3.2\r\n                </span>\r\n                <strong>\r\n                    Be an active partner in the development of infrastructure that supports new types of research and publishing.\r\n                </strong>\r\n                <ul class=\"bullet-green\">\r\n                    <li>\r\n                        Participate in pilot projects around institutional repositories in connection with other units at Duke and beyond.\r\n                    </li>\r\n                    <li>\r\n                        Support open access publishing experiments in collaboration with scholars.\r\n                    </li>\r\n                    <li>\r\n                        Enhance our ability to support research for data, statistics and GIS services.\r\n                    </li>\r\n                </ul>\r\n            </li>\r\n            <li>\r\n                <span class=\"badge badge-info\">\r\n                    3.3\r\n                </span>\r\n                <strong>\r\n                    Expand Libraries partnerships that serve groups of constituents, such as Duke Engage, services for students studying abroad,\r\n                    and curriculum revision teams.\r\n                </strong>\r\n                <ul class=\"bullet-green\">\r\n                    <li>\r\n                        Define more consistent expectations for the level of interaction and services offered to departments, centers and institutes.\r\n                    </li>\r\n                </ul>\r\n            </li>\r\n            <li>\r\n                <span class=\"badge badge-info\">\r\n                    3.4\r\n                </span>\r\n                <strong>\r\n                    Develop a flexible organizational structure and encourage cross-department work.\r\n                </strong>\r\n                <ul class=\"bullet-green\">\r\n                    <li>\r\n                        Explore new organizations of Library staff and new service models, such as a team approach to consulting.\r\n                    </li>\r\n                </ul>\r\n            </li>\r\n        </ul>\r\n    </div>\r\n    <div class=\"tab-pane\" id=\"activities\">\r\n        <h2>\r\n            Activities Pertaining to Developing New Partnerships\r\n        </h2>\r\n        <ul>\r\n            <li>\r\n                Partnering with other libraries and Mellon foundation in\r\n                <a href=\"https://www.kuali.org/ole\">\r\n                    Kuali OLE\r\n                </a>\r\n                development of new library software\r\n            </li>\r\n            <li>\r\n                Collaborating with\r\n                <a href=\"https://www.trln.org/\">\r\n                    Triangle Research Libraries Network\r\n                </a>\r\n                on cross-institutional projects\r\n            </li>\r\n        </ul>\r\n    </div>\r\n    <p>\r\n        <br>\r\n        <br>\r\n        <br>\r\n        <a href=\"/support\" class=\"btn btn-primary\">\r\n            Support the Duke Libraries »\r\n        </a>\r\n    </p>\r\n</div>",
            "revision_id" : 18553,
            "deleted" : 0,
            "bundle" : "about_page",
            "body_format" : "full_html_no_wysiwyg",
            "delta" : 0,
            "langcode" : "und",
            "entity_id" : 459,
            "body_summary" : ""
         },
         "field_revision" : {
            "default_langcode" : 1,
            "revision_translation_affected" : 1,
            "sticky" : 0,
            "created" : null,
            "uid" : 1,
            "status" : 1,
            "langcode" : null,
            "changed" : null,
            "title" : "Develop New Research & Teaching Partnerships"
         },
         "status" : 1,
         "log" : "",
         "comment" : 1,
         "sticky" : 0,
         "promote" : 0,
         "uid" : 3,
         "timestamp" : 1506902319
      }
   ],
   "asidebox" : {
      "vid" : 18553,
      "bid" : 718,
      "body_title" : "",
      "nid" : 459,
      "block_module" : "block",
      "body_value" : null,
      "body_format" : null,
      "block_delta" : "38",
      "status" : "block"
   },
   "node_access" : null,
   "node_field_data" : {
      "title" : "Develop New Research & Teaching Partnerships",
      "created" : 1381438528,
      "status" : 1,
      "default_langcode" : 1,
      "sticky" : 0,
      "type" : "about_page",
      "promote" : 0,
      "changed" : null,
      "langcode" : "und",
      "uid" : 1,
      "revision_translation_affected" : 1
   },
   "path_alias" : {
      "alias" : "/about/strategic-plan-2010-2015/partnerships",
      "pid" : 662,
      "language" : "und",
      "status" : 0,
      "langcode" : "und"
   },
   "field_tags" : [],
   "nid" : "459"
}

