{
   "revisions" : [
      {
         "log" : "",
         "sticky" : 0,
         "comment" : 1,
         "status" : 1,
         "field_revision" : {
            "title" : "Thank You",
            "changed" : null,
            "uid" : 1,
            "status" : 1,
            "langcode" : null,
            "created" : null,
            "revision_translation_affected" : 1,
            "sticky" : 0,
            "default_langcode" : 1
         },
         "node_revision__body" : {
            "langcode" : "und",
            "entity_id" : 793,
            "body_summary" : "",
            "revision_id" : 9287,
            "body_value" : "<p>Thank you for submitting your request to retrieve off-site materials from the <a href=\"/lsc\">Library Service Center</a>.</p>\r\n",
            "deleted" : 0,
            "delta" : 0,
            "body_format" : "full_html",
            "bundle" : "about_page"
         },
         "vuuid" : "e9f28f11-b771-486b-9ce3-60c552b7c646",
         "title" : "Thank You",
         "node_revision__field_tags" : [],
         "timestamp" : 1423492189,
         "uid" : 25,
         "promote" : 0
      }
   ],
   "langcode" : "und",
   "uuid" : "9f776931-2506-489c-abb1-80a44b7cbb5f",
   "node__body" : {
      "body_value" : "<p>Thank you for submitting your request to retrieve off-site materials from the <a href=\"/lsc\">Library Service Center</a>.</p>\r\n",
      "revision_id" : 9287,
      "bundle" : "about_page",
      "body_format" : "full_html",
      "delta" : 0,
      "deleted" : 0,
      "langcode" : "und",
      "entity_id" : 793,
      "body_summary" : ""
   },
   "vid" : 9287,
   "type" : "about_page",
   "field_image" : null,
   "path_alias" : {
      "language" : "und",
      "alias" : "/services/forms/lsc-request/thanks",
      "pid" : 1237,
      "status" : 0,
      "langcode" : "und"
   },
   "node_field_data" : {
      "status" : 1,
      "created" : 1423492189,
      "sticky" : 0,
      "default_langcode" : 1,
      "title" : "Thank You",
      "langcode" : "und",
      "uid" : 1,
      "revision_translation_affected" : 1,
      "type" : "about_page",
      "promote" : 0,
      "changed" : null
   },
   "field_tags" : [],
   "nid" : "793",
   "asidebox" : {
      "status" : "disabled",
      "block_delta" : null,
      "body_format" : null,
      "body_value" : null,
      "block_module" : null,
      "body_title" : "",
      "nid" : 793,
      "bid" : null,
      "vid" : 9287
   },
   "node_access" : {
      "nid" : 793,
      "grant_update" : 0,
      "grant_view" : 1,
      "gid" : 0,
      "realm" : "all",
      "langcode" : "und",
      "grant_delete" : 0
   }
}

