{
   "uuid" : "a07fe82f-4984-4930-a21f-974b51a1a417",
   "type" : "exhibit",
   "langcode" : "und",
   "node_field_data" : {
      "changed" : null,
      "promote" : 0,
      "type" : "exhibit",
      "revision_translation_affected" : 1,
      "langcode" : "und",
      "uid" : 1,
      "title" : "James Karales",
      "default_langcode" : 1,
      "sticky" : 0,
      "created" : 1438718662,
      "status" : 1
   },
   "path_alias" : {
      "language" : "und",
      "alias" : "/exhibits/2005/james-karales-photographs",
      "pid" : 1489,
      "status" : 0,
      "langcode" : "und"
   },
   "field_tags" : [],
   "node_access" : null,
   "node__field_image" : {},
   "vid" : 10983,
   "node__body" : {
      "langcode" : "und",
      "body_summary" : "",
      "entity_id" : 1003,
      "delta" : 0,
      "body_format" : "full_html",
      "bundle" : "exhibit",
      "deleted" : 0,
      "revision_id" : 10983,
      "body_value" : "<p>The Rare Book, Manuscript, and Special Collections Library acquired the James Karales Collection in 2004. The prints in this show were culled from five distinct bodies of work: Martin Luther King, Jr. and the Selma to Montgomery Civil Rights March; the Vietnam War; the Lower East Side of New York City; Rendville, Ohio; and logging in the Pacific Northwest. In addition to the exhibition quality prints, the collection contains negatives, slides, contact sheets and 5x7 and 8x10 proof prints.</p><p></p><hr><p></p><p>The online exhibit is no longer available, but an archived version <a href=\"https://web.archive.org/web/20080411062243/http://library.duke.edu/exhibits/jameskarales/index.html\">can be viewed at the Internet Archive</a>.</p>"
   },
   "field_image" : {
      "field_image_width" : 767,
      "field_image_alt" : "",
      "delta" : 0,
      "bundle" : "exhibit",
      "entity_type" : "node",
      "field_image_height" : 557,
      "langcode" : "und",
      "language" : "und",
      "file_uuid" : "7d5a3215-d320-43f0-ad87-1b5566bade8e",
      "deleted" : 0,
      "revision_id" : 10983,
      "field_image_fid" : 1579,
      "field_image_target_id" : 1579,
      "entity_id" : 1003,
      "field_image_title" : ""
   },
   "revisions" : [
      {
         "timestamp" : 1612552828,
         "uid" : 3,
         "promote" : 0,
         "sticky" : 0,
         "comment" : 1,
         "log" : "",
         "status" : 1,
         "field_revision" : {
            "changed" : null,
            "title" : "James Karales",
            "default_langcode" : 1,
            "revision_translation_affected" : 1,
            "sticky" : 0,
            "created" : null,
            "uid" : 1,
            "langcode" : null,
            "status" : 1
         },
         "node_revision__body" : {
            "langcode" : "und",
            "entity_id" : 1003,
            "body_summary" : "",
            "revision_id" : 10983,
            "body_value" : "<p>The Rare Book, Manuscript, and Special Collections Library acquired the James Karales Collection in 2004. The prints in this show were culled from five distinct bodies of work: Martin Luther King, Jr. and the Selma to Montgomery Civil Rights March; the Vietnam War; the Lower East Side of New York City; Rendville, Ohio; and logging in the Pacific Northwest. In addition to the exhibition quality prints, the collection contains negatives, slides, contact sheets and 5x7 and 8x10 proof prints.</p><p></p><hr><p></p><p>The online exhibit is no longer available, but an archived version <a href=\"https://web.archive.org/web/20080411062243/http://library.duke.edu/exhibits/jameskarales/index.html\">can be viewed at the Internet Archive</a>.</p>",
            "deleted" : 0,
            "body_format" : "full_html",
            "bundle" : "exhibit",
            "delta" : 0
         },
         "title" : "James Karales",
         "vuuid" : "e1716b20-a50c-421d-8d78-3289bf669c76",
         "node_revision__field_tags" : []
      }
   ],
   "nid" : "1003",
   "asidebox" : null
}

