{
   "asidebox" : {
      "block_delta" : null,
      "status" : "disabled",
      "nid" : 2307,
      "body_title" : "",
      "bid" : null,
      "vid" : 26591,
      "body_format" : null,
      "body_value" : null,
      "block_module" : null
   },
   "node_access" : null,
   "path_alias" : {
      "status" : 0,
      "langcode" : "und",
      "language" : "und",
      "alias" : "/about/digital-swag/map-venice",
      "pid" : 4475
   },
   "node_field_data" : {
      "revision_translation_affected" : 1,
      "uid" : 1,
      "langcode" : "und",
      "changed" : null,
      "promote" : 0,
      "type" : "about_page",
      "sticky" : 0,
      "default_langcode" : 1,
      "status" : 1,
      "created" : 1565722733,
      "title" : "Digital Swag / Map of Venice"
   },
   "field_tags" : [],
   "nid" : "2307",
   "langcode" : "und",
   "revisions" : [
      {
         "promote" : 0,
         "uid" : 60,
         "timestamp" : 1566239216,
         "node_revision__field_tags" : [],
         "title" : "Digital Swag / Map of Venice",
         "vuuid" : "de3e397a-3477-49fa-a3ad-1225f3579ec2",
         "node_revision__body" : {
            "langcode" : "und",
            "entity_id" : 2307,
            "body_summary" : "",
            "body_value" : "<p><a href=\"https://library.duke.edu/about/digital-swag\"><button type=\"button\" class=\"btn btn-info btn-sm\">← Digital Swag Themes</button></a></p><h4>A map of Venice from Georg Braun's <em>Civitates Orbis Terrarum</em> (1572), the world's earliest systematic city atlas. From the David M. Rubenstein Rare Book & Manuscript Library.</h4><br/><h4><em>Click the thumbnail to view the full-size image. Then right-click to save to your computer, or press and hold to save to your mobile device.</em></h4><hr><div class=\"row\"><div class=\"col-sm-12\"><h2>Mobile</h2></div><div class=\"col-sm-4\"><h4>Phone</h4><a href=\"https://blogs.library.duke.edu/wp-content/uploads/2019/08/Venice-Phone-1080-x-1920.jpg\" target=\"_blank\"> <img src=\"/sites/default/files/dul/users/aaron.welborn/Venice%20Phone%201080%20x%201920.jpg\" alt=\"Map of Venice\" width=\"200\" height=\"356\" class=\"img-responsive\"> </a></div><div class=\"col-sm-4\"><h4>Tablet</h4><a href=\"https://blogs.library.duke.edu/wp-content/uploads/2019/08/Venice-Tablet-1536-x-2048.jpg\" target=\"_blank\"> <img src=\"/sites/default/files/dul/users/aaron.welborn/Venice%20Tablet%201536%20x%202048.jpg\" alt=\"Map of Venice\" width=\"300\" height=\"400\" class=\"img-responsive\"> </a></div></div><div class=\"row\"><div class=\"col-sm-12\"><h2>Desktop</h2></div><div class=\"col-sm-5\"><h4>16 x 9</h4><a href=\"https://blogs.library.duke.edu/wp-content/uploads/2019/08/Venice-Desktop-1920-x-1080.jpg\" target=\"_blank\"> <img src=\"/sites/default/files/dul/users/aaron.welborn/Venice%20Desktop%201920%20x%201080.jpg\" alt=\"Map of Venice\" width=\"400\" height=\"225\" class=\"img-responsive\"> </a></div><div class=\"col-sm-5\"><h4>16 x 10</h4><a href=\"https://blogs.library.duke.edu/wp-content/uploads/2019/08/Venice-Desktop-1920-x-1200.jpg\" target=\"_blank\"> <img src=\"/sites/default/files/dul/users/aaron.welborn/Venice%20Desktop%201920%20x%201200.jpg\" alt=\"Map of Venice\" width=\"400\" height=\"250\" class=\"img-responsive\"> </a></div></div><div class=\"row\"><div class=\"col-sm-12\"><h2>Social Media</h2></div><div class=\"col-sm-5\"><h4>Facebook Cover</h4><a href=\"https://blogs.library.duke.edu/wp-content/uploads/2019/08/Venice-Facebook-820-x-312.jpg\" target=\"_blank\"> <img src=\"/sites/default/files/dul/users/aaron.welborn/Venice%20Facebook%20820%20x%20312.jpg\" alt=\"Map of Venice\" width=\"400\" height=\"152\" class=\"img-responsive\"> </a></div><div class=\"col-sm-5\"><h4>Twitter Header</h4><a href=\"https://blogs.library.duke.edu/wp-content/uploads/2019/08/Venice-Twitter-1500-x-500.jpg\" target=\"_blank\"> <img src=\"/sites/default/files/dul/users/aaron.welborn/Venice%20Twitter%201500%20x%20500.jpg\" alt=\"Map of Venice\" width=\"400\" height=\"133\" class=\"img-responsive\"> </a></div></div>",
            "revision_id" : 26591,
            "body_format" : "full_html_no_wysiwyg",
            "bundle" : "about_page",
            "delta" : 0,
            "deleted" : 0
         },
         "field_revision" : {
            "title" : "Digital Swag / Map of Venice",
            "changed" : null,
            "uid" : 1,
            "langcode" : null,
            "status" : 1,
            "created" : null,
            "sticky" : 0,
            "revision_translation_affected" : 1,
            "default_langcode" : 1
         },
         "status" : 1,
         "log" : "",
         "comment" : 1,
         "sticky" : 0
      }
   ],
   "type" : "about_page",
   "field_image" : null,
   "uuid" : "a07ff1ff-bb7d-40e6-87d2-20247db534dc",
   "node__body" : {
      "langcode" : "und",
      "body_summary" : "",
      "entity_id" : 2307,
      "deleted" : 0,
      "body_format" : "full_html_no_wysiwyg",
      "delta" : 0,
      "bundle" : "about_page",
      "revision_id" : 26591,
      "body_value" : "<p><a href=\"https://library.duke.edu/about/digital-swag\"><button type=\"button\" class=\"btn btn-info btn-sm\">← Digital Swag Themes</button></a></p><h4>A map of Venice from Georg Braun's <em>Civitates Orbis Terrarum</em> (1572), the world's earliest systematic city atlas. From the David M. Rubenstein Rare Book & Manuscript Library.</h4><br/><h4><em>Click the thumbnail to view the full-size image. Then right-click to save to your computer, or press and hold to save to your mobile device.</em></h4><hr><div class=\"row\"><div class=\"col-sm-12\"><h2>Mobile</h2></div><div class=\"col-sm-4\"><h4>Phone</h4><a href=\"https://blogs.library.duke.edu/wp-content/uploads/2019/08/Venice-Phone-1080-x-1920.jpg\" target=\"_blank\"> <img src=\"/sites/default/files/dul/users/aaron.welborn/Venice%20Phone%201080%20x%201920.jpg\" alt=\"Map of Venice\" width=\"200\" height=\"356\" class=\"img-responsive\"> </a></div><div class=\"col-sm-4\"><h4>Tablet</h4><a href=\"https://blogs.library.duke.edu/wp-content/uploads/2019/08/Venice-Tablet-1536-x-2048.jpg\" target=\"_blank\"> <img src=\"/sites/default/files/dul/users/aaron.welborn/Venice%20Tablet%201536%20x%202048.jpg\" alt=\"Map of Venice\" width=\"300\" height=\"400\" class=\"img-responsive\"> </a></div></div><div class=\"row\"><div class=\"col-sm-12\"><h2>Desktop</h2></div><div class=\"col-sm-5\"><h4>16 x 9</h4><a href=\"https://blogs.library.duke.edu/wp-content/uploads/2019/08/Venice-Desktop-1920-x-1080.jpg\" target=\"_blank\"> <img src=\"/sites/default/files/dul/users/aaron.welborn/Venice%20Desktop%201920%20x%201080.jpg\" alt=\"Map of Venice\" width=\"400\" height=\"225\" class=\"img-responsive\"> </a></div><div class=\"col-sm-5\"><h4>16 x 10</h4><a href=\"https://blogs.library.duke.edu/wp-content/uploads/2019/08/Venice-Desktop-1920-x-1200.jpg\" target=\"_blank\"> <img src=\"/sites/default/files/dul/users/aaron.welborn/Venice%20Desktop%201920%20x%201200.jpg\" alt=\"Map of Venice\" width=\"400\" height=\"250\" class=\"img-responsive\"> </a></div></div><div class=\"row\"><div class=\"col-sm-12\"><h2>Social Media</h2></div><div class=\"col-sm-5\"><h4>Facebook Cover</h4><a href=\"https://blogs.library.duke.edu/wp-content/uploads/2019/08/Venice-Facebook-820-x-312.jpg\" target=\"_blank\"> <img src=\"/sites/default/files/dul/users/aaron.welborn/Venice%20Facebook%20820%20x%20312.jpg\" alt=\"Map of Venice\" width=\"400\" height=\"152\" class=\"img-responsive\"> </a></div><div class=\"col-sm-5\"><h4>Twitter Header</h4><a href=\"https://blogs.library.duke.edu/wp-content/uploads/2019/08/Venice-Twitter-1500-x-500.jpg\" target=\"_blank\"> <img src=\"/sites/default/files/dul/users/aaron.welborn/Venice%20Twitter%201500%20x%20500.jpg\" alt=\"Map of Venice\" width=\"400\" height=\"133\" class=\"img-responsive\"> </a></div></div>"
   },
   "vid" : 26591
}

