{
   "node_access" : null,
   "path_alias" : {
      "pid" : 4411,
      "alias" : "/exhibits/2019/Venice",
      "language" : "und",
      "status" : 0,
      "langcode" : "und"
   },
   "node_field_data" : {
      "status" : 1,
      "created" : 1559189243,
      "sticky" : 0,
      "default_langcode" : 1,
      "title" : "Senses of Venice",
      "uid" : 1,
      "langcode" : "und",
      "revision_translation_affected" : 1,
      "type" : "exhibit",
      "changed" : null,
      "promote" : 0
   },
   "field_tags" : [],
   "node__field_image" : {},
   "type" : "exhibit",
   "uuid" : "a295bc0c-73e2-4ed1-95bf-feaebdcb64af",
   "langcode" : "und",
   "asidebox" : null,
   "nid" : "2251",
   "field_image" : {
      "field_image_fid" : 4561,
      "revision_id" : 25209,
      "deleted" : 0,
      "file_uuid" : "588a9df3-9e1b-4d98-ae74-b9237d31dfb0",
      "language" : "und",
      "field_image_title" : "",
      "entity_id" : 2251,
      "field_image_target_id" : 4561,
      "bundle" : "exhibit",
      "delta" : 0,
      "field_image_width" : 800,
      "field_image_alt" : "Visualization of Venice",
      "langcode" : "und",
      "field_image_height" : 450,
      "entity_type" : "node"
   },
   "vid" : 25209,
   "node__body" : {
      "deleted" : 0,
      "delta" : 0,
      "body_format" : "full_html",
      "bundle" : "exhibit",
      "body_value" : "<p>This innovative and immersive exhibition introduces the first accurate map of Venice, along with sensational narratives about the city, its noteworthy personalities, and its relevance within the Grand Tour. The Rubenstein Library at Duke University owns a rare copy of the engraved map, created by Ludovico Ughi in 1729. Exceptionally and pristinely maintained in its original sheet format, the Rubenstein version showcases the map’s transportability as a collectible souvenir for the Grand Tour. Venice was a stopping point on the tour, usually during Carnival when tourists could attend lavish parties, witness public festivals and rituals, and participate in extravagant games and fairs— a magical moment in a city floating atop water. An online exhibit was created by the curators and can be viewed here:&nbsp;&nbsp;<a href=\"https://sites.duke.edu/sensesofvenice/\" style=\"font-size: 13.008px;\">https://sites.duke.edu/sensesofvenice/</a>&nbsp;</p><p>EVENTS:</p><p>Opening, September 5, 2019, 5:00-7:30 p.m. Chappell Family Gallery&nbsp;<a href=\"https://duke.libcal.com/event/5788143\">https://duke.libcal.com/event/5788143</a></p><p>Lecture, September 18, 2019, 4:30-5:30 p.m.,&nbsp;Rubenstein 153 (Holsti-Anderson Family Assembly Room)&nbsp;<a href=\"https://aahvs.duke.edu/events/facets-splendor-gemstones-and-jewelry-renaissance-venice\">https://aahvs.duke.edu/events/facets-splendor-gemstones-and-jewelry-renaissance-venice</a></p>",
      "revision_id" : 25209,
      "body_summary" : "",
      "entity_id" : 2251,
      "langcode" : "und"
   },
   "revisions" : [
      {
         "log" : "",
         "comment" : 1,
         "sticky" : 0,
         "field_revision" : {
            "default_langcode" : 1,
            "sticky" : 0,
            "revision_translation_affected" : 1,
            "created" : null,
            "langcode" : null,
            "uid" : 1,
            "status" : 1,
            "changed" : null,
            "title" : "Senses of Venice"
         },
         "status" : 1,
         "node_revision__body" : {
            "revision_id" : 25209,
            "body_value" : "<p>This innovative and immersive exhibition introduces the first accurate map of Venice, along with sensational narratives about the city, its noteworthy personalities, and its relevance within the Grand Tour. The Rubenstein Library at Duke University owns a rare copy of the engraved map, created by Ludovico Ughi in 1729. Exceptionally and pristinely maintained in its original sheet format, the Rubenstein version showcases the map’s transportability as a collectible souvenir for the Grand Tour. Venice was a stopping point on the tour, usually during Carnival when tourists could attend lavish parties, witness public festivals and rituals, and participate in extravagant games and fairs— a magical moment in a city floating atop water. An online exhibit was created by the curators and can be viewed here:&nbsp;&nbsp;<a href=\"https://sites.duke.edu/sensesofvenice/\" style=\"font-size: 13.008px;\">https://sites.duke.edu/sensesofvenice/</a>&nbsp;</p><p>EVENTS:</p><p>Opening, September 5, 2019, 5:00-7:30 p.m. Chappell Family Gallery&nbsp;<a href=\"https://duke.libcal.com/event/5788143\">https://duke.libcal.com/event/5788143</a></p><p>Lecture, September 18, 2019, 4:30-5:30 p.m.,&nbsp;Rubenstein 153 (Holsti-Anderson Family Assembly Room)&nbsp;<a href=\"https://aahvs.duke.edu/events/facets-splendor-gemstones-and-jewelry-renaissance-venice\">https://aahvs.duke.edu/events/facets-splendor-gemstones-and-jewelry-renaissance-venice</a></p>",
            "deleted" : 0,
            "body_format" : "full_html",
            "bundle" : "exhibit",
            "delta" : 0,
            "entity_id" : 2251,
            "body_summary" : "",
            "langcode" : "und"
         },
         "node_revision__field_tags" : [],
         "title" : "Senses of Venice",
         "vuuid" : "39edaa9f-02ee-4de4-b245-8076038d8161",
         "timestamp" : 1591309737,
         "uid" : 47,
         "promote" : 0
      }
   ]
}

