{
   "nid" : "99",
   "field_tags" : [
      {
         "langcode" : "und",
         "field_tags_target_id" : 54,
         "entity_id" : 99,
         "term_uuid" : "6874790c-a07e-4790-9515-4ca06bd45271",
         "revision_id" : 143,
         "deleted" : 0,
         "bundle" : "about_page",
         "delta" : 0,
         "language" : "und"
      },
      {
         "language" : "und",
         "revision_id" : 143,
         "deleted" : 0,
         "bundle" : "about_page",
         "delta" : 1,
         "entity_id" : 99,
         "term_uuid" : "39585959-a596-445a-bf72-63b489b8f90c",
         "langcode" : "und",
         "field_tags_target_id" : 55
      },
      {
         "revision_id" : 143,
         "bundle" : "about_page",
         "delta" : 2,
         "deleted" : 0,
         "language" : "und",
         "langcode" : "und",
         "field_tags_target_id" : 56,
         "entity_id" : 99,
         "term_uuid" : "eb9023a8-cf3d-41cf-8eeb-bbe3bd1f67e0"
      },
      {
         "language" : "und",
         "delta" : 3,
         "bundle" : "about_page",
         "deleted" : 0,
         "revision_id" : 143,
         "term_uuid" : "10623690-b28b-4bac-b977-73c2d8b70bf1",
         "entity_id" : 99,
         "field_tags_target_id" : 57,
         "langcode" : "und"
      }
   ],
   "node_field_data" : {
      "langcode" : "und",
      "uid" : 1,
      "revision_translation_affected" : 1,
      "type" : "about_page",
      "changed" : null,
      "promote" : 0,
      "status" : 0,
      "created" : 1374776285,
      "sticky" : 0,
      "default_langcode" : 1,
      "title" : "Maps of Latin America & the Caribbean"
   },
   "path_alias" : {
      "language" : "und",
      "alias" : "/about/maps-latin-america-caribbean",
      "pid" : 231,
      "langcode" : "und",
      "status" : 0
   },
   "node_access" : {
      "grant_view" : 1,
      "grant_update" : 0,
      "nid" : 99,
      "grant_delete" : 0,
      "realm" : "view_unpublished_about_page_content",
      "langcode" : "und",
      "gid" : 1
   },
   "asidebox" : null,
   "vid" : 143,
   "node__body" : {
      "deleted" : 0,
      "body_format" : "full_html",
      "bundle" : "about_page",
      "delta" : 0,
      "body_value" : "<p>Online Sources</p><p>Print Sources at Duke</p><p>Print Sources in the Triangle Libraries Research Network (TRLN)</p><p>Additional Guides</p><p>&nbsp;</p><table border=\"0\"><tbody><tr><td>Country</td><td>Resource</td><td>URL</td></tr><tr><td>&nbsp;</td><td>&nbsp;</td><td>&nbsp;</td></tr><tr><td>&nbsp;</td><td>&nbsp;</td><td>&nbsp;</td></tr><tr><td>&nbsp;</td><td>&nbsp;</td><td>&nbsp;</td></tr></tbody></table>",
      "revision_id" : 143,
      "langcode" : "und",
      "body_summary" : "",
      "entity_id" : 99
   },
   "uuid" : "a2da7556-5c4d-47ac-a0b0-e9a1b9a543e2",
   "field_image" : null,
   "type" : "about_page",
   "revisions" : [
      {
         "timestamp" : 1374776454,
         "uid" : 93,
         "promote" : 0,
         "log" : "",
         "comment" : 1,
         "sticky" : 0,
         "field_revision" : {
            "changed" : null,
            "title" : "Maps of Latin America & the Caribbean",
            "sticky" : 0,
            "revision_translation_affected" : 1,
            "default_langcode" : 1,
            "status" : 0,
            "uid" : 1,
            "langcode" : null,
            "created" : null
         },
         "status" : 0,
         "node_revision__body" : {
            "langcode" : "und",
            "body_summary" : "",
            "entity_id" : 99,
            "deleted" : 0,
            "bundle" : "about_page",
            "body_format" : "full_html",
            "delta" : 0,
            "body_value" : "<p>Online Sources</p><p>Print Sources at Duke</p><p>Print Sources in the Triangle Libraries Research Network (TRLN)</p><p>Additional Guides</p><p>&nbsp;</p><table border=\"0\"><tbody><tr><td>Country</td><td>Resource</td><td>URL</td></tr><tr><td>&nbsp;</td><td>&nbsp;</td><td>&nbsp;</td></tr><tr><td>&nbsp;</td><td>&nbsp;</td><td>&nbsp;</td></tr><tr><td>&nbsp;</td><td>&nbsp;</td><td>&nbsp;</td></tr></tbody></table>",
            "revision_id" : 143
         },
         "node_revision__field_tags" : [
            {
               "entity_id" : 99,
               "langcode" : "und",
               "field_tags_target_id" : 54,
               "language" : "und",
               "revision_id" : 143,
               "deleted" : 0,
               "delta" : 0,
               "bundle" : "about_page"
            },
            {
               "revision_id" : 143,
               "deleted" : 0,
               "delta" : 1,
               "bundle" : "about_page",
               "language" : "und",
               "langcode" : "und",
               "field_tags_target_id" : 55,
               "entity_id" : 99
            },
            {
               "langcode" : "und",
               "field_tags_target_id" : 56,
               "entity_id" : 99,
               "revision_id" : 143,
               "bundle" : "about_page",
               "delta" : 2,
               "deleted" : 0,
               "language" : "und"
            },
            {
               "entity_id" : 99,
               "field_tags_target_id" : 57,
               "langcode" : "und",
               "language" : "und",
               "bundle" : "about_page",
               "delta" : 3,
               "deleted" : 0,
               "revision_id" : 143
            }
         ],
         "title" : "Maps of Latin America & the Caribbean",
         "vuuid" : "3237a5ae-cf3d-48a5-9676-02583aac700d"
      }
   ],
   "langcode" : "und"
}

