{
   "field_image" : {
      "delta" : 0,
      "bundle" : "exhibit",
      "field_image_alt" : "",
      "field_image_width" : 426,
      "langcode" : "und",
      "entity_type" : "node",
      "field_image_height" : 600,
      "deleted" : 0,
      "revision_id" : 11135,
      "field_image_fid" : 1721,
      "file_uuid" : "882cf30c-5626-4e83-92f6-b99a259887f3",
      "language" : "und",
      "field_image_title" : "",
      "field_image_target_id" : 1721,
      "entity_id" : 1147
   },
   "node__body" : {
      "langcode" : "und",
      "body_summary" : "",
      "entity_id" : 1147,
      "deleted" : 0,
      "body_format" : "full_html",
      "bundle" : "exhibit",
      "delta" : 0,
      "revision_id" : 11135,
      "body_value" : "<p>This exhibit highlights some of the experiences and personal stories of African American men and women who have served in the U.S. military. The display includes materials from the RBMSCL covering a variety wars including the Civil War, World War I and II and the Vietnam War.</p>"
   },
   "vid" : 11135,
   "revisions" : [
      {
         "promote" : 0,
         "timestamp" : 1587442952,
         "uid" : 2213,
         "node_revision__body" : {
            "body_summary" : "",
            "entity_id" : 1147,
            "langcode" : "und",
            "body_format" : "full_html",
            "delta" : 0,
            "bundle" : "exhibit",
            "deleted" : 0,
            "revision_id" : 11135,
            "body_value" : "<p>This exhibit highlights some of the experiences and personal stories of African American men and women who have served in the U.S. military. The display includes materials from the RBMSCL covering a variety wars including the Civil War, World War I and II and the Vietnam War.</p>"
         },
         "title" : "Brave deeds are proudly spoken of",
         "vuuid" : "99c894b3-3c63-4a8c-aa31-1c32cd5e4fee",
         "node_revision__field_tags" : [],
         "log" : "",
         "sticky" : 0,
         "comment" : 1,
         "status" : 1,
         "field_revision" : {
            "sticky" : 0,
            "revision_translation_affected" : 1,
            "default_langcode" : 1,
            "uid" : 1,
            "langcode" : null,
            "status" : 1,
            "created" : null,
            "changed" : null,
            "title" : "Brave deeds are proudly spoken of"
         }
      }
   ],
   "asidebox" : null,
   "nid" : "1147",
   "type" : "exhibit",
   "uuid" : "a2e1a3ec-90f2-4bf5-9cc4-dc18113b179c",
   "langcode" : "und",
   "node_access" : null,
   "node_field_data" : {
      "revision_translation_affected" : 1,
      "uid" : 1,
      "langcode" : "und",
      "promote" : 0,
      "changed" : null,
      "type" : "exhibit",
      "default_langcode" : 1,
      "sticky" : 0,
      "created" : 1439387088,
      "status" : 1,
      "title" : "Brave deeds are proudly spoken of"
   },
   "path_alias" : {
      "status" : 0,
      "langcode" : "und",
      "pid" : 1637,
      "alias" : "/exhibits/2011/brave-deeds",
      "language" : "und"
   },
   "field_tags" : [],
   "node__field_image" : {}
}

