{
   "langcode" : "und",
   "type" : "exhibit",
   "uuid" : "a42f79b9-b65a-46be-a07b-1802cf1a9e5d",
   "node__field_image" : {},
   "node_access" : null,
   "field_tags" : [],
   "path_alias" : {
      "alias" : "/exhibits/2011/from-campus-to-cockpit",
      "pid" : 1581,
      "language" : "und",
      "langcode" : "und",
      "status" : 0
   },
   "node_field_data" : {
      "type" : "exhibit",
      "changed" : null,
      "promote" : 0,
      "langcode" : "und",
      "uid" : 1,
      "revision_translation_affected" : 1,
      "title" : "From Campus to Cockpit",
      "created" : 1438982628,
      "status" : 1,
      "default_langcode" : 1,
      "sticky" : 0
   },
   "revisions" : [
      {
         "log" : "",
         "sticky" : 0,
         "comment" : 1,
         "status" : 1,
         "field_revision" : {
            "changed" : null,
            "title" : "From Campus to Cockpit",
            "default_langcode" : 1,
            "sticky" : 0,
            "revision_translation_affected" : 1,
            "created" : null,
            "uid" : 1,
            "langcode" : null,
            "status" : 1
         },
         "node_revision__body" : {
            "langcode" : "und",
            "body_summary" : "",
            "entity_id" : 1091,
            "body_format" : "full_html",
            "bundle" : "exhibit",
            "delta" : 0,
            "deleted" : 0,
            "body_value" : "<p>This exhibit documents the academic, military, and humanitarian accomplishments of the Duke University community during World War II. One highlight is the 1942 Rose Bowl, which was relocated to Duke Stadium from Pasadena, California following the bombing of Pearl Harbor. Photographs, documents, artifacts, and archival film footage tell the story of Duke’s spirited efforts to support the nation during a turbulent time of war.</p>",
            "revision_id" : 11079
         },
         "vuuid" : "8a9e757c-153f-43ea-b6ed-7874008ce5e0",
         "title" : "From Campus to Cockpit",
         "node_revision__field_tags" : [],
         "timestamp" : 1587443609,
         "uid" : 2213,
         "promote" : 0
      }
   ],
   "field_image" : {
      "field_image_width" : 690,
      "field_image_alt" : "",
      "delta" : 0,
      "bundle" : "exhibit",
      "field_image_height" : 600,
      "entity_type" : "node",
      "langcode" : "und",
      "language" : "und",
      "file_uuid" : "4089297b-6947-4d79-b9ad-943c9edd248a",
      "revision_id" : 11079,
      "field_image_fid" : 1667,
      "deleted" : 0,
      "entity_id" : 1091,
      "field_image_target_id" : 1667,
      "field_image_title" : ""
   },
   "vid" : 11079,
   "node__body" : {
      "body_value" : "<p>This exhibit documents the academic, military, and humanitarian accomplishments of the Duke University community during World War II. One highlight is the 1942 Rose Bowl, which was relocated to Duke Stadium from Pasadena, California following the bombing of Pearl Harbor. Photographs, documents, artifacts, and archival film footage tell the story of Duke’s spirited efforts to support the nation during a turbulent time of war.</p>",
      "revision_id" : 11079,
      "deleted" : 0,
      "bundle" : "exhibit",
      "body_format" : "full_html",
      "delta" : 0,
      "langcode" : "und",
      "entity_id" : 1091,
      "body_summary" : ""
   },
   "asidebox" : null,
   "nid" : "1091"
}

