{
   "field_tags" : [],
   "path_alias" : {
      "status" : 0,
      "langcode" : "und",
      "language" : "und",
      "alias" : "/content/test-subject-guide-page-three",
      "pid" : 340
   },
   "node_field_data" : {
      "title" : "Test subject guide, page three ",
      "sticky" : 0,
      "default_langcode" : 1,
      "status" : 1,
      "created" : 1375817771,
      "promote" : 0,
      "changed" : null,
      "type" : "book",
      "revision_translation_affected" : 1,
      "uid" : 1,
      "langcode" : "und"
   },
   "nid" : "178",
   "asidebox" : null,
   "node_access" : {
      "grant_view" : 1,
      "grant_update" : 0,
      "nid" : 178,
      "grant_delete" : 0,
      "realm" : "all",
      "langcode" : "und",
      "gid" : 0
   },
   "revisions" : [
      {
         "timestamp" : 1375817771,
         "uid" : 42,
         "promote" : 0,
         "log" : "",
         "sticky" : 0,
         "comment" : 1,
         "status" : 1,
         "field_revision" : {
            "revision_translation_affected" : 1,
            "sticky" : 0,
            "default_langcode" : 1,
            "status" : 1,
            "uid" : 1,
            "langcode" : null,
            "created" : null,
            "changed" : null,
            "title" : "Test subject guide, page three "
         },
         "node_revision__body" : {
            "body_summary" : "",
            "entity_id" : 178,
            "langcode" : "und",
            "deleted" : 0,
            "body_format" : "full_html",
            "bundle" : "book",
            "delta" : 0,
            "revision_id" : 566,
            "body_value" : "<p>Content&nbsp;</p>"
         },
         "title" : "Test subject guide, page three ",
         "vuuid" : "3fcf9154-0fbd-406f-ae52-b02a285a88cf",
         "node_revision__field_tags" : []
      }
   ],
   "langcode" : "und",
   "node__body" : {
      "entity_id" : 178,
      "body_summary" : "",
      "langcode" : "und",
      "revision_id" : 566,
      "body_value" : "<p>Content&nbsp;</p>",
      "deleted" : 0,
      "bundle" : "book",
      "body_format" : "full_html",
      "delta" : 0
   },
   "vid" : 566,
   "uuid" : "a4e4949e-1a9f-46e3-a087-555e79ddfe3d",
   "field_image" : null,
   "type" : "book"
}

