{
   "langcode" : "und",
   "revisions" : [
      {
         "field_revision" : {
            "title" : "Adopt-a-Book Program",
            "changed" : null,
            "status" : 1,
            "uid" : 1,
            "langcode" : null,
            "created" : null,
            "sticky" : 0,
            "revision_translation_affected" : 1,
            "default_langcode" : 1
         },
         "status" : 1,
         "comment" : 1,
         "sticky" : 0,
         "log" : "",
         "node_revision__field_tags" : [],
         "title" : "Adopt-a-Book Program",
         "vuuid" : "cc5a7e6e-5340-4bdb-a23f-fdb39aa867e2",
         "node_revision__body" : {
            "revision_id" : 30048,
            "body_value" : "<p><br> <img src=\"https://farm3.staticflickr.com/2434/3821606080_90c3a444d0.jpg\" alt=\"Louisa Whitman manuscript, during treatment\" title=\"Louisa Whitman manuscript, during treatment by DukeUnivLibraries, on Flickr\" class=\"caption-right\" width=\"400\" height=\"300\"> The Duke University Libraries Adopt-A-Book Program gives you the opportunity to support the <a href=\"/about/depts/conservation/\"> conservation </a> of library materials in need of repair. Your gift helps to keep these materials available for current and future faculty, scholars and students.</p><p>Books, manuscripts, moving images, photographs and University Archives materials are available for adoption. An electronic book plate will be put into the item's catalog record to acknowledge your gift. <a href=\"#adopted\"> Adopted items </a> are listed at the bottom of this page.</p><h2>Adoption Process</h2><p>A selection of available items is listed below. Please contact the head of the Conservation Services Department with your adoption choice:</p><p>Beth Doyle, Head of Conservation Services Dept. <br> b.doyle@duke.edu <br> 919-660-5985</p><p>We are happy to honor someone special or recognize a special event such as graduation in the electronic bookplate. If you wish your gift to remain anonymous, we will honor that request.</p><p></p><h2>Adoptable Collection Items</h2><p></p><table class=\"table\" cellspacing=\"5\" border=\"0\" align=\"center\"><tbody><tr><td><img src=\"/sites/default/files/dul/users/beth.doyle/adopt%20a%20box.jpg\" alt=\"Adopt A Box\" style=\"display: block; margin-left: auto; margin-right: auto;\" class=\"img-thumbnail\" width=\"120\" height=\"80\"></td><td><p><strong> Adopt a Box: Conservator's Choice! </strong> With this option, we will choose an item in need of an enclosure and put your name on the electronic bookplate. The staff in the conservation lab make on average 5,000 custom enclosures a year. There is always something in the lab that needs a box. Candidates may come from any part of our collections including Rubenstein Rare Book &amp; Manuscript Library, Duke University Archives, Music Library locked stacks, or Lilly Library locked stacks.&nbsp; <strong> </strong></p></td><td><a href=\"https://www.gifts.duke.edu/library?level=ADOPT_Choice\" target=\"_blank\" class=\"btn btn-primary\"> <strong> Adopt for $150 </strong> </a></td></tr><tr><td style=\"text-align: center;\" width=\"150\"><img src=\"/sites/default/files/dul/users/beth.doyle/wharton.jpg\" width=\"99\" height=\"85\"></td><td><p style=\"color: #ff0000;\"><strong> NEW! </strong></p><strong> </strong><p><span style=\"background-color: #ff0000;\" data-mce-mark=\"1\"> <strong> <em> <strong> </strong> </em> </strong> </span> <a href=\"https://find.library.duke.edu/catalog/DUKE008203807\"> <strong> <em> Old New York </em> </strong> </a> by Edith Wharton (4 volumes, library copy 3) First published in 1924, Wharton's collection of four short novels reveals the customs and social orders of mid-19th-century New York--Novelist.These sweet volumes are part of the <a href=\"https://library.duke.edu/rubenstein/findingaids/?q=Lisa+Unger+Baskin+Collection&amp;scope=all\">Lisa Unger Baskin Collection</a>. They need custom enclosures to protect the beautiful dust jackets.<strong> </strong></p></td><td><a href=\"https://www.gifts.duke.edu/library?level=ADOPT_wharton\" target=\"_blank\" class=\"btn btn-primary\"> <strong> Adopt for $150 </strong> </a></td></tr><tr><td style=\"text-align: center;\" width=\"150\"><img src=\"/sites/default/files/dul/users/beth.doyle/game.jpg\" alt=\"Game of Thrones\" width=\"200\" height=\"104\"></td><td><p><strong> </strong> <em> <strong> Game of Thrones </strong> </em> <strong> </strong> by George R.R. Martin (London, 1996). <a href=\"https://find.library.duke.edu/catalog/DUKE008700255\"> This is book one </a> of Martin's fantasy story of treachery, greed, and war that threatens the unity of the Seven Kingdoms of south of the Wall. This edition is inscribed to Charles N. Brown from the author. Original dust jacket. <strong> </strong> <em> <strong> </strong> </em></p><p><em> <strong> The Left Hand of Darkness </strong> </em> <strong> &nbsp; </strong> by Ursula Le Guin (New York, 1969). <a href=\"https://find.library.duke.edu/catalog/DUKE001477787\"> Le Guin's Hainish series </a> begins with the assumption that centuries ago humanoids from the planet Hain ventured through the solar system establishing colonies on various planets including Earth. This is the first hardcover edition. Original dust jacket. <em> </em></p><p><em> <strong> The Citadel of the Autarch </strong> </em> by Gene Wolfe (New York, 1983). This title i <span data-mce-mark=\"1\"> s the fourth and final volume in the four-volume series The Book of the New Sun. </span> What makes <a href=\"https://find.library.duke.edu/catalog/DUKE000496404\"> this edition interesting </a> is that it has three dust jackets. The original as issued, and an additional two identical dust jackets.</p><p></p><p><em> </em> These three volumes were acquired as part of the <a href=\"https://find.library.duke.edu/catalog/DUKE008630781\"> Locus Science Fiction Foundation Collection. </a> We are adopting these as a set of three individually made <a href=\"https://blogs.library.duke.edu/preservation/2012/03/16/1091-project-making-enclosures/\"> custom corrugated boxes </a> .&nbsp;</p><p>(Rubenstein Rare Book &amp; Manuscript Library)</p></td><td><p><span data-mce-mark=\"1\"><strong>&nbsp;ADOPTED</strong><br></span></p></td></tr><tr><td style=\"text-align: center;\" width=\"150\"><img src=\"/sites/default/files/dul/users/beth.doyle/moon_1.jpg\" alt=\"The Moon is a Harsh Mistress\" width=\"200\" height=\"97\"></td><td><p><strong> <em> The Moon is a Harsh Mistress (c.2) </em> </strong> by Robert A. Heinlein (New York, 1966). Widely considered one of the best science fiction novelists, Robert Heinlein won four Hugo Awards for best novel including one for <a href=\"https://find.library.duke.edu/catalog/DUKE007751028\"> The Moon is a Harsh Mistress </a> . This tale of revolution and rebellion needs a protective enclosure to protect its as-issued publisher's dust jacket. This volume is inscribed to Charles N. and Dena Brown from the author. Original dust jacket.</p><p><strong> <em> Starship Troopers </em> </strong> by Robert A. Heinlein (New York, 1959). <a href=\"https://find.library.duke.edu/catalog/DUKE001290857\"> This military science fiction novel </a> won Heinlein a Hugo Award for Best Novel in 1960. Not without its critics, this novel was influential on many writing genres. Original dust jacket. Signed by the author with inscription.</p><p><em> <strong> The Green Hills of Earth </strong> </em> by Robert A. Heinlein (Chicago, 1951). <a href=\"https://find.library.duke.edu/catalog/DUKE008707928\"> This novel </a> was one of Heinlein's Future History stories that was first published in The Saturday Evening Post. Original dust jacket.</p><p></p><p><strong> </strong> These three volumes were acquired as part of the <a href=\"https://find.library.duke.edu/catalog/DUKE008630781\"> Locus Science Fiction Foundation Collection. </a> We are adopting these as a set of three individually made <a href=\"https://blogs.library.duke.edu/preservation/2012/03/16/1091-project-making-enclosures/\"> custom corrugated boxes</a>.&nbsp;</p><p>(Rubenstein Rare Book &amp; Manuscript Library)</p></td><td><p><span data-mce-mark=\"1\"> <strong> <a href=\"https://www.gifts.duke.edu/library?level=ADOPT_Heinlein\" target=\"_blank\" class=\"btn btn-primary\"> Adopt for $150 </a> </strong> <a> </a> </span></p></td></tr><tr><td width=\"150\"><img src=\"/sites/default/files/dul/users/beth.doyle/medium_no%201.jpg\" style=\"display: block; margin-left: auto; margin-right: auto;\" width=\"120\" height=\"120\"></td><td><strong> </strong><p><em> <strong> No: Classical Theatre of </strong> <strong> Japan&nbsp; </strong> </em> <strong> </strong> by Donald Keene (1966). <a href=\"https://search.library.duke.edu/search?id=DUKE001395956\"> This book is an amazing look </a> into the world of Japanese theatrical tradition. It is in its original publisher's dust jacket and slipcase. However, the original slipcase is cardboard. The problem with slipcases are they can abrade the covers when the book is taken removed and put back into the slipcase. We need to create a custom housing for both the book and its slipcase so that these items remain together, but are both protected from needless wear and tear.</p><p>(Rubenstein Rare Book &amp; Manuscript Library)</p></td><td><p><a href=\"https://www.gifts.duke.edu/library?level=ADOPT_No\" target=\"_blank\" class=\"btn btn-primary\"> <strong> Adopt for $150 </strong> </a></p></td></tr><tr><td style=\"text-align: center;\" width=\"150\"><img src=\"/sites/default/files/dul/users/beth.doyle/moon.jpg\" alt=\"Moon is a Harsh Mistress\" width=\"92\" height=\"134\"></td><td><p><strong> <em> The Moon is a Harsh Mistress </em> , </strong> by Robert A. Heinlein (1966). Widely considered one of the best science fiction novelists, Robert Heinlein won four Hugo Awards for best novel including one for&nbsp; <em> <a href=\"https://search.library.duke.edu/search?id=DUKE007751028\"> The Moon is a Harsh Mistress. </a> </em> This tale of revolution and rebellion needs a protective enclosure to protect its as-issued publisher's dust jacket.</p><p>(Rubenstein Rare Book &amp; Manuscript Library)</p></td><td><p><a href=\"https://www.gifts.duke.edu/library?level=ADOPT_Moon\" target=\"_blank\" class=\"btn btn-primary\"> <strong> Adopt for $150 </strong> </a></p></td></tr><tr><td width=\"150\"><img src=\"/sites/default/files/dul/users/beth.doyle/naked.jpg\" alt=\"Naked and the Dead\" style=\"display: block; margin-left: auto; margin-right: auto;\" width=\"99\" height=\"135\"></td><td><strong> </strong><p><em> <strong> The Naked and the Dead </strong> </em> , by Norman Mailer (1948). <a href=\"https://search.library.duke.edu/search?id=DUKE001499518\"> This book </a> recalls Mailer's military service in the Phillapines in World War II. The novel was later adapted into a film. The original New Yorker critique of the novel can be <a href=\"https://www.nytimes.com/books/97/05/04/reviews/mailer-dead.html\"> found online</a>. This book needs an enclosure to keep the original dust jacket protected.</p><p>(Rubenstein Rare Book &amp; Manuscript Library)</p><p style=\"color: #ff0000;\"></p></td><td><p><a href=\"https://www.gifts.duke.edu/library?level=ADOPT_Naked\" target=\"_blank\" class=\"btn btn-primary\"> <strong> Adopt for $150 </strong> </a></p></td></tr><tr><td width=\"150\"><img src=\"/sites/default/files/dul/users/beth.doyle/dune.jpg\" style=\"display: block; margin-left: auto; margin-right: auto;\" width=\"95\" height=\"140\"></td><td><p style=\"color: #ff0000;\"><strong> NEW! </strong></p><strong> <em> Dune, </em> </strong> by Frank Herbert (1965). This book is part of the <a href=\"https://library.duke.edu/rubenstein/findingaids/locussciencefictionfoundation/\"> Locus Science Fiction Foundation Collection </a> and is inscribed by the author. Set on a desert planet, <em> Dune </em> is a future space fantasy concerning a time when the human race has reached a point of intellectual stagnation and receives the help of a space-age Messiah and prophet. Fun fact: the <span class=\"ILfuVd\" data-mce-mark=\"1\"> <span class=\"e24Kjd\" data-mce-mark=\"1\"> Denis Villeneuve's adaptation of <em> Dune </em> the movie will be released at the end of 2020. </span> </span> <strong> </strong></td><td><span class=\"btn btn-primary\">&nbsp; <strong></strong></span><strong>ADOPTED!</strong></td></tr><tr><td width=\"150\"><img src=\"/sites/default/files/dul/users/beth.doyle/man_in_high_castle.jpg\" style=\"display: block; margin-left: auto; margin-right: auto;\" width=\"99\" height=\"145\"></td><td><p style=\"color: #ff0000;\"><strong> NEW! </strong></p><strong> Man in the High Castle, </strong> <strong> </strong> by Philip K. Dick. Every great TV series began as a book. Adopt the original! <a href=\"https://find.library.duke.edu/catalog/DUKE000077856\"> This novel </a> ponders life in America against the background of a globe controlled by Germany and Japan--a novel of our world as it might have been. This book is part of the <a href=\"https://library.duke.edu/rubenstein/findingaids/locussciencefictionfoundation/\"> Locus Science Fiction Foundation Collection </a> . <br><p style=\"color: #ff0000;\"></p></td><td><a href=\"https://www.gifts.duke.edu/library?level=ADOPT_castle\" target=\"_blank\" class=\"btn btn-primary\"> <strong> Adopt for $200 </strong> </a></td></tr><tr><td width=\"150\"><img src=\"/sites/default/files/dul/users/beth.doyle/silver.jpg\" style=\"display: block; margin-left: auto; margin-right: auto;\" width=\"99\" height=\"140\"></td><td><p style=\"color: #ff0000;\"><strong> NEW! </strong></p><em> <strong> A Game of </strong> </em> <strong> <em> Thrones </em> </strong> , by George R.R. Martin (1996). Winter is coming, and you should adopt this book. <a href=\"https://find.library.duke.edu/catalog/DUKE008700237\"> This one is unusal </a> as it is accompanied by an early version of dust jacket illustrated by Stephen Youll, with border designed by Ron Zim; the jacket design is by Jamie S. Warren Youll. This book is part of the Locus Science Fiction Foundation Collection.<p style=\"color: #ff0000;\"></p></td><td><a href=\"https://www.gifts.duke.edu/library?level=ADOPT_thrones\" target=\"_blank\" class=\"btn btn-primary\"> <strong> Adopt for $200 </strong> </a></td></tr><tr><td style=\"text-align: center;\" width=\"150\"><img src=\"/sites/default/files/dul/users/beth.doyle/mclanahan_bindings_ba.jpg\" width=\"200\" height=\"197\"></td><td><p style=\"color: #ff0000;\"><strong> NEW! </strong></p><p><strong> H. McLanahan bindings (set 1). </strong> These may all be written by Bernard Shaw, but the McLanahan bindings are what make these books stunning. They need simple four-flap boxes to protect the delicate goold toolsing. The nine books are: <strong> </strong></p><p itemprop=\"name\"><a href=\"https://find.library.duke.edu/catalog/DUKE008900805\"> <em> The philanderer : a topical comedy of the year 1893 </em> </a> (B. Shaw) <br> <a href=\"https://find.library.duke.edu/catalog/DUKE008916007\"> <em> Man of Destiny: a trifle </em> </a> (B. Shaw) <br> <a href=\"https://find.library.duke.edu/catalog/DUKE008900813\"> <em> Arms and the man : an anti-romantic comedy in three acts </em> </a> (B. Shaw) <br> <a href=\"https://find.library.duke.edu/catalog/DUKE008916015\"> <em> Candida: a mystery </em> </a> (B. Shaw) <br> <a href=\"https://find.library.duke.edu/catalog/DUKE008916018\"> <em> Captain Brassbound's Conversion: and adventure </em> </a> (B. Shaw) <br> <em> <a href=\"https://find.library.duke.edu/catalog/DUKE008915589\"> John Bull's Other Island: in four acts </a> </em> (B. Shaw) <br> <em> <a href=\"https://find.library.duke.edu/catalog/DUKE008887615\"> Overruled; &amp; The darkl ady of the sonnets </a> </em> (B. Shaw) <br> <a href=\"https://find.library.duke.edu/catalog/DUKE008901591\"> <em> How He Lied to her Husband; Admirable Bashville </em> </a> (B. Shaw) <br> <em> <a href=\"https://find.library.duke.edu/catalog/DUKE008916021\"> Major Barbara: in three acts </a> </em> (B. Shaw)</p><p itemprop=\"name\"></p><p itemprop=\"name\"></p></td><td><a href=\"https://www.gifts.duke.edu/library?level=ADOPT_mcl1\" target=\"_blank\" class=\"btn btn-primary\"> <strong> Adopt set of 9 for $300 </strong> </a></td></tr><tr><td style=\"text-align: center;\" width=\"150\"><img src=\"/sites/default/files/dul/users/beth.doyle/img_4694.jpg\" width=\"200\" height=\"184\"></td><td><p style=\"color: #ff0000;\"><strong> NEW! </strong></p><p><strong> H. McLanahan bindings (set 2). </strong> These beautiful bindings are by H. McLanahan and arguably the best thing about these nine novels by Bernard Shaw. They need simple four-flap boxes to protect the delicate goold toolsing. The nine books are:</p><p itemprop=\"name\"><a href=\"https://find.library.duke.edu/catalog/DUKE008916037\"> <em> The Devil's Disciple: A melodrama in three acts </em> </a> (B. Shaw) <br> <a href=\"https://find.library.duke.edu/catalog/DUKE008916023\"> <em> Widower's Houses: A play </em> </a> (B. Shaw) <br> <a href=\"https://find.library.duke.edu/catalog/DUKE008916377\"> <em> Ceasar and Cleopatra: A history </em> </a> (B. Shaw) <br> <a href=\"https://find.library.duke.edu/catalog/DUKE008921645\"> <em> Fanny's First Play: An easy play for a little theatre </em> </a> (B. Shaw) <br> <a href=\"https://find.library.duke.edu/catalog/DUKE008921766\"> <em> The shewing-up of Blanco Posnet : a sermon in crude melodrama </em> </a> (B. Shaw) <br> <em> <a href=\"https://find.library.duke.edu/catalog/DUKE008921754\"> Androcles and the Lion: A fable play </a> </em> (B. Shaw) <br> <a href=\"https://find.library.duke.edu/catalog/DUKE008921773\"> <em> The Doctor's Dillema: A tragedy </em> </a> (B. Shaw) <br> <a href=\"https://find.library.duke.edu/catalog/DUKE008916378\"> <em> Mrs. Warren's Profession: A play in four acts </em> </a> (B. Shaw) <br> <em> <a href=\"https://find.library.duke.edu/catalog/DUKE008921643\"> You Never Can Tell: A comedy in four acts </a> </em> (B. Shaw)</p><p></p></td><td><a href=\"https://www.gifts.duke.edu/library?level=ADOPT_mcl2\" target=\"_blank\" class=\"btn btn-primary\"> <strong> Adopt set of 9 for $300 </strong> </a></td></tr><tr><td style=\"text-align: center;\" width=\"150\"><img src=\"/sites/default/files/dul/users/beth.doyle/children.jpg\" alt=\"Children and Gardens\" width=\"200\" height=\"98\"></td><td><p><a href=\"https://find.library.duke.edu/catalog/DUKE008738069\"> Children and Gardens by Gertrude Jekyll </a> (London, 1933). Jekyll was a British horticulturist, garden designer, writer, and artist. She created over 400 gardens in the UK, Europe, and the US. This volume includes instructions on gardening written for children (and their adults); recipes; and illustrations including Ms. Jekyll's cat.</p><p><a href=\"https://find.library.duke.edu/catalog/DUKE000253613\"> Chinese Women Speak by Dymphna Cusack </a> (Sydney, 1958). This is Cusack's account of her travels in China in the mid 1950's. Valuable for its verbatim reports of her interviews with Chinese women.</p><p><a href=\"D05162698.\"> New Plays for Women and Girls by Samuel French LTD </a> (New York, Los Angeles, London, 1932). This volume contains fifteen one-act plays.</p><p>These three volumes were acquired as part of the Lisa Unger Baskin Collection . Each book's dust jacket needs some conservation treatment to stabilize small tears. They also need a custom corrugated box to protect the bindings.</p><p>(Rubenstein Rare Book &amp; Manuscript Library)</p></td><td><a href=\"https://www.gifts.duke.edu/library?level=ADOPT_Children\" target=\"_blank\" class=\"btn btn-primary\"> <strong> Adopt for $300 </strong> </a></td></tr><tr><td width=\"150\"><img src=\"/sites/default/files/dul/users/beth.doyle/diderot4_0.jpg\" alt=\"Diderot\" style=\"display: block; margin-left: auto; margin-right: auto;\" class=\"img-thumbnail\" width=\"102\" height=\"136\"></td><td><p>Encyclopédie, ou dictionnaire raisonné des sciences, des arts et des métiers , published 1751-72, by Denis Diderot. This is the first encyclopedia to have the contents organized by human thought rather than by nature or theology. This publication was considered innovative in part because it emphasized the mechanical arts, and it named the various authors that contributed content. This complete set contains 70 volumes of text, illustrations and supplements. Each volume needs a custom-made enclosure and many need minor repair to the texts and foldouts. [ <a href=\"https://find.library.duke.edu/catalog/DUKE000362924\"> Text volumes </a> ] [ <a href=\"https://find.library.duke.edu/catalog/DUKE000936143\"> Plate volumes </a> ]</p><p>61 of 70 volumes available for adoption</p><p>(Rubenstein Rare Book &amp; Manuscript Library)</p></td><td><a href=\"https://www.gifts.duke.edu/library?level=ADOPT_Encyclopedie\" target=\"_blank\" class=\"btn btn-primary\"> <strong> Adopt for $300 per volume </strong> </a><p><strong>Adopted:</strong> <br> T. 1 <br>T. 10<br>T. 13<br>Plate v. 1 <br> Plate v. 2 <br> Plate v. 5 <br> Plate v.7 <br> Plate v. 8 <br> Plate v. 11<br><br></p></td></tr><tr><td width=\"150\"><img src=\"/sites/default/files/dul/users/beth.doyle/adopt_dreiser.jpg\" alt=\"American Tragedy\" style=\"display: block; margin-left: auto; margin-right: auto;\" class=\"img-thumbnail\" width=\"150\" height=\"129\"></td><td><p><a href=\"https://find.library.duke.edu/catalog/DUKE000072227\"> <span class=\"recordTitle\" data-mce-mark=\"1\"> An American Tragedy </span> <span class=\"recordTitle\" data-mce-mark=\"1\"> by Theodore Dreiser </span> </a> <span class=\"recordTitle\" data-mce-mark=\"1\"> (1925, first edition). Loosely based on real events this story follows Clive Griffiths, a son of two misionaries, who takes a job as a bell hop then in a factory. After making several poor choices he ends up on trial for murder. This two-volume set has some prior repairs that are damaging the original dust jackets. The original publishers slip case is damaging the books, so an enclosure that houses the books and slip case will be made so that all three pieces are protected. <br> </span></p><p>(Rubenstein Rare Book &amp; Manuscript Library)</p></td><td><strong>ADOPTED!</strong></td></tr><tr><td style=\"text-align: center;\"><img src=\"/sites/default/files/dul/users/beth.doyle/medium_dante.jpg\" alt=\"Dante\" width=\"120\" height=\"120\"></td><td><p><a href=\"https://find.library.duke.edu/catalog/DUKE001813767\"> Dante con lespositione di Christoforo Landino [c.2] </a> , by Dante Alighieri (1564) Illustrated with the woodcuts from Marcolini's edition of 1544. This is also the first appearance of AB's woodcut portrait of Dante. This book's headcaps are damaged and the front board is off. It also needs a custom enclosure to protect the fragile binding.</p><p>(Rubenstein Rare Book &amp; Manuscript Library)</p></td><td><a href=\"https://www.gifts.duke.edu/library?level=ADOPT_Dante2\" target=\"_blank\" class=\"btn btn-primary\"> <strong> Adopt for $300 </strong> </a></td></tr><tr><td><img src=\"/sites/default/files/dul/users/beth.doyle/Photo%209.jpg\" alt=\"Audubon\" style=\"display: block; margin-left: auto; margin-right: auto;\" class=\"img-thumbnail\" width=\"97\" height=\"128\"></td><td><p><a href=\"https://find.library.duke.edu/catalog/DUKE001532337\"> Birds of America by John James Audubon </a> . These are stunning double elephant folios printed from 1827–1803. This set contains four volumes. Three volumes need full conservation attention to repair the broken and loose sewing and boards before the damage becomes so severe they cannot be used.</p><p>3 of 3 volumes available for adoption.</p><p>(Rubenstein Rare Book &amp; Manuscript Library)</p></td><td><a href=\"https://www.gifts.duke.edu/library?level=ADOPT_Audubon\" target=\"_blank\" class=\"btn btn-primary\"> <strong> Adopt for $30,000 per volume </strong> </a></td></tr></tbody></table><h2><a name=\"adopted\" id=\"adopted\"></a> Adopted Books</h2><p><strong> To see your electronic bookplate, click on the title link then scroll down to \"Local Notes.\"&nbsp; </strong></p><div class=\"table-responsive\"><table class=\"table\"><tbody><tr><th width=\"20%\"><span data-mce-mark=\"1\"> <strong> DONOR </strong> </span></th><th><span data-mce-mark=\"1\"> <strong> TITLE OF WORK OR COLLECTION </strong> </span></th><th><span data-mce-mark=\"1\"> <strong> ADOPTED </strong> </span></th></tr><tr><td><strong>Funded by the Strategic Initiatives team in honor of Barbara Collins</strong></td><td><p><a href=\"https://find.library.duke.edu/catalog/DUKE008922727\">Lectures on Art&nbsp;</a>, by John Ruskin [DUKE008922727].</p><p><a href=\"https://find.library.duke.edu/catalog/DUKE008922953\">Ionica&nbsp;</a>, by William Johnson Corey [DUKE008922953]</p><p><a href=\"https://find.library.duke.edu/catalog/DUKE008923076\">The Vision, or Hell, Purgatory, and Paradise of Dante Alighieri,</a>&nbsp;by Rev. Henry Francis Cary, M.A. [DUKE008923076]</p><p itemprop=\"name\"><a href=\"https://find.library.duke.edu/catalog/DUKE008922761\">Les confessions de J.-J. Rousseau</a>, by Jean-Jacques Rousseau [DUKE008922761].</p><p itemprop=\"name\"><a href=\"https://find.library.duke.edu/catalog/DUKE008923090\">The Aeneids of Virgil done into English Verse by William Morris</a>, by Virgil [DUKE008923090].</p></td><td>9/27/2020</td></tr><tr><td><strong><strong>Joseph Johnson, Jr. (A.B. '70, M.A.T. '71, Ed.D. '78)</strong></strong></td><td><p><a href=\"https://search.library.duke.edu/catalog/DUKE000936143\" style=\"text-decoration-line: underline;\"><em><em><span class=\"recordtitle\">Recueil de planches, sur les sciences, les arts liberaux, et les arts mechaniques, avec leur explication...&nbsp;</span></em></em></a><span class=\"recordtitle\">(text volumes 10 and 13) by Denis Diderot&nbsp;</span><em><em><span class=\"recordtitle\"></span></em></em><br><span class=\"recordtitle\">[<span style=\"font-size: 11.0pt; font-family: 'Calibri',sans-serif; mso-fareast-font-family: Calibri; mso-fareast-theme-font: minor-latin; mso-ansi-language: EN-US; mso-fareast-language: EN-US; mso-bidi-language: AR-SA;\">DUKE000362924</span>]<br><br><a href=\"https://find.library.duke.edu/catalog/DUKE000072227\"><span class=\"recordTitle\" data-mce-mark=\"1\">An American Tragedy&nbsp;</span><span class=\"recordTitle\" data-mce-mark=\"1\">by Theodore Dreiser</span></a>&nbsp;[DUKE000072227]</span></p></td><td>9/15/2020</td></tr><tr><td><b>In honor of Dan Wiercioch</b></td><td><p><em></em>Mark Twain</p><p><em><a href=\"https://find.library.duke.edu/catalog/DUKE000111073\">Tom Sawyer Abroad [DUKE000111073]</a><br></em></p><p><a href=\"https://find.library.duke.edu/catalog/DUKE000504276\"><em>The Guilded Age [DUKE000504276]</em></a></p><p><a href=\"https://find.library.duke.edu/catalog/DUKE005197823\"><em>The Innocents Abroad [DUKE005197823] </em></a></p></td><td>1/17/2020</td></tr><tr><td><b> <strong> <strong> <strong> Megan Crain in honor of Stephen G. Crain (G'16) <br> </strong> </strong> </strong> </b></td><td><em> <em> <span class=\"recordtitle\" data-mce-mark=\"1\"> <em> </em> </span> </em> <span class=\"recordtitle\" data-mce-mark=\"1\"> <a href=\"https://find.library.duke.edu/catalog/DUKE003251554\"> Salem's Lot [DUKE003251554] </a> , <a href=\"https://find.library.duke.edu/catalog/DUKE000070744\"> Stranger in a Strange Land [DUKE000070744] </a> , <a href=\"https://find.library.duke.edu/catalog/DUKE003251548\"> The Shining [DUKE003251548] </a> </span> </em> <span class=\"recordtitle\" data-mce-mark=\"1\"> , by Stephen King. </span> <span class=\"recordtitle\" data-mce-mark=\"1\"> </span></td><td>11/15/2019</td></tr><tr><td><b> <strong> <strong> <strong> Georgeann C. Corey and George Corey (T'69) in honor of Elijah George Corey. </strong> </strong> </strong> </b></td><td><p><a href=\"https://find.library.duke.edu/catalog/DUKE000217905\"> <em> <em> <span class=\"recordtitle\" data-mce-mark=\"1\"> <em> The Naturalist's Library </em> </span> </em> </em> </a> <span class=\"recordtitle\" data-mce-mark=\"1\"> by William Jardine (1835-1843) </span> <em> <em> <span class=\"recordtitle\" data-mce-mark=\"1\"> . </span> </em> </em> [DUKE000217905] 7 vol. <br> <em> <a href=\"https://find.library.duke.edu/catalog/DUKE000309601\"> The Naturalist's Library: Ichthyology </a> </em> [DUKE000309601] 6 vol. <br> <em> <a href=\"https://find.library.duke.edu/catalog/DUKE000363217\"> The Naturalist's Library: Mammalia </a> </em> &nbsp; [DUKE000363217] 13 vol. <br> <em> <a href=\"https://find.library.duke.edu/catalog/DUKE000363589\"> The Naturalist's Library: Ornithology </a> </em> [DUKE000363589] 14 vol.</p></td><td>11/6/2019</td></tr><tr><td><b> <strong> <strong> <strong> Joseph Johnson, Jr. (A.B. '70, M.A.T. '71, Ed.D. '78) </strong> </strong> </strong> </b></td><td><a href=\"https://find.library.duke.edu/catalog/DUKE002197330\"> </a> <a href=\"https://search.library.duke.edu/catalog/DUKE000936143\"> <em> <em> <span class=\"recordtitle\" data-mce-mark=\"1\"> Recueil de planches, sur les sciences, les arts liberaux, et les arts mechaniques, avec leur explication... </span> </em> </em> </a> <span class=\"recordtitle\" data-mce-mark=\"1\"> (plate volumes 1, 2, and 11) by Denis Diderot </span> <em> <em> <span class=\"recordtitle\" data-mce-mark=\"1\"> </span> </em> </em> <br> <span class=\"recordtitle\" data-mce-mark=\"1\"> [DUKE000936143] </span></td><td>9/16/2019</td></tr><tr><td><b> <strong> Lesley Looper ('86) in memory of LaNelle Edwards Looper ('53, '55) </strong> </b></td><td><em> <a href=\"https://find.library.duke.edu/catalog/DUKE002197330\"> Broadway Theatres Posters </a> </em> by Wendy Nelson-Cave (New York, N.Y. : Smithmark, c1993) [DUKE002197330]</td><td>6/25/19</td></tr><tr><td><b> <strong> Kim Reed in honor of Professor Victor Strandberg <br> </strong> </b></td><td><em> <a href=\"https://find.library.duke.edu/catalog/DUKE008699170\"> Lord of the Rings (v. 1-3) </a> </em> by J.R.R. Tolkein (London, 1954-1955).&nbsp; [DUKE008699170]</td><td>4/12/19</td></tr><tr><td><b> Dracine Hodges <br> </b></td><td>By Octavia Butler<p><a href=\"https://find.library.duke.edu/catalog/DUKE008109809\"> <em> </em> </a> <a href=\"https://find.library.duke.edu/catalog/DUKE008109809\"> <em> Wild Seed </em> </a> (Garden City, New York; 1980) [DUKE008109809]</p><p><a href=\"https://find.library.duke.edu/catalog/DUKE003314481\"> <em> Clay's Ark </em> </a> (New York; 1984) [DUKE003314481]</p><p><a href=\"https://find.library.duke.edu/catalog/DUKE000241715\"> <em> Mind of My Mind </em> </a> (Garden City, New York; 1977) [DUKE000241715]</p><p><a href=\"https://find.library.duke.edu/catalog/DUKE008109724\"> <em> Patternmaster </em> </a> (Garden City, New York; 1976) [DUKE008109724]</p><p></p></td><td>4/12/2019</td></tr><tr><td><b> <strong> Wyatt Bradford in honor of Jack A. Bradford, BN Scholar (’19) </strong> </b> <b> </b></td><td><span class=\"recordtitle\" data-mce-mark=\"1\"> <a href=\"https://find.library.duke.edu/catalog/DUKE008708037\"> <em> The Hobbit </em> </a> by J.R.R. Tolkein (Boston and New York, 1938). [DUKE008708037] </span></td><td>4/1/2019</td></tr><tr><td><b> <strong> Scott and Kimberly Bradford in honor of Jack A. Bradford, BN Scholar (’19) </strong> </b> <strong> </strong></td><td><span class=\"recordtitle\" data-mce-mark=\"1\"> <a href=\"https://find.library.duke.edu/catalog/DUKE006058327\"> <em> Shakespeare in Harlem </em> </a> , by Langston Hughes (1947) [DUKE006058327] </span></td><td>3/8/2019</td></tr><tr><td><strong> <strong> Kevin A. Klock ('01) </strong> </strong></td><td><a href=\"https://find.library.duke.edu/catalog/DUKE002242048\"> <em> <span class=\"recordtitle\" data-mce-mark=\"1\"> Villette </span> </em> </a> <span class=\"recordtitle\" data-mce-mark=\"1\"> (1853) by Charlotte Bronte. [DUKE002242048] </span></td><td>1/2/2019</td></tr><tr><td><strong> <strong> Joseph Johnson, Jr. (A.B. '70, M.A.T. '71, Ed.D. '78) </strong> </strong></td><td><a href=\"https://search.library.duke.edu/search?id=DUKE000936143\"> <em> <span class=\"recordtitle\" data-mce-mark=\"1\"> Recueil de planches, sur les sciences, les arts liberaux, et les arts mechaniques, avec leur explication... </span> </em> </a> (plate v.5 and 8) by Denis Diderot [DUKE000936143] <span class=\"recordTitle\" data-mce-mark=\"1\"> </span></td><td>11/12/2018</td></tr><tr><td><strong> <strong> Macey Colvin in memory of O. Michael Colvin </strong> </strong></td><td><em> <a href=\"https://search.library.duke.edu/search?id=DUKE003857045\"> The Sound and the Fury </a> , </em> by William Faulkner (1929). [DUKE003857045]</td><td>4/17/2018</td></tr><tr><td><strong> <strong> DUL Conservation Services Dept. </strong> </strong></td><td><em> </em> Conservation Services funded the custom mount for the Nobel Prize medal in the <a href=\"https://search.library.duke.edu/search?id=DUKE002254458#tab5\"> Kenneth Arrow Papers </a> in honor of Bob Byrd upon his retirement from Duke University Libraries.</td><td>4/30/2018</td></tr><tr><td><strong> <strong> Libby McKeever (T'76)(P'09) in honor of Richard H. Montgomery and Jo Ann Montgomery Scully </strong> </strong></td><td><a href=\"https://search.library.duke.edu/search?id=DUKE001488286\"> <em> History of the Indian Tribes of North America, </em> </a> <strong> </strong> by Thomas McKenney and James Hall (1855). [DUKE001488286]</td><td>12/15/2017</td></tr><tr><td><strong> Jan Tore Hall (T'73) in memory of Inger Tavernise </strong></td><td><p><em> <a href=\"https://search.library.duke.edu/search?id=DUKE000435659\"> The North American Indian, </a> &nbsp; </em> by Edward Curtis (1907-1930), portfolio plates. [DUKE000435659]</p></td><td><p>12/6/2017</p></td></tr><tr><td><strong> The Gray Family (P'21) in honor of The California Tribal College </strong></td><td><p><a href=\"https://search.library.duke.edu/search?id=DUKE002396752\"> </a> <em> <a href=\"https://search.library.duke.edu/search?id=DUKE000435659\"> The North American Indian, </a> &nbsp; </em> by Edward Curtis (1907-1930), text volumes. [DUKE000435659]</p></td><td><p>11/21/2017</p></td></tr><tr><td><strong> <strong> Jeff Kosokoff and Laura Bey </strong> </strong></td><td><p><a href=\"https://search.library.duke.edu/search?id=DUKE002396752\"> <em> <em> A Vindication on the Rights of Women </em> </em> <em> <strong> </strong> , </em> </a> by Mary Wollstonecraft (1792). [DUKE002396752] <em> <br> </em></p></td><td><p>11/15/2017</p></td></tr><tr><td><strong> Kevin A. Klock ('01) in honor of his father Douglas M. Klock ('65) </strong></td><td><p><a href=\"https://search.library.duke.edu/search?id=DUKE000219398\"> <em> Paradise Lost, </em> </a> by John Milton (1669). [DUKE000219398]</p></td><td><p>6/21/2017</p></td></tr><tr><td><strong> Maryann (T'82) and Ron Bruce (P'13) </strong></td><td><p><a href=\"https://blogs.library.duke.edu/rubenstein/2016/01/14/11596/\"> Edwin and Terry Murray Comic Book Collection </a> and the <a href=\"/rubenstein/findingaids/comicbooks/\"> Comic Book and Graphic Novel Collection. <br> </a> Titles adopted include: <a href=\"https://search.library.duke.edu/search?id=DUKE007672490\"> Watchmen </a> [DUKE007672490]; <a href=\"https://search.library.duke.edu/search?id=DUKE007540127\"> Justice League of America </a> [DUKE007540127]</p></td><td><p>12/19/2016</p></td></tr><tr><td><p><strong> Bonnie Burrus Corwin (T'82) </strong></p></td><td><p><a href=\"https://search.library.duke.edu/search?id=DUKE003164599\"> <em> </em> </a> <em> <a href=\"https://search.library.duke.edu/search?id=DUKE003164599\"> The Bluest Eye </a> , </em> by Toni Morrison. [DUKE003164599]</p></td><td><p>8/19/2016</p></td></tr><tr><td><strong> Anonymous </strong></td><td><p>This generous gift will support the conservation of numerious materials. As these items come to Conservation, we will add the titles here.</p></td><td><p>11/26/2013-</p><p>7/13/2016</p></td></tr><tr><td><strong> </strong></td><td><p><a href=\"https://search.library.duke.edu/search?id=DUKE002166870\"> <em> Travels into several remote nations of the world </em> , </a> by Jonathan Swift, vols. 1-2. [DUKE002166870] Read about this project <a href=\"https://blogs.library.duke.edu/preservation/2014/06/02/our-first-adopt-a-book-repairs/\"> on Preservation Underground. <em> </em> </a> <a href=\"https://blogs.library.duke.edu/preservation/2014/06/02/our-first-adopt-a-book-repairs/\"> </a></p></td><td></td></tr><tr><td></td><td><p><em> <a href=\"https://search.library.duke.edu/search?id=DUKE000856887\"> Manual of Human Anatomy </a> , </em> by Robert Knox [DUKE000856887].</p></td><td></td></tr><tr><td></td><td><p><a href=\"https://search.library.duke.edu/search?id=DUKE000662895\"> <em> <span class=\"recordtitle\" data-mce-mark=\"1\"> The question of rest for women during menstruation, </span> </em> </a> by Mary Putnam Jacobi [DUKE000662895]</p></td><td></td></tr><tr><td></td><td><p><em> <a href=\"https://search.library.duke.edu/search?id=DUKE000713234\"> Biblia hepta...Libri septem </a> , </em> by Aegineta Paulus [DUKE000713234] <a href=\"https://search.library.duke.edu/search?id=DUKE000662895\"> </a></p></td><td></td></tr><tr><td></td><td><em> <a href=\"https://search.library.duke.edu/search?id=DUKE002812875\"> Woman and her diseases </a> , </em> by Edward H. Dixon [DUKE002812875]</td><td></td></tr><tr><td></td><td><em> <a href=\"https://search.library.duke.edu/search?id=DUKE003474468\"> R.P. Aloysii Novarini Veronensis </a> , </em> by Luigi Novarini [DUKE003474468]</td><td></td></tr><tr><td><strong> </strong></td><td><p><em> <a href=\"https://search.library.duke.edu/search?id=DUKE002521394\"> Sexti libri decratalium... </a> , </em> by Pope Bonafice VIII [DUKE002521394]</p></td><td></td></tr><tr><td></td><td><a href=\"https://search.library.duke.edu/search?id=DUKE001482533\"> <em> The History of Georgia..., </em> </a> by Capt. Hugh McCall; copy 1, vols. 1-2 [DUKE001482533]</td><td></td></tr><tr><td><strong> </strong></td><td><a href=\"https://search.library.duke.edu/search?id=DUKE001369485\"> <em> The Works of the Late Reverend Samuel Johnson, </em> </a> by Samuel Johnson [DUKE001369485]</td><td></td></tr><tr><td></td><td><a href=\"https://search.library.duke.edu/search?id=DUKE000219398\"> <em> Paradise Lost, </em> </a> by John Milton, c.2 [DUKE000219398]</td><td></td></tr><tr><td></td><td><a href=\"https://search.library.duke.edu/search?id=DUKE000561222\"> <em> Fair Warnings to a Careless World, </em> </a> by Josiah Woodward [DUKE000561222]</td><td></td></tr><tr><td></td><td><a href=\"https://search.library.duke.edu/search?id=DUKE000248330\"> <em> Carey's American Pocket Atlas, </em> </a> by Matthew Carey [DUKE000248330]</td><td></td></tr><tr><td></td><td><a href=\"https://search.library.duke.edu/search?id=DUKE000400665\"> <em> Journal of Major George Washingon </em> </a> , by George Washington [DUKE000400665]</td><td></td></tr><tr><td></td><td><a href=\"https://search.library.duke.edu/search?id=DUKE001836318\"> <em> Lives of the Popes </em> </a> , by Platina [DUKE001836318]</td><td></td></tr><tr><td></td><td><a href=\"https://search.library.duke.edu/search?id=DUKE002282236\"> <em> The Annals of the World, </em> </a> by James Ussher [DUKE002282236]</td><td></td></tr><tr><td></td><td><a href=\"https://search.library.duke.edu/search?id=DUKE002172490\"> <em> The History of the Life and Acts of...Edmund Grindal </em> </a> , by John Strype [DUKE002172490]</td><td></td></tr><tr><td></td><td><a href=\"https://search.library.duke.edu/search?id=DUKE003068539\"> <em> Rarum Italicarum..., </em> </a> by Filippo Argelati, et al. [DUKE003068539]</td><td></td></tr><tr><td></td><td><a href=\"https://search.library.duke.edu/search?id=DUKE000279774\"> <em> Journal. North Carolina. General Assembly. House of Representatives. </em> </a> (1789) [DUKE000279774]</td><td></td></tr><tr><td></td><td><a href=\"https://search.library.duke.edu/search?id=DUKE000786652\"> <em> Preclarissium liber completus... </em> </a> , by Alī Ibn Abī al-Rijāl [DUKE000786652]</td><td></td></tr><tr><td></td><td></td><td></td></tr><tr><td><strong> Nancy Ingram Kenderdine in memory of Prof. Elizabeth Bookhout <br> </strong></td><td><p><a href=\"https://search.library.duke.edu/search?id=DUKE000484767\"> <em> The Color Purple, </em> </a> by Alice Walker [DUKE000484767]</p></td><td>4/22/2016</td></tr><tr><td><strong> Teresa and Kevin Klock ('01) in honor of their children John H.D. Klock and Jacob M.T. Klock </strong></td><td><p><a href=\"https://search.library.duke.edu/search?id=DUKE001478489\"> <em> A Picture Book Without Pictures </em> </a> [DUKE001478489] <a href=\"https://search.library.duke.edu/search?id=DUKE003234716\"> </a> and <a href=\"https://search.library.duke.edu/search?id=DUKE002125645\"> <em> Little Rudy and Other Tales </em> </a> [DUKE002125645] by Hans Christian Andersen.</p></td><td>4/3/2016</td></tr><tr><td><p><strong> Andrew Boney (T'04) </strong></p></td><td><p><a href=\"https://search.library.duke.edu/search?id=DUKE006094080\"> <em> Toad of Toad Hall, </em> </a> by A.A. Milne [DUKE006094080]</p></td><td>11/24/2015</td></tr><tr><td><strong> Jeff Kosokoff and Laura Bey </strong></td><td><p><a href=\"https://search.library.duke.edu/search?id=DUKE002129192\"> <em> Der swangern Frawen und Hebammen Roszgarten, </em> </a> by Eucharius Rosslin. [DUKE002129192]</p></td><td>11/23/2015</td></tr><tr><td><strong> Dr. Michael Weiss </strong></td><td><p><a href=\"https://search.library.duke.edu/search?id=DUKE000000633\"> <em> Slaughterhouse-five or The children's </em> crusade, </a> <strong> </strong> by Kurt Vonnegut [DUKE000000633]</p><p><a href=\"https://search.library.duke.edu/search?id=DUKE001332100\"> <em> Brave New World, </em> </a> by Aldous Huxley [DUKE001332100]</p></td><td>10/7/2015</td></tr><tr><td><strong> Nixie Miller in honor of Bill Pitts </strong></td><td><p><em> <a href=\"https://search.library.duke.edu/search?id=DUKE003234716\"> Catch 22 </a> </em> , by Joseph Heller [DUKE003234716]</p></td><td>3/10/2015</td></tr><tr><td><strong> Mrs. Georgeann C Corey in honor of Mr. Michael Lee Corey (T'05) </strong></td><td><p><em> <a href=\"https://search.library.duke.edu/search?id=DUKE001351443\"> Of Mice and Men </a> , </em> <strong> </strong> by John Steinbeck [DUKE001351443]</p><p><em> <a href=\"https://search.library.duke.edu/search?id=DUKE001713727\"> Old Man and the Sea </a> , </em> by Ernest Hemingway [DUKE001713727]</p></td><td>3/10/2015</td></tr><tr><td><strong> Mrs. Georgeann C Corey in memory of Mr. George Nassif Corey (T'69) </strong></td><td><p><a href=\"https://search.library.duke.edu/search?id=DUKE003921889\"> Signed basketball (1992) </a> , Artifacts and Relics Collection, 1830's-ongoing. Duke University Archives. [ <span dir=\"auto\" data-mce-mark=\"1\"> UA98-85; Box 17] [DUKE003921889] </span></p><p><a href=\"https://search.library.duke.edu/search?id=DUKE003205743\"> Proposed design of Duke University </a> <strong> </strong> , drawn by the Horace Trumbauer firm for James B. Duke, 1924. Duke University Archives. [DUKE003205743]</p></td><td>3/9/2015</td></tr><tr><td><strong> Katie Clark ('87) in honor of her mother Pamela Clark </strong></td><td><p><a href=\"https://search.library.duke.edu/search?id=DUKE000936143\"> <em> <span class=\"recordtitle\" data-mce-mark=\"1\"> Recueil de planches, sur les sciences, les arts liberaux, et les arts mechaniques, avec leur explication... </span> </em> </a> (plate v.7) by Denis Diderot [DUKE000936143]</p></td><td>2/1/2015</td></tr><tr><td><strong> Sarah L. Bingham </strong></td><td><p><a href=\"https://search.library.duke.edu/search?id=DUKE000537516\"> <em> Native Son </em> </a> by Richard Wright (1940, first edition) [DUKE000537516] <br> <em> <a href=\"https://search.library.duke.edu/search?id=DUKE000027581\"> The Common Reader </a> , Second Series </em> by Virginia Woolf (1932, first edition) [DUKE000027581]</p></td><td>10/7/2014</td></tr><tr><td><strong> Barbara Bernhard Hanson ('82) </strong></td><td><p><a href=\"https://search.library.duke.edu/search?id=DUKE003857200\"> <em> The Bell Jar </em> </a> by Sylvia Plath [DUKE003857200]</p></td><td>10/6/2014</td></tr><tr><td><strong> Kevin A. Klock ('01) in honor of his father Douglas M. Klock ('65) </strong></td><td><p><em> <a href=\"https://search.library.duke.edu/search?id=DUKE003857078\"> Lord of the Flies </a> , </em> by William Golding [DUKE003857078] <em> <br> </em></p></td><td>9/9/2014</td></tr><tr><td><strong> Jeff Kosokoff and Laura Bey </strong></td><td><p><a href=\"https://search.library.duke.edu/search?id=DUKE003857076\"> <em> <span class=\"recordTitle\" data-mce-mark=\"1\"> Het achterhuis : dagboekbrieven van 12 Juni 1942-1 Augustus 1944 </span> </em> </a> , by Anne Frank. [DUKE003857076]</p></td><td>7/22/2014</td></tr><tr><td><strong> Rebecca Williams </strong></td><td><p><a href=\"https://search.library.duke.edu/search?id=DUKE001989929\"> <em> <span class=\"recordTitle\" data-mce-mark=\"1\"> <em> Geographia vniversalis </em> </span> </em> </a> <span class=\"recordTitle\" data-mce-mark=\"1\"> </span> <span class=\"recordTitle\" data-mce-mark=\"1\"> by Ptolemy (t.1) [DUKE001989929] <br> </span> <a href=\"https://search.library.duke.edu/search?id=DUKE000362924\"> <em> Encyclopédie, ou dictionnaire raisonné des sciences, des arts et des </em> métiers, </a> (v.1) by Denis Diderot [DUKE000362924]</p></td><td>7/18/2014</td></tr><tr><td><p><strong> Ann Beman <br> </strong></p></td><td><p><a href=\"https://search.library.duke.edu/search?id=DUKE003856456\"> <em> Villette <strong> </strong> </em> </a> by Charlotte Bronte [DUKE003856456]</p></td><td>6/28/2014</td></tr><tr><td><p><strong> Robert Joseph Kubek, MD '86 <br> </strong></p></td><td><p><a href=\"https://search.library.duke.edu/search?id=DUKE003258663\"> Edmund M. Cameron Scrapbooks <em> </em> </a></p></td><td>6/24/2014</td></tr><tr><td><p><strong> Barbara Branson <br> </strong></p></td><td><p><a href=\"https://search.library.duke.edu/search?id=DUKE000035394\"> <em> Grapes of Wrath </em> </a> by John Steinbeck [DUKE000035394]</p></td><td>6/18/2014</td></tr><tr><td><p><strong> Will Hansen and Jaime Danehey </strong></p></td><td><p><a href=\"https://search.library.duke.edu/search?id=DUKE000035394\"> <em> </em> </a> <em> <a href=\"https://search.library.duke.edu/search?id=DUKE003246237\"> Phrenological Description of W. Whitman </a> , Age 29 Occupation Printer </em> by L.N. Fowler</p></td><td>4/17/2014</td></tr><tr><td><strong> Lauren Winner <br> </strong></td><td><a href=\"https://search.library.duke.edu/search?id=DUKE002363589\"> <em> Poems on various subjects, religious and moral </em> <strong> <em> </em> </strong> </a> by Phillis Wheatley [DUKE002363589]</td><td>4/11/2014</td></tr><tr><td><strong> Deborah Jakubs and Jim Roberts </strong></td><td><em> <a href=\"https://search.library.duke.edu/search?id=DUKE000035160\"> Catcher In The Rye </a> </em> [DUKE000035160]</td><td>4/10/2014</td></tr><tr><td><strong> Michael McCahill </strong></td><td><a href=\"https://search.library.duke.edu/search?id=DUKE000854590\"> Stephen Fuller Papers </a> [DUKE000854590]</td><td>3/4/2014</td></tr><tr><td><strong> Beth Doyle </strong></td><td><a href=\"https://search.library.duke.edu/search?id=DUKE006035633\"> Greek Manuscript #2 </a> [New Testament Gospel Lectionary] [DUKE006035633]</td><td>2/25/2014</td></tr><tr><td><strong> </strong></td><td></td><td></td></tr></tbody></table></div>",
            "body_format" : "full_html",
            "bundle" : "about_page",
            "delta" : 0,
            "deleted" : 0,
            "langcode" : "und",
            "entity_id" : 155,
            "body_summary" : ""
         },
         "uid" : 69,
         "timestamp" : 1608323911,
         "promote" : 0
      }
   ],
   "type" : "about_page",
   "field_image" : null,
   "uuid" : "a4f1709d-7816-4f3e-b86b-85e371777cea",
   "node__body" : {
      "body_format" : "full_html",
      "bundle" : "about_page",
      "delta" : 0,
      "deleted" : 0,
      "body_value" : "<p><br> <img src=\"https://farm3.staticflickr.com/2434/3821606080_90c3a444d0.jpg\" alt=\"Louisa Whitman manuscript, during treatment\" title=\"Louisa Whitman manuscript, during treatment by DukeUnivLibraries, on Flickr\" class=\"caption-right\" width=\"400\" height=\"300\"> The Duke University Libraries Adopt-A-Book Program gives you the opportunity to support the <a href=\"/about/depts/conservation/\"> conservation </a> of library materials in need of repair. Your gift helps to keep these materials available for current and future faculty, scholars and students.</p><p>Books, manuscripts, moving images, photographs and University Archives materials are available for adoption. An electronic book plate will be put into the item's catalog record to acknowledge your gift. <a href=\"#adopted\"> Adopted items </a> are listed at the bottom of this page.</p><h2>Adoption Process</h2><p>A selection of available items is listed below. Please contact the head of the Conservation Services Department with your adoption choice:</p><p>Beth Doyle, Head of Conservation Services Dept. <br> b.doyle@duke.edu <br> 919-660-5985</p><p>We are happy to honor someone special or recognize a special event such as graduation in the electronic bookplate. If you wish your gift to remain anonymous, we will honor that request.</p><p></p><h2>Adoptable Collection Items</h2><p></p><table class=\"table\" cellspacing=\"5\" border=\"0\" align=\"center\"><tbody><tr><td><img src=\"/sites/default/files/dul/users/beth.doyle/adopt%20a%20box.jpg\" alt=\"Adopt A Box\" style=\"display: block; margin-left: auto; margin-right: auto;\" class=\"img-thumbnail\" width=\"120\" height=\"80\"></td><td><p><strong> Adopt a Box: Conservator's Choice! </strong> With this option, we will choose an item in need of an enclosure and put your name on the electronic bookplate. The staff in the conservation lab make on average 5,000 custom enclosures a year. There is always something in the lab that needs a box. Candidates may come from any part of our collections including Rubenstein Rare Book &amp; Manuscript Library, Duke University Archives, Music Library locked stacks, or Lilly Library locked stacks.&nbsp; <strong> </strong></p></td><td><a href=\"https://www.gifts.duke.edu/library?level=ADOPT_Choice\" target=\"_blank\" class=\"btn btn-primary\"> <strong> Adopt for $150 </strong> </a></td></tr><tr><td style=\"text-align: center;\" width=\"150\"><img src=\"/sites/default/files/dul/users/beth.doyle/wharton.jpg\" width=\"99\" height=\"85\"></td><td><p style=\"color: #ff0000;\"><strong> NEW! </strong></p><strong> </strong><p><span style=\"background-color: #ff0000;\" data-mce-mark=\"1\"> <strong> <em> <strong> </strong> </em> </strong> </span> <a href=\"https://find.library.duke.edu/catalog/DUKE008203807\"> <strong> <em> Old New York </em> </strong> </a> by Edith Wharton (4 volumes, library copy 3) First published in 1924, Wharton's collection of four short novels reveals the customs and social orders of mid-19th-century New York--Novelist.These sweet volumes are part of the <a href=\"https://library.duke.edu/rubenstein/findingaids/?q=Lisa+Unger+Baskin+Collection&amp;scope=all\">Lisa Unger Baskin Collection</a>. They need custom enclosures to protect the beautiful dust jackets.<strong> </strong></p></td><td><a href=\"https://www.gifts.duke.edu/library?level=ADOPT_wharton\" target=\"_blank\" class=\"btn btn-primary\"> <strong> Adopt for $150 </strong> </a></td></tr><tr><td style=\"text-align: center;\" width=\"150\"><img src=\"/sites/default/files/dul/users/beth.doyle/game.jpg\" alt=\"Game of Thrones\" width=\"200\" height=\"104\"></td><td><p><strong> </strong> <em> <strong> Game of Thrones </strong> </em> <strong> </strong> by George R.R. Martin (London, 1996). <a href=\"https://find.library.duke.edu/catalog/DUKE008700255\"> This is book one </a> of Martin's fantasy story of treachery, greed, and war that threatens the unity of the Seven Kingdoms of south of the Wall. This edition is inscribed to Charles N. Brown from the author. Original dust jacket. <strong> </strong> <em> <strong> </strong> </em></p><p><em> <strong> The Left Hand of Darkness </strong> </em> <strong> &nbsp; </strong> by Ursula Le Guin (New York, 1969). <a href=\"https://find.library.duke.edu/catalog/DUKE001477787\"> Le Guin's Hainish series </a> begins with the assumption that centuries ago humanoids from the planet Hain ventured through the solar system establishing colonies on various planets including Earth. This is the first hardcover edition. Original dust jacket. <em> </em></p><p><em> <strong> The Citadel of the Autarch </strong> </em> by Gene Wolfe (New York, 1983). This title i <span data-mce-mark=\"1\"> s the fourth and final volume in the four-volume series The Book of the New Sun. </span> What makes <a href=\"https://find.library.duke.edu/catalog/DUKE000496404\"> this edition interesting </a> is that it has three dust jackets. The original as issued, and an additional two identical dust jackets.</p><p></p><p><em> </em> These three volumes were acquired as part of the <a href=\"https://find.library.duke.edu/catalog/DUKE008630781\"> Locus Science Fiction Foundation Collection. </a> We are adopting these as a set of three individually made <a href=\"https://blogs.library.duke.edu/preservation/2012/03/16/1091-project-making-enclosures/\"> custom corrugated boxes </a> .&nbsp;</p><p>(Rubenstein Rare Book &amp; Manuscript Library)</p></td><td><p><span data-mce-mark=\"1\"><strong>&nbsp;ADOPTED</strong><br></span></p></td></tr><tr><td style=\"text-align: center;\" width=\"150\"><img src=\"/sites/default/files/dul/users/beth.doyle/moon_1.jpg\" alt=\"The Moon is a Harsh Mistress\" width=\"200\" height=\"97\"></td><td><p><strong> <em> The Moon is a Harsh Mistress (c.2) </em> </strong> by Robert A. Heinlein (New York, 1966). Widely considered one of the best science fiction novelists, Robert Heinlein won four Hugo Awards for best novel including one for <a href=\"https://find.library.duke.edu/catalog/DUKE007751028\"> The Moon is a Harsh Mistress </a> . This tale of revolution and rebellion needs a protective enclosure to protect its as-issued publisher's dust jacket. This volume is inscribed to Charles N. and Dena Brown from the author. Original dust jacket.</p><p><strong> <em> Starship Troopers </em> </strong> by Robert A. Heinlein (New York, 1959). <a href=\"https://find.library.duke.edu/catalog/DUKE001290857\"> This military science fiction novel </a> won Heinlein a Hugo Award for Best Novel in 1960. Not without its critics, this novel was influential on many writing genres. Original dust jacket. Signed by the author with inscription.</p><p><em> <strong> The Green Hills of Earth </strong> </em> by Robert A. Heinlein (Chicago, 1951). <a href=\"https://find.library.duke.edu/catalog/DUKE008707928\"> This novel </a> was one of Heinlein's Future History stories that was first published in The Saturday Evening Post. Original dust jacket.</p><p></p><p><strong> </strong> These three volumes were acquired as part of the <a href=\"https://find.library.duke.edu/catalog/DUKE008630781\"> Locus Science Fiction Foundation Collection. </a> We are adopting these as a set of three individually made <a href=\"https://blogs.library.duke.edu/preservation/2012/03/16/1091-project-making-enclosures/\"> custom corrugated boxes</a>.&nbsp;</p><p>(Rubenstein Rare Book &amp; Manuscript Library)</p></td><td><p><span data-mce-mark=\"1\"> <strong> <a href=\"https://www.gifts.duke.edu/library?level=ADOPT_Heinlein\" target=\"_blank\" class=\"btn btn-primary\"> Adopt for $150 </a> </strong> <a> </a> </span></p></td></tr><tr><td width=\"150\"><img src=\"/sites/default/files/dul/users/beth.doyle/medium_no%201.jpg\" style=\"display: block; margin-left: auto; margin-right: auto;\" width=\"120\" height=\"120\"></td><td><strong> </strong><p><em> <strong> No: Classical Theatre of </strong> <strong> Japan&nbsp; </strong> </em> <strong> </strong> by Donald Keene (1966). <a href=\"https://search.library.duke.edu/search?id=DUKE001395956\"> This book is an amazing look </a> into the world of Japanese theatrical tradition. It is in its original publisher's dust jacket and slipcase. However, the original slipcase is cardboard. The problem with slipcases are they can abrade the covers when the book is taken removed and put back into the slipcase. We need to create a custom housing for both the book and its slipcase so that these items remain together, but are both protected from needless wear and tear.</p><p>(Rubenstein Rare Book &amp; Manuscript Library)</p></td><td><p><a href=\"https://www.gifts.duke.edu/library?level=ADOPT_No\" target=\"_blank\" class=\"btn btn-primary\"> <strong> Adopt for $150 </strong> </a></p></td></tr><tr><td style=\"text-align: center;\" width=\"150\"><img src=\"/sites/default/files/dul/users/beth.doyle/moon.jpg\" alt=\"Moon is a Harsh Mistress\" width=\"92\" height=\"134\"></td><td><p><strong> <em> The Moon is a Harsh Mistress </em> , </strong> by Robert A. Heinlein (1966). Widely considered one of the best science fiction novelists, Robert Heinlein won four Hugo Awards for best novel including one for&nbsp; <em> <a href=\"https://search.library.duke.edu/search?id=DUKE007751028\"> The Moon is a Harsh Mistress. </a> </em> This tale of revolution and rebellion needs a protective enclosure to protect its as-issued publisher's dust jacket.</p><p>(Rubenstein Rare Book &amp; Manuscript Library)</p></td><td><p><a href=\"https://www.gifts.duke.edu/library?level=ADOPT_Moon\" target=\"_blank\" class=\"btn btn-primary\"> <strong> Adopt for $150 </strong> </a></p></td></tr><tr><td width=\"150\"><img src=\"/sites/default/files/dul/users/beth.doyle/naked.jpg\" alt=\"Naked and the Dead\" style=\"display: block; margin-left: auto; margin-right: auto;\" width=\"99\" height=\"135\"></td><td><strong> </strong><p><em> <strong> The Naked and the Dead </strong> </em> , by Norman Mailer (1948). <a href=\"https://search.library.duke.edu/search?id=DUKE001499518\"> This book </a> recalls Mailer's military service in the Phillapines in World War II. The novel was later adapted into a film. The original New Yorker critique of the novel can be <a href=\"https://www.nytimes.com/books/97/05/04/reviews/mailer-dead.html\"> found online</a>. This book needs an enclosure to keep the original dust jacket protected.</p><p>(Rubenstein Rare Book &amp; Manuscript Library)</p><p style=\"color: #ff0000;\"></p></td><td><p><a href=\"https://www.gifts.duke.edu/library?level=ADOPT_Naked\" target=\"_blank\" class=\"btn btn-primary\"> <strong> Adopt for $150 </strong> </a></p></td></tr><tr><td width=\"150\"><img src=\"/sites/default/files/dul/users/beth.doyle/dune.jpg\" style=\"display: block; margin-left: auto; margin-right: auto;\" width=\"95\" height=\"140\"></td><td><p style=\"color: #ff0000;\"><strong> NEW! </strong></p><strong> <em> Dune, </em> </strong> by Frank Herbert (1965). This book is part of the <a href=\"https://library.duke.edu/rubenstein/findingaids/locussciencefictionfoundation/\"> Locus Science Fiction Foundation Collection </a> and is inscribed by the author. Set on a desert planet, <em> Dune </em> is a future space fantasy concerning a time when the human race has reached a point of intellectual stagnation and receives the help of a space-age Messiah and prophet. Fun fact: the <span class=\"ILfuVd\" data-mce-mark=\"1\"> <span class=\"e24Kjd\" data-mce-mark=\"1\"> Denis Villeneuve's adaptation of <em> Dune </em> the movie will be released at the end of 2020. </span> </span> <strong> </strong></td><td><span class=\"btn btn-primary\">&nbsp; <strong></strong></span><strong>ADOPTED!</strong></td></tr><tr><td width=\"150\"><img src=\"/sites/default/files/dul/users/beth.doyle/man_in_high_castle.jpg\" style=\"display: block; margin-left: auto; margin-right: auto;\" width=\"99\" height=\"145\"></td><td><p style=\"color: #ff0000;\"><strong> NEW! </strong></p><strong> Man in the High Castle, </strong> <strong> </strong> by Philip K. Dick. Every great TV series began as a book. Adopt the original! <a href=\"https://find.library.duke.edu/catalog/DUKE000077856\"> This novel </a> ponders life in America against the background of a globe controlled by Germany and Japan--a novel of our world as it might have been. This book is part of the <a href=\"https://library.duke.edu/rubenstein/findingaids/locussciencefictionfoundation/\"> Locus Science Fiction Foundation Collection </a> . <br><p style=\"color: #ff0000;\"></p></td><td><a href=\"https://www.gifts.duke.edu/library?level=ADOPT_castle\" target=\"_blank\" class=\"btn btn-primary\"> <strong> Adopt for $200 </strong> </a></td></tr><tr><td width=\"150\"><img src=\"/sites/default/files/dul/users/beth.doyle/silver.jpg\" style=\"display: block; margin-left: auto; margin-right: auto;\" width=\"99\" height=\"140\"></td><td><p style=\"color: #ff0000;\"><strong> NEW! </strong></p><em> <strong> A Game of </strong> </em> <strong> <em> Thrones </em> </strong> , by George R.R. Martin (1996). Winter is coming, and you should adopt this book. <a href=\"https://find.library.duke.edu/catalog/DUKE008700237\"> This one is unusal </a> as it is accompanied by an early version of dust jacket illustrated by Stephen Youll, with border designed by Ron Zim; the jacket design is by Jamie S. Warren Youll. This book is part of the Locus Science Fiction Foundation Collection.<p style=\"color: #ff0000;\"></p></td><td><a href=\"https://www.gifts.duke.edu/library?level=ADOPT_thrones\" target=\"_blank\" class=\"btn btn-primary\"> <strong> Adopt for $200 </strong> </a></td></tr><tr><td style=\"text-align: center;\" width=\"150\"><img src=\"/sites/default/files/dul/users/beth.doyle/mclanahan_bindings_ba.jpg\" width=\"200\" height=\"197\"></td><td><p style=\"color: #ff0000;\"><strong> NEW! </strong></p><p><strong> H. McLanahan bindings (set 1). </strong> These may all be written by Bernard Shaw, but the McLanahan bindings are what make these books stunning. They need simple four-flap boxes to protect the delicate goold toolsing. The nine books are: <strong> </strong></p><p itemprop=\"name\"><a href=\"https://find.library.duke.edu/catalog/DUKE008900805\"> <em> The philanderer : a topical comedy of the year 1893 </em> </a> (B. Shaw) <br> <a href=\"https://find.library.duke.edu/catalog/DUKE008916007\"> <em> Man of Destiny: a trifle </em> </a> (B. Shaw) <br> <a href=\"https://find.library.duke.edu/catalog/DUKE008900813\"> <em> Arms and the man : an anti-romantic comedy in three acts </em> </a> (B. Shaw) <br> <a href=\"https://find.library.duke.edu/catalog/DUKE008916015\"> <em> Candida: a mystery </em> </a> (B. Shaw) <br> <a href=\"https://find.library.duke.edu/catalog/DUKE008916018\"> <em> Captain Brassbound's Conversion: and adventure </em> </a> (B. Shaw) <br> <em> <a href=\"https://find.library.duke.edu/catalog/DUKE008915589\"> John Bull's Other Island: in four acts </a> </em> (B. Shaw) <br> <em> <a href=\"https://find.library.duke.edu/catalog/DUKE008887615\"> Overruled; &amp; The darkl ady of the sonnets </a> </em> (B. Shaw) <br> <a href=\"https://find.library.duke.edu/catalog/DUKE008901591\"> <em> How He Lied to her Husband; Admirable Bashville </em> </a> (B. Shaw) <br> <em> <a href=\"https://find.library.duke.edu/catalog/DUKE008916021\"> Major Barbara: in three acts </a> </em> (B. Shaw)</p><p itemprop=\"name\"></p><p itemprop=\"name\"></p></td><td><a href=\"https://www.gifts.duke.edu/library?level=ADOPT_mcl1\" target=\"_blank\" class=\"btn btn-primary\"> <strong> Adopt set of 9 for $300 </strong> </a></td></tr><tr><td style=\"text-align: center;\" width=\"150\"><img src=\"/sites/default/files/dul/users/beth.doyle/img_4694.jpg\" width=\"200\" height=\"184\"></td><td><p style=\"color: #ff0000;\"><strong> NEW! </strong></p><p><strong> H. McLanahan bindings (set 2). </strong> These beautiful bindings are by H. McLanahan and arguably the best thing about these nine novels by Bernard Shaw. They need simple four-flap boxes to protect the delicate goold toolsing. The nine books are:</p><p itemprop=\"name\"><a href=\"https://find.library.duke.edu/catalog/DUKE008916037\"> <em> The Devil's Disciple: A melodrama in three acts </em> </a> (B. Shaw) <br> <a href=\"https://find.library.duke.edu/catalog/DUKE008916023\"> <em> Widower's Houses: A play </em> </a> (B. Shaw) <br> <a href=\"https://find.library.duke.edu/catalog/DUKE008916377\"> <em> Ceasar and Cleopatra: A history </em> </a> (B. Shaw) <br> <a href=\"https://find.library.duke.edu/catalog/DUKE008921645\"> <em> Fanny's First Play: An easy play for a little theatre </em> </a> (B. Shaw) <br> <a href=\"https://find.library.duke.edu/catalog/DUKE008921766\"> <em> The shewing-up of Blanco Posnet : a sermon in crude melodrama </em> </a> (B. Shaw) <br> <em> <a href=\"https://find.library.duke.edu/catalog/DUKE008921754\"> Androcles and the Lion: A fable play </a> </em> (B. Shaw) <br> <a href=\"https://find.library.duke.edu/catalog/DUKE008921773\"> <em> The Doctor's Dillema: A tragedy </em> </a> (B. Shaw) <br> <a href=\"https://find.library.duke.edu/catalog/DUKE008916378\"> <em> Mrs. Warren's Profession: A play in four acts </em> </a> (B. Shaw) <br> <em> <a href=\"https://find.library.duke.edu/catalog/DUKE008921643\"> You Never Can Tell: A comedy in four acts </a> </em> (B. Shaw)</p><p></p></td><td><a href=\"https://www.gifts.duke.edu/library?level=ADOPT_mcl2\" target=\"_blank\" class=\"btn btn-primary\"> <strong> Adopt set of 9 for $300 </strong> </a></td></tr><tr><td style=\"text-align: center;\" width=\"150\"><img src=\"/sites/default/files/dul/users/beth.doyle/children.jpg\" alt=\"Children and Gardens\" width=\"200\" height=\"98\"></td><td><p><a href=\"https://find.library.duke.edu/catalog/DUKE008738069\"> Children and Gardens by Gertrude Jekyll </a> (London, 1933). Jekyll was a British horticulturist, garden designer, writer, and artist. She created over 400 gardens in the UK, Europe, and the US. This volume includes instructions on gardening written for children (and their adults); recipes; and illustrations including Ms. Jekyll's cat.</p><p><a href=\"https://find.library.duke.edu/catalog/DUKE000253613\"> Chinese Women Speak by Dymphna Cusack </a> (Sydney, 1958). This is Cusack's account of her travels in China in the mid 1950's. Valuable for its verbatim reports of her interviews with Chinese women.</p><p><a href=\"D05162698.\"> New Plays for Women and Girls by Samuel French LTD </a> (New York, Los Angeles, London, 1932). This volume contains fifteen one-act plays.</p><p>These three volumes were acquired as part of the Lisa Unger Baskin Collection . Each book's dust jacket needs some conservation treatment to stabilize small tears. They also need a custom corrugated box to protect the bindings.</p><p>(Rubenstein Rare Book &amp; Manuscript Library)</p></td><td><a href=\"https://www.gifts.duke.edu/library?level=ADOPT_Children\" target=\"_blank\" class=\"btn btn-primary\"> <strong> Adopt for $300 </strong> </a></td></tr><tr><td width=\"150\"><img src=\"/sites/default/files/dul/users/beth.doyle/diderot4_0.jpg\" alt=\"Diderot\" style=\"display: block; margin-left: auto; margin-right: auto;\" class=\"img-thumbnail\" width=\"102\" height=\"136\"></td><td><p>Encyclopédie, ou dictionnaire raisonné des sciences, des arts et des métiers , published 1751-72, by Denis Diderot. This is the first encyclopedia to have the contents organized by human thought rather than by nature or theology. This publication was considered innovative in part because it emphasized the mechanical arts, and it named the various authors that contributed content. This complete set contains 70 volumes of text, illustrations and supplements. Each volume needs a custom-made enclosure and many need minor repair to the texts and foldouts. [ <a href=\"https://find.library.duke.edu/catalog/DUKE000362924\"> Text volumes </a> ] [ <a href=\"https://find.library.duke.edu/catalog/DUKE000936143\"> Plate volumes </a> ]</p><p>61 of 70 volumes available for adoption</p><p>(Rubenstein Rare Book &amp; Manuscript Library)</p></td><td><a href=\"https://www.gifts.duke.edu/library?level=ADOPT_Encyclopedie\" target=\"_blank\" class=\"btn btn-primary\"> <strong> Adopt for $300 per volume </strong> </a><p><strong>Adopted:</strong> <br> T. 1 <br>T. 10<br>T. 13<br>Plate v. 1 <br> Plate v. 2 <br> Plate v. 5 <br> Plate v.7 <br> Plate v. 8 <br> Plate v. 11<br><br></p></td></tr><tr><td width=\"150\"><img src=\"/sites/default/files/dul/users/beth.doyle/adopt_dreiser.jpg\" alt=\"American Tragedy\" style=\"display: block; margin-left: auto; margin-right: auto;\" class=\"img-thumbnail\" width=\"150\" height=\"129\"></td><td><p><a href=\"https://find.library.duke.edu/catalog/DUKE000072227\"> <span class=\"recordTitle\" data-mce-mark=\"1\"> An American Tragedy </span> <span class=\"recordTitle\" data-mce-mark=\"1\"> by Theodore Dreiser </span> </a> <span class=\"recordTitle\" data-mce-mark=\"1\"> (1925, first edition). Loosely based on real events this story follows Clive Griffiths, a son of two misionaries, who takes a job as a bell hop then in a factory. After making several poor choices he ends up on trial for murder. This two-volume set has some prior repairs that are damaging the original dust jackets. The original publishers slip case is damaging the books, so an enclosure that houses the books and slip case will be made so that all three pieces are protected. <br> </span></p><p>(Rubenstein Rare Book &amp; Manuscript Library)</p></td><td><strong>ADOPTED!</strong></td></tr><tr><td style=\"text-align: center;\"><img src=\"/sites/default/files/dul/users/beth.doyle/medium_dante.jpg\" alt=\"Dante\" width=\"120\" height=\"120\"></td><td><p><a href=\"https://find.library.duke.edu/catalog/DUKE001813767\"> Dante con lespositione di Christoforo Landino [c.2] </a> , by Dante Alighieri (1564) Illustrated with the woodcuts from Marcolini's edition of 1544. This is also the first appearance of AB's woodcut portrait of Dante. This book's headcaps are damaged and the front board is off. It also needs a custom enclosure to protect the fragile binding.</p><p>(Rubenstein Rare Book &amp; Manuscript Library)</p></td><td><a href=\"https://www.gifts.duke.edu/library?level=ADOPT_Dante2\" target=\"_blank\" class=\"btn btn-primary\"> <strong> Adopt for $300 </strong> </a></td></tr><tr><td><img src=\"/sites/default/files/dul/users/beth.doyle/Photo%209.jpg\" alt=\"Audubon\" style=\"display: block; margin-left: auto; margin-right: auto;\" class=\"img-thumbnail\" width=\"97\" height=\"128\"></td><td><p><a href=\"https://find.library.duke.edu/catalog/DUKE001532337\"> Birds of America by John James Audubon </a> . These are stunning double elephant folios printed from 1827–1803. This set contains four volumes. Three volumes need full conservation attention to repair the broken and loose sewing and boards before the damage becomes so severe they cannot be used.</p><p>3 of 3 volumes available for adoption.</p><p>(Rubenstein Rare Book &amp; Manuscript Library)</p></td><td><a href=\"https://www.gifts.duke.edu/library?level=ADOPT_Audubon\" target=\"_blank\" class=\"btn btn-primary\"> <strong> Adopt for $30,000 per volume </strong> </a></td></tr></tbody></table><h2><a name=\"adopted\" id=\"adopted\"></a> Adopted Books</h2><p><strong> To see your electronic bookplate, click on the title link then scroll down to \"Local Notes.\"&nbsp; </strong></p><div class=\"table-responsive\"><table class=\"table\"><tbody><tr><th width=\"20%\"><span data-mce-mark=\"1\"> <strong> DONOR </strong> </span></th><th><span data-mce-mark=\"1\"> <strong> TITLE OF WORK OR COLLECTION </strong> </span></th><th><span data-mce-mark=\"1\"> <strong> ADOPTED </strong> </span></th></tr><tr><td><strong>Funded by the Strategic Initiatives team in honor of Barbara Collins</strong></td><td><p><a href=\"https://find.library.duke.edu/catalog/DUKE008922727\">Lectures on Art&nbsp;</a>, by John Ruskin [DUKE008922727].</p><p><a href=\"https://find.library.duke.edu/catalog/DUKE008922953\">Ionica&nbsp;</a>, by William Johnson Corey [DUKE008922953]</p><p><a href=\"https://find.library.duke.edu/catalog/DUKE008923076\">The Vision, or Hell, Purgatory, and Paradise of Dante Alighieri,</a>&nbsp;by Rev. Henry Francis Cary, M.A. [DUKE008923076]</p><p itemprop=\"name\"><a href=\"https://find.library.duke.edu/catalog/DUKE008922761\">Les confessions de J.-J. Rousseau</a>, by Jean-Jacques Rousseau [DUKE008922761].</p><p itemprop=\"name\"><a href=\"https://find.library.duke.edu/catalog/DUKE008923090\">The Aeneids of Virgil done into English Verse by William Morris</a>, by Virgil [DUKE008923090].</p></td><td>9/27/2020</td></tr><tr><td><strong><strong>Joseph Johnson, Jr. (A.B. '70, M.A.T. '71, Ed.D. '78)</strong></strong></td><td><p><a href=\"https://search.library.duke.edu/catalog/DUKE000936143\" style=\"text-decoration-line: underline;\"><em><em><span class=\"recordtitle\">Recueil de planches, sur les sciences, les arts liberaux, et les arts mechaniques, avec leur explication...&nbsp;</span></em></em></a><span class=\"recordtitle\">(text volumes 10 and 13) by Denis Diderot&nbsp;</span><em><em><span class=\"recordtitle\"></span></em></em><br><span class=\"recordtitle\">[<span style=\"font-size: 11.0pt; font-family: 'Calibri',sans-serif; mso-fareast-font-family: Calibri; mso-fareast-theme-font: minor-latin; mso-ansi-language: EN-US; mso-fareast-language: EN-US; mso-bidi-language: AR-SA;\">DUKE000362924</span>]<br><br><a href=\"https://find.library.duke.edu/catalog/DUKE000072227\"><span class=\"recordTitle\" data-mce-mark=\"1\">An American Tragedy&nbsp;</span><span class=\"recordTitle\" data-mce-mark=\"1\">by Theodore Dreiser</span></a>&nbsp;[DUKE000072227]</span></p></td><td>9/15/2020</td></tr><tr><td><b>In honor of Dan Wiercioch</b></td><td><p><em></em>Mark Twain</p><p><em><a href=\"https://find.library.duke.edu/catalog/DUKE000111073\">Tom Sawyer Abroad [DUKE000111073]</a><br></em></p><p><a href=\"https://find.library.duke.edu/catalog/DUKE000504276\"><em>The Guilded Age [DUKE000504276]</em></a></p><p><a href=\"https://find.library.duke.edu/catalog/DUKE005197823\"><em>The Innocents Abroad [DUKE005197823] </em></a></p></td><td>1/17/2020</td></tr><tr><td><b> <strong> <strong> <strong> Megan Crain in honor of Stephen G. Crain (G'16) <br> </strong> </strong> </strong> </b></td><td><em> <em> <span class=\"recordtitle\" data-mce-mark=\"1\"> <em> </em> </span> </em> <span class=\"recordtitle\" data-mce-mark=\"1\"> <a href=\"https://find.library.duke.edu/catalog/DUKE003251554\"> Salem's Lot [DUKE003251554] </a> , <a href=\"https://find.library.duke.edu/catalog/DUKE000070744\"> Stranger in a Strange Land [DUKE000070744] </a> , <a href=\"https://find.library.duke.edu/catalog/DUKE003251548\"> The Shining [DUKE003251548] </a> </span> </em> <span class=\"recordtitle\" data-mce-mark=\"1\"> , by Stephen King. </span> <span class=\"recordtitle\" data-mce-mark=\"1\"> </span></td><td>11/15/2019</td></tr><tr><td><b> <strong> <strong> <strong> Georgeann C. Corey and George Corey (T'69) in honor of Elijah George Corey. </strong> </strong> </strong> </b></td><td><p><a href=\"https://find.library.duke.edu/catalog/DUKE000217905\"> <em> <em> <span class=\"recordtitle\" data-mce-mark=\"1\"> <em> The Naturalist's Library </em> </span> </em> </em> </a> <span class=\"recordtitle\" data-mce-mark=\"1\"> by William Jardine (1835-1843) </span> <em> <em> <span class=\"recordtitle\" data-mce-mark=\"1\"> . </span> </em> </em> [DUKE000217905] 7 vol. <br> <em> <a href=\"https://find.library.duke.edu/catalog/DUKE000309601\"> The Naturalist's Library: Ichthyology </a> </em> [DUKE000309601] 6 vol. <br> <em> <a href=\"https://find.library.duke.edu/catalog/DUKE000363217\"> The Naturalist's Library: Mammalia </a> </em> &nbsp; [DUKE000363217] 13 vol. <br> <em> <a href=\"https://find.library.duke.edu/catalog/DUKE000363589\"> The Naturalist's Library: Ornithology </a> </em> [DUKE000363589] 14 vol.</p></td><td>11/6/2019</td></tr><tr><td><b> <strong> <strong> <strong> Joseph Johnson, Jr. (A.B. '70, M.A.T. '71, Ed.D. '78) </strong> </strong> </strong> </b></td><td><a href=\"https://find.library.duke.edu/catalog/DUKE002197330\"> </a> <a href=\"https://search.library.duke.edu/catalog/DUKE000936143\"> <em> <em> <span class=\"recordtitle\" data-mce-mark=\"1\"> Recueil de planches, sur les sciences, les arts liberaux, et les arts mechaniques, avec leur explication... </span> </em> </em> </a> <span class=\"recordtitle\" data-mce-mark=\"1\"> (plate volumes 1, 2, and 11) by Denis Diderot </span> <em> <em> <span class=\"recordtitle\" data-mce-mark=\"1\"> </span> </em> </em> <br> <span class=\"recordtitle\" data-mce-mark=\"1\"> [DUKE000936143] </span></td><td>9/16/2019</td></tr><tr><td><b> <strong> Lesley Looper ('86) in memory of LaNelle Edwards Looper ('53, '55) </strong> </b></td><td><em> <a href=\"https://find.library.duke.edu/catalog/DUKE002197330\"> Broadway Theatres Posters </a> </em> by Wendy Nelson-Cave (New York, N.Y. : Smithmark, c1993) [DUKE002197330]</td><td>6/25/19</td></tr><tr><td><b> <strong> Kim Reed in honor of Professor Victor Strandberg <br> </strong> </b></td><td><em> <a href=\"https://find.library.duke.edu/catalog/DUKE008699170\"> Lord of the Rings (v. 1-3) </a> </em> by J.R.R. Tolkein (London, 1954-1955).&nbsp; [DUKE008699170]</td><td>4/12/19</td></tr><tr><td><b> Dracine Hodges <br> </b></td><td>By Octavia Butler<p><a href=\"https://find.library.duke.edu/catalog/DUKE008109809\"> <em> </em> </a> <a href=\"https://find.library.duke.edu/catalog/DUKE008109809\"> <em> Wild Seed </em> </a> (Garden City, New York; 1980) [DUKE008109809]</p><p><a href=\"https://find.library.duke.edu/catalog/DUKE003314481\"> <em> Clay's Ark </em> </a> (New York; 1984) [DUKE003314481]</p><p><a href=\"https://find.library.duke.edu/catalog/DUKE000241715\"> <em> Mind of My Mind </em> </a> (Garden City, New York; 1977) [DUKE000241715]</p><p><a href=\"https://find.library.duke.edu/catalog/DUKE008109724\"> <em> Patternmaster </em> </a> (Garden City, New York; 1976) [DUKE008109724]</p><p></p></td><td>4/12/2019</td></tr><tr><td><b> <strong> Wyatt Bradford in honor of Jack A. Bradford, BN Scholar (’19) </strong> </b> <b> </b></td><td><span class=\"recordtitle\" data-mce-mark=\"1\"> <a href=\"https://find.library.duke.edu/catalog/DUKE008708037\"> <em> The Hobbit </em> </a> by J.R.R. Tolkein (Boston and New York, 1938). [DUKE008708037] </span></td><td>4/1/2019</td></tr><tr><td><b> <strong> Scott and Kimberly Bradford in honor of Jack A. Bradford, BN Scholar (’19) </strong> </b> <strong> </strong></td><td><span class=\"recordtitle\" data-mce-mark=\"1\"> <a href=\"https://find.library.duke.edu/catalog/DUKE006058327\"> <em> Shakespeare in Harlem </em> </a> , by Langston Hughes (1947) [DUKE006058327] </span></td><td>3/8/2019</td></tr><tr><td><strong> <strong> Kevin A. Klock ('01) </strong> </strong></td><td><a href=\"https://find.library.duke.edu/catalog/DUKE002242048\"> <em> <span class=\"recordtitle\" data-mce-mark=\"1\"> Villette </span> </em> </a> <span class=\"recordtitle\" data-mce-mark=\"1\"> (1853) by Charlotte Bronte. [DUKE002242048] </span></td><td>1/2/2019</td></tr><tr><td><strong> <strong> Joseph Johnson, Jr. (A.B. '70, M.A.T. '71, Ed.D. '78) </strong> </strong></td><td><a href=\"https://search.library.duke.edu/search?id=DUKE000936143\"> <em> <span class=\"recordtitle\" data-mce-mark=\"1\"> Recueil de planches, sur les sciences, les arts liberaux, et les arts mechaniques, avec leur explication... </span> </em> </a> (plate v.5 and 8) by Denis Diderot [DUKE000936143] <span class=\"recordTitle\" data-mce-mark=\"1\"> </span></td><td>11/12/2018</td></tr><tr><td><strong> <strong> Macey Colvin in memory of O. Michael Colvin </strong> </strong></td><td><em> <a href=\"https://search.library.duke.edu/search?id=DUKE003857045\"> The Sound and the Fury </a> , </em> by William Faulkner (1929). [DUKE003857045]</td><td>4/17/2018</td></tr><tr><td><strong> <strong> DUL Conservation Services Dept. </strong> </strong></td><td><em> </em> Conservation Services funded the custom mount for the Nobel Prize medal in the <a href=\"https://search.library.duke.edu/search?id=DUKE002254458#tab5\"> Kenneth Arrow Papers </a> in honor of Bob Byrd upon his retirement from Duke University Libraries.</td><td>4/30/2018</td></tr><tr><td><strong> <strong> Libby McKeever (T'76)(P'09) in honor of Richard H. Montgomery and Jo Ann Montgomery Scully </strong> </strong></td><td><a href=\"https://search.library.duke.edu/search?id=DUKE001488286\"> <em> History of the Indian Tribes of North America, </em> </a> <strong> </strong> by Thomas McKenney and James Hall (1855). [DUKE001488286]</td><td>12/15/2017</td></tr><tr><td><strong> Jan Tore Hall (T'73) in memory of Inger Tavernise </strong></td><td><p><em> <a href=\"https://search.library.duke.edu/search?id=DUKE000435659\"> The North American Indian, </a> &nbsp; </em> by Edward Curtis (1907-1930), portfolio plates. [DUKE000435659]</p></td><td><p>12/6/2017</p></td></tr><tr><td><strong> The Gray Family (P'21) in honor of The California Tribal College </strong></td><td><p><a href=\"https://search.library.duke.edu/search?id=DUKE002396752\"> </a> <em> <a href=\"https://search.library.duke.edu/search?id=DUKE000435659\"> The North American Indian, </a> &nbsp; </em> by Edward Curtis (1907-1930), text volumes. [DUKE000435659]</p></td><td><p>11/21/2017</p></td></tr><tr><td><strong> <strong> Jeff Kosokoff and Laura Bey </strong> </strong></td><td><p><a href=\"https://search.library.duke.edu/search?id=DUKE002396752\"> <em> <em> A Vindication on the Rights of Women </em> </em> <em> <strong> </strong> , </em> </a> by Mary Wollstonecraft (1792). [DUKE002396752] <em> <br> </em></p></td><td><p>11/15/2017</p></td></tr><tr><td><strong> Kevin A. Klock ('01) in honor of his father Douglas M. Klock ('65) </strong></td><td><p><a href=\"https://search.library.duke.edu/search?id=DUKE000219398\"> <em> Paradise Lost, </em> </a> by John Milton (1669). [DUKE000219398]</p></td><td><p>6/21/2017</p></td></tr><tr><td><strong> Maryann (T'82) and Ron Bruce (P'13) </strong></td><td><p><a href=\"https://blogs.library.duke.edu/rubenstein/2016/01/14/11596/\"> Edwin and Terry Murray Comic Book Collection </a> and the <a href=\"/rubenstein/findingaids/comicbooks/\"> Comic Book and Graphic Novel Collection. <br> </a> Titles adopted include: <a href=\"https://search.library.duke.edu/search?id=DUKE007672490\"> Watchmen </a> [DUKE007672490]; <a href=\"https://search.library.duke.edu/search?id=DUKE007540127\"> Justice League of America </a> [DUKE007540127]</p></td><td><p>12/19/2016</p></td></tr><tr><td><p><strong> Bonnie Burrus Corwin (T'82) </strong></p></td><td><p><a href=\"https://search.library.duke.edu/search?id=DUKE003164599\"> <em> </em> </a> <em> <a href=\"https://search.library.duke.edu/search?id=DUKE003164599\"> The Bluest Eye </a> , </em> by Toni Morrison. [DUKE003164599]</p></td><td><p>8/19/2016</p></td></tr><tr><td><strong> Anonymous </strong></td><td><p>This generous gift will support the conservation of numerious materials. As these items come to Conservation, we will add the titles here.</p></td><td><p>11/26/2013-</p><p>7/13/2016</p></td></tr><tr><td><strong> </strong></td><td><p><a href=\"https://search.library.duke.edu/search?id=DUKE002166870\"> <em> Travels into several remote nations of the world </em> , </a> by Jonathan Swift, vols. 1-2. [DUKE002166870] Read about this project <a href=\"https://blogs.library.duke.edu/preservation/2014/06/02/our-first-adopt-a-book-repairs/\"> on Preservation Underground. <em> </em> </a> <a href=\"https://blogs.library.duke.edu/preservation/2014/06/02/our-first-adopt-a-book-repairs/\"> </a></p></td><td></td></tr><tr><td></td><td><p><em> <a href=\"https://search.library.duke.edu/search?id=DUKE000856887\"> Manual of Human Anatomy </a> , </em> by Robert Knox [DUKE000856887].</p></td><td></td></tr><tr><td></td><td><p><a href=\"https://search.library.duke.edu/search?id=DUKE000662895\"> <em> <span class=\"recordtitle\" data-mce-mark=\"1\"> The question of rest for women during menstruation, </span> </em> </a> by Mary Putnam Jacobi [DUKE000662895]</p></td><td></td></tr><tr><td></td><td><p><em> <a href=\"https://search.library.duke.edu/search?id=DUKE000713234\"> Biblia hepta...Libri septem </a> , </em> by Aegineta Paulus [DUKE000713234] <a href=\"https://search.library.duke.edu/search?id=DUKE000662895\"> </a></p></td><td></td></tr><tr><td></td><td><em> <a href=\"https://search.library.duke.edu/search?id=DUKE002812875\"> Woman and her diseases </a> , </em> by Edward H. Dixon [DUKE002812875]</td><td></td></tr><tr><td></td><td><em> <a href=\"https://search.library.duke.edu/search?id=DUKE003474468\"> R.P. Aloysii Novarini Veronensis </a> , </em> by Luigi Novarini [DUKE003474468]</td><td></td></tr><tr><td><strong> </strong></td><td><p><em> <a href=\"https://search.library.duke.edu/search?id=DUKE002521394\"> Sexti libri decratalium... </a> , </em> by Pope Bonafice VIII [DUKE002521394]</p></td><td></td></tr><tr><td></td><td><a href=\"https://search.library.duke.edu/search?id=DUKE001482533\"> <em> The History of Georgia..., </em> </a> by Capt. Hugh McCall; copy 1, vols. 1-2 [DUKE001482533]</td><td></td></tr><tr><td><strong> </strong></td><td><a href=\"https://search.library.duke.edu/search?id=DUKE001369485\"> <em> The Works of the Late Reverend Samuel Johnson, </em> </a> by Samuel Johnson [DUKE001369485]</td><td></td></tr><tr><td></td><td><a href=\"https://search.library.duke.edu/search?id=DUKE000219398\"> <em> Paradise Lost, </em> </a> by John Milton, c.2 [DUKE000219398]</td><td></td></tr><tr><td></td><td><a href=\"https://search.library.duke.edu/search?id=DUKE000561222\"> <em> Fair Warnings to a Careless World, </em> </a> by Josiah Woodward [DUKE000561222]</td><td></td></tr><tr><td></td><td><a href=\"https://search.library.duke.edu/search?id=DUKE000248330\"> <em> Carey's American Pocket Atlas, </em> </a> by Matthew Carey [DUKE000248330]</td><td></td></tr><tr><td></td><td><a href=\"https://search.library.duke.edu/search?id=DUKE000400665\"> <em> Journal of Major George Washingon </em> </a> , by George Washington [DUKE000400665]</td><td></td></tr><tr><td></td><td><a href=\"https://search.library.duke.edu/search?id=DUKE001836318\"> <em> Lives of the Popes </em> </a> , by Platina [DUKE001836318]</td><td></td></tr><tr><td></td><td><a href=\"https://search.library.duke.edu/search?id=DUKE002282236\"> <em> The Annals of the World, </em> </a> by James Ussher [DUKE002282236]</td><td></td></tr><tr><td></td><td><a href=\"https://search.library.duke.edu/search?id=DUKE002172490\"> <em> The History of the Life and Acts of...Edmund Grindal </em> </a> , by John Strype [DUKE002172490]</td><td></td></tr><tr><td></td><td><a href=\"https://search.library.duke.edu/search?id=DUKE003068539\"> <em> Rarum Italicarum..., </em> </a> by Filippo Argelati, et al. [DUKE003068539]</td><td></td></tr><tr><td></td><td><a href=\"https://search.library.duke.edu/search?id=DUKE000279774\"> <em> Journal. North Carolina. General Assembly. House of Representatives. </em> </a> (1789) [DUKE000279774]</td><td></td></tr><tr><td></td><td><a href=\"https://search.library.duke.edu/search?id=DUKE000786652\"> <em> Preclarissium liber completus... </em> </a> , by Alī Ibn Abī al-Rijāl [DUKE000786652]</td><td></td></tr><tr><td></td><td></td><td></td></tr><tr><td><strong> Nancy Ingram Kenderdine in memory of Prof. Elizabeth Bookhout <br> </strong></td><td><p><a href=\"https://search.library.duke.edu/search?id=DUKE000484767\"> <em> The Color Purple, </em> </a> by Alice Walker [DUKE000484767]</p></td><td>4/22/2016</td></tr><tr><td><strong> Teresa and Kevin Klock ('01) in honor of their children John H.D. Klock and Jacob M.T. Klock </strong></td><td><p><a href=\"https://search.library.duke.edu/search?id=DUKE001478489\"> <em> A Picture Book Without Pictures </em> </a> [DUKE001478489] <a href=\"https://search.library.duke.edu/search?id=DUKE003234716\"> </a> and <a href=\"https://search.library.duke.edu/search?id=DUKE002125645\"> <em> Little Rudy and Other Tales </em> </a> [DUKE002125645] by Hans Christian Andersen.</p></td><td>4/3/2016</td></tr><tr><td><p><strong> Andrew Boney (T'04) </strong></p></td><td><p><a href=\"https://search.library.duke.edu/search?id=DUKE006094080\"> <em> Toad of Toad Hall, </em> </a> by A.A. Milne [DUKE006094080]</p></td><td>11/24/2015</td></tr><tr><td><strong> Jeff Kosokoff and Laura Bey </strong></td><td><p><a href=\"https://search.library.duke.edu/search?id=DUKE002129192\"> <em> Der swangern Frawen und Hebammen Roszgarten, </em> </a> by Eucharius Rosslin. [DUKE002129192]</p></td><td>11/23/2015</td></tr><tr><td><strong> Dr. Michael Weiss </strong></td><td><p><a href=\"https://search.library.duke.edu/search?id=DUKE000000633\"> <em> Slaughterhouse-five or The children's </em> crusade, </a> <strong> </strong> by Kurt Vonnegut [DUKE000000633]</p><p><a href=\"https://search.library.duke.edu/search?id=DUKE001332100\"> <em> Brave New World, </em> </a> by Aldous Huxley [DUKE001332100]</p></td><td>10/7/2015</td></tr><tr><td><strong> Nixie Miller in honor of Bill Pitts </strong></td><td><p><em> <a href=\"https://search.library.duke.edu/search?id=DUKE003234716\"> Catch 22 </a> </em> , by Joseph Heller [DUKE003234716]</p></td><td>3/10/2015</td></tr><tr><td><strong> Mrs. Georgeann C Corey in honor of Mr. Michael Lee Corey (T'05) </strong></td><td><p><em> <a href=\"https://search.library.duke.edu/search?id=DUKE001351443\"> Of Mice and Men </a> , </em> <strong> </strong> by John Steinbeck [DUKE001351443]</p><p><em> <a href=\"https://search.library.duke.edu/search?id=DUKE001713727\"> Old Man and the Sea </a> , </em> by Ernest Hemingway [DUKE001713727]</p></td><td>3/10/2015</td></tr><tr><td><strong> Mrs. Georgeann C Corey in memory of Mr. George Nassif Corey (T'69) </strong></td><td><p><a href=\"https://search.library.duke.edu/search?id=DUKE003921889\"> Signed basketball (1992) </a> , Artifacts and Relics Collection, 1830's-ongoing. Duke University Archives. [ <span dir=\"auto\" data-mce-mark=\"1\"> UA98-85; Box 17] [DUKE003921889] </span></p><p><a href=\"https://search.library.duke.edu/search?id=DUKE003205743\"> Proposed design of Duke University </a> <strong> </strong> , drawn by the Horace Trumbauer firm for James B. Duke, 1924. Duke University Archives. [DUKE003205743]</p></td><td>3/9/2015</td></tr><tr><td><strong> Katie Clark ('87) in honor of her mother Pamela Clark </strong></td><td><p><a href=\"https://search.library.duke.edu/search?id=DUKE000936143\"> <em> <span class=\"recordtitle\" data-mce-mark=\"1\"> Recueil de planches, sur les sciences, les arts liberaux, et les arts mechaniques, avec leur explication... </span> </em> </a> (plate v.7) by Denis Diderot [DUKE000936143]</p></td><td>2/1/2015</td></tr><tr><td><strong> Sarah L. Bingham </strong></td><td><p><a href=\"https://search.library.duke.edu/search?id=DUKE000537516\"> <em> Native Son </em> </a> by Richard Wright (1940, first edition) [DUKE000537516] <br> <em> <a href=\"https://search.library.duke.edu/search?id=DUKE000027581\"> The Common Reader </a> , Second Series </em> by Virginia Woolf (1932, first edition) [DUKE000027581]</p></td><td>10/7/2014</td></tr><tr><td><strong> Barbara Bernhard Hanson ('82) </strong></td><td><p><a href=\"https://search.library.duke.edu/search?id=DUKE003857200\"> <em> The Bell Jar </em> </a> by Sylvia Plath [DUKE003857200]</p></td><td>10/6/2014</td></tr><tr><td><strong> Kevin A. Klock ('01) in honor of his father Douglas M. Klock ('65) </strong></td><td><p><em> <a href=\"https://search.library.duke.edu/search?id=DUKE003857078\"> Lord of the Flies </a> , </em> by William Golding [DUKE003857078] <em> <br> </em></p></td><td>9/9/2014</td></tr><tr><td><strong> Jeff Kosokoff and Laura Bey </strong></td><td><p><a href=\"https://search.library.duke.edu/search?id=DUKE003857076\"> <em> <span class=\"recordTitle\" data-mce-mark=\"1\"> Het achterhuis : dagboekbrieven van 12 Juni 1942-1 Augustus 1944 </span> </em> </a> , by Anne Frank. [DUKE003857076]</p></td><td>7/22/2014</td></tr><tr><td><strong> Rebecca Williams </strong></td><td><p><a href=\"https://search.library.duke.edu/search?id=DUKE001989929\"> <em> <span class=\"recordTitle\" data-mce-mark=\"1\"> <em> Geographia vniversalis </em> </span> </em> </a> <span class=\"recordTitle\" data-mce-mark=\"1\"> </span> <span class=\"recordTitle\" data-mce-mark=\"1\"> by Ptolemy (t.1) [DUKE001989929] <br> </span> <a href=\"https://search.library.duke.edu/search?id=DUKE000362924\"> <em> Encyclopédie, ou dictionnaire raisonné des sciences, des arts et des </em> métiers, </a> (v.1) by Denis Diderot [DUKE000362924]</p></td><td>7/18/2014</td></tr><tr><td><p><strong> Ann Beman <br> </strong></p></td><td><p><a href=\"https://search.library.duke.edu/search?id=DUKE003856456\"> <em> Villette <strong> </strong> </em> </a> by Charlotte Bronte [DUKE003856456]</p></td><td>6/28/2014</td></tr><tr><td><p><strong> Robert Joseph Kubek, MD '86 <br> </strong></p></td><td><p><a href=\"https://search.library.duke.edu/search?id=DUKE003258663\"> Edmund M. Cameron Scrapbooks <em> </em> </a></p></td><td>6/24/2014</td></tr><tr><td><p><strong> Barbara Branson <br> </strong></p></td><td><p><a href=\"https://search.library.duke.edu/search?id=DUKE000035394\"> <em> Grapes of Wrath </em> </a> by John Steinbeck [DUKE000035394]</p></td><td>6/18/2014</td></tr><tr><td><p><strong> Will Hansen and Jaime Danehey </strong></p></td><td><p><a href=\"https://search.library.duke.edu/search?id=DUKE000035394\"> <em> </em> </a> <em> <a href=\"https://search.library.duke.edu/search?id=DUKE003246237\"> Phrenological Description of W. Whitman </a> , Age 29 Occupation Printer </em> by L.N. Fowler</p></td><td>4/17/2014</td></tr><tr><td><strong> Lauren Winner <br> </strong></td><td><a href=\"https://search.library.duke.edu/search?id=DUKE002363589\"> <em> Poems on various subjects, religious and moral </em> <strong> <em> </em> </strong> </a> by Phillis Wheatley [DUKE002363589]</td><td>4/11/2014</td></tr><tr><td><strong> Deborah Jakubs and Jim Roberts </strong></td><td><em> <a href=\"https://search.library.duke.edu/search?id=DUKE000035160\"> Catcher In The Rye </a> </em> [DUKE000035160]</td><td>4/10/2014</td></tr><tr><td><strong> Michael McCahill </strong></td><td><a href=\"https://search.library.duke.edu/search?id=DUKE000854590\"> Stephen Fuller Papers </a> [DUKE000854590]</td><td>3/4/2014</td></tr><tr><td><strong> Beth Doyle </strong></td><td><a href=\"https://search.library.duke.edu/search?id=DUKE006035633\"> Greek Manuscript #2 </a> [New Testament Gospel Lectionary] [DUKE006035633]</td><td>2/25/2014</td></tr><tr><td><strong> </strong></td><td></td><td></td></tr></tbody></table></div>",
      "revision_id" : 30048,
      "langcode" : "und",
      "body_summary" : "",
      "entity_id" : 155
   },
   "vid" : 30048,
   "node_access" : null,
   "asidebox" : {
      "bid" : null,
      "vid" : 30048,
      "nid" : 155,
      "body_title" : "",
      "body_value" : null,
      "block_module" : null,
      "body_format" : null,
      "block_delta" : null,
      "status" : "disabled"
   },
   "nid" : "155",
   "path_alias" : {
      "language" : "und",
      "pid" : 315,
      "alias" : "/about/adopt-book-program",
      "langcode" : "und",
      "status" : 0
   },
   "node_field_data" : {
      "promote" : 0,
      "changed" : null,
      "type" : "about_page",
      "revision_translation_affected" : 1,
      "langcode" : "und",
      "uid" : 1,
      "title" : "Adopt-a-Book Program",
      "sticky" : 0,
      "default_langcode" : 1,
      "status" : 1,
      "created" : 1375380654
   },
   "field_tags" : []
}

