{
   "node_access" : null,
   "field_tags" : [],
   "path_alias" : {
      "langcode" : "und",
      "status" : 0,
      "language" : "und",
      "pid" : 3979,
      "alias" : "/exhibits/2018/wendelwhite"
   },
   "node_field_data" : {
      "title" : "Manifest",
      "status" : 1,
      "created" : 1519225470,
      "sticky" : 0,
      "default_langcode" : 1,
      "type" : "exhibit",
      "changed" : null,
      "promote" : 0,
      "uid" : 1,
      "langcode" : "und",
      "revision_translation_affected" : 1
   },
   "node__field_image" : {},
   "type" : "exhibit",
   "uuid" : "a58f2d8b-1d05-44f4-af55-3d30c0f75a2f",
   "langcode" : "und",
   "asidebox" : null,
   "nid" : "1915",
   "field_image" : {
      "bundle" : "exhibit",
      "delta" : 0,
      "field_image_width" : 750,
      "field_image_alt" : "The Works of Robert Burns, First Book Purchased After Slavery by Frederick Douglass Rush Rhees Library, University of Rochester, NY Pigment Print, 2010",
      "langcode" : "und",
      "entity_type" : "node",
      "field_image_height" : 600,
      "deleted" : 0,
      "field_image_fid" : 4053,
      "revision_id" : 21289,
      "language" : "und",
      "file_uuid" : "3fe05632-39ae-43c1-97e2-efafad49031f",
      "field_image_title" : "",
      "field_image_target_id" : 4053,
      "entity_id" : 1915
   },
   "vid" : 21289,
   "node__body" : {
      "body_summary" : "",
      "entity_id" : 1915,
      "langcode" : "und",
      "body_format" : "full_html",
      "bundle" : "exhibit",
      "delta" : 0,
      "deleted" : 0,
      "revision_id" : 21289,
      "body_value" : "<p>The Manifest portfolio consists of photographic representations of objects, documents, photographs, and books held in various public collections throughout the U.S. These repositories include various elements of material culture such as diaries, slave collars, human hair, a drum, souvenirs, and other objects, some with great significance and others simply quotidian representations of daily life in the history of the African American community. White is increasingly interested in the residual power of the past to inhabit these material remains. The ability of objects to transcend lives, centuries, and millennia, suggests a remarkable mechanism for folding time, bringing the past and the present into a shared space that is uniquely suited to artistic exploration.</p><p>Manifest is an effort to seek out the artifacts and material evidence of the American construct and representation of race. The histories of slavery, abolition, segregation, the U.S. Civil War, and the Civil Rights Era are a few of the narratives that emerge in these photographs.&nbsp;</p><p>Image: The Works of Robert Burns, First Book Purchased After Slavery by Frederick Douglass Rush Rhees Library, University of Rochester, NY Pigment Print, 2010</p>"
   },
   "revisions" : [
      {
         "field_revision" : {
            "title" : "Manifest",
            "changed" : null,
            "status" : 1,
            "uid" : 1,
            "langcode" : null,
            "created" : null,
            "sticky" : 0,
            "revision_translation_affected" : 1,
            "default_langcode" : 1
         },
         "status" : 1,
         "log" : "",
         "comment" : 1,
         "sticky" : 0,
         "node_revision__field_tags" : [],
         "vuuid" : "46b465c2-2f49-429a-867e-610d50d50641",
         "title" : "Manifest",
         "node_revision__body" : {
            "langcode" : "und",
            "entity_id" : 1915,
            "body_summary" : "",
            "body_value" : "<p>The Manifest portfolio consists of photographic representations of objects, documents, photographs, and books held in various public collections throughout the U.S. These repositories include various elements of material culture such as diaries, slave collars, human hair, a drum, souvenirs, and other objects, some with great significance and others simply quotidian representations of daily life in the history of the African American community. White is increasingly interested in the residual power of the past to inhabit these material remains. The ability of objects to transcend lives, centuries, and millennia, suggests a remarkable mechanism for folding time, bringing the past and the present into a shared space that is uniquely suited to artistic exploration.</p><p>Manifest is an effort to seek out the artifacts and material evidence of the American construct and representation of race. The histories of slavery, abolition, segregation, the U.S. Civil War, and the Civil Rights Era are a few of the narratives that emerge in these photographs.&nbsp;</p><p>Image: The Works of Robert Burns, First Book Purchased After Slavery by Frederick Douglass Rush Rhees Library, University of Rochester, NY Pigment Print, 2010</p>",
            "revision_id" : 21289,
            "body_format" : "full_html",
            "bundle" : "exhibit",
            "delta" : 0,
            "deleted" : 0
         },
         "uid" : 3,
         "timestamp" : 1538503535,
         "promote" : 0
      }
   ]
}

