{
   "revisions" : [
      {
         "status" : 1,
         "field_revision" : {
            "created" : null,
            "status" : 1,
            "uid" : 1,
            "langcode" : null,
            "default_langcode" : 1,
            "sticky" : 0,
            "revision_translation_affected" : 1,
            "title" : "Portraits in the Gothic Reading Room",
            "changed" : null
         },
         "log" : "",
         "sticky" : 0,
         "comment" : 1,
         "vuuid" : "2e8ad8fe-02aa-4def-878a-70f52d63dfc2",
         "title" : "Portraits in the Gothic Reading Room",
         "node_revision__field_tags" : [],
         "node_revision__body" : {
            "body_format" : "full_html",
            "delta" : 0,
            "bundle" : "exhibit",
            "deleted" : 0,
            "body_value" : "<p>The Gothic Reading Room of Perkins Library serves as a gallery of prominent figures in Duke University’s history. Portraits of Washington Duke, James Buchanan Duke, and Benjamin Newton Duke are surrounded by those of trustees of The Duke Endowment, Duke’s previous presidents, and other notable figures in the history of the university.</p>",
            "revision_id" : 10961,
            "langcode" : "und",
            "body_summary" : "",
            "entity_id" : 981
         },
         "uid" : 4,
         "timestamp" : 1440178026,
         "promote" : 0
      }
   ],
   "node__body" : {
      "body_value" : "<p>The Gothic Reading Room of Perkins Library serves as a gallery of prominent figures in Duke University’s history. Portraits of Washington Duke, James Buchanan Duke, and Benjamin Newton Duke are surrounded by those of trustees of The Duke Endowment, Duke’s previous presidents, and other notable figures in the history of the university.</p>",
      "revision_id" : 10961,
      "deleted" : 0,
      "body_format" : "full_html",
      "bundle" : "exhibit",
      "delta" : 0,
      "langcode" : "und",
      "entity_id" : 981,
      "body_summary" : ""
   },
   "vid" : 10961,
   "field_image" : {
      "language" : "und",
      "file_uuid" : "3df60d84-5f43-409d-8971-3c9d08f932ef",
      "deleted" : 0,
      "field_image_fid" : 1557,
      "revision_id" : 10961,
      "field_image_target_id" : 1557,
      "entity_id" : 981,
      "field_image_title" : "",
      "field_image_alt" : "",
      "field_image_width" : 514,
      "delta" : 0,
      "bundle" : "exhibit",
      "entity_type" : "node",
      "field_image_height" : 600,
      "langcode" : "und"
   },
   "nid" : "981",
   "asidebox" : null,
   "langcode" : "und",
   "uuid" : "a94ef8f9-45b9-4d50-b313-161801a3cbfd",
   "type" : "exhibit",
   "node__field_image" : {},
   "field_tags" : [],
   "path_alias" : {
      "status" : 0,
      "langcode" : "und",
      "language" : "und",
      "alias" : "/exhibits/1985/gothic-reading-room",
      "pid" : 1467
   },
   "node_field_data" : {
      "uid" : 1,
      "langcode" : "und",
      "revision_translation_affected" : 1,
      "type" : "exhibit",
      "changed" : null,
      "promote" : 0,
      "status" : 1,
      "created" : 1438714565,
      "sticky" : 0,
      "default_langcode" : 1,
      "title" : "Portraits in the Gothic Reading Room"
   },
   "node_access" : {
      "gid" : 0,
      "grant_delete" : 0,
      "realm" : "all",
      "langcode" : "und",
      "nid" : 981,
      "grant_view" : 1,
      "grant_update" : 0
   }
}

