{
   "type" : "page",
   "field_image" : null,
   "uuid" : "aad824c5-e1cd-47c4-ba66-1cfacfb306d1",
   "vid" : 22375,
   "node__body" : {
      "deleted" : 0,
      "delta" : 0,
      "body_format" : "full_html",
      "bundle" : "page",
      "revision_id" : 22375,
      "body_value" : "<h2><em>Chronicle</em> Articles</h2><ul><li><a href=\"/sites/default/files/dul/research/student-activism/19380218_Archive.pdf\" target=\"_blank\" title=\"Archive 1\">February 18, 1938</a> (PDF, 900 KB) | <a href=\"https://library.duke.edu/digitalcollections/dukechronicle_dchnp59032/\" target=\"_blank\" title=\"Chronicle, February 18, 1938\">Full issue</a></li><li><a href=\"/sites/default/files/dul/research/student-activism/19380222_Archive.pdf\" target=\"_blank\" title=\"Archive 2\">February 22, 1938</a> (PDF,&nbsp; 1.6 MB)&nbsp;| <a href=\"https://library.duke.edu/digitalcollections/dukechronicle_dchnp59033/\" target=\"_blank\" title=\"Chronicle, February 22, 1938\">Full&nbsp;issue</a></li><li><a href=\"/sites/default/files/dul/research/student-activism/19380225_Archive.pdf\" target=\"_blank\" title=\"Archive 3\">February 25, 1938</a> (PDF,&nbsp; 900 KB)&nbsp;| <a href=\"https://library.duke.edu/digitalcollections/dukechronicle_dchnp59034/\" target=\"_blank\" title=\"Chronicle, February 25, 1938\">Full&nbsp;issue</a></li></ul><hr class=\"dashed\"><p></p><h2>Other Related Documents</h2><p><a href=\"/sites/default/files/dul/research/student-activism/Archive193711_Rank-File.pdf\" target=\"_blank\" title=\"Rank and File\"><img src=\"/sites/default/files/dul/research/student-activism/Archive193711_Rank-File_thumb.jpg\" alt=\"Rank and File, by Walter Schaefer, The Archive, Nov. &amp; Dec. 1937\" title=\"&quot;Rank and File,&quot; by Walter Schaefer, <em>The Archive</em>, Nov. &amp; Dec. 1937\" width=\"250\" height=\"351\" style=\"margin: 10px;\" class=\"caption-left\"></a><a href=\"/sites/default/files/dul/research/student-activism/Archive193801_Jew.pdf\" target=\"_blank\" title=\"Jew\"><img src=\"/sites/default/files/dul/research/student-activism/Archive193801_Jew_thumb.jpg\" alt=\"Jew, by Helen Leslie, The Archive, Jan. 1938\" title=\"&quot;Jew&quot;, by Helen Leslie, <em>The Archive</em>, Jan. 1938\" width=\"250\" height=\"340\" style=\"margin: 10px;\" class=\"caption-left\"></a><a href=\"/sites/default/files/dul/research/student-activism/Archive193802_Pacifist.pdf\" target=\"_blank\" title=\"The Pacifist\"><img src=\"/sites/default/files/dul/research/student-activism/Archive193802_Pacifist_thumb.jpg\" alt=\"The Pacifist, by Lorenz Eitner, The Archive, Feb. 1938\" title=\"&quot;The Pacifist,&quot; by Lorenz Eitner, <em>The Archive</em>, Feb. 1938\" width=\"250\" height=\"336\" style=\"margin: 10px;\" class=\"caption-left\"></a></p><p></p><div class=\"col-md-12\"><hr class=\"dashed\"><p><small>In late 1937 and early 1938, several articles in a campus literary magazine, <em>The Archive</em>, spark a letter of protest to the&nbsp;<em>Chronicle</em>. The editor of&nbsp;<em>The Archive</em>, C. Robert Wilson, and supporters of the publication respond to the criticism. Publications courtesy of&nbsp;<a href=\"https://library.duke.edu/rubenstein/uarchives\" target=\"_blank\">Duke University Archives</a>.</small></p></div>",
      "langcode" : "und",
      "body_summary" : "",
      "entity_id" : 1773
   },
   "langcode" : "und",
   "revisions" : [
      {
         "node_revision__body" : {
            "revision_id" : 22375,
            "body_value" : "<h2><em>Chronicle</em> Articles</h2><ul><li><a href=\"/sites/default/files/dul/research/student-activism/19380218_Archive.pdf\" target=\"_blank\" title=\"Archive 1\">February 18, 1938</a> (PDF, 900 KB) | <a href=\"https://library.duke.edu/digitalcollections/dukechronicle_dchnp59032/\" target=\"_blank\" title=\"Chronicle, February 18, 1938\">Full issue</a></li><li><a href=\"/sites/default/files/dul/research/student-activism/19380222_Archive.pdf\" target=\"_blank\" title=\"Archive 2\">February 22, 1938</a> (PDF,&nbsp; 1.6 MB)&nbsp;| <a href=\"https://library.duke.edu/digitalcollections/dukechronicle_dchnp59033/\" target=\"_blank\" title=\"Chronicle, February 22, 1938\">Full&nbsp;issue</a></li><li><a href=\"/sites/default/files/dul/research/student-activism/19380225_Archive.pdf\" target=\"_blank\" title=\"Archive 3\">February 25, 1938</a> (PDF,&nbsp; 900 KB)&nbsp;| <a href=\"https://library.duke.edu/digitalcollections/dukechronicle_dchnp59034/\" target=\"_blank\" title=\"Chronicle, February 25, 1938\">Full&nbsp;issue</a></li></ul><hr class=\"dashed\"><p></p><h2>Other Related Documents</h2><p><a href=\"/sites/default/files/dul/research/student-activism/Archive193711_Rank-File.pdf\" target=\"_blank\" title=\"Rank and File\"><img src=\"/sites/default/files/dul/research/student-activism/Archive193711_Rank-File_thumb.jpg\" alt=\"Rank and File, by Walter Schaefer, The Archive, Nov. &amp; Dec. 1937\" title=\"&quot;Rank and File,&quot; by Walter Schaefer, <em>The Archive</em>, Nov. &amp; Dec. 1937\" width=\"250\" height=\"351\" style=\"margin: 10px;\" class=\"caption-left\"></a><a href=\"/sites/default/files/dul/research/student-activism/Archive193801_Jew.pdf\" target=\"_blank\" title=\"Jew\"><img src=\"/sites/default/files/dul/research/student-activism/Archive193801_Jew_thumb.jpg\" alt=\"Jew, by Helen Leslie, The Archive, Jan. 1938\" title=\"&quot;Jew&quot;, by Helen Leslie, <em>The Archive</em>, Jan. 1938\" width=\"250\" height=\"340\" style=\"margin: 10px;\" class=\"caption-left\"></a><a href=\"/sites/default/files/dul/research/student-activism/Archive193802_Pacifist.pdf\" target=\"_blank\" title=\"The Pacifist\"><img src=\"/sites/default/files/dul/research/student-activism/Archive193802_Pacifist_thumb.jpg\" alt=\"The Pacifist, by Lorenz Eitner, The Archive, Feb. 1938\" title=\"&quot;The Pacifist,&quot; by Lorenz Eitner, <em>The Archive</em>, Feb. 1938\" width=\"250\" height=\"336\" style=\"margin: 10px;\" class=\"caption-left\"></a></p><p></p><div class=\"col-md-12\"><hr class=\"dashed\"><p><small>In late 1937 and early 1938, several articles in a campus literary magazine, <em>The Archive</em>, spark a letter of protest to the&nbsp;<em>Chronicle</em>. The editor of&nbsp;<em>The Archive</em>, C. Robert Wilson, and supporters of the publication respond to the criticism. Publications courtesy of&nbsp;<a href=\"https://library.duke.edu/rubenstein/uarchives\" target=\"_blank\">Duke University Archives</a>.</small></p></div>",
            "body_format" : "full_html",
            "bundle" : "page",
            "delta" : 0,
            "deleted" : 0,
            "entity_id" : 1773,
            "body_summary" : "",
            "langcode" : "und"
         },
         "node_revision__field_tags" : [],
         "title" : "Controversy Over The Archive",
         "vuuid" : "c730d7d5-090d-4f38-8ca1-f266e8dd0d68",
         "log" : "",
         "comment" : 1,
         "sticky" : 0,
         "field_revision" : {
            "created" : null,
            "uid" : 1,
            "status" : 1,
            "langcode" : null,
            "default_langcode" : 1,
            "sticky" : 0,
            "revision_translation_affected" : 1,
            "title" : "Controversy Over The Archive",
            "changed" : null
         },
         "status" : 1,
         "promote" : 0,
         "timestamp" : 1526341100,
         "uid" : 73
      }
   ],
   "asidebox" : {
      "body_value" : null,
      "block_module" : null,
      "body_format" : null,
      "vid" : 22375,
      "bid" : null,
      "nid" : 1773,
      "body_title" : "",
      "status" : "disabled",
      "block_delta" : null
   },
   "node_access" : null,
   "node_field_data" : {
      "promote" : 0,
      "changed" : null,
      "type" : "page",
      "revision_translation_affected" : 1,
      "langcode" : "und",
      "uid" : 1,
      "title" : "Controversy Over The Archive",
      "default_langcode" : 1,
      "sticky" : 0,
      "created" : 1510166823,
      "status" : 1
   },
   "path_alias" : {
      "pid" : 3825,
      "alias" : "/research/student-activism/documents/archive_controversy",
      "language" : "und",
      "langcode" : "und",
      "status" : 0
   },
   "field_tags" : [],
   "nid" : "1773"
}

