{
   "langcode" : "und",
   "uuid" : "ad0849b0-036f-4b72-b155-993494a5dfef",
   "type" : "exhibit",
   "node__field_image" : {},
   "node_field_data" : {
      "revision_translation_affected" : 1,
      "langcode" : "und",
      "uid" : 1,
      "promote" : 0,
      "changed" : null,
      "type" : "exhibit",
      "sticky" : 0,
      "default_langcode" : 1,
      "status" : 1,
      "created" : 1438717623,
      "title" : "Comic Book Cultures"
   },
   "path_alias" : {
      "status" : 0,
      "langcode" : "und",
      "language" : "und",
      "pid" : 1487,
      "alias" : "/exhibits/2005/comic-book-cultures"
   },
   "field_tags" : [],
   "node_access" : null,
   "revisions" : [
      {
         "promote" : 0,
         "timestamp" : 1601003525,
         "uid" : 2213,
         "node_revision__body" : {
            "langcode" : "und",
            "body_summary" : "",
            "entity_id" : 1001,
            "body_format" : "full_html",
            "delta" : 0,
            "bundle" : "exhibit",
            "deleted" : 0,
            "body_value" : "<p>Comic books have been an integral part of American culture since the 1930s. They have both influenced our collective imagination and echoed the concerns of the eras in which they were published. This exhibit explores the resonance of comic books in 20th century American culture from the 1930s to the present. The comic books in this exhibit are from Duke University's Edwin and Terry Murray Collection of Pulp Culture and, where indicated, the Daniel Breen Collection of American Comic Books, Rare Book Collection, Wilson Library, University of North Carolina at Chapel Hill.</p>",
            "revision_id" : 10981
         },
         "node_revision__field_tags" : [],
         "title" : "Comic Book Cultures",
         "vuuid" : "eff3b7a4-6fa4-4412-99d1-03f64a4d83f2",
         "log" : "",
         "comment" : 1,
         "sticky" : 0,
         "field_revision" : {
            "changed" : null,
            "title" : "Comic Book Cultures",
            "default_langcode" : 1,
            "revision_translation_affected" : 1,
            "sticky" : 0,
            "created" : null,
            "status" : 1,
            "uid" : 1,
            "langcode" : null
         },
         "status" : 1
      }
   ],
   "node__body" : {
      "body_value" : "<p>Comic books have been an integral part of American culture since the 1930s. They have both influenced our collective imagination and echoed the concerns of the eras in which they were published. This exhibit explores the resonance of comic books in 20th century American culture from the 1930s to the present. The comic books in this exhibit are from Duke University's Edwin and Terry Murray Collection of Pulp Culture and, where indicated, the Daniel Breen Collection of American Comic Books, Rare Book Collection, Wilson Library, University of North Carolina at Chapel Hill.</p>",
      "revision_id" : 10981,
      "bundle" : "exhibit",
      "body_format" : "full_html",
      "delta" : 0,
      "deleted" : 0,
      "langcode" : "und",
      "entity_id" : 1001,
      "body_summary" : ""
   },
   "vid" : 10981,
   "field_image" : {
      "entity_type" : "node",
      "field_image_height" : 600,
      "langcode" : "und",
      "field_image_width" : 401,
      "field_image_alt" : "",
      "delta" : 0,
      "bundle" : "exhibit",
      "field_image_target_id" : 1577,
      "entity_id" : 1001,
      "field_image_title" : "",
      "file_uuid" : "ddf32f55-9578-413e-a848-ae3043c2f810",
      "language" : "und",
      "deleted" : 0,
      "field_image_fid" : 1577,
      "revision_id" : 10981
   },
   "nid" : "1001",
   "asidebox" : null
}

