{
   "nid" : "2502",
   "field_tags" : [],
   "node_field_data" : {
      "revision_translation_affected" : 1,
      "uid" : 1,
      "langcode" : "und",
      "changed" : null,
      "promote" : 0,
      "type" : "page",
      "default_langcode" : 1,
      "sticky" : 0,
      "created" : 1594737838,
      "status" : 0,
      "title" : "Citation for First Year Students (Dev)"
   },
   "path_alias" : {
      "status" : 0,
      "langcode" : "und",
      "language" : "und",
      "alias" : "/services/firstyeardev/citation",
      "pid" : 4788
   },
   "node_access" : null,
   "asidebox" : null,
   "revisions" : [
      {
         "uid" : 2405,
         "timestamp" : 1594737838,
         "promote" : 0,
         "field_revision" : {
            "created" : null,
            "uid" : 1,
            "langcode" : null,
            "status" : 0,
            "default_langcode" : 1,
            "revision_translation_affected" : 1,
            "sticky" : 0,
            "title" : "Citation for First Year Students (Dev)",
            "changed" : null
         },
         "status" : 0,
         "log" : "",
         "comment" : 1,
         "sticky" : 0,
         "node_revision__field_tags" : [],
         "title" : "Citation for First Year Students (Dev)",
         "vuuid" : "865da83d-cfce-4cb4-8ea6-c41ac687dbbd",
         "node_revision__body" : {
            "entity_id" : 2502,
            "body_summary" : "",
            "langcode" : "und",
            "body_value" : "<div class=\"row\">\r\n\r\n      <div class=\"col-md-6\">\r\n        <h2>Citation 101</h2>\r\n        <p>Citing sources doesn't have to be a difficult process. Click <a href=\"/research/citing\" target=\"_blank\"> here </a> for guides to the most popular citation styles, with explanations and examples.</p>\r\n        <p>Save time by using <a href=\"/research/citing/tools\" target=\"_blank\"> citation managers </a> , which help you gather citations as you conduct your research, and generate a bibliography using your chosen citation style when you finish your project. Click below to learn more about these popular citation managers supported by Duke:</p>\r\n        <p><a href=\"/research/citing/tools\" target=\"_blank\"> <img src=\"/sites/default/files/dul/users/sarah%20griffin/citation%20tools.jpg\" alt=\"link to citation tools\" title=\"Citation Tools\" width=\"100%\" style=\"float: left;\"> </a></p>\r\n      </div>\r\n\r\n      <div class=\"col-md-6\">\r\n        <h2>Why Cite?</h2>\r\n          <p>Citing your sources is an important part of your research process because it enables you to:</p>\r\n          <ul>\r\n            <li>Give credit to the sources you consulted</li>\r\n            <li>Substantiate the credibility of your research</li>\r\n            <li>Connect your work to that of other scholars</li>\r\n            <li>Provide your reader with sources for further exploration of the topic</li>\r\n          </ul>\r\n          \r\n          <p>Be a responsible researcher and <a href=\"/research/plagiarism\" target=\"_blank\"> avoid plagiarism </a> by scrupulously following these rules:</p>\r\n          <ul>\r\n            <li>Don't copy, quote, paraphrase or summarize any source without adequate documentation.</li>\r\n            <li>Don't purchase a paper by mail or email.</li>\r\n            <li>Never allow another person to write a paper for you.</li>\r\n            <li>Don't submit another person's unpublished work in your name.</li>\r\n          </ul>\r\n          <p>Learn even more about citations by consulting our <a href=\"https://guides.library.duke.edu/content.php?pid=62424&amp;sid=3990207\" target=\"_blank\"> citation guide </a> !</p>\r\n\r\n      </div>\r\n\r\n      \r\n\r\n    </div>",
            "revision_id" : 29191,
            "delta" : 0,
            "body_format" : "full_html_no_wysiwyg",
            "bundle" : "page",
            "deleted" : 0
         }
      }
   ],
   "langcode" : "und",
   "node__body" : {
      "body_value" : "<div class=\"row\">\r\n\r\n      <div class=\"col-md-6\">\r\n        <h2>Citation 101</h2>\r\n        <p>Citing sources doesn't have to be a difficult process. Click <a href=\"/research/citing\" target=\"_blank\"> here </a> for guides to the most popular citation styles, with explanations and examples.</p>\r\n        <p>Save time by using <a href=\"/research/citing/tools\" target=\"_blank\"> citation managers </a> , which help you gather citations as you conduct your research, and generate a bibliography using your chosen citation style when you finish your project. Click below to learn more about these popular citation managers supported by Duke:</p>\r\n        <p><a href=\"/research/citing/tools\" target=\"_blank\"> <img src=\"/sites/default/files/dul/users/sarah%20griffin/citation%20tools.jpg\" alt=\"link to citation tools\" title=\"Citation Tools\" width=\"100%\" style=\"float: left;\"> </a></p>\r\n      </div>\r\n\r\n      <div class=\"col-md-6\">\r\n        <h2>Why Cite?</h2>\r\n          <p>Citing your sources is an important part of your research process because it enables you to:</p>\r\n          <ul>\r\n            <li>Give credit to the sources you consulted</li>\r\n            <li>Substantiate the credibility of your research</li>\r\n            <li>Connect your work to that of other scholars</li>\r\n            <li>Provide your reader with sources for further exploration of the topic</li>\r\n          </ul>\r\n          \r\n          <p>Be a responsible researcher and <a href=\"/research/plagiarism\" target=\"_blank\"> avoid plagiarism </a> by scrupulously following these rules:</p>\r\n          <ul>\r\n            <li>Don't copy, quote, paraphrase or summarize any source without adequate documentation.</li>\r\n            <li>Don't purchase a paper by mail or email.</li>\r\n            <li>Never allow another person to write a paper for you.</li>\r\n            <li>Don't submit another person's unpublished work in your name.</li>\r\n          </ul>\r\n          <p>Learn even more about citations by consulting our <a href=\"https://guides.library.duke.edu/content.php?pid=62424&amp;sid=3990207\" target=\"_blank\"> citation guide </a> !</p>\r\n\r\n      </div>\r\n\r\n      \r\n\r\n    </div>",
      "revision_id" : 29191,
      "bundle" : "page",
      "body_format" : "full_html_no_wysiwyg",
      "delta" : 0,
      "deleted" : 0,
      "entity_id" : 2502,
      "body_summary" : "",
      "langcode" : "und"
   },
   "vid" : 29191,
   "uuid" : "af3cc3b8-f5da-4f57-a173-21c62b724966",
   "field_image" : null,
   "type" : "page"
}

