{
   "langcode" : "und",
   "revisions" : [
      {
         "node_revision__body" : {
            "revision_id" : 27077,
            "body_value" : "<p>\r\n<iframe src=\"https://outlook.office365.com/owa/calendar/bdb3e102641b4a568af949e28029a583@duke.edu/b9cbed2b053546248d5057492f02d78915415731205893860531/calendar.html\" style=\"border: 0\" width=\"100%\" height=\"700\" frameborder=\"0\" scrolling=\"no\"></iframe>\r\n</p>\r\n<div class=\"text-center\">\r\n  <a class=\"btn btn-primary\" href=\"https://outlook.office365.com/owa/calendar/bdb3e102641b4a568af949e28029a583@duke.edu/b9cbed2b053546248d5057492f02d78915415731205893860531/calendar.html\"><i class=\"fa fa-calendar\" aria-hidden=\"true\"></i> Event Calendar</a>\r\n</div>",
            "deleted" : 0,
            "body_format" : "full_html_no_wysiwyg",
            "delta" : 0,
            "bundle" : "about_page",
            "langcode" : "und",
            "entity_id" : 1781,
            "body_summary" : ""
         },
         "vuuid" : "822d325b-4adc-4f5b-b36b-ee1f94d286e5",
         "title" : "Diversity & Inclusion Events at Duke",
         "node_revision__field_tags" : [],
         "log" : "",
         "sticky" : 0,
         "comment" : 1,
         "status" : 1,
         "field_revision" : {
            "revision_translation_affected" : 1,
            "sticky" : 0,
            "default_langcode" : 1,
            "uid" : 1,
            "langcode" : null,
            "status" : 1,
            "created" : null,
            "changed" : null,
            "title" : "Diversity & Inclusion Events at Duke"
         },
         "promote" : 0,
         "timestamp" : 1570733789,
         "uid" : 4
      }
   ],
   "field_image" : null,
   "type" : "about_page",
   "vid" : 27077,
   "node__body" : {
      "langcode" : "und",
      "entity_id" : 1781,
      "body_summary" : "",
      "body_value" : "<p>\r\n<iframe src=\"https://outlook.office365.com/owa/calendar/bdb3e102641b4a568af949e28029a583@duke.edu/b9cbed2b053546248d5057492f02d78915415731205893860531/calendar.html\" style=\"border: 0\" width=\"100%\" height=\"700\" frameborder=\"0\" scrolling=\"no\"></iframe>\r\n</p>\r\n<div class=\"text-center\">\r\n  <a class=\"btn btn-primary\" href=\"https://outlook.office365.com/owa/calendar/bdb3e102641b4a568af949e28029a583@duke.edu/b9cbed2b053546248d5057492f02d78915415731205893860531/calendar.html\"><i class=\"fa fa-calendar\" aria-hidden=\"true\"></i> Event Calendar</a>\r\n</div>",
      "revision_id" : 27077,
      "body_format" : "full_html_no_wysiwyg",
      "bundle" : "about_page",
      "delta" : 0,
      "deleted" : 0
   },
   "uuid" : "b1ab3dd4-e472-4a7b-a6d7-e270d25d3614",
   "node_access" : null,
   "asidebox" : {
      "block_delta" : null,
      "status" : "disabled",
      "vid" : 27077,
      "bid" : null,
      "nid" : 1781,
      "body_title" : "",
      "block_module" : null,
      "body_value" : null,
      "body_format" : null
   },
   "nid" : "1781",
   "field_tags" : [],
   "path_alias" : {
      "language" : "und",
      "pid" : 3833,
      "alias" : "/about/diversity/events",
      "status" : 0,
      "langcode" : "und"
   },
   "node_field_data" : {
      "revision_translation_affected" : 1,
      "uid" : 1,
      "langcode" : "und",
      "promote" : 0,
      "changed" : null,
      "type" : "about_page",
      "default_langcode" : 1,
      "sticky" : 0,
      "created" : 1510331518,
      "status" : 1,
      "title" : "Diversity & Inclusion Events at Duke"
   }
}

