{
   "node_access" : null,
   "asidebox" : {
      "body_format" : null,
      "block_module" : "block",
      "body_value" : null,
      "nid" : 2141,
      "body_title" : "",
      "vid" : 25687,
      "bid" : 4331,
      "status" : "disabled",
      "block_delta" : "239"
   },
   "nid" : "2141",
   "field_tags" : [],
   "node_field_data" : {
      "changed" : null,
      "promote" : 0,
      "type" : "library_services_page",
      "revision_translation_affected" : 1,
      "langcode" : "und",
      "uid" : 1,
      "title" : "Expert Search Tips",
      "default_langcode" : 1,
      "sticky" : 0,
      "created" : 1544730259,
      "status" : 1
   },
   "path_alias" : {
      "language" : "und",
      "alias" : "/using/catalog-search-tips/expert",
      "pid" : 4277,
      "status" : 0,
      "langcode" : "und"
   },
   "langcode" : "und",
   "revisions" : [
      {
         "comment" : 1,
         "sticky" : 0,
         "log" : "",
         "field_revision" : {
            "changed" : null,
            "title" : "Expert Search Tips",
            "default_langcode" : 1,
            "sticky" : 0,
            "revision_translation_affected" : 1,
            "created" : null,
            "langcode" : null,
            "uid" : 1,
            "status" : 1
         },
         "status" : 1,
         "node_revision__body" : {
            "body_value" : "<ul class=\"nav nav-tabs nav-tabs-sticky\">\r\n    <li>\r\n        <a href=\"/using/catalog-search-tips\">\r\n            Library Catalog Search Tips\r\n        </a>\r\n    </li>\r\n    <li class=\"active\">\r\n        <a>\r\n            Expert Search Tips\r\n        </a>\r\n    </li>\r\n    <li>\r\n        <a href=\"/using/catalog-search-tips/comparison\">\r\n            Compare Old and New Catalogs\r\n        </a>\r\n    </li>\r\n    <li>\r\n        <a href=\"/using/catalog-search-tips/new-release\">\r\n            New Release Notes\r\n        </a>\r\n    </li> \r\n</ul>\r\n<div id=\"two\" class=\"tab-pane\">\r\n    <p>\r\n        Are you a search pro? See below for details on how to use more advanced features to search the catalog, including Boolean\r\n        search terms and details about search syntax.\r\n    </p>\r\n    <h3 id=\"advancedsearch\">\r\n        Using Advanced Search\r\n    </h3>\r\n    <p>\r\n        Quotation marks, Boolean searches, and other search syntax are available when using the default search toolbar, or \"Basic\r\n        Search.\" However, you can use \"Advanced Search\" to specify terms for multiple fields at once. Access Advanced Search below\r\n        the search bar:\r\n    </p>\r\n    <center>\r\n        <img src=\"/sites/default/files/dul/using-the-library/searchTips-advancedSearch.PNG\" alt=\"You can find the Advanced Search link right below the main search bar at the top of the page.\"\r\n        width=\"500 px\" class=\"img-center img-polaroid img-responsive\">\r\n    </center>\r\n    <br>\r\n    <p>\r\n        For example, consider a situation in which you want to quickly find a copy of the horror novel classic\r\n        <em style=\"font-size: 13.008px;\">\r\n            It\r\n        </em>\r\n        by Stephen King.\r\n    </p>\r\n    <p>\r\n        Because the title of this novel,\r\n        <em>\r\n            It\r\n        </em>\r\n        , is a commonly used word, a basic title search will give many irrelevant results. This is a great opportunity to use \"Advanced\r\n        Search.\" You could use the following criteria:\r\n    </p>\r\n    <blockquote>\r\n        <p>\r\n            Find items that match all of:\r\n        </p>\r\n        <ul>\r\n            <li>\r\n                Title: It\r\n            </li>\r\n            <li>\r\n                Author: Stephen King\r\n            </li>\r\n            <li>\r\n                Resource Type: Book\r\n            </li>\r\n        </ul>\r\n        <p>\r\n        </p>\r\n    </blockquote>\r\n    <p>\r\n        The Advanced Search above returns only 3 results. The top result returns an available copy of the book.\r\n    </p>\r\n    <img src=\"/sites/default/files/dul/using-the-library/searchTips-itResults.PNG\" alt=\"It search results\" width=\"650\" class=\"image-center img-polaroid img-responsive\">\r\n    <p>\r\n        In Advanced Search, you can specify whether the search should require ANY or ALL of the criteria:\r\n    </p>\r\n    <center>\r\n        <img src=\"/sites/default/files/dul/using-the-library/searchTips-advancedSearch-allany.png\" alt=\"Toggle between finding items that match all or any of the search terms in Advanced Search.\"\r\n        height=\"150 px\" class=\"image-center img-polaroid\">\r\n    </center>\r\n    <hr>\r\n    <h3 id=\"boolean\">\r\n        Using Boolean search\r\n    </h3>\r\n    <p>\r\n        You can conduct more sophisticated searches in both Basic and Advanced search using the Boolean operators\r\n        <b>\r\n            AND\r\n        </b>\r\n        ,\r\n        <b>\r\n            OR\r\n        </b>\r\n        ,\r\n        <b>\r\n            NOT\r\n        </b>\r\n        . Write the operators in all caps.\r\n    </p>\r\n    <p>\r\n        <img src=\"/sites/default/files/dul/using-the-library/searchTips-vennDiagram.png\" alt=\"Venn diagrams demonstrating the logic of Boolean search terms\" width=\"700\"\r\n        class=\"image-center img-polaroid img-responsive\">\r\n    </p>\r\n    <dl>\r\n        <dt>\r\n            AND\r\n        </dt>\r\n        <dd>\r\n            Searches using AND yield results containing all of the search terms. Using AND has the effect of narrowing the search. For\r\n            example, you could use\r\n            <em>\r\n                \"Toni Morrison\" AND \"Nobel Prize\"\r\n            </em>\r\n            to find Morrison's Nobel Prize acceptance speech.\r\n        </dd>\r\n        <dt>\r\n            OR\r\n        </dt>\r\n        <dd>\r\n            Searches using OR yield results including any of the search terms. Using OR has the effect of expanding the search. For\r\n            example, you could find works by contemporary Black writers using\r\n            <em>\r\n                \"Toni Morrison\" OR \"Alice Walker.\"\r\n            </em>\r\n        </dd>\r\n        <dt>\r\n            NOT\r\n        </dt>\r\n        <dd>\r\n            Searches using NOT exclude the following term or parenthetical expression. For example, you could find items titled\r\n            <e>\r\n                Beloved, while excluding work related to Toni Morrison, by using\r\n                <em>\r\n                    Beloved NOT \"Toni Morrison\"\r\n                </em>\r\n                .\r\n            </e>\r\n        </dd>\r\n    </dl>\r\n    <hr>\r\n    <h3 id=\"syntax\">\r\n        More tips about syntax\r\n    </h3>\r\n    <ul>\r\n        <li>\r\n            Use quotation marks to search as a phrase, such as\r\n            <em>\r\n                \"Stranger in a Strange Land.\"\r\n            </em>\r\n        </li>\r\n        <li>\r\n            The order of a name doesn't matter in a search. For example,&nbsp;\r\n            <em>\r\n                John Fowles\r\n            </em>\r\n            &nbsp;and&nbsp;\r\n            <em>\r\n                Fowles, John\r\n            </em>\r\n            &nbsp;will return the same results.\r\n        </li>\r\n        <li>\r\n            In a search with 6 or fewer search terms and no Boolean operators, all of the search terms are required by default. Thus,\r\n            searching\r\n            <em>\r\n                climate change\r\n            </em>\r\n            and\r\n            <em>\r\n                &nbsp;climate AND change&nbsp;\r\n            </em>\r\n            are equivalent.\r\n        </li>\r\n        <li>\r\n            The example above does not require that the two terms be next to each other. To conduct a search for a phrase, use quotation\r\n            marks (e.g.\r\n            <em>\r\n                \"climate change\"\r\n            </em>\r\n            ).\r\n        </li>\r\n        <li>\r\n            Use parentheses to enclose a phrase, such as\r\n            <em>\r\n                game NOT (chess OR checkers)\r\n            </em>\r\n            .\r\n        </li>\r\n        <li>\r\n            The Library Catalog is not case sensitive. Searches may be entered in any case. The only exception is that Boolean operators\r\n            (\r\n            <b>\r\n                AND\r\n            </b>\r\n            ,\r\n            <b>\r\n                OR\r\n            </b>\r\n            ,\r\n            <b>\r\n                NOT\r\n            </b>\r\n            ) should be capitalized.\r\n        </li>\r\n    </ul>\r\n\r\n <hr>\r\n    <h3 id=\"syntax\">\r\n        Searching multiple library locations\r\n    </h3>\r\n    <p>It is possible to look for results that are available at one of several library locations. For example, you may be interested in items that are available at Perkins & Bostock <em>or</em> at Lilly Library.</p>\r\n<p>On the Basic Search page, using facets to filter library locations will act as an <b>AND</b> search. For example, selecting Perkins & Bostock and Lilly will show results that are available at <em>both</em> Libraries, and exclude items that are available at only one.\r\n<p>To find items equivalent to the \"Perkins & Bostock <b>OR</b> Lilly\" search, use the Library Location attribute in Advanced Search.</p>\r\n<img src=\"/sites/default/files/dul/using-the-library/searchTips-multipleLibraryLocation.PNG\" alt=\"More than one library location can be selected in Advanced Search\" width=\"650\"\r\n        class=\"image-center img-polaroid img-responsive\">\r\n</div>",
            "revision_id" : 25687,
            "delta" : 0,
            "body_format" : "full_html_no_wysiwyg",
            "bundle" : "library_services_page",
            "deleted" : 0,
            "entity_id" : 2141,
            "body_summary" : "",
            "langcode" : "und"
         },
         "node_revision__field_tags" : [],
         "vuuid" : "30ed070f-a8df-41dd-a3d9-bc9da68efa63",
         "title" : "Expert Search Tips",
         "timestamp" : 1562342415,
         "uid" : 25,
         "promote" : 0
      }
   ],
   "field_image" : null,
   "type" : "library_services_page",
   "vid" : 25687,
   "node__body" : {
      "body_summary" : "",
      "entity_id" : 2141,
      "langcode" : "und",
      "bundle" : "library_services_page",
      "body_format" : "full_html_no_wysiwyg",
      "delta" : 0,
      "deleted" : 0,
      "body_value" : "<ul class=\"nav nav-tabs nav-tabs-sticky\">\r\n    <li>\r\n        <a href=\"/using/catalog-search-tips\">\r\n            Library Catalog Search Tips\r\n        </a>\r\n    </li>\r\n    <li class=\"active\">\r\n        <a>\r\n            Expert Search Tips\r\n        </a>\r\n    </li>\r\n    <li>\r\n        <a href=\"/using/catalog-search-tips/comparison\">\r\n            Compare Old and New Catalogs\r\n        </a>\r\n    </li>\r\n    <li>\r\n        <a href=\"/using/catalog-search-tips/new-release\">\r\n            New Release Notes\r\n        </a>\r\n    </li> \r\n</ul>\r\n<div id=\"two\" class=\"tab-pane\">\r\n    <p>\r\n        Are you a search pro? See below for details on how to use more advanced features to search the catalog, including Boolean\r\n        search terms and details about search syntax.\r\n    </p>\r\n    <h3 id=\"advancedsearch\">\r\n        Using Advanced Search\r\n    </h3>\r\n    <p>\r\n        Quotation marks, Boolean searches, and other search syntax are available when using the default search toolbar, or \"Basic\r\n        Search.\" However, you can use \"Advanced Search\" to specify terms for multiple fields at once. Access Advanced Search below\r\n        the search bar:\r\n    </p>\r\n    <center>\r\n        <img src=\"/sites/default/files/dul/using-the-library/searchTips-advancedSearch.PNG\" alt=\"You can find the Advanced Search link right below the main search bar at the top of the page.\"\r\n        width=\"500 px\" class=\"img-center img-polaroid img-responsive\">\r\n    </center>\r\n    <br>\r\n    <p>\r\n        For example, consider a situation in which you want to quickly find a copy of the horror novel classic\r\n        <em style=\"font-size: 13.008px;\">\r\n            It\r\n        </em>\r\n        by Stephen King.\r\n    </p>\r\n    <p>\r\n        Because the title of this novel,\r\n        <em>\r\n            It\r\n        </em>\r\n        , is a commonly used word, a basic title search will give many irrelevant results. This is a great opportunity to use \"Advanced\r\n        Search.\" You could use the following criteria:\r\n    </p>\r\n    <blockquote>\r\n        <p>\r\n            Find items that match all of:\r\n        </p>\r\n        <ul>\r\n            <li>\r\n                Title: It\r\n            </li>\r\n            <li>\r\n                Author: Stephen King\r\n            </li>\r\n            <li>\r\n                Resource Type: Book\r\n            </li>\r\n        </ul>\r\n        <p>\r\n        </p>\r\n    </blockquote>\r\n    <p>\r\n        The Advanced Search above returns only 3 results. The top result returns an available copy of the book.\r\n    </p>\r\n    <img src=\"/sites/default/files/dul/using-the-library/searchTips-itResults.PNG\" alt=\"It search results\" width=\"650\" class=\"image-center img-polaroid img-responsive\">\r\n    <p>\r\n        In Advanced Search, you can specify whether the search should require ANY or ALL of the criteria:\r\n    </p>\r\n    <center>\r\n        <img src=\"/sites/default/files/dul/using-the-library/searchTips-advancedSearch-allany.png\" alt=\"Toggle between finding items that match all or any of the search terms in Advanced Search.\"\r\n        height=\"150 px\" class=\"image-center img-polaroid\">\r\n    </center>\r\n    <hr>\r\n    <h3 id=\"boolean\">\r\n        Using Boolean search\r\n    </h3>\r\n    <p>\r\n        You can conduct more sophisticated searches in both Basic and Advanced search using the Boolean operators\r\n        <b>\r\n            AND\r\n        </b>\r\n        ,\r\n        <b>\r\n            OR\r\n        </b>\r\n        ,\r\n        <b>\r\n            NOT\r\n        </b>\r\n        . Write the operators in all caps.\r\n    </p>\r\n    <p>\r\n        <img src=\"/sites/default/files/dul/using-the-library/searchTips-vennDiagram.png\" alt=\"Venn diagrams demonstrating the logic of Boolean search terms\" width=\"700\"\r\n        class=\"image-center img-polaroid img-responsive\">\r\n    </p>\r\n    <dl>\r\n        <dt>\r\n            AND\r\n        </dt>\r\n        <dd>\r\n            Searches using AND yield results containing all of the search terms. Using AND has the effect of narrowing the search. For\r\n            example, you could use\r\n            <em>\r\n                \"Toni Morrison\" AND \"Nobel Prize\"\r\n            </em>\r\n            to find Morrison's Nobel Prize acceptance speech.\r\n        </dd>\r\n        <dt>\r\n            OR\r\n        </dt>\r\n        <dd>\r\n            Searches using OR yield results including any of the search terms. Using OR has the effect of expanding the search. For\r\n            example, you could find works by contemporary Black writers using\r\n            <em>\r\n                \"Toni Morrison\" OR \"Alice Walker.\"\r\n            </em>\r\n        </dd>\r\n        <dt>\r\n            NOT\r\n        </dt>\r\n        <dd>\r\n            Searches using NOT exclude the following term or parenthetical expression. For example, you could find items titled\r\n            <e>\r\n                Beloved, while excluding work related to Toni Morrison, by using\r\n                <em>\r\n                    Beloved NOT \"Toni Morrison\"\r\n                </em>\r\n                .\r\n            </e>\r\n        </dd>\r\n    </dl>\r\n    <hr>\r\n    <h3 id=\"syntax\">\r\n        More tips about syntax\r\n    </h3>\r\n    <ul>\r\n        <li>\r\n            Use quotation marks to search as a phrase, such as\r\n            <em>\r\n                \"Stranger in a Strange Land.\"\r\n            </em>\r\n        </li>\r\n        <li>\r\n            The order of a name doesn't matter in a search. For example,&nbsp;\r\n            <em>\r\n                John Fowles\r\n            </em>\r\n            &nbsp;and&nbsp;\r\n            <em>\r\n                Fowles, John\r\n            </em>\r\n            &nbsp;will return the same results.\r\n        </li>\r\n        <li>\r\n            In a search with 6 or fewer search terms and no Boolean operators, all of the search terms are required by default. Thus,\r\n            searching\r\n            <em>\r\n                climate change\r\n            </em>\r\n            and\r\n            <em>\r\n                &nbsp;climate AND change&nbsp;\r\n            </em>\r\n            are equivalent.\r\n        </li>\r\n        <li>\r\n            The example above does not require that the two terms be next to each other. To conduct a search for a phrase, use quotation\r\n            marks (e.g.\r\n            <em>\r\n                \"climate change\"\r\n            </em>\r\n            ).\r\n        </li>\r\n        <li>\r\n            Use parentheses to enclose a phrase, such as\r\n            <em>\r\n                game NOT (chess OR checkers)\r\n            </em>\r\n            .\r\n        </li>\r\n        <li>\r\n            The Library Catalog is not case sensitive. Searches may be entered in any case. The only exception is that Boolean operators\r\n            (\r\n            <b>\r\n                AND\r\n            </b>\r\n            ,\r\n            <b>\r\n                OR\r\n            </b>\r\n            ,\r\n            <b>\r\n                NOT\r\n            </b>\r\n            ) should be capitalized.\r\n        </li>\r\n    </ul>\r\n\r\n <hr>\r\n    <h3 id=\"syntax\">\r\n        Searching multiple library locations\r\n    </h3>\r\n    <p>It is possible to look for results that are available at one of several library locations. For example, you may be interested in items that are available at Perkins & Bostock <em>or</em> at Lilly Library.</p>\r\n<p>On the Basic Search page, using facets to filter library locations will act as an <b>AND</b> search. For example, selecting Perkins & Bostock and Lilly will show results that are available at <em>both</em> Libraries, and exclude items that are available at only one.\r\n<p>To find items equivalent to the \"Perkins & Bostock <b>OR</b> Lilly\" search, use the Library Location attribute in Advanced Search.</p>\r\n<img src=\"/sites/default/files/dul/using-the-library/searchTips-multipleLibraryLocation.PNG\" alt=\"More than one library location can be selected in Advanced Search\" width=\"650\"\r\n        class=\"image-center img-polaroid img-responsive\">\r\n</div>",
      "revision_id" : 25687
   },
   "uuid" : "b4500137-1884-4914-96c8-ab7d7f735d35"
}

