{
   "langcode" : "und",
   "uuid" : "b7033699-08c4-4893-8bbf-fb4b110cd39b",
   "type" : "exhibit",
   "node__field_image" : {},
   "node_field_data" : {
      "type" : "exhibit",
      "promote" : 0,
      "changed" : null,
      "uid" : 1,
      "langcode" : "und",
      "revision_translation_affected" : 1,
      "title" : "the Duke Honor Council",
      "created" : 1555946564,
      "status" : 1,
      "default_langcode" : 1,
      "sticky" : 0
   },
   "path_alias" : {
      "alias" : "/exhibits/2020/HonorCouncil",
      "pid" : 4367,
      "language" : "und",
      "langcode" : "und",
      "status" : 0
   },
   "field_tags" : [],
   "node_access" : null,
   "revisions" : [
      {
         "promote" : 0,
         "timestamp" : 1586320170,
         "uid" : 2213,
         "node_revision__body" : {
            "langcode" : "und",
            "body_summary" : "",
            "entity_id" : 2211,
            "bundle" : "exhibit",
            "body_format" : "full_html",
            "delta" : 0,
            "deleted" : 0,
            "revision_id" : 24899,
            "body_value" : "<p>This exhibit is presented by the Duke Honor Council, in promotion of Integrity Week, taking place March 21-27, 2020. This year is the 27th anniversary of an honor code at Duke. We recognize the importance of upholding a culture of honor within our community, and we are grateful to all the efforts of the past to establish such a system.&nbsp;&nbsp;Please join Duke Honor Council for Integrity Week, happening March 21-27 and highlighting Integrity in Public Service within our community.&nbsp;<span style=\"font-size: 13.008px;\"><br></span></p>"
         },
         "title" : "the Duke Honor Council",
         "vuuid" : "d3c7165f-5b3f-46b3-ae2e-f924daad733e",
         "node_revision__field_tags" : [],
         "log" : "",
         "sticky" : 0,
         "comment" : 1,
         "status" : 1,
         "field_revision" : {
            "sticky" : 0,
            "revision_translation_affected" : 1,
            "default_langcode" : 1,
            "status" : 1,
            "uid" : 1,
            "langcode" : null,
            "created" : null,
            "changed" : null,
            "title" : "the Duke Honor Council"
         }
      }
   ],
   "node__body" : {
      "body_summary" : "",
      "entity_id" : 2211,
      "langcode" : "und",
      "deleted" : 0,
      "delta" : 0,
      "body_format" : "full_html",
      "bundle" : "exhibit",
      "revision_id" : 24899,
      "body_value" : "<p>This exhibit is presented by the Duke Honor Council, in promotion of Integrity Week, taking place March 21-27, 2020. This year is the 27th anniversary of an honor code at Duke. We recognize the importance of upholding a culture of honor within our community, and we are grateful to all the efforts of the past to establish such a system.&nbsp;&nbsp;Please join Duke Honor Council for Integrity Week, happening March 21-27 and highlighting Integrity in Public Service within our community.&nbsp;<span style=\"font-size: 13.008px;\"><br></span></p>"
   },
   "vid" : 24899,
   "field_image" : {
      "deleted" : 0,
      "revision_id" : 24899,
      "field_image_fid" : 4853,
      "language" : "und",
      "file_uuid" : "17524556-1185-4e53-b157-20cde389501a",
      "field_image_title" : "",
      "field_image_target_id" : 4853,
      "entity_id" : 2211,
      "delta" : 0,
      "bundle" : "exhibit",
      "field_image_width" : 800,
      "field_image_alt" : "",
      "langcode" : "und",
      "entity_type" : "node",
      "field_image_height" : 285
   },
   "nid" : "2211",
   "asidebox" : null
}

