{
   "revisions" : [
      {
         "promote" : 0,
         "timestamp" : 1615381761,
         "uid" : 117,
         "node_revision__body" : {
            "deleted" : 0,
            "body_format" : "full_html",
            "bundle" : "jobs_intern",
            "delta" : 0,
            "body_value" : "<p>The John Hope Franklin Research Center for African and African American History and Culture seeks a reliable candidate to fill the position of Franklin Research Center intern. Working closely with the center’s director, you will provide support for public services and collection development activities. This internship provides an opportunity to work closely with the center’s collections which include rare books, personal papers and manuscripts, oral histories, audiovisual, and ephemeral materials that document the African and African Diaspora experience from the 16<sup>th</sup> century to present day. <b></b></p><h2><strong>Responsibilities</strong></h2><ul><li>Provides reference services for remote and on-site researchers interested in the Franklin Research Center collections.</li><li>Assists with library instruction, including meeting with instructors, developing class objectives, selecting materials, co-teaching classes, and participating in instructional assessment. There may also be opportunities to create online modules for remote instruction.</li><li>Assists with public programming and other outreach activities such as website development and maintenance, event promotion, social media posts, writing blog posts, and exhibitions.</li><li>Assists with collection development activities such as catalog searching, collections intake, and creating/revising subject LibGuides.</li><li>Assists librarians with special projects.</li><li>Performs other duties as assigned.</li></ul><h2><strong>Supervisory Responsibilities</strong></h2><ul><li>None</li></ul><h2><strong>Qualifications</strong></h2><p>It is the expectation that all Duke University Libraries staff members will demonstrate exceptional workplace behaviors in the execution of their specific position responsibilities. These behaviors are customer focus, collaboration, creative problem solving, continuous learning, and a commitment to creating a culture of inclusion that values and respects diversity of perspective, background, and experience.&nbsp;<b> <br></b></p><h3><b><span style=\"text-decoration: underline;\">Education</span></b><b>:</b></h3><p><b>Required:</b> BA/BS and current enrollment or recent graduate in a relevant field or in a Public History or MLS program accredited by the American Library Association, or equivalent.&nbsp;&nbsp;&nbsp;&nbsp;&nbsp;&nbsp;&nbsp;&nbsp;&nbsp;&nbsp;&nbsp;&nbsp;&nbsp;&nbsp;&nbsp;&nbsp;&nbsp;&nbsp;&nbsp;&nbsp;&nbsp;&nbsp;&nbsp;&nbsp;&nbsp;&nbsp;&nbsp;&nbsp;&nbsp;&nbsp;&nbsp;&nbsp;&nbsp;&nbsp;&nbsp;&nbsp;&nbsp;&nbsp;&nbsp;&nbsp;&nbsp;&nbsp;&nbsp;&nbsp;&nbsp;&nbsp;</p><h3><b><span style=\"text-decoration: underline;\">Experience</span></b><b>: </b></h3><p><b>Required: </b>None required</p><p><b>Preferred:</b>&nbsp; Strong analytical, organizational, and writing skills<b>;</b> excellent communication and social skills; interest in African and African American studies; capacity to take initiative and thrive in a rapidly changing environment; ability to work freely and as a member of a team; accurate and detail-oriented; demonstrated commitment to providing outstanding customer services; prior experience in a special collections setting and/or completion of at least one course in public history and/or archival theory and practice; academic background in African and African American studies.<i> <br></i></p><h2><b>Working Conditions</b></h2><ul><li>Occasionally moves library materials weighing up to 40 pounds</li><li>Occasionally works in an environment in which exposure to materials containing dust and mold is possible</li></ul><ul><li>Constantly positions self to process materials</li><li>Normal office environment</li><li>Work will be split between remote and onsite</li></ul><p><strong>These statements are intended to describe the general nature and level of work being performed by the employee in this position. They are not intended to be construed as an exhaustive list of all responsibilities, duties, and skills required of a person in this position. This description is subject to change at any time.</strong></p><h2><strong>Hiring Rate</strong></h2><p>$17.00 per hour. <i>The position is not eligible for University fringe benefits or moving, housing, or relocation expenses</i>.</p><h2><strong>Hours</strong></h2><p>This internship is a temporary, part-time position available for up to 16 hours per week from August 2021 - May 2022. Hours are flexible within a M-F, 8:30-5:00 work week, but interns are expected to set and maintain a consistent schedule.</p><h2><b>Environment</b></h2><p>Since its founding in 1924, Duke University has grown into one of the most prestigious private universities in the world and its medical center ranks annually among the top in the nation. The Duke University Libraries are the shared center of the university's intellectual life, connecting people and ideas. The Libraries consist of the William R. Perkins Library and its branches: Rubenstein Rare Book &amp; Manuscript Library, Lilly, and Music and the library at the Duke Marine Laboratory in Beaufort.&nbsp; Duke’s library holdings of 6.1 million volumes are among the largest of private universities in the United States.</p><p>Duke is a diverse community committed to the principles of excellence, fairness, and respect for all people. As part of this commitment, we actively value diversity in our workplace and learning environments as we seek to take advantage of the rich backgrounds and abilities of everyone. We believe that when we understand, celebrate, and tap into our uniqueness to creatively solve problems and address shared goals, our possibilities are limitless. Duke University Libraries value diversity of thought, perspective, experience, and background and are actively committed to a culture of inclusion and respect.</p><p>Duke's hometown is Durham, North Carolina, a city with vibrant research, medical and arts communities, and numerous shops, restaurants and theaters. Durham is located in the Research Triangle, a growing metropolitan area of more than one million people that provides a wide range of cultural, recreational and educational opportunities. The Triangle is conveniently located just a few hours from the mountains and the coast, offers a moderate climate, and has been ranked among the best places to live and to do business.</p><h2><b>Application</b></h2><p>Review of applications will begin immediately and will continue until the position is filled.&nbsp; An electronic resume, cover letter, and list of 3 references should be submitted at: <a href=\"https://hr.duke.edu/careers/apply\">https://hr.duke.edu/careers/apply</a>.&nbsp;&nbsp; Refer to requisition<b> # 102157.&nbsp;&nbsp;&nbsp;&nbsp; </b></p><p><b><i>Duke University is an Affirmative Action/Equal Opportunity Employer committed to providing employment opportunity without regard to an individual’s age, color, disability, genetic information, gender, gender identity, national origin, race, religion, sexual orientation, or veteran status. The Duke University Libraries have a strong commitment to Affirmative Action and is actively seeking to increase the racial and ethnic diversity of our staff</i></b><b>.</b></p>",
            "revision_id" : 30387,
            "body_summary" : "",
            "entity_id" : 2541,
            "langcode" : "und"
         },
         "node_revision__field_tags" : [],
         "title" : "John Hope Franklin Research Center Internship",
         "vuuid" : "8d4c5f64-799c-49c6-893a-d7c5c9fbfda8",
         "comment" : 1,
         "sticky" : 0,
         "log" : "",
         "field_revision" : {
            "changed" : null,
            "title" : "John Hope Franklin Research Center Internship",
            "sticky" : 0,
            "revision_translation_affected" : 1,
            "default_langcode" : 1,
            "uid" : 1,
            "status" : 1,
            "langcode" : null,
            "created" : null
         },
         "status" : 1
      }
   ],
   "langcode" : "und",
   "vid" : 30387,
   "node__body" : {
      "body_format" : "full_html",
      "bundle" : "jobs_intern",
      "delta" : 0,
      "deleted" : 0,
      "revision_id" : 30387,
      "body_value" : "<p>The John Hope Franklin Research Center for African and African American History and Culture seeks a reliable candidate to fill the position of Franklin Research Center intern. Working closely with the center’s director, you will provide support for public services and collection development activities. This internship provides an opportunity to work closely with the center’s collections which include rare books, personal papers and manuscripts, oral histories, audiovisual, and ephemeral materials that document the African and African Diaspora experience from the 16<sup>th</sup> century to present day. <b></b></p><h2><strong>Responsibilities</strong></h2><ul><li>Provides reference services for remote and on-site researchers interested in the Franklin Research Center collections.</li><li>Assists with library instruction, including meeting with instructors, developing class objectives, selecting materials, co-teaching classes, and participating in instructional assessment. There may also be opportunities to create online modules for remote instruction.</li><li>Assists with public programming and other outreach activities such as website development and maintenance, event promotion, social media posts, writing blog posts, and exhibitions.</li><li>Assists with collection development activities such as catalog searching, collections intake, and creating/revising subject LibGuides.</li><li>Assists librarians with special projects.</li><li>Performs other duties as assigned.</li></ul><h2><strong>Supervisory Responsibilities</strong></h2><ul><li>None</li></ul><h2><strong>Qualifications</strong></h2><p>It is the expectation that all Duke University Libraries staff members will demonstrate exceptional workplace behaviors in the execution of their specific position responsibilities. These behaviors are customer focus, collaboration, creative problem solving, continuous learning, and a commitment to creating a culture of inclusion that values and respects diversity of perspective, background, and experience.&nbsp;<b> <br></b></p><h3><b><span style=\"text-decoration: underline;\">Education</span></b><b>:</b></h3><p><b>Required:</b> BA/BS and current enrollment or recent graduate in a relevant field or in a Public History or MLS program accredited by the American Library Association, or equivalent.&nbsp;&nbsp;&nbsp;&nbsp;&nbsp;&nbsp;&nbsp;&nbsp;&nbsp;&nbsp;&nbsp;&nbsp;&nbsp;&nbsp;&nbsp;&nbsp;&nbsp;&nbsp;&nbsp;&nbsp;&nbsp;&nbsp;&nbsp;&nbsp;&nbsp;&nbsp;&nbsp;&nbsp;&nbsp;&nbsp;&nbsp;&nbsp;&nbsp;&nbsp;&nbsp;&nbsp;&nbsp;&nbsp;&nbsp;&nbsp;&nbsp;&nbsp;&nbsp;&nbsp;&nbsp;&nbsp;</p><h3><b><span style=\"text-decoration: underline;\">Experience</span></b><b>: </b></h3><p><b>Required: </b>None required</p><p><b>Preferred:</b>&nbsp; Strong analytical, organizational, and writing skills<b>;</b> excellent communication and social skills; interest in African and African American studies; capacity to take initiative and thrive in a rapidly changing environment; ability to work freely and as a member of a team; accurate and detail-oriented; demonstrated commitment to providing outstanding customer services; prior experience in a special collections setting and/or completion of at least one course in public history and/or archival theory and practice; academic background in African and African American studies.<i> <br></i></p><h2><b>Working Conditions</b></h2><ul><li>Occasionally moves library materials weighing up to 40 pounds</li><li>Occasionally works in an environment in which exposure to materials containing dust and mold is possible</li></ul><ul><li>Constantly positions self to process materials</li><li>Normal office environment</li><li>Work will be split between remote and onsite</li></ul><p><strong>These statements are intended to describe the general nature and level of work being performed by the employee in this position. They are not intended to be construed as an exhaustive list of all responsibilities, duties, and skills required of a person in this position. This description is subject to change at any time.</strong></p><h2><strong>Hiring Rate</strong></h2><p>$17.00 per hour. <i>The position is not eligible for University fringe benefits or moving, housing, or relocation expenses</i>.</p><h2><strong>Hours</strong></h2><p>This internship is a temporary, part-time position available for up to 16 hours per week from August 2021 - May 2022. Hours are flexible within a M-F, 8:30-5:00 work week, but interns are expected to set and maintain a consistent schedule.</p><h2><b>Environment</b></h2><p>Since its founding in 1924, Duke University has grown into one of the most prestigious private universities in the world and its medical center ranks annually among the top in the nation. The Duke University Libraries are the shared center of the university's intellectual life, connecting people and ideas. The Libraries consist of the William R. Perkins Library and its branches: Rubenstein Rare Book &amp; Manuscript Library, Lilly, and Music and the library at the Duke Marine Laboratory in Beaufort.&nbsp; Duke’s library holdings of 6.1 million volumes are among the largest of private universities in the United States.</p><p>Duke is a diverse community committed to the principles of excellence, fairness, and respect for all people. As part of this commitment, we actively value diversity in our workplace and learning environments as we seek to take advantage of the rich backgrounds and abilities of everyone. We believe that when we understand, celebrate, and tap into our uniqueness to creatively solve problems and address shared goals, our possibilities are limitless. Duke University Libraries value diversity of thought, perspective, experience, and background and are actively committed to a culture of inclusion and respect.</p><p>Duke's hometown is Durham, North Carolina, a city with vibrant research, medical and arts communities, and numerous shops, restaurants and theaters. Durham is located in the Research Triangle, a growing metropolitan area of more than one million people that provides a wide range of cultural, recreational and educational opportunities. The Triangle is conveniently located just a few hours from the mountains and the coast, offers a moderate climate, and has been ranked among the best places to live and to do business.</p><h2><b>Application</b></h2><p>Review of applications will begin immediately and will continue until the position is filled.&nbsp; An electronic resume, cover letter, and list of 3 references should be submitted at: <a href=\"https://hr.duke.edu/careers/apply\">https://hr.duke.edu/careers/apply</a>.&nbsp;&nbsp; Refer to requisition<b> # 102157.&nbsp;&nbsp;&nbsp;&nbsp; </b></p><p><b><i>Duke University is an Affirmative Action/Equal Opportunity Employer committed to providing employment opportunity without regard to an individual’s age, color, disability, genetic information, gender, gender identity, national origin, race, religion, sexual orientation, or veteran status. The Duke University Libraries have a strong commitment to Affirmative Action and is actively seeking to increase the racial and ethnic diversity of our staff</i></b><b>.</b></p>",
      "body_summary" : "",
      "entity_id" : 2541,
      "langcode" : "und"
   },
   "uuid" : "b8b78f0b-4f46-49af-89dd-b36e6aa88d9f",
   "field_image" : null,
   "type" : "jobs_intern",
   "nid" : "2541",
   "field_tags" : [],
   "node_field_data" : {
      "default_langcode" : 1,
      "sticky" : 0,
      "created" : 1615381681,
      "status" : 1,
      "title" : "John Hope Franklin Research Center Internship",
      "revision_translation_affected" : 1,
      "langcode" : "und",
      "uid" : 1,
      "changed" : null,
      "promote" : 0,
      "type" : "jobs_intern"
   },
   "path_alias" : {
      "alias" : "/about/jobs/jhfintern",
      "pid" : 4850,
      "language" : "und",
      "langcode" : "und",
      "status" : 0
   },
   "node_access" : null,
   "asidebox" : {
      "body_value" : null,
      "block_module" : null,
      "body_format" : null,
      "bid" : null,
      "vid" : 30387,
      "body_title" : "",
      "nid" : 2541,
      "status" : "disabled",
      "block_delta" : null
   }
}

