{
   "field_tags" : [],
   "path_alias" : {
      "pid" : 3555,
      "alias" : "/about/depts/dpps/digital-collections-program",
      "language" : "und",
      "langcode" : "und",
      "status" : 0
   },
   "node_field_data" : {
      "type" : "page",
      "promote" : 0,
      "changed" : null,
      "langcode" : "und",
      "uid" : 1,
      "revision_translation_affected" : 1,
      "title" : "Digital Collections Program Redirect",
      "status" : 1,
      "created" : 1494263506,
      "sticky" : 0,
      "default_langcode" : 1
   },
   "nid" : "1571",
   "asidebox" : {
      "status" : "disabled",
      "block_delta" : null,
      "body_format" : null,
      "block_module" : null,
      "body_value" : null,
      "body_title" : "",
      "nid" : 1571,
      "bid" : null,
      "vid" : 16279
   },
   "node_access" : null,
   "revisions" : [
      {
         "node_revision__body" : {
            "body_value" : "<p>This page will redirect to <a href=\"/about/depts/dcaps/digital-collections-program\">Digital Collections Program</a>.</p>",
            "revision_id" : 16279,
            "bundle" : "page",
            "body_format" : "full_html",
            "delta" : 0,
            "deleted" : 0,
            "entity_id" : 1571,
            "body_summary" : "",
            "langcode" : "und"
         },
         "node_revision__field_tags" : [],
         "title" : "Digital Collections Program Redirect",
         "vuuid" : "9330329b-5d3b-49ae-8e2a-ccdeb39747f5",
         "comment" : 1,
         "sticky" : 0,
         "log" : "",
         "field_revision" : {
            "title" : "Digital Collections Program Redirect",
            "changed" : null,
            "uid" : 1,
            "status" : 1,
            "langcode" : null,
            "created" : null,
            "revision_translation_affected" : 1,
            "sticky" : 0,
            "default_langcode" : 1
         },
         "status" : 1,
         "promote" : 0,
         "timestamp" : 1494263506,
         "uid" : 3
      }
   ],
   "langcode" : "und",
   "vid" : 16279,
   "node__body" : {
      "body_summary" : "",
      "entity_id" : 1571,
      "langcode" : "und",
      "bundle" : "page",
      "body_format" : "full_html",
      "delta" : 0,
      "deleted" : 0,
      "revision_id" : 16279,
      "body_value" : "<p>This page will redirect to <a href=\"/about/depts/dcaps/digital-collections-program\">Digital Collections Program</a>.</p>"
   },
   "uuid" : "ba03736a-acf7-49be-94d5-1ce3bd9ecfbf",
   "field_image" : null,
   "type" : "page"
}

