{
   "langcode" : "und",
   "revisions" : [
      {
         "timestamp" : 1444243497,
         "uid" : 25,
         "promote" : 0,
         "log" : "",
         "sticky" : 0,
         "comment" : 1,
         "status" : 0,
         "field_revision" : {
            "title" : "practice",
            "changed" : null,
            "created" : null,
            "status" : 0,
            "uid" : 1,
            "langcode" : null,
            "default_langcode" : 1,
            "revision_translation_affected" : 1,
            "sticky" : 0
         },
         "node_revision__body" : {
            "langcode" : "und",
            "body_summary" : "",
            "entity_id" : 1185,
            "deleted" : 0,
            "bundle" : "about_page",
            "body_format" : "full_html",
            "delta" : 0,
            "revision_id" : 11487,
            "body_value" : "<p>content</p>"
         },
         "vuuid" : "f98250a9-3e04-4b3c-9377-4d42cc77c1f7",
         "title" : "practice",
         "node_revision__field_tags" : []
      }
   ],
   "type" : "about_page",
   "field_image" : null,
   "uuid" : "ba3f5daf-e198-4d50-9a60-08eec0928f05",
   "vid" : 11487,
   "node__body" : {
      "body_format" : "full_html",
      "bundle" : "about_page",
      "delta" : 0,
      "deleted" : 0,
      "revision_id" : 11487,
      "body_value" : "<p>content</p>",
      "body_summary" : "",
      "entity_id" : 1185,
      "langcode" : "und"
   },
   "node_access" : {
      "realm" : "view_unpublished_about_page_content",
      "langcode" : "und",
      "grant_delete" : 0,
      "gid" : 1,
      "grant_update" : 0,
      "grant_view" : 1,
      "nid" : 1185
   },
   "asidebox" : null,
   "nid" : "1185",
   "path_alias" : {
      "pid" : 1695,
      "alias" : "/using/new-page",
      "language" : "und",
      "langcode" : "und",
      "status" : 0
   },
   "node_field_data" : {
      "changed" : null,
      "promote" : 0,
      "type" : "about_page",
      "revision_translation_affected" : 1,
      "langcode" : "und",
      "uid" : 1,
      "title" : "practice",
      "sticky" : 0,
      "default_langcode" : 1,
      "status" : 0,
      "created" : 1444240562
   },
   "field_tags" : []
}

