{
   "revisions" : [
      {
         "promote" : 0,
         "timestamp" : 1617201608,
         "uid" : 60,
         "node_revision__body" : {
            "langcode" : "und",
            "entity_id" : 2535,
            "body_summary" : "",
            "body_value" : "<h2>Understanding the Experiences and Needs of Black Students at Duke</h2><p>In 2019, the Duke University Libraries conducted discussion groups and Photovoice research with Black undergraduate and graduate students at Duke University. Assessment &amp; User Experience (AUX) staff also analyzed the 2,800 student responses to the Libraries’ 2020 student satisfaction survey in light of what we learned from the fall discussion groups. We sought to understand students’ experiences in the Libraries and on campus to improve how all students interact with library services, facilities, and materials. We did not limit our discussions to library services and spaces, as it was important to explore Black students’ experience and use of the Libraries holistically. <a href=\"https://dukespace.lib.duke.edu/dspace/handle/10161/20753\" target=\"_blank\"><strong>Read the full report.</strong></a></p><h2>Understanding the Experiences and Needs of 1G Students at Duke</h2><p>How can Duke University – and the Duke University Libraries in particular – further support the success of its first-generation (1G) college students? To explore this question, a cross-departmental team of library staff conducted six focus groups with 1G students during the 2017-2018 academic year and analyzed responses from the Libraries’ 2018 user satisfaction survey with the 1G status demographic. While 1G students’ experiences are not monolithic, the research team was able to identify nine findings related to 1G students’ experiences on campus and in the Libraries. <a href=\"https://dukespace.lib.duke.edu/dspace/handle/10161/17144\" target=\"_blank\"><strong>Read the full report.</strong></a></p><h2>Diversity in Recruitment</h2><p>The Task Force for Diversity in Recruitment (DRTF) was charged in August 2017 to review current Duke University Libraries (DUL) search processes and to make recommendations that would help better embody the DUL principle Diversity Strengthens Us through successful recruitment of a diverse workforce. The following report includes recommendations for the DUL’s Executive Group, Library Human Resources, and DUL staff serving on search committees. The DRTF was informed by current literature on recruitment of underrepresented groups, documentation of DUL recruitment processes, conversations with key members of the Duke community, interviews with a sample of recent search committee members, and open meetings with DUL staff. <strong><a href=\"https://dukespace.lib.duke.edu/dspace/handle/10161/22451\">Read the full report.</a></strong>&nbsp;</p><h2>Duke University Libraries Statement on Inclusive Description</h2><p>Some of the historical language and metadata originally used to describe Duke's library holdings can seem quite dated today, and even racist or harmful. As we move forward, we're looking at some of our old metadata and thinking of ways to improve it. To that end, in November 2020, the Duke University Libraries Resource Description Department adopted a statement on inclusive description. <strong><a href=\"https://wiki.duke.edu/display/DTSP/Statement+on+Inclusive+Description\" target=\"_blank\">Read our statement on inclusive description.</a></strong></p><h2>Rubenstein Library Guiding Principles for Description</h2><p>The Rubenstein Library Technical Services department processes and catalogs a wide range of special collection formats (printed books, serials, ephemera, zines, archival papers, institutional records, film, video, born digital files, objects, and more) and creates description that is shared across a variety of platforms, such as the library catalog, finding aid database, and Duke’s institutional repository. In July 2020, the department adopted a formal set of guiding principles of with a goal of creating more inclusive metadata. <strong><a href=\"https://library.duke.edu/rubenstein/about/technical-services-department/guiding-principles-description\" target=\"_blank\">Read the guiding principles.</a></strong></p><h2>Rubenstein Library Instruction Code of Ethics</h2><p>Collections in the Rubenstein Library document a wide range of history, including some of the ugliest parts. In January 2019, Rubenstein Library staff adopted a code of ethics for instruction that helps us frame these materials up-front and clearly, in a way that recognizes the academic knowledge and lived experiences students bring to our classrooms. <a href=\"https://library.duke.edu/rubenstein/instruction/our-approach\" target=\"_blank\"><strong>Read our instruction code of ethics.</strong></a></p>",
            "revision_id" : 30444,
            "body_format" : "full_html",
            "bundle" : "about_page",
            "delta" : 0,
            "deleted" : 0
         },
         "node_revision__field_tags" : [],
         "vuuid" : "beb8bd04-a159-4fd3-a5d3-ff29d74cab83",
         "title" : "Diversity, Equity, and Inclusion Initiatives",
         "log" : "",
         "comment" : 1,
         "sticky" : 0,
         "field_revision" : {
            "changed" : null,
            "title" : "Diversity, Equity, and Inclusion Initiatives",
            "revision_translation_affected" : 1,
            "sticky" : 0,
            "default_langcode" : 1,
            "langcode" : null,
            "uid" : 1,
            "status" : 1,
            "created" : null
         },
         "status" : 1
      }
   ],
   "langcode" : "und",
   "uuid" : "bc8ec21d-6200-45f1-b060-a72ccc93371a",
   "vid" : 30444,
   "node__body" : {
      "entity_id" : 2535,
      "body_summary" : "",
      "langcode" : "und",
      "body_value" : "<h2>Understanding the Experiences and Needs of Black Students at Duke</h2><p>In 2019, the Duke University Libraries conducted discussion groups and Photovoice research with Black undergraduate and graduate students at Duke University. Assessment &amp; User Experience (AUX) staff also analyzed the 2,800 student responses to the Libraries’ 2020 student satisfaction survey in light of what we learned from the fall discussion groups. We sought to understand students’ experiences in the Libraries and on campus to improve how all students interact with library services, facilities, and materials. We did not limit our discussions to library services and spaces, as it was important to explore Black students’ experience and use of the Libraries holistically. <a href=\"https://dukespace.lib.duke.edu/dspace/handle/10161/20753\" target=\"_blank\"><strong>Read the full report.</strong></a></p><h2>Understanding the Experiences and Needs of 1G Students at Duke</h2><p>How can Duke University – and the Duke University Libraries in particular – further support the success of its first-generation (1G) college students? To explore this question, a cross-departmental team of library staff conducted six focus groups with 1G students during the 2017-2018 academic year and analyzed responses from the Libraries’ 2018 user satisfaction survey with the 1G status demographic. While 1G students’ experiences are not monolithic, the research team was able to identify nine findings related to 1G students’ experiences on campus and in the Libraries. <a href=\"https://dukespace.lib.duke.edu/dspace/handle/10161/17144\" target=\"_blank\"><strong>Read the full report.</strong></a></p><h2>Diversity in Recruitment</h2><p>The Task Force for Diversity in Recruitment (DRTF) was charged in August 2017 to review current Duke University Libraries (DUL) search processes and to make recommendations that would help better embody the DUL principle Diversity Strengthens Us through successful recruitment of a diverse workforce. The following report includes recommendations for the DUL’s Executive Group, Library Human Resources, and DUL staff serving on search committees. The DRTF was informed by current literature on recruitment of underrepresented groups, documentation of DUL recruitment processes, conversations with key members of the Duke community, interviews with a sample of recent search committee members, and open meetings with DUL staff. <strong><a href=\"https://dukespace.lib.duke.edu/dspace/handle/10161/22451\">Read the full report.</a></strong>&nbsp;</p><h2>Duke University Libraries Statement on Inclusive Description</h2><p>Some of the historical language and metadata originally used to describe Duke's library holdings can seem quite dated today, and even racist or harmful. As we move forward, we're looking at some of our old metadata and thinking of ways to improve it. To that end, in November 2020, the Duke University Libraries Resource Description Department adopted a statement on inclusive description. <strong><a href=\"https://wiki.duke.edu/display/DTSP/Statement+on+Inclusive+Description\" target=\"_blank\">Read our statement on inclusive description.</a></strong></p><h2>Rubenstein Library Guiding Principles for Description</h2><p>The Rubenstein Library Technical Services department processes and catalogs a wide range of special collection formats (printed books, serials, ephemera, zines, archival papers, institutional records, film, video, born digital files, objects, and more) and creates description that is shared across a variety of platforms, such as the library catalog, finding aid database, and Duke’s institutional repository. In July 2020, the department adopted a formal set of guiding principles of with a goal of creating more inclusive metadata. <strong><a href=\"https://library.duke.edu/rubenstein/about/technical-services-department/guiding-principles-description\" target=\"_blank\">Read the guiding principles.</a></strong></p><h2>Rubenstein Library Instruction Code of Ethics</h2><p>Collections in the Rubenstein Library document a wide range of history, including some of the ugliest parts. In January 2019, Rubenstein Library staff adopted a code of ethics for instruction that helps us frame these materials up-front and clearly, in a way that recognizes the academic knowledge and lived experiences students bring to our classrooms. <a href=\"https://library.duke.edu/rubenstein/instruction/our-approach\" target=\"_blank\"><strong>Read our instruction code of ethics.</strong></a></p>",
      "revision_id" : 30444,
      "deleted" : 0,
      "body_format" : "full_html",
      "delta" : 0,
      "bundle" : "about_page"
   },
   "type" : "about_page",
   "field_image" : null,
   "path_alias" : {
      "status" : 0,
      "langcode" : "und",
      "language" : "und",
      "pid" : 4843,
      "alias" : "/about/dei-initiatives"
   },
   "node_field_data" : {
      "status" : 1,
      "created" : 1614106610,
      "sticky" : 0,
      "default_langcode" : 1,
      "title" : "Diversity, Equity, and Inclusion Initiatives",
      "langcode" : "und",
      "uid" : 1,
      "revision_translation_affected" : 1,
      "type" : "about_page",
      "changed" : null,
      "promote" : 0
   },
   "field_tags" : [],
   "nid" : "2535",
   "asidebox" : {
      "status" : "disabled",
      "block_delta" : null,
      "body_value" : null,
      "block_module" : null,
      "body_format" : null,
      "bid" : null,
      "vid" : 30444,
      "nid" : 2535,
      "body_title" : ""
   },
   "node_access" : null
}

