{
   "field_image" : null,
   "type" : "page",
   "node__body" : {
      "body_format" : "full_html",
      "bundle" : "page",
      "delta" : 0,
      "deleted" : 0,
      "revision_id" : 22077,
      "body_value" : "<h2>Chronicle Articles</h2><ul><li><a href=\"/sites/default/files/dul/research/student-activism/11-23-1932%20%20Women%20Voters.png\">Nov 23, 1932</a> (PDF, size (for example 1 MB);</li></ul><hr class=\"dashed\"><p></p><h2>Other Related Documents</h2><p><img src=\"/sites/default/files/dul/research/student-activism/Voters2.png\" width=\"237\" height=\"269\"></p><p></p><p><img src=\"/sites/default/files/dul/research/student-activism/Women_0.png\" width=\"929\" height=\"1200\"></p>",
      "langcode" : "und",
      "body_summary" : "",
      "entity_id" : 1871
   },
   "vid" : 22077,
   "uuid" : "bfc0f2a0-0c6a-435e-bdf8-af00275776b0",
   "langcode" : "und",
   "revisions" : [
      {
         "node_revision__body" : {
            "langcode" : "und",
            "entity_id" : 1871,
            "body_summary" : "",
            "body_value" : "<h2>Chronicle Articles</h2><ul><li><a href=\"/sites/default/files/dul/research/student-activism/11-23-1932%20%20Women%20Voters.png\">Nov 23, 1932</a> (PDF, size (for example 1 MB);</li></ul><hr class=\"dashed\"><p></p><h2>Other Related Documents</h2><p><img src=\"/sites/default/files/dul/research/student-activism/Voters2.png\" width=\"237\" height=\"269\"></p><p></p><p><img src=\"/sites/default/files/dul/research/student-activism/Women_0.png\" width=\"929\" height=\"1200\"></p>",
            "revision_id" : 22077,
            "delta" : 0,
            "body_format" : "full_html",
            "bundle" : "page",
            "deleted" : 0
         },
         "node_revision__field_tags" : [],
         "vuuid" : "92906b25-fb09-40f9-b5c0-d9c9f7ce63e6",
         "title" : "Women Voters Nov 23, 1932",
         "comment" : 1,
         "sticky" : 0,
         "log" : "",
         "field_revision" : {
            "created" : null,
            "status" : 1,
            "uid" : 1,
            "langcode" : null,
            "default_langcode" : 1,
            "sticky" : 0,
            "revision_translation_affected" : 1,
            "title" : "Women Voters Nov 23, 1932",
            "changed" : null
         },
         "status" : 1,
         "promote" : 0,
         "timestamp" : 1524669842,
         "uid" : 3
      }
   ],
   "asidebox" : {
      "status" : "disabled",
      "block_delta" : null,
      "body_value" : null,
      "block_module" : null,
      "body_format" : null,
      "bid" : null,
      "vid" : 22077,
      "nid" : 1871,
      "body_title" : ""
   },
   "node_access" : null,
   "field_tags" : [],
   "node_field_data" : {
      "changed" : null,
      "promote" : 0,
      "type" : "page",
      "revision_translation_affected" : 1,
      "langcode" : "und",
      "uid" : 1,
      "title" : "Women Voters Nov 23, 1932",
      "default_langcode" : 1,
      "sticky" : 0,
      "created" : 1514993623,
      "status" : 1
   },
   "path_alias" : {
      "status" : 0,
      "langcode" : "und",
      "language" : "und",
      "pid" : 3927,
      "alias" : "/research/student-activism/documents/womenvoters"
   },
   "nid" : "1871"
}

