{
   "path_alias" : {
      "pid" : 837,
      "alias" : "/research/international/jewish-studies",
      "language" : "und",
      "langcode" : "und",
      "status" : 0
   },
   "node_field_data" : {
      "created" : 1390578082,
      "status" : 1,
      "default_langcode" : 1,
      "sticky" : 0,
      "title" : "Israel and Jewish Studies",
      "uid" : 1,
      "langcode" : "und",
      "revision_translation_affected" : 1,
      "type" : "research_page",
      "changed" : null,
      "promote" : 0
   },
   "field_tags" : [],
   "nid" : "553",
   "asidebox" : {
      "block_delta" : null,
      "status" : "html",
      "vid" : 18805,
      "bid" : null,
      "body_title" : "",
      "nid" : 553,
      "block_module" : null,
      "body_value" : "<p><img src=\"/sites/default/files/dul/research-support/international/jewish_studies.jpg\" alt=\"Israel and Jewish Studies\" width=\"400\" height=\"340\" class=\"img-responsive\"></p>",
      "body_format" : "full_html"
   },
   "node_access" : null,
   "revisions" : [
      {
         "uid" : 3,
         "timestamp" : 1507578517,
         "promote" : 0,
         "field_revision" : {
            "title" : "Israel and Jewish Studies",
            "changed" : null,
            "langcode" : null,
            "uid" : 1,
            "status" : 1,
            "created" : null,
            "revision_translation_affected" : 1,
            "sticky" : 0,
            "default_langcode" : 1
         },
         "status" : 1,
         "log" : "",
         "comment" : 1,
         "sticky" : 0,
         "node_revision__field_tags" : [],
         "vuuid" : "a3f2bb78-4ccb-4de5-8914-52f409ebb424",
         "title" : "Israel and Jewish Studies",
         "node_revision__body" : {
            "langcode" : "und",
            "body_summary" : "",
            "entity_id" : 553,
            "deleted" : 0,
            "body_format" : "full_html",
            "delta" : 0,
            "bundle" : "research_page",
            "body_value" : "<p>Getting Started</p><p>Find Information on Israel in many languages</p><ul><li>Get research help from the librarian!<a href=\"mailto:rachel.ariel@duke.edu\"> Make an appointment online</a>.</li><li><a href=\"https://guides.library.duke.edu/jewishstudies\">Research guides</a></li><li><a href=\"https://databases.library.duke.edu/content.php?pid=352264\">Specialized databases: books, articles, newspapers and more </a></li><li><a href=\"https://guides.library.duke.edu/content.php?pid=24422&amp;sid=2623886\">Films</a></li><li><a href=\"https://guides.library.duke.edu/content.php?pid=24422&amp;sid=2617467\">Numeric data &amp; statistics</a></li><li><a href=\"https://guides.library.duke.edu/content.php?pid=24422&amp;sid=2617192\">Maps</a></li><li>Primary sources <a href=\"https://guides.library.duke.edu/content.php?pid=221637&amp;sid=1840553\">at Rubenstein Library</a></li><li><a href=\"https://guides.library.duke.edu/content.php?pid=147675&amp;sid=1433778\">Learning Hebrew </a></li><li><a href=\"https://guides.library.duke.edu/content.php?pid=24422&amp;sid=2623951\">Conducting research in Israel</a></li><li><a href=\"https://guides.library.duke.edu/content.php?pid=24422&amp;sid=2905206\">Description of collection</a></li></ul><p>&nbsp;Librarian for Jewish Studies</p><p><br> <a href=\"/apps/directory/staff/91/\">Rachel Ariel</a><br> 237 Bostock Library<br> <a href=\"tel:+19196605842\">(919) 660-5842</a><br> <a href=\"mailto:rachel.ariel@duke.edu\">rachel.ariel@duke.edu</a></p>",
            "revision_id" : 18805
         }
      }
   ],
   "langcode" : "und",
   "uuid" : "c0267b71-3a57-4d72-ad3b-c9b5e9c54fc0",
   "node__body" : {
      "deleted" : 0,
      "body_format" : "full_html",
      "bundle" : "research_page",
      "delta" : 0,
      "revision_id" : 18805,
      "body_value" : "<p>Getting Started</p><p>Find Information on Israel in many languages</p><ul><li>Get research help from the librarian!<a href=\"mailto:rachel.ariel@duke.edu\"> Make an appointment online</a>.</li><li><a href=\"https://guides.library.duke.edu/jewishstudies\">Research guides</a></li><li><a href=\"https://databases.library.duke.edu/content.php?pid=352264\">Specialized databases: books, articles, newspapers and more </a></li><li><a href=\"https://guides.library.duke.edu/content.php?pid=24422&amp;sid=2623886\">Films</a></li><li><a href=\"https://guides.library.duke.edu/content.php?pid=24422&amp;sid=2617467\">Numeric data &amp; statistics</a></li><li><a href=\"https://guides.library.duke.edu/content.php?pid=24422&amp;sid=2617192\">Maps</a></li><li>Primary sources <a href=\"https://guides.library.duke.edu/content.php?pid=221637&amp;sid=1840553\">at Rubenstein Library</a></li><li><a href=\"https://guides.library.duke.edu/content.php?pid=147675&amp;sid=1433778\">Learning Hebrew </a></li><li><a href=\"https://guides.library.duke.edu/content.php?pid=24422&amp;sid=2623951\">Conducting research in Israel</a></li><li><a href=\"https://guides.library.duke.edu/content.php?pid=24422&amp;sid=2905206\">Description of collection</a></li></ul><p>&nbsp;Librarian for Jewish Studies</p><p><br> <a href=\"/apps/directory/staff/91/\">Rachel Ariel</a><br> 237 Bostock Library<br> <a href=\"tel:+19196605842\">(919) 660-5842</a><br> <a href=\"mailto:rachel.ariel@duke.edu\">rachel.ariel@duke.edu</a></p>",
      "body_summary" : "",
      "entity_id" : 553,
      "langcode" : "und"
   },
   "vid" : 18805,
   "type" : "research_page",
   "field_image" : null
}

