{
   "revisions" : [
      {
         "timestamp" : 1578589433,
         "uid" : 3,
         "promote" : 0,
         "sticky" : 0,
         "comment" : 1,
         "log" : "",
         "status" : 0,
         "field_revision" : {
            "sticky" : 0,
            "revision_translation_affected" : 1,
            "default_langcode" : 1,
            "uid" : 1,
            "status" : 0,
            "langcode" : null,
            "created" : null,
            "changed" : null,
            "title" : "Library Room Reservations (OLD)"
         },
         "node_revision__body" : {
            "body_value" : "<style>\r\n.exhibit-collectionView-header,\r\n.exhibit-toolboxWidget-popup {\r\n  display: none;\r\n}\r\n.exhibit-tileView-body {\r\n\tlist-style: none;\r\n\tmargin:0;\r\n\tpadding:0;\r\n}\r\n\r\n.exhibit-tileView-body li {\r\n\tlist-style: none;\r\n\tmargin:0;\r\n\tpadding:0;\r\n}\r\n\r\ndiv.exhibit-collectionView-group-content {\r\n\tmargin-left: 0;\r\n}\r\n\r\n.exhibit-facet {\r\n\twidth: 30% !important;\r\n\tfloat: left;\r\n\tmargin: 0.75% 1.5% 1.5% 1.5%;\r\n}\r\n\r\n@media only screen and (max-width: 695px) {\r\n\t.exhibit-facet { width: 100% !important; }\r\n}\r\n\r\n.exhibit-facet-value {\r\n\tfont-size: 85%;\r\n\tpadding: 0 0 0 0 !important;\r\n}\r\n\r\n.exhibit-facet-body {\r\n\theight: 80px !important;\r\n}\r\n\r\n.item-content {\r\n\tpadding: 10px !important;\r\n\tbackground: #f3f3f3;\r\n\tborder-top: 1px dotted #ccc;\r\n\tborder-bottom: 1px dotted #ccc;\r\n\tmargin-bottom: 15px !important;\r\n\twidth: 650px;\r\n}\r\n\r\n#olc-Content .exhibit-collectionView-group h1 {\r\nfont-size: 1.5em;\r\nline-height: 1.3em;\r\nmargin-top: 1.9em;\r\nmargin-bottom: 0.667em;\r\ncolor: #001e7b;\r\n}\r\n\r\n#olc-Content .item-content h3 a {\r\n\tfont-size: 15px;\r\n}\r\n\r\n.provider {\r\n\tfont-style: italic;\r\n\tcolor: #999;\r\n}\r\n\r\n.content-wrapper {\r\n\twidth: 960px;\r\n}\r\n\r\n.facets {\r\n\twidth: 250px;\r\n\tmargin: 0 0 30px 30px;\r\n\tfloat: right;\r\n}\r\n\r\ndiv.exhibit-facet-value-count {\r\n\tcolor: #767676;\r\n}\r\n\r\n.studyroom {\r\n\tdisplay: inline-block;\r\n\tbackground: #f6f6f6;\r\n\tborder: 1px dotted #ccc;\r\n\tmargin: 0 2px 15px !important;\r\n\t-webkit-column-break-inside: avoid;\r\n\t/*-moz-column-break-inside: avoid;*/\r\n\tcolumn-break-inside: avoid;\r\n\tpadding: 15px !important;\r\n}\r\n\r\n.studyroom h3 {\r\n\tfont-size: 12pt;\r\n\tfont-weight: bold;\r\n}\r\n\r\n.studyroom p {\r\n\tfont-size: 11pt;\r\n}\r\n\r\n.studyroom img {\r\n\twidth: 100%;\r\n\tborder-bottom: 1px solid #ccc;\r\n\tpadding-bottom: 15px;\r\n\tmargin-bottom: 5px;\r\n}\r\n\r\n.attributes p {\r\n\tfont-size: 90%; color: #707070; font-style: italic;\r\n}\r\n\r\n.exhibit-resizableDivWidget-resizer {\r\n\tdisplay: none;\r\n}\r\n\r\n.nav-controls {\r\n\tbackground: #f6f6f6;\r\n\toverflow: hidden;\r\n\tmargin-top: 1em;\r\n  margin-bottom: 20px;\r\n\tborder: 1px dotted #ccc;\r\n}\r\n\r\ndiv.exhibit-facet-body {\r\n\tbackground: #fff;\r\n}\r\n\r\n\r\n</style>\r\n\r\n<ul id=\"myTab\" class=\"nav nav-tabs\">\r\n<li class=\"active\"><a href=\"\"> Places to Study </a></li>\r\n<li><a href=\"http://duke.libcal.com/reserve/interview\"> Interview Rooms </a></li>\r\n<li><a href=\"/using/room-reservations/places-for-events\"> Places for Events </a></li>\r\n<li><a href=\"/edge/project-spaces\"> Edge Project Spaces </a></li>\r\n</ul>\r\n\r\n<h2>Reserving Group Study Rooms</h2>\r\n<p>Duke University students, faculty and staff may reserve group study rooms in the Libraries <strong>for academic use</strong> for a maximum of three hours per day. When using these rooms, we ask that you maintain them as <a href=\"https://library.duke.edu/using/policies/inclusive-space\">inclusive spaces</a> for the Duke Community. </p>\r\n<p style=\"padding: 1.2em 0;\"><a class=\"btn btn-primary\" href=\"http://duke.libcal.com/reserve/perkins\"><strong>Reserve a study room </strong></a>&#8195;<span class=\"text-muted\"><em>in Perkins or Bostock Libraries</em></span></p>\r\n\r\n<h2>About our study spaces (both reservable and drop-in)</h2>\r\n<p>Find reservable and drop-in study spaces filtered by location or room features.</p>\r\n\r\n<div data-ex-role=\"collection\" data-ex-type=\"show\"></div>\r\n\r\n\t<div class=\"nav-controls\">\r\n\r\n\t\t<div data-ex-role=\"facet\" data-ex-expression=\".campus\" data-ex-facetLabel=\"Filter by Campus\"></div>\r\n\t\t<div data-ex-role=\"facet\" data-ex-expression=\".library\" data-ex-sortDirection=\"reverse\" data-ex-facetLabel=\"Filter by Location\"></div>\r\n\t\t<div data-ex-role=\"facet\" data-ex-expression=\".attributes\" data-ex-sortDirection=\"reverse\" data-ex-facetLabel=\"Filter by Room Features\"></div>\r\n\r\n\t</div>\r\n\r\n<div class=\"studyrooms\">\r\n\r\n\t<div data-ex-role=\"viewPanel\">\r\n\r\n\t\t<div data-ex-role=\"lens\">\r\n\r\n\t\t\t<div class=\"studyroom\">\r\n\r\n\t\t\t\t<div data-ex-if-exists=\".image\"><img data-ex-src-content=\".image\" alt=\"photo of room\" /></div>\r\n\r\n\t\t\t\t<h3 data-ex-content=\".label\"></h3>\r\n\r\n  \t\t\t\t<p class=\"location\"><strong>Location:</strong> <a data-ex-href-content=\".url\"><span data-ex-content=\".library\"></span></a>, <span data-ex-content=\".location\"></span></p>\r\n\r\n  \t\t\t\t<div data-ex-if-exists=\".description\">\r\n\t\t\t\t\t<h4 class=\"sr-only\">Description:</h4>\r\n\t\t\t\t\t<p class=\"description\" data-ex-content=\".description\"></p>\r\n\t\t\t\t</div>\r\n\r\n  \t\t\t\t<div class=\"attributes\">\r\n\t\t\t\t\t<h4 class=\"sr-only\">Attributes:</h4>\r\n\t\t\t\t\t<p data-ex-content=\".attributes\"></p>\r\n  \t\t\t\t</div>\r\n\r\n\r\n\t\t\t\t<div data-ex-if-exists=\".reserve\">\r\n\t\t\t\t\t<a data-ex-href-content=\".reserve\" class=\"btn btn-primary\" target=\"_blank\"><span class=\"sr-only\" data-ex-content=\".label\"></span> <span class=\"sr-only\">-</span> Reserve this Room!</a>\r\n\t\t\t\t</div>\r\n\r\n\t\t\t</div>\r\n\r\n\t\t</div>\r\n\r\n\t\t<div data-ex-role=\"view\"\r\n\t\t\tdata-ex-showHeader=\"false\"\r\n\t\t\tdata-ex-showFooter=\"false\"\r\n\t\t\tdata-ex-showToolbox=\"false\"\r\n\t\t\tdata-ex-showAll=\"true\">\r\n \t\t</div>\r\n\r\n\r\n\t</div>\r\n\r\n</div>\r\n",
            "revision_id" : 27531,
            "body_format" : "full_html_no_wysiwyg",
            "bundle" : "page",
            "delta" : 0,
            "deleted" : 0,
            "langcode" : "und",
            "entity_id" : 1511,
            "body_summary" : ""
         },
         "title" : "Library Room Reservations (OLD)",
         "vuuid" : "d7765ad0-3f42-42b6-a0de-9802679a7139",
         "node_revision__field_tags" : []
      }
   ],
   "langcode" : "und",
   "node__body" : {
      "body_format" : "full_html_no_wysiwyg",
      "bundle" : "page",
      "delta" : 0,
      "deleted" : 0,
      "body_value" : "<style>\r\n.exhibit-collectionView-header,\r\n.exhibit-toolboxWidget-popup {\r\n  display: none;\r\n}\r\n.exhibit-tileView-body {\r\n\tlist-style: none;\r\n\tmargin:0;\r\n\tpadding:0;\r\n}\r\n\r\n.exhibit-tileView-body li {\r\n\tlist-style: none;\r\n\tmargin:0;\r\n\tpadding:0;\r\n}\r\n\r\ndiv.exhibit-collectionView-group-content {\r\n\tmargin-left: 0;\r\n}\r\n\r\n.exhibit-facet {\r\n\twidth: 30% !important;\r\n\tfloat: left;\r\n\tmargin: 0.75% 1.5% 1.5% 1.5%;\r\n}\r\n\r\n@media only screen and (max-width: 695px) {\r\n\t.exhibit-facet { width: 100% !important; }\r\n}\r\n\r\n.exhibit-facet-value {\r\n\tfont-size: 85%;\r\n\tpadding: 0 0 0 0 !important;\r\n}\r\n\r\n.exhibit-facet-body {\r\n\theight: 80px !important;\r\n}\r\n\r\n.item-content {\r\n\tpadding: 10px !important;\r\n\tbackground: #f3f3f3;\r\n\tborder-top: 1px dotted #ccc;\r\n\tborder-bottom: 1px dotted #ccc;\r\n\tmargin-bottom: 15px !important;\r\n\twidth: 650px;\r\n}\r\n\r\n#olc-Content .exhibit-collectionView-group h1 {\r\nfont-size: 1.5em;\r\nline-height: 1.3em;\r\nmargin-top: 1.9em;\r\nmargin-bottom: 0.667em;\r\ncolor: #001e7b;\r\n}\r\n\r\n#olc-Content .item-content h3 a {\r\n\tfont-size: 15px;\r\n}\r\n\r\n.provider {\r\n\tfont-style: italic;\r\n\tcolor: #999;\r\n}\r\n\r\n.content-wrapper {\r\n\twidth: 960px;\r\n}\r\n\r\n.facets {\r\n\twidth: 250px;\r\n\tmargin: 0 0 30px 30px;\r\n\tfloat: right;\r\n}\r\n\r\ndiv.exhibit-facet-value-count {\r\n\tcolor: #767676;\r\n}\r\n\r\n.studyroom {\r\n\tdisplay: inline-block;\r\n\tbackground: #f6f6f6;\r\n\tborder: 1px dotted #ccc;\r\n\tmargin: 0 2px 15px !important;\r\n\t-webkit-column-break-inside: avoid;\r\n\t/*-moz-column-break-inside: avoid;*/\r\n\tcolumn-break-inside: avoid;\r\n\tpadding: 15px !important;\r\n}\r\n\r\n.studyroom h3 {\r\n\tfont-size: 12pt;\r\n\tfont-weight: bold;\r\n}\r\n\r\n.studyroom p {\r\n\tfont-size: 11pt;\r\n}\r\n\r\n.studyroom img {\r\n\twidth: 100%;\r\n\tborder-bottom: 1px solid #ccc;\r\n\tpadding-bottom: 15px;\r\n\tmargin-bottom: 5px;\r\n}\r\n\r\n.attributes p {\r\n\tfont-size: 90%; color: #707070; font-style: italic;\r\n}\r\n\r\n.exhibit-resizableDivWidget-resizer {\r\n\tdisplay: none;\r\n}\r\n\r\n.nav-controls {\r\n\tbackground: #f6f6f6;\r\n\toverflow: hidden;\r\n\tmargin-top: 1em;\r\n  margin-bottom: 20px;\r\n\tborder: 1px dotted #ccc;\r\n}\r\n\r\ndiv.exhibit-facet-body {\r\n\tbackground: #fff;\r\n}\r\n\r\n\r\n</style>\r\n\r\n<ul id=\"myTab\" class=\"nav nav-tabs\">\r\n<li class=\"active\"><a href=\"\"> Places to Study </a></li>\r\n<li><a href=\"http://duke.libcal.com/reserve/interview\"> Interview Rooms </a></li>\r\n<li><a href=\"/using/room-reservations/places-for-events\"> Places for Events </a></li>\r\n<li><a href=\"/edge/project-spaces\"> Edge Project Spaces </a></li>\r\n</ul>\r\n\r\n<h2>Reserving Group Study Rooms</h2>\r\n<p>Duke University students, faculty and staff may reserve group study rooms in the Libraries <strong>for academic use</strong> for a maximum of three hours per day. When using these rooms, we ask that you maintain them as <a href=\"https://library.duke.edu/using/policies/inclusive-space\">inclusive spaces</a> for the Duke Community. </p>\r\n<p style=\"padding: 1.2em 0;\"><a class=\"btn btn-primary\" href=\"http://duke.libcal.com/reserve/perkins\"><strong>Reserve a study room </strong></a>&#8195;<span class=\"text-muted\"><em>in Perkins or Bostock Libraries</em></span></p>\r\n\r\n<h2>About our study spaces (both reservable and drop-in)</h2>\r\n<p>Find reservable and drop-in study spaces filtered by location or room features.</p>\r\n\r\n<div data-ex-role=\"collection\" data-ex-type=\"show\"></div>\r\n\r\n\t<div class=\"nav-controls\">\r\n\r\n\t\t<div data-ex-role=\"facet\" data-ex-expression=\".campus\" data-ex-facetLabel=\"Filter by Campus\"></div>\r\n\t\t<div data-ex-role=\"facet\" data-ex-expression=\".library\" data-ex-sortDirection=\"reverse\" data-ex-facetLabel=\"Filter by Location\"></div>\r\n\t\t<div data-ex-role=\"facet\" data-ex-expression=\".attributes\" data-ex-sortDirection=\"reverse\" data-ex-facetLabel=\"Filter by Room Features\"></div>\r\n\r\n\t</div>\r\n\r\n<div class=\"studyrooms\">\r\n\r\n\t<div data-ex-role=\"viewPanel\">\r\n\r\n\t\t<div data-ex-role=\"lens\">\r\n\r\n\t\t\t<div class=\"studyroom\">\r\n\r\n\t\t\t\t<div data-ex-if-exists=\".image\"><img data-ex-src-content=\".image\" alt=\"photo of room\" /></div>\r\n\r\n\t\t\t\t<h3 data-ex-content=\".label\"></h3>\r\n\r\n  \t\t\t\t<p class=\"location\"><strong>Location:</strong> <a data-ex-href-content=\".url\"><span data-ex-content=\".library\"></span></a>, <span data-ex-content=\".location\"></span></p>\r\n\r\n  \t\t\t\t<div data-ex-if-exists=\".description\">\r\n\t\t\t\t\t<h4 class=\"sr-only\">Description:</h4>\r\n\t\t\t\t\t<p class=\"description\" data-ex-content=\".description\"></p>\r\n\t\t\t\t</div>\r\n\r\n  \t\t\t\t<div class=\"attributes\">\r\n\t\t\t\t\t<h4 class=\"sr-only\">Attributes:</h4>\r\n\t\t\t\t\t<p data-ex-content=\".attributes\"></p>\r\n  \t\t\t\t</div>\r\n\r\n\r\n\t\t\t\t<div data-ex-if-exists=\".reserve\">\r\n\t\t\t\t\t<a data-ex-href-content=\".reserve\" class=\"btn btn-primary\" target=\"_blank\"><span class=\"sr-only\" data-ex-content=\".label\"></span> <span class=\"sr-only\">-</span> Reserve this Room!</a>\r\n\t\t\t\t</div>\r\n\r\n\t\t\t</div>\r\n\r\n\t\t</div>\r\n\r\n\t\t<div data-ex-role=\"view\"\r\n\t\t\tdata-ex-showHeader=\"false\"\r\n\t\t\tdata-ex-showFooter=\"false\"\r\n\t\t\tdata-ex-showToolbox=\"false\"\r\n\t\t\tdata-ex-showAll=\"true\">\r\n \t\t</div>\r\n\r\n\r\n\t</div>\r\n\r\n</div>\r\n",
      "revision_id" : 27531,
      "langcode" : "und",
      "body_summary" : "",
      "entity_id" : 1511
   },
   "vid" : 27531,
   "uuid" : "c2ad2277-a524-4229-88dc-d748c4f7dc34",
   "field_image" : null,
   "type" : "page",
   "field_tags" : [],
   "node_field_data" : {
      "created" : 1487356656,
      "status" : 0,
      "default_langcode" : 1,
      "sticky" : 0,
      "title" : "Library Room Reservations (OLD)",
      "uid" : 1,
      "langcode" : "und",
      "revision_translation_affected" : 1,
      "type" : "page",
      "promote" : 0,
      "changed" : null
   },
   "path_alias" : {
      "langcode" : "und",
      "status" : 0,
      "language" : "und",
      "alias" : "/using/room-reservations-BAK",
      "pid" : 3473
   },
   "nid" : "1511",
   "asidebox" : null,
   "node_access" : null
}

