{
   "node_access" : null,
   "asidebox" : {
      "vid" : 25925,
      "bid" : null,
      "body_title" : "Quick links",
      "nid" : 2255,
      "body_value" : "<ul><li><a href=\"styleguide\"> Visual Style Guide </a></li><li><a href=\"writing-styleguide\"> Writing Style Guide </a></li><li><a href=\"shared-terms\"> Shared Terms </a></li><li><a href=\"content-checklist\"> Extended Checklist </a></li></ul><!-- <p>\r\n<a href=\"https://library.duke.edu/about/styleguide\" class=\"btn btn-default\">\r\nStyle Guide\r\n</a>\r\n</p>-->",
      "block_module" : null,
      "body_format" : "full_html",
      "block_delta" : null,
      "status" : "html"
   },
   "nid" : "2255",
   "field_tags" : [],
   "node_field_data" : {
      "default_langcode" : 1,
      "sticky" : 0,
      "created" : 1561509271,
      "status" : 1,
      "title" : "Web Content Guidelines",
      "revision_translation_affected" : 1,
      "langcode" : "und",
      "uid" : 1,
      "promote" : 0,
      "changed" : null,
      "type" : "page"
   },
   "path_alias" : {
      "langcode" : "und",
      "status" : 0,
      "language" : "und",
      "pid" : 4415,
      "alias" : "/about/content-guidelines"
   },
   "langcode" : "und",
   "revisions" : [
      {
         "title" : "Web Content Guidelines",
         "vuuid" : "8b72aba2-ddce-4e09-b0da-8f427e736ea6",
         "node_revision__field_tags" : [],
         "node_revision__body" : {
            "deleted" : 0,
            "bundle" : "page",
            "body_format" : "full_html_no_wysiwyg",
            "delta" : 0,
            "revision_id" : 25925,
            "body_value" : "<p class=\"lead\">\r\n    Use this guide to review webpages for clarity, consistency, and user-friendliness.\r\n</p>\r\n<p>\r\n    Most of us don't read webpages the same way we read print. We scan, skim, and jump from place to place. So it's important\r\n    to write in a web-friendly style. These editorial tips are guidelines, not hard-and-fast rules.\r\n</p>\r\n<h2 id=\"essentials\">\r\n    Content essentials checklist\r\n    <a href=\"content-checklist\" class=\"callbox\">\r\n        extended\r\n    </a>\r\n</h2>\r\n<p class=\"text-muted\">\r\n    Keep it handy while editing: \r\n    <a href=\"/sites/default/files/dul/using-the-library/DUL-content-checklist-July2019.pdf\">\r\n        Download the PDF\r\n    </a>\r\n</p>\r\n<ul class=\"list-unstyled\">\r\n    <li>\r\n        <input type=\"checkbox\">\r\n        &nbsp; Include the most important information at the top\r\n    </li>\r\n    <li>\r\n        <input type=\"checkbox\">\r\n        &nbsp; Use active voice\r\n    </li>\r\n    <li>\r\n        <input type=\"checkbox\">\r\n        &nbsp; Eliminate blocks of text\r\n    </li>\r\n    <li>\r\n        <input type=\"checkbox\">\r\n        &nbsp; Break up text with <code>H2</code> and <code>H3</code> headings\r\n    </li>\r\n    <li>\r\n        <input type=\"checkbox\">\r\n        &nbsp; Provide headings that are meaningful without supporting text\r\n    </li>\r\n    <li>\r\n        <input type=\"checkbox\">\r\n        &nbsp; Write headings in `Sentence case`, not `Title Case`\r\n    </li>\r\n    <li>\r\n        <input type=\"checkbox\">\r\n        &nbsp; Present information in bulleted lists whenever possible\r\n    </li>\r\n    <li>\r\n        <input type=\"checkbox\">\r\n        &nbsp; Write meaningful, descriptive link text\r\n    </li>\r\n    <li>\r\n        <input type=\"checkbox\">\r\n        &nbsp; Use at least one visual element from the <a href=\"styleguide\">Visual Style Guide</a>\r\n    </li>\r\n    <li>\r\n        <input type=\"checkbox\">\r\n        &nbsp; Include illustrations/images for clarity and/or friendliness\r\n    </li>\r\n    <li>\r\n        <input type=\"checkbox\">\r\n        &nbsp; Use alt text for illustrations/images that convey substantive information\r\n    </li>\r\n    <li>\r\n        <input type=\"checkbox\">\r\n        &nbsp; Adhere to the\r\n        <a href=\"shared-terms\">Shared Terminology Guide</a>\r\n    </li>\r\n    <li>\r\n        <input type=\"checkbox\">\r\n        &nbsp; Re-visit your content\r\n    </li>\r\n</ul>\r\n<p>\r\n    Learn more about the directives above: check out the <a href=\"content-checklist\">Extended Checklist</a>.\r\n\r\n</p>\r\n<h2>\r\n    Collected content resources\r\n</h2>\r\n<ul>\r\n    <li>\r\n        <a href=\"styleguide\">\r\n            How do I style headings, bullets, tables, buttons, and more?\r\n        </a>\r\n        &nbsp;(Visual Style Guide)\r\n    </li>\r\n    <li>\r\n        <a href=\"writing-styleguide\">\r\n            What guidelines should I use when writing content?\r\n        </a>\r\n        &nbsp;(Web Writing Style Guide)\r\n    </li>\r\n    <li>\r\n        <a href=\"shared-terms\">\r\n            What do I call library services and locations?\r\n        </a>\r\n        &nbsp;(Shared Terminology for Web Content)\r\n    </li>\r\n    <li>\r\n        <a href=\"writing-styleguide#accessibility\">\r\n            How do I make my webpages accessible?\r\n        </a>\r\n    </li>\r\n    <li>\r\n        <a href=\"writing-styleguide#headings\">\r\n           How do I write effective headings?\r\n        </a>\r\n    </li>\r\n <li>\r\n        <a href=\"writing-styleguide#images\">\r\n           Where can I find good photos and images?\r\n        </a>\r\n    </li>\r\n</ul>\r\n\r\n<!--\r\n<h2>\r\n    Suggested resource usage\r\n</h2>\r\n<p>\r\n    I want to:\r\n</p>\r\n\r\n<table class=\"bordered table-hover\">\r\n    <tbody>\r\n        <tr>\r\n            <td width=\"40%\" table=\"\" border=\"1\">\r\n                Quickly see an existing page meets content guidelines\r\n            </td>\r\n            <td width=\"50%\">\r\n                Use the\r\n                <a href=\"#essentials\">\r\n                    Content Essentials Checklist\r\n                </a>\r\n                on this page\r\n            </td>\r\n        </tr>\r\n        <tr table=\"\" border=\"1\">\r\n            <td>\r\n                See if an existing page meets content guidelines with helpful examples\r\n            </td>\r\n            <td>\r\n                Use the\r\n                <a href=\"content-checklist\">\r\n                    Extended Content Essentials Checklist\r\n                </a>\r\n            </td>\r\n        </tr>\r\n        <tr>\r\n            <td>\r\n                Get specific guidelines, such as using images or creating headings\r\n            </td>\r\n            <td>\r\n                Use the\r\n                <a href=\"writing-styleguide\">\r\n                    Web Writing Style Guide\r\n                </a>\r\n            </td>\r\n        </tr>\r\n        <tr>\r\n            <td>\r\n                How I should refer to the Catalog, PBR, and other Libraries locations and services\r\n            </td>\r\n            <td>\r\n                Use the\r\n                <a href=\"shared-terms\">\r\n                    Shared Terminology for Web Content\r\n                </a>\r\n                page\r\n            </td>\r\n        </tr>\r\n    </tbody>\r\n</table>\r\n-->",
            "body_summary" : "",
            "entity_id" : 2255,
            "langcode" : "und"
         },
         "status" : 1,
         "field_revision" : {
            "changed" : null,
            "title" : "Web Content Guidelines",
            "default_langcode" : 1,
            "sticky" : 0,
            "revision_translation_affected" : 1,
            "created" : null,
            "status" : 1,
            "uid" : 1,
            "langcode" : null
         },
         "sticky" : 0,
         "comment" : 1,
         "log" : "",
         "promote" : 0,
         "uid" : 2077,
         "timestamp" : 1564502276
      }
   ],
   "field_image" : null,
   "type" : "page",
   "vid" : 25925,
   "node__body" : {
      "body_value" : "<p class=\"lead\">\r\n    Use this guide to review webpages for clarity, consistency, and user-friendliness.\r\n</p>\r\n<p>\r\n    Most of us don't read webpages the same way we read print. We scan, skim, and jump from place to place. So it's important\r\n    to write in a web-friendly style. These editorial tips are guidelines, not hard-and-fast rules.\r\n</p>\r\n<h2 id=\"essentials\">\r\n    Content essentials checklist\r\n    <a href=\"content-checklist\" class=\"callbox\">\r\n        extended\r\n    </a>\r\n</h2>\r\n<p class=\"text-muted\">\r\n    Keep it handy while editing: \r\n    <a href=\"/sites/default/files/dul/using-the-library/DUL-content-checklist-July2019.pdf\">\r\n        Download the PDF\r\n    </a>\r\n</p>\r\n<ul class=\"list-unstyled\">\r\n    <li>\r\n        <input type=\"checkbox\">\r\n        &nbsp; Include the most important information at the top\r\n    </li>\r\n    <li>\r\n        <input type=\"checkbox\">\r\n        &nbsp; Use active voice\r\n    </li>\r\n    <li>\r\n        <input type=\"checkbox\">\r\n        &nbsp; Eliminate blocks of text\r\n    </li>\r\n    <li>\r\n        <input type=\"checkbox\">\r\n        &nbsp; Break up text with <code>H2</code> and <code>H3</code> headings\r\n    </li>\r\n    <li>\r\n        <input type=\"checkbox\">\r\n        &nbsp; Provide headings that are meaningful without supporting text\r\n    </li>\r\n    <li>\r\n        <input type=\"checkbox\">\r\n        &nbsp; Write headings in `Sentence case`, not `Title Case`\r\n    </li>\r\n    <li>\r\n        <input type=\"checkbox\">\r\n        &nbsp; Present information in bulleted lists whenever possible\r\n    </li>\r\n    <li>\r\n        <input type=\"checkbox\">\r\n        &nbsp; Write meaningful, descriptive link text\r\n    </li>\r\n    <li>\r\n        <input type=\"checkbox\">\r\n        &nbsp; Use at least one visual element from the <a href=\"styleguide\">Visual Style Guide</a>\r\n    </li>\r\n    <li>\r\n        <input type=\"checkbox\">\r\n        &nbsp; Include illustrations/images for clarity and/or friendliness\r\n    </li>\r\n    <li>\r\n        <input type=\"checkbox\">\r\n        &nbsp; Use alt text for illustrations/images that convey substantive information\r\n    </li>\r\n    <li>\r\n        <input type=\"checkbox\">\r\n        &nbsp; Adhere to the\r\n        <a href=\"shared-terms\">Shared Terminology Guide</a>\r\n    </li>\r\n    <li>\r\n        <input type=\"checkbox\">\r\n        &nbsp; Re-visit your content\r\n    </li>\r\n</ul>\r\n<p>\r\n    Learn more about the directives above: check out the <a href=\"content-checklist\">Extended Checklist</a>.\r\n\r\n</p>\r\n<h2>\r\n    Collected content resources\r\n</h2>\r\n<ul>\r\n    <li>\r\n        <a href=\"styleguide\">\r\n            How do I style headings, bullets, tables, buttons, and more?\r\n        </a>\r\n        &nbsp;(Visual Style Guide)\r\n    </li>\r\n    <li>\r\n        <a href=\"writing-styleguide\">\r\n            What guidelines should I use when writing content?\r\n        </a>\r\n        &nbsp;(Web Writing Style Guide)\r\n    </li>\r\n    <li>\r\n        <a href=\"shared-terms\">\r\n            What do I call library services and locations?\r\n        </a>\r\n        &nbsp;(Shared Terminology for Web Content)\r\n    </li>\r\n    <li>\r\n        <a href=\"writing-styleguide#accessibility\">\r\n            How do I make my webpages accessible?\r\n        </a>\r\n    </li>\r\n    <li>\r\n        <a href=\"writing-styleguide#headings\">\r\n           How do I write effective headings?\r\n        </a>\r\n    </li>\r\n <li>\r\n        <a href=\"writing-styleguide#images\">\r\n           Where can I find good photos and images?\r\n        </a>\r\n    </li>\r\n</ul>\r\n\r\n<!--\r\n<h2>\r\n    Suggested resource usage\r\n</h2>\r\n<p>\r\n    I want to:\r\n</p>\r\n\r\n<table class=\"bordered table-hover\">\r\n    <tbody>\r\n        <tr>\r\n            <td width=\"40%\" table=\"\" border=\"1\">\r\n                Quickly see an existing page meets content guidelines\r\n            </td>\r\n            <td width=\"50%\">\r\n                Use the\r\n                <a href=\"#essentials\">\r\n                    Content Essentials Checklist\r\n                </a>\r\n                on this page\r\n            </td>\r\n        </tr>\r\n        <tr table=\"\" border=\"1\">\r\n            <td>\r\n                See if an existing page meets content guidelines with helpful examples\r\n            </td>\r\n            <td>\r\n                Use the\r\n                <a href=\"content-checklist\">\r\n                    Extended Content Essentials Checklist\r\n                </a>\r\n            </td>\r\n        </tr>\r\n        <tr>\r\n            <td>\r\n                Get specific guidelines, such as using images or creating headings\r\n            </td>\r\n            <td>\r\n                Use the\r\n                <a href=\"writing-styleguide\">\r\n                    Web Writing Style Guide\r\n                </a>\r\n            </td>\r\n        </tr>\r\n        <tr>\r\n            <td>\r\n                How I should refer to the Catalog, PBR, and other Libraries locations and services\r\n            </td>\r\n            <td>\r\n                Use the\r\n                <a href=\"shared-terms\">\r\n                    Shared Terminology for Web Content\r\n                </a>\r\n                page\r\n            </td>\r\n        </tr>\r\n    </tbody>\r\n</table>\r\n-->",
      "revision_id" : 25925,
      "bundle" : "page",
      "body_format" : "full_html_no_wysiwyg",
      "delta" : 0,
      "deleted" : 0,
      "entity_id" : 2255,
      "body_summary" : "",
      "langcode" : "und"
   },
   "uuid" : "c4815bc0-c6e7-4636-82b2-d7a4047af424"
}

