{
   "asidebox" : {
      "body_format" : null,
      "body_value" : null,
      "block_module" : null,
      "nid" : 1675,
      "body_title" : "",
      "bid" : null,
      "vid" : 30408,
      "status" : "disabled",
      "block_delta" : null
   },
   "node_access" : null,
   "path_alias" : {
      "language" : "und",
      "alias" : "/research/how-to-guides",
      "pid" : 3691,
      "langcode" : "und",
      "status" : 0
   },
   "node_field_data" : {
      "revision_translation_affected" : 1,
      "uid" : 1,
      "langcode" : "und",
      "promote" : 0,
      "changed" : null,
      "type" : "research_page",
      "sticky" : 0,
      "default_langcode" : 1,
      "status" : 1,
      "created" : 1501250413,
      "title" : "How-to Guides"
   },
   "field_tags" : [],
   "nid" : "1675",
   "type" : "research_page",
   "field_image" : null,
   "uuid" : "c4ab6742-325c-45da-bf90-e291fba9b04c",
   "vid" : 30408,
   "node__body" : {
      "langcode" : "und",
      "entity_id" : 1675,
      "body_summary" : "",
      "revision_id" : 30408,
      "body_value" : "<style>\r\n.more-help-links{\r\n    font-size: 13px;\r\n    font-family: Arial,Helvetica,Verdana;\r\n    line-height: 1.75;\r\n}\r\n\r\n#side-searchbox{\r\n    font-size: 13px;\r\n    font-family: Arial,Helvetica,Verdana;\r\n    line-height: 1.75;\r\n}\r\n.bold{\r\nfont-weight: 700;\r\n}\r\n\r\n#box-specialists h2 {\r\n    border: 0;\r\n    display: inline-block;\r\n}\r\n\r\n.s-lib-public-side-header h2 {\r\n    margin-top: 0;\r\n    margin-bottom: 0;\r\n    font: 700 1pc Arial,Geneva,Helvetica,sans-serif;\r\n    border-bottom: 1px solid #a2a2a2;\r\n    color: #686868;\r\n}\r\n.pad-top-sm {\r\n    padding-top: 5px;\r\n}\r\n.pad-bottom-sm {\r\n    padding-bottom: 5px;\r\n}\r\n/*\r\n  ! Right Side\r\n*/\r\n #side-searchbox {\r\n  margin-bottom: 30px!important;\r\n}\r\n\r\n\r\n\r\n#col2.customize .margin-bottom-xlg [href=\"/prf.php\"] {\r\n  margin: 10px 40%;\r\n}\r\n\r\n#col2 {\r\n  padding-left: 30px;\r\n}\r\n\r\n/*\r\n  ! \"More help with your research\" at Right side\r\n  Text changes: set the original container invisible(display: none;) then put new elements in HTML\r\n  Add margin at bottom\r\n*/\r\n#col2.customize #box-specialists .margin-bottom-xlg h2 {\r\n  display: none;\r\n}\r\n\r\n#box-specialists {\r\n  margin-bottom: 30px;\r\n}\r\n\r\n/*\r\n  Add \"View All\" button next to the title \"Subject Specialists\"\r\n*/\r\n\r\n#box-specialists h2 {\r\n  border: 0;\r\n  display: inline-block;\r\n}\r\n\r\na#all-specialists {\r\n  display: inline-block;\r\n}\r\n\r\n#box-specialists > .s-lib-public-side-header {\r\n  border-bottom: 1px solid #a2a2a2;\r\n  padding-bottom: 2px;\r\n}\r\n\r\n#side-searchbox > .s-lib-public-side-header {\r\n  margin-bottom: 5px;\r\n}\r\n\r\n.input-append {\r\n  padding-top: 5px;\r\n}\r\n\r\n/*\r\n  Side searchbox:\r\n  1. make \"search\" button inline with the input box on wider screens\r\n*/\r\n#side-searchbox .form-control {\r\n  width: 80%;\r\n  display: inline;\r\n}\r\n\r\n.form-control{\r\nheight: 34px;\r\npadding: 6px 12px;\r\nfont-size: 14px;\r\nborder-radius: 4px;\r\n}\r\n\r\n#side-searchbox button {\r\n  width: auto;\r\n  padding-top: 5px;\r\n  padding-bottom: 3px;\r\n  color: #fff;\r\n  background-color: #053482;\r\n  border-color: #053482;\r\n}\r\n#side-searchbox { background-color: #f5f5f5; border: 1px solid #dddddd; border-radius: 4px; padding: 0.7em; }\r\n#side-searchbox a:link, #side-searchbox a:visited { text-decoration: underline; }\r\n#side-searchbox a:hover { text-decoration: none; }\r\n\r\n</style>\r\n<div class=\"row\">\r\n<div class=\"col-md-4\"><!-- left column -->\r\n<h2>Data &amp; Visualization Tools</h2>\r\n<ul>\r\n\t<li><a onclick=\"ga('send', 'event', { eventCategory: 'How To Guides Portal', eventAction: 'Click', eventLabel: 'ArcGIS'});\" href=\"https://guides.library.duke.edu/arcgis\">ArcGIS</a></li>\r\n\t<li><a onclick=\"ga('send', 'event', { eventCategory: 'How To Guides Portal', eventAction: 'Click', eventLabel: 'ArcGIS Online'});\" href=\"https://guides.library.duke.edu/arcgisonline\">ArcGIS Online</a></li>\r\n\t<li><a onclick=\"ga('send', 'event', { eventCategory: 'How To Guides Portal', eventAction: 'Click', eventLabel: 'Excel'});\" href=\"https://guides.library.duke.edu/excel\">Excel</a></li>\r\n\t<li><a onclick=\"ga('send', 'event', { eventCategory: 'How To Guides Portal', eventAction: 'Click', eventLabel: 'Google Earth'});\" href=\"https://guides.library.duke.edu/google_earth\">Google Earth</a></li>\r\n\t<li><a onclick=\"ga('send', 'event', { eventCategory: 'How To Guides Portal', eventAction: 'Click', eventLabel: 'QGIS'});\" href=\"https://guides.library.duke.edu/QGIS\">QGIS</a></li>\r\n\t<li><a onclick=\"ga('send', 'event', { eventCategory: 'How To Guides Portal', eventAction: 'Click', eventLabel: 'Tableau Public'});\" href=\"https://guides.library.duke.edu/tableau\">Tableau Public</a></li>\r\n\t<li><a onclick=\"ga('send', 'event', { eventCategory: 'How To Guides Portal', eventAction: 'Click', eventLabel: 'Web-Based Mapping'});\" href=\"https://guides.library.duke.edu/webmapping\">Web-Based Mapping Applications</a></li>\r\n</ul>\r\n<h2>Data Sources</h2>\r\n<ul>\r\n\t<li><a onclick=\"ga('send', 'event', { eventCategory: 'How To Guides Portal', eventAction: 'Click', eventLabel: 'GIS Data'});\" href=\"https://guides.library.duke.edu/gisdata\">GIS Data</a></li>\r\n\t<li><a onclick=\"ga('send', 'event', { eventCategory: 'How To Guides Portal', eventAction: 'Click', eventLabel: 'US Census'});\" href=\"https://guides.library.duke.edu/census\">U.S. Census</a></li>\r\n\t<li><a onclick=\"ga('send', 'event', { eventCategory: 'How To Guides Portal', eventAction: 'Click', eventLabel: 'US Economic Data'});\" href=\"https://guides.library.duke.edu/economic_data\">U.S. Economic Data</a></li>\r\n</ul>\r\n<h2>Research Methods &amp; Processes</h2>\r\n<ul>\r\n\t<li><a onclick=\"ga('send', 'event', { eventCategory: 'How To Guides Portal', eventAction: 'Click', eventLabel: 'Data Visualization'});\" href=\"https://guides.library.duke.edu/datavis\">Data Visualization</a></li>\r\n        <li><a onclick=\"ga('send', 'event', { eventCategory: 'How To Guides Portal', eventAction: 'Click', eventLabel: 'Digital Humanities'});\" href=\"https://guides.library.duke.edu/digital_humanities\">Digital Humanities</a></li>\r\n        <li><a onclick=\"ga('send', 'event', { eventCategory: 'How To Guides Portal', eventAction: 'Click', eventLabel: 'Intro to Text Analysis'});\" href=\"https://guides.library.duke.edu/text_analysis\">Introduction to Text Analysis</a></li>\r\n        <li><a onclick=\"ga('send', 'event', { eventCategory: 'How To Guides Portal', eventAction: 'Click', eventLabel: 'Project Management'});\" href=\"https://guides.library.duke.edu/projectmanagement\">Project Management</a></li>\r\n\t<li><a onclick=\"ga('send', 'event', { eventCategory: 'How To Guides Portal', eventAction: 'Click', eventLabel: 'Qualitative Research'});\" href=\"https://guides.library.duke.edu/qualitative-research\">Qualitative Research</a></li>\r\n\t<li><a onclick=\"ga('send', 'event', { eventCategory: 'How To Guides Portal', eventAction: 'Click', eventLabel: 'Research Data Management'});\" href=\"https://guides.library.duke.edu/research-data-management\">Research Data Management</a></li>\t\r\n</ul>\r\n</div>\r\n<div class=\"col-md-4\"><!-- middle column -->\r\n<h2>eBooks</h2>\r\n<ul>\r\n\t<li><a onclick=\"ga('send', 'event', { eventCategory: 'How To Guides Portal', eventAction: 'Click', eventLabel: 'eBook FAQ'});\" href=\"https://guides.library.duke.edu/eBookFAQ\">eBook FAQ</a></li>\r\n</ul>\r\n\r\n<h2>Careers</h2>\r\n<ul>\r\n\t<li><a onclick=\"ga('send', 'event', { eventCategory: 'How To Guides Portal', eventAction: 'Click', eventLabel: 'Job and Career Research'});\" href=\"https://guides.library.duke.edu/careerresearch\">Job and Career Research</a></li>\r\n</ul>\r\n<h2>Patents &amp; Standards</h2>\r\n<ul>\r\n\t<li><a onclick=\"ga('send', 'event', { eventCategory: 'How To Guides Portal', eventAction: 'Click', eventLabel: 'Industry Standards'});\" href=\"https://guides.library.duke.edu/standards\">Industry Standards</a></li>\r\n        <li><a onclick=\"ga('send', 'event', { eventCategory: 'How To Guides Portal', eventAction: 'Click', eventLabel: 'Patents'});\" href=\"https://guides.library.duke.edu/patent\">Patents</a></li>\r\n</ul>\r\n<h2>Writing &amp; Publishing</h2>\r\n<ul>\r\n\t<li><a onclick=\"ga('send', 'event', { eventCategory: 'How To Guides Portal', eventAction: 'Click', eventLabel: 'Avoiding Plagiarism'});\" href=\"https://library.duke.edu/research/plagiarism\">Avoiding Plagiarism</a></li>\r\n        <li><a onclick=\"ga('send', 'event', { eventCategory: 'How To Guides Portal', eventAction: 'Click', eventLabel: 'Citation Tools'});\" href=\"https://library.duke.edu/research/citing/tools\">Citation Tools</a></li>\r\n        <li><a onclick=\"ga('send', 'event', { eventCategory: 'How To Guides Portal', eventAction: 'Click', eventLabel: 'Citing Sources'});\" href=\"https://library.duke.edu/research/citing\">Citing Sources</a></li>\r\n\t<li><a onclick=\"ga('send', 'event', { eventCategory: 'How To Guides Portal', eventAction: 'Click', eventLabel: 'Copyright Advice'});\" href=\"https://scholarworks.duke.edu/copyright-advice/\">Copyright in Research & Teaching</a></li>\r\n\t<li><a onclick=\"ga('send', 'event', { eventCategory: 'How To Guides Portal', eventAction: 'Click', eventLabel: 'Visual Communication'});\" href=\"https://guides.library.duke.edu/visualcomm\">Visual Communication</a></li>\r\n</ul>\r\n</div>\r\n<div class=\"col-md-4\"><!-- right column -->\r\n                  <!-- Librarians (the ||content_boxes|| template) -->\r\n                  <div id=\"box-specialists\">\r\n                    <div class=\"s-lib-public-side-header\">\r\n                      <h2 class=\"pad-bottom-sm\">More help with your research</h2>\r\n                    </div>\r\n                    <div class=\"txt pad-top-sm\">\r\n                      <a class=\"s-lg-hp-btn-section bold more-help-links\" href=\"//library.duke.edu/research\" onClick=\"ga('send', 'event', { eventCategory: 'Research Guides Portal', eventAction: 'Click', eventLabel: 'Plan Research'});\">Plan & conduct research</a>\r\n                      <br />\r\n                      <a id=\"all-specialists\" class=\"s-lg-hp-btn-section bold more-help-links\" href=\"//library.duke.edu/about/directory/subject-specialists/\" onClick=\"ga('send', 'event', { eventCategory: 'Research Guides Portal', eventAction: 'Click', eventLabel: 'Contact Specialist'});\">Contact subject specialists</a>\r\n                      <br />\r\n                     <a id=\"research-guides-home\" class=\"s-lg-hp-btn-section bold more-help-links\" href=\"//guides.library.duke.edu/?b=s\" onClick=\"ga('send', 'event', { eventCategory: 'Research Guides Portal', eventAction: 'Click', eventLabel: 'Research Guides Home'});\">Research guides by subject</a>\r\n                      <br />\r\n                      <a id=\"a-z-databases\" class=\"s-lg-hp-btn-section bold more-help-links\" href=\"//guides.library.duke.edu/az.php\" onClick=\"ga('send', 'event', { eventCategory: 'Research Guides Portal', eventAction: 'Click', eventLabel: 'A-Z Databases'});\">A-Z databases</a>\r\n                    </div>\r\n                  </div>\r\n\r\n                  <div id=\"side-searchbox\" class=\"margin-bottom-xlg\">\r\n                    <div class=\"s-lib-public-side-header\">\r\n                      <h2 class=\"pad-bottom-sm\">Search research guides</h2>\r\n                    </div>\r\n                    <div class=\"input-append\">\r\n                      <form role=\"search\" method=\"GET\" action=\"//guides.library.duke.edu/srch.php\">\r\n                        <input type=\"hidden\" name=\"subject\" value=\"\">\r\n                        <label class=\"control-label sr-only\" for=\"s-lg-guide-search\">Guide Search Terms</label>\r\n                        <input class=\"form-control\" name=\"q\" id=\"s-lg-guide-search\" type=\"text\" placeholder=\"\">\r\n                        <button type=\"submit\" onClick=\"ga('send', 'event', { eventCategory: 'Research Guides Portal', eventAction: 'Click', eventLabel: 'Search Submit'});\">Search</button>\r\n                      </form>\r\n                    </div>\r\n                    <div class=\"txt pad-top-sm\">\r\n                      <div class=\"margin-bottom-med\">\r\n                        <em>Want to search the full Duke Libraries?</em><br />Visit <a href=\"//library.duke.edu\" onClick=\"ga('send', 'event', { eventCategory: 'Research Guides Portal', eventAction: 'Click', eventLabel: 'Visit'});\">library.duke.edu</a>.\r\n                      </div>\r\n                    </div>\r\n                  </div>\r\n<div style=\"display: none;\" class=\"needs-js\">Chat requires JavaScript.</div>\r\n<div class=\"libraryh3lp\" jid=\"dukeref@chat.libraryh3lp.com\"><iframe style=\"width: 100%; min-height: 300px;\" src=\"https://us.libraryh3lp.com/chat/dukeref@chat.libraryh3lp.com?skin=24703&amp;title=Chat%20with%20a%20Librarian&amp;identity=DukeRef\" frameborder=\"0\"></iframe></div>\r\n<div class=\"libraryh3lp\" style=\"display: none; margin-top: 20px; margin-bottom: 10px;\"><h2><span style=\"color: #053482; font-size: 90%;\"><i class=\"fa fa-comments\"></i></span> Chat</h2><p>No librarians are currently available for online chat. For assistance, email <a onclick=\"ga('send', 'event', { eventCategory: 'How To Guides Portal', eventAction: 'Click', eventLabel: 'Ask a Librarian'});\" href=\"mailto:asklib@duke.edu\">asklib@duke.edu</a> or call the Perkins Library Service Desk.</p></div>\r\n</div>\r\n</div>\r\n<div class=\"row\">\r\n<br />\r\n<div class=\"col-md-12 well well-sm\">\r\n<p><strong> Looking for more? </strong></p>\r\n<ul class=\"list-unstyled underlined-li-links\">\r\n\t<li>Identify important resources for any topic using <a onclick=\"ga('send', 'event', { eventCategory: 'How To Guides Portal', eventAction: 'Click', eventLabel: 'Research Guides'});\" href=\"https://guides.library.duke.edu/\">Research Guides</a></li>\r\n\t<li>Get research tips for Duke courses using <a onclick=\"ga('send', 'event', { eventCategory: 'How To Guides Portal', eventAction: 'Click', eventLabel: 'Course Guides'});\" href=\"/course-support/guides\">Course Guides</a></li>\r\n</ul>\r\n</div>\r\n</div>\r\n\r\n",
      "body_format" : "full_html_no_wysiwyg",
      "delta" : 0,
      "bundle" : "research_page",
      "deleted" : 0
   },
   "langcode" : "und",
   "revisions" : [
      {
         "log" : "",
         "comment" : 1,
         "sticky" : 0,
         "field_revision" : {
            "title" : "How-to Guides",
            "changed" : null,
            "created" : null,
            "status" : 1,
            "uid" : 1,
            "langcode" : null,
            "default_langcode" : 1,
            "sticky" : 0,
            "revision_translation_affected" : 1
         },
         "status" : 1,
         "node_revision__body" : {
            "body_format" : "full_html_no_wysiwyg",
            "delta" : 0,
            "bundle" : "research_page",
            "deleted" : 0,
            "body_value" : "<style>\r\n.more-help-links{\r\n    font-size: 13px;\r\n    font-family: Arial,Helvetica,Verdana;\r\n    line-height: 1.75;\r\n}\r\n\r\n#side-searchbox{\r\n    font-size: 13px;\r\n    font-family: Arial,Helvetica,Verdana;\r\n    line-height: 1.75;\r\n}\r\n.bold{\r\nfont-weight: 700;\r\n}\r\n\r\n#box-specialists h2 {\r\n    border: 0;\r\n    display: inline-block;\r\n}\r\n\r\n.s-lib-public-side-header h2 {\r\n    margin-top: 0;\r\n    margin-bottom: 0;\r\n    font: 700 1pc Arial,Geneva,Helvetica,sans-serif;\r\n    border-bottom: 1px solid #a2a2a2;\r\n    color: #686868;\r\n}\r\n.pad-top-sm {\r\n    padding-top: 5px;\r\n}\r\n.pad-bottom-sm {\r\n    padding-bottom: 5px;\r\n}\r\n/*\r\n  ! Right Side\r\n*/\r\n #side-searchbox {\r\n  margin-bottom: 30px!important;\r\n}\r\n\r\n\r\n\r\n#col2.customize .margin-bottom-xlg [href=\"/prf.php\"] {\r\n  margin: 10px 40%;\r\n}\r\n\r\n#col2 {\r\n  padding-left: 30px;\r\n}\r\n\r\n/*\r\n  ! \"More help with your research\" at Right side\r\n  Text changes: set the original container invisible(display: none;) then put new elements in HTML\r\n  Add margin at bottom\r\n*/\r\n#col2.customize #box-specialists .margin-bottom-xlg h2 {\r\n  display: none;\r\n}\r\n\r\n#box-specialists {\r\n  margin-bottom: 30px;\r\n}\r\n\r\n/*\r\n  Add \"View All\" button next to the title \"Subject Specialists\"\r\n*/\r\n\r\n#box-specialists h2 {\r\n  border: 0;\r\n  display: inline-block;\r\n}\r\n\r\na#all-specialists {\r\n  display: inline-block;\r\n}\r\n\r\n#box-specialists > .s-lib-public-side-header {\r\n  border-bottom: 1px solid #a2a2a2;\r\n  padding-bottom: 2px;\r\n}\r\n\r\n#side-searchbox > .s-lib-public-side-header {\r\n  margin-bottom: 5px;\r\n}\r\n\r\n.input-append {\r\n  padding-top: 5px;\r\n}\r\n\r\n/*\r\n  Side searchbox:\r\n  1. make \"search\" button inline with the input box on wider screens\r\n*/\r\n#side-searchbox .form-control {\r\n  width: 80%;\r\n  display: inline;\r\n}\r\n\r\n.form-control{\r\nheight: 34px;\r\npadding: 6px 12px;\r\nfont-size: 14px;\r\nborder-radius: 4px;\r\n}\r\n\r\n#side-searchbox button {\r\n  width: auto;\r\n  padding-top: 5px;\r\n  padding-bottom: 3px;\r\n  color: #fff;\r\n  background-color: #053482;\r\n  border-color: #053482;\r\n}\r\n#side-searchbox { background-color: #f5f5f5; border: 1px solid #dddddd; border-radius: 4px; padding: 0.7em; }\r\n#side-searchbox a:link, #side-searchbox a:visited { text-decoration: underline; }\r\n#side-searchbox a:hover { text-decoration: none; }\r\n\r\n</style>\r\n<div class=\"row\">\r\n<div class=\"col-md-4\"><!-- left column -->\r\n<h2>Data &amp; Visualization Tools</h2>\r\n<ul>\r\n\t<li><a onclick=\"ga('send', 'event', { eventCategory: 'How To Guides Portal', eventAction: 'Click', eventLabel: 'ArcGIS'});\" href=\"https://guides.library.duke.edu/arcgis\">ArcGIS</a></li>\r\n\t<li><a onclick=\"ga('send', 'event', { eventCategory: 'How To Guides Portal', eventAction: 'Click', eventLabel: 'ArcGIS Online'});\" href=\"https://guides.library.duke.edu/arcgisonline\">ArcGIS Online</a></li>\r\n\t<li><a onclick=\"ga('send', 'event', { eventCategory: 'How To Guides Portal', eventAction: 'Click', eventLabel: 'Excel'});\" href=\"https://guides.library.duke.edu/excel\">Excel</a></li>\r\n\t<li><a onclick=\"ga('send', 'event', { eventCategory: 'How To Guides Portal', eventAction: 'Click', eventLabel: 'Google Earth'});\" href=\"https://guides.library.duke.edu/google_earth\">Google Earth</a></li>\r\n\t<li><a onclick=\"ga('send', 'event', { eventCategory: 'How To Guides Portal', eventAction: 'Click', eventLabel: 'QGIS'});\" href=\"https://guides.library.duke.edu/QGIS\">QGIS</a></li>\r\n\t<li><a onclick=\"ga('send', 'event', { eventCategory: 'How To Guides Portal', eventAction: 'Click', eventLabel: 'Tableau Public'});\" href=\"https://guides.library.duke.edu/tableau\">Tableau Public</a></li>\r\n\t<li><a onclick=\"ga('send', 'event', { eventCategory: 'How To Guides Portal', eventAction: 'Click', eventLabel: 'Web-Based Mapping'});\" href=\"https://guides.library.duke.edu/webmapping\">Web-Based Mapping Applications</a></li>\r\n</ul>\r\n<h2>Data Sources</h2>\r\n<ul>\r\n\t<li><a onclick=\"ga('send', 'event', { eventCategory: 'How To Guides Portal', eventAction: 'Click', eventLabel: 'GIS Data'});\" href=\"https://guides.library.duke.edu/gisdata\">GIS Data</a></li>\r\n\t<li><a onclick=\"ga('send', 'event', { eventCategory: 'How To Guides Portal', eventAction: 'Click', eventLabel: 'US Census'});\" href=\"https://guides.library.duke.edu/census\">U.S. Census</a></li>\r\n\t<li><a onclick=\"ga('send', 'event', { eventCategory: 'How To Guides Portal', eventAction: 'Click', eventLabel: 'US Economic Data'});\" href=\"https://guides.library.duke.edu/economic_data\">U.S. Economic Data</a></li>\r\n</ul>\r\n<h2>Research Methods &amp; Processes</h2>\r\n<ul>\r\n\t<li><a onclick=\"ga('send', 'event', { eventCategory: 'How To Guides Portal', eventAction: 'Click', eventLabel: 'Data Visualization'});\" href=\"https://guides.library.duke.edu/datavis\">Data Visualization</a></li>\r\n        <li><a onclick=\"ga('send', 'event', { eventCategory: 'How To Guides Portal', eventAction: 'Click', eventLabel: 'Digital Humanities'});\" href=\"https://guides.library.duke.edu/digital_humanities\">Digital Humanities</a></li>\r\n        <li><a onclick=\"ga('send', 'event', { eventCategory: 'How To Guides Portal', eventAction: 'Click', eventLabel: 'Intro to Text Analysis'});\" href=\"https://guides.library.duke.edu/text_analysis\">Introduction to Text Analysis</a></li>\r\n        <li><a onclick=\"ga('send', 'event', { eventCategory: 'How To Guides Portal', eventAction: 'Click', eventLabel: 'Project Management'});\" href=\"https://guides.library.duke.edu/projectmanagement\">Project Management</a></li>\r\n\t<li><a onclick=\"ga('send', 'event', { eventCategory: 'How To Guides Portal', eventAction: 'Click', eventLabel: 'Qualitative Research'});\" href=\"https://guides.library.duke.edu/qualitative-research\">Qualitative Research</a></li>\r\n\t<li><a onclick=\"ga('send', 'event', { eventCategory: 'How To Guides Portal', eventAction: 'Click', eventLabel: 'Research Data Management'});\" href=\"https://guides.library.duke.edu/research-data-management\">Research Data Management</a></li>\t\r\n</ul>\r\n</div>\r\n<div class=\"col-md-4\"><!-- middle column -->\r\n<h2>eBooks</h2>\r\n<ul>\r\n\t<li><a onclick=\"ga('send', 'event', { eventCategory: 'How To Guides Portal', eventAction: 'Click', eventLabel: 'eBook FAQ'});\" href=\"https://guides.library.duke.edu/eBookFAQ\">eBook FAQ</a></li>\r\n</ul>\r\n\r\n<h2>Careers</h2>\r\n<ul>\r\n\t<li><a onclick=\"ga('send', 'event', { eventCategory: 'How To Guides Portal', eventAction: 'Click', eventLabel: 'Job and Career Research'});\" href=\"https://guides.library.duke.edu/careerresearch\">Job and Career Research</a></li>\r\n</ul>\r\n<h2>Patents &amp; Standards</h2>\r\n<ul>\r\n\t<li><a onclick=\"ga('send', 'event', { eventCategory: 'How To Guides Portal', eventAction: 'Click', eventLabel: 'Industry Standards'});\" href=\"https://guides.library.duke.edu/standards\">Industry Standards</a></li>\r\n        <li><a onclick=\"ga('send', 'event', { eventCategory: 'How To Guides Portal', eventAction: 'Click', eventLabel: 'Patents'});\" href=\"https://guides.library.duke.edu/patent\">Patents</a></li>\r\n</ul>\r\n<h2>Writing &amp; Publishing</h2>\r\n<ul>\r\n\t<li><a onclick=\"ga('send', 'event', { eventCategory: 'How To Guides Portal', eventAction: 'Click', eventLabel: 'Avoiding Plagiarism'});\" href=\"https://library.duke.edu/research/plagiarism\">Avoiding Plagiarism</a></li>\r\n        <li><a onclick=\"ga('send', 'event', { eventCategory: 'How To Guides Portal', eventAction: 'Click', eventLabel: 'Citation Tools'});\" href=\"https://library.duke.edu/research/citing/tools\">Citation Tools</a></li>\r\n        <li><a onclick=\"ga('send', 'event', { eventCategory: 'How To Guides Portal', eventAction: 'Click', eventLabel: 'Citing Sources'});\" href=\"https://library.duke.edu/research/citing\">Citing Sources</a></li>\r\n\t<li><a onclick=\"ga('send', 'event', { eventCategory: 'How To Guides Portal', eventAction: 'Click', eventLabel: 'Copyright Advice'});\" href=\"https://scholarworks.duke.edu/copyright-advice/\">Copyright in Research & Teaching</a></li>\r\n\t<li><a onclick=\"ga('send', 'event', { eventCategory: 'How To Guides Portal', eventAction: 'Click', eventLabel: 'Visual Communication'});\" href=\"https://guides.library.duke.edu/visualcomm\">Visual Communication</a></li>\r\n</ul>\r\n</div>\r\n<div class=\"col-md-4\"><!-- right column -->\r\n                  <!-- Librarians (the ||content_boxes|| template) -->\r\n                  <div id=\"box-specialists\">\r\n                    <div class=\"s-lib-public-side-header\">\r\n                      <h2 class=\"pad-bottom-sm\">More help with your research</h2>\r\n                    </div>\r\n                    <div class=\"txt pad-top-sm\">\r\n                      <a class=\"s-lg-hp-btn-section bold more-help-links\" href=\"//library.duke.edu/research\" onClick=\"ga('send', 'event', { eventCategory: 'Research Guides Portal', eventAction: 'Click', eventLabel: 'Plan Research'});\">Plan & conduct research</a>\r\n                      <br />\r\n                      <a id=\"all-specialists\" class=\"s-lg-hp-btn-section bold more-help-links\" href=\"//library.duke.edu/about/directory/subject-specialists/\" onClick=\"ga('send', 'event', { eventCategory: 'Research Guides Portal', eventAction: 'Click', eventLabel: 'Contact Specialist'});\">Contact subject specialists</a>\r\n                      <br />\r\n                     <a id=\"research-guides-home\" class=\"s-lg-hp-btn-section bold more-help-links\" href=\"//guides.library.duke.edu/?b=s\" onClick=\"ga('send', 'event', { eventCategory: 'Research Guides Portal', eventAction: 'Click', eventLabel: 'Research Guides Home'});\">Research guides by subject</a>\r\n                      <br />\r\n                      <a id=\"a-z-databases\" class=\"s-lg-hp-btn-section bold more-help-links\" href=\"//guides.library.duke.edu/az.php\" onClick=\"ga('send', 'event', { eventCategory: 'Research Guides Portal', eventAction: 'Click', eventLabel: 'A-Z Databases'});\">A-Z databases</a>\r\n                    </div>\r\n                  </div>\r\n\r\n                  <div id=\"side-searchbox\" class=\"margin-bottom-xlg\">\r\n                    <div class=\"s-lib-public-side-header\">\r\n                      <h2 class=\"pad-bottom-sm\">Search research guides</h2>\r\n                    </div>\r\n                    <div class=\"input-append\">\r\n                      <form role=\"search\" method=\"GET\" action=\"//guides.library.duke.edu/srch.php\">\r\n                        <input type=\"hidden\" name=\"subject\" value=\"\">\r\n                        <label class=\"control-label sr-only\" for=\"s-lg-guide-search\">Guide Search Terms</label>\r\n                        <input class=\"form-control\" name=\"q\" id=\"s-lg-guide-search\" type=\"text\" placeholder=\"\">\r\n                        <button type=\"submit\" onClick=\"ga('send', 'event', { eventCategory: 'Research Guides Portal', eventAction: 'Click', eventLabel: 'Search Submit'});\">Search</button>\r\n                      </form>\r\n                    </div>\r\n                    <div class=\"txt pad-top-sm\">\r\n                      <div class=\"margin-bottom-med\">\r\n                        <em>Want to search the full Duke Libraries?</em><br />Visit <a href=\"//library.duke.edu\" onClick=\"ga('send', 'event', { eventCategory: 'Research Guides Portal', eventAction: 'Click', eventLabel: 'Visit'});\">library.duke.edu</a>.\r\n                      </div>\r\n                    </div>\r\n                  </div>\r\n<div style=\"display: none;\" class=\"needs-js\">Chat requires JavaScript.</div>\r\n<div class=\"libraryh3lp\" jid=\"dukeref@chat.libraryh3lp.com\"><iframe style=\"width: 100%; min-height: 300px;\" src=\"https://us.libraryh3lp.com/chat/dukeref@chat.libraryh3lp.com?skin=24703&amp;title=Chat%20with%20a%20Librarian&amp;identity=DukeRef\" frameborder=\"0\"></iframe></div>\r\n<div class=\"libraryh3lp\" style=\"display: none; margin-top: 20px; margin-bottom: 10px;\"><h2><span style=\"color: #053482; font-size: 90%;\"><i class=\"fa fa-comments\"></i></span> Chat</h2><p>No librarians are currently available for online chat. For assistance, email <a onclick=\"ga('send', 'event', { eventCategory: 'How To Guides Portal', eventAction: 'Click', eventLabel: 'Ask a Librarian'});\" href=\"mailto:asklib@duke.edu\">asklib@duke.edu</a> or call the Perkins Library Service Desk.</p></div>\r\n</div>\r\n</div>\r\n<div class=\"row\">\r\n<br />\r\n<div class=\"col-md-12 well well-sm\">\r\n<p><strong> Looking for more? </strong></p>\r\n<ul class=\"list-unstyled underlined-li-links\">\r\n\t<li>Identify important resources for any topic using <a onclick=\"ga('send', 'event', { eventCategory: 'How To Guides Portal', eventAction: 'Click', eventLabel: 'Research Guides'});\" href=\"https://guides.library.duke.edu/\">Research Guides</a></li>\r\n\t<li>Get research tips for Duke courses using <a onclick=\"ga('send', 'event', { eventCategory: 'How To Guides Portal', eventAction: 'Click', eventLabel: 'Course Guides'});\" href=\"/course-support/guides\">Course Guides</a></li>\r\n</ul>\r\n</div>\r\n</div>\r\n\r\n",
            "revision_id" : 30408,
            "body_summary" : "",
            "entity_id" : 1675,
            "langcode" : "und"
         },
         "node_revision__field_tags" : [],
         "title" : "How-to Guides",
         "vuuid" : "0dcfa72f-a0b7-485a-9683-6da6c27273c5",
         "timestamp" : 1615854749,
         "uid" : 2433,
         "promote" : 0
      }
   ]
}

