{
   "type" : "about_page",
   "field_image" : null,
   "uuid" : "c7f859d9-b856-4fe6-ae64-62cda66fb465",
   "vid" : 3831,
   "node__body" : {
      "entity_id" : 200,
      "body_summary" : "",
      "langcode" : "und",
      "body_value" : "<h2>Directions from Durham</h2><ul><li><p>Take NC-147 to Exit 10A (Briggs Avenue South).</p></li><li><p>Get into the middle lane to stay on Briggs Avenue South.</p></li><li><p>Go through the Lawson Street intersection, and take the next left onto Person Street.</p></li><li><p>Take the next left onto Anson Street and proceed into the cul-de-sac.</p></li><li><p>The LSC is on the left side of the cul-de-sac, just past&nbsp;Shepherd Electric Supply Company.</p></li></ul><h2>Directions from Duke's Main Campus</h2><ul><li><p>Take Research Drive to Erwin Road.</p></li><li><p>Turn right onto Erwin Road.</p></li><li><p>Drive past Duke University Hospital until you get to Trent Drive. Turn left onto Trent and merge onto NC-147 South.&nbsp;</p></li><li><p>Take Exit 10A (Briggs Avenue South).</p></li><li><p>Get into the middle lane to stay on Briggs Avenue South.</p></li><li><p>Go through the Lawson Street intersection, and take the next left onto Person Street.</p></li><li><p>Take the next left onto Anson Street and proceed into the cul-de-sac.</p></li><li><p>The LSC is on the left side of the cul-de-sac, just past&nbsp;Shepherd Electric Supply Company.</p></li></ul><h2>Directions from North Carolina Central University</h2><ul><li><p>From Fayetteville Street, take NC-147 South.</p></li><li><p>Take Exit 10A (Briggs Avenue South).</p></li><li><p>Get into the middle lane to stay on Briggs Avenue South.</p></li><li><p>Go through the Lawson Street intersection, and take the next left onto Person Street.</p></li><li><p>Take the next left onto Anson Street and proceed into the cul-de-sac.</p></li><li><p>The LSC is on the left side of the cul-de-sac, just past&nbsp;Shepherd Electric Supply Company.</p></li></ul><h2>Directions from the University of North Carolina at Chapel Hill</h2><ul><li><p>Take U.S. 15/501 North to Durham.</p></li><li><p>Take Exit 108 B-C-D.</p></li><li><p>Bear to the right, and take Exit 108 B to NC-147 South.</p></li><li><p>Take Exit 10A (Briggs Avenue South).</p></li><li><p>Get into the middle lane to stay on Briggs Avenue South.</p></li><li><p>Go through the Lawson Street intersection, and take the next left onto Person Street.</p></li><li><p>Take the next left onto Anson Street and proceed into the cul-de-sac.</p></li><li><p>The LSC is on the left side of the cul-de-sac, just past&nbsp;Shepherd Electric Supply Company.</p></li></ul><h2>Directions from North Carolina State University</h2><ul><li><p>From Western Boulevard, take I-440 East.</p></li><li><p>Take Exit 4 (Wade Avenue) toward Cameron Village.</p></li><li><p>Turn left onto Wade Avenute.</p></li><li><p>Merge onto I-40 West.</p></li><li><p>Follow I-40 West until you get to Exit 279 B toward NC-147 North.</p></li><li><p>Merge onto NC-147 North.</p></li><li><p>Take Exit 10 (Briggs Avenue).</p></li><li><p>Get into the middle lane to stay on Briggs Avenue.</p></li><li><p>Go through the Lawson Street intersection, and take the next left onto Person Street.</p></li><li><p>Take the next left onto Anson Street and proceed into the cul-de-sac.</p></li><li><p>The LSC is on the left side of the cul-de-sac, just past&nbsp;Shepherd Electric Supply Company.</p></li></ul><h2>Directions from Raleigh-Durham International Airport</h2><ul><li><p>Follow the airport exit to the I-40 West entrance toward Durham.</p></li><li><p>Take NC-147 North.</p></li><li><p>Take Exit 10 (Briggs Avenue).</p></li><li><p>Get into the middle lane to stay on Briggs Avenue.</p></li><li><p>Go through the Lawson Street intersection, and take the next left onto Person Street.</p></li><li><p>Take the next left onto Anson Street and proceed into the cul-de-sac.</p></li><li><p>The LSC is on the left side of the cul-de-sac, just past&nbsp;Shepherd Electric Supply Company.</p></li></ul>",
      "revision_id" : 3831,
      "body_format" : "full_html",
      "delta" : 0,
      "bundle" : "about_page",
      "deleted" : 0
   },
   "langcode" : "und",
   "revisions" : [
      {
         "log" : "",
         "sticky" : 0,
         "comment" : 1,
         "status" : 1,
         "field_revision" : {
            "revision_translation_affected" : 1,
            "sticky" : 0,
            "default_langcode" : 1,
            "uid" : 1,
            "status" : 1,
            "langcode" : null,
            "created" : null,
            "changed" : null,
            "title" : "Get Directions"
         },
         "node_revision__body" : {
            "revision_id" : 3831,
            "body_value" : "<h2>Directions from Durham</h2><ul><li><p>Take NC-147 to Exit 10A (Briggs Avenue South).</p></li><li><p>Get into the middle lane to stay on Briggs Avenue South.</p></li><li><p>Go through the Lawson Street intersection, and take the next left onto Person Street.</p></li><li><p>Take the next left onto Anson Street and proceed into the cul-de-sac.</p></li><li><p>The LSC is on the left side of the cul-de-sac, just past&nbsp;Shepherd Electric Supply Company.</p></li></ul><h2>Directions from Duke's Main Campus</h2><ul><li><p>Take Research Drive to Erwin Road.</p></li><li><p>Turn right onto Erwin Road.</p></li><li><p>Drive past Duke University Hospital until you get to Trent Drive. Turn left onto Trent and merge onto NC-147 South.&nbsp;</p></li><li><p>Take Exit 10A (Briggs Avenue South).</p></li><li><p>Get into the middle lane to stay on Briggs Avenue South.</p></li><li><p>Go through the Lawson Street intersection, and take the next left onto Person Street.</p></li><li><p>Take the next left onto Anson Street and proceed into the cul-de-sac.</p></li><li><p>The LSC is on the left side of the cul-de-sac, just past&nbsp;Shepherd Electric Supply Company.</p></li></ul><h2>Directions from North Carolina Central University</h2><ul><li><p>From Fayetteville Street, take NC-147 South.</p></li><li><p>Take Exit 10A (Briggs Avenue South).</p></li><li><p>Get into the middle lane to stay on Briggs Avenue South.</p></li><li><p>Go through the Lawson Street intersection, and take the next left onto Person Street.</p></li><li><p>Take the next left onto Anson Street and proceed into the cul-de-sac.</p></li><li><p>The LSC is on the left side of the cul-de-sac, just past&nbsp;Shepherd Electric Supply Company.</p></li></ul><h2>Directions from the University of North Carolina at Chapel Hill</h2><ul><li><p>Take U.S. 15/501 North to Durham.</p></li><li><p>Take Exit 108 B-C-D.</p></li><li><p>Bear to the right, and take Exit 108 B to NC-147 South.</p></li><li><p>Take Exit 10A (Briggs Avenue South).</p></li><li><p>Get into the middle lane to stay on Briggs Avenue South.</p></li><li><p>Go through the Lawson Street intersection, and take the next left onto Person Street.</p></li><li><p>Take the next left onto Anson Street and proceed into the cul-de-sac.</p></li><li><p>The LSC is on the left side of the cul-de-sac, just past&nbsp;Shepherd Electric Supply Company.</p></li></ul><h2>Directions from North Carolina State University</h2><ul><li><p>From Western Boulevard, take I-440 East.</p></li><li><p>Take Exit 4 (Wade Avenue) toward Cameron Village.</p></li><li><p>Turn left onto Wade Avenute.</p></li><li><p>Merge onto I-40 West.</p></li><li><p>Follow I-40 West until you get to Exit 279 B toward NC-147 North.</p></li><li><p>Merge onto NC-147 North.</p></li><li><p>Take Exit 10 (Briggs Avenue).</p></li><li><p>Get into the middle lane to stay on Briggs Avenue.</p></li><li><p>Go through the Lawson Street intersection, and take the next left onto Person Street.</p></li><li><p>Take the next left onto Anson Street and proceed into the cul-de-sac.</p></li><li><p>The LSC is on the left side of the cul-de-sac, just past&nbsp;Shepherd Electric Supply Company.</p></li></ul><h2>Directions from Raleigh-Durham International Airport</h2><ul><li><p>Follow the airport exit to the I-40 West entrance toward Durham.</p></li><li><p>Take NC-147 North.</p></li><li><p>Take Exit 10 (Briggs Avenue).</p></li><li><p>Get into the middle lane to stay on Briggs Avenue.</p></li><li><p>Go through the Lawson Street intersection, and take the next left onto Person Street.</p></li><li><p>Take the next left onto Anson Street and proceed into the cul-de-sac.</p></li><li><p>The LSC is on the left side of the cul-de-sac, just past&nbsp;Shepherd Electric Supply Company.</p></li></ul>",
            "deleted" : 0,
            "delta" : 0,
            "body_format" : "full_html",
            "bundle" : "about_page",
            "langcode" : "und",
            "entity_id" : 200,
            "body_summary" : ""
         },
         "vuuid" : "f25ad18e-f91b-4984-be6a-3c4fbe637e49",
         "title" : "Get Directions",
         "node_revision__field_tags" : [],
         "timestamp" : 1381342154,
         "uid" : 84,
         "promote" : 0
      }
   ],
   "node_access" : {
      "gid" : 0,
      "langcode" : "und",
      "realm" : "all",
      "grant_delete" : 0,
      "nid" : 200,
      "grant_update" : 0,
      "grant_view" : 1
   },
   "asidebox" : {
      "block_delta" : null,
      "status" : "html",
      "vid" : 3831,
      "bid" : null,
      "nid" : 200,
      "body_title" : "Mobile User?  ",
      "body_value" : "<p><a href=\"http://myatlascms.com/map/?id=21&amp;mrkId=4320\">View an interactive map on your smart phone.</a></p>",
      "block_module" : null,
      "body_format" : "full_html"
   },
   "nid" : "200",
   "path_alias" : {
      "status" : 0,
      "langcode" : "und",
      "alias" : "/lsc/directions",
      "pid" : 372,
      "language" : "und"
   },
   "node_field_data" : {
      "sticky" : 0,
      "default_langcode" : 1,
      "status" : 1,
      "created" : 1375991109,
      "title" : "Get Directions",
      "revision_translation_affected" : 1,
      "uid" : 1,
      "langcode" : "und",
      "changed" : null,
      "promote" : 0,
      "type" : "about_page"
   },
   "field_tags" : []
}

