{
   "nid" : "2103",
   "field_tags" : [],
   "path_alias" : {
      "language" : "und",
      "pid" : 4225,
      "alias" : "/using/oasis-perkins",
      "langcode" : "und",
      "status" : 0
   },
   "node_field_data" : {
      "title" : "Oasis Perkins",
      "default_langcode" : 1,
      "sticky" : 0,
      "created" : 1536239499,
      "status" : 1,
      "promote" : 0,
      "changed" : null,
      "type" : "page",
      "revision_translation_affected" : 1,
      "uid" : 1,
      "langcode" : "und"
   },
   "node_access" : null,
   "asidebox" : {
      "bid" : null,
      "vid" : 30102,
      "body_title" : "",
      "nid" : 2103,
      "block_module" : null,
      "body_value" : "<h3>Where is Oasis Perkins?</h3><p>It is tucked into a tower room on the fourth floor of Perkins (418). Entering the Perkins study spaces and stacks on the fourth floor from the main lobby elevators, make a quick left. Or ask a staff member to help you find one of the best-kept secrets of the Libraries!</p>",
      "body_format" : "full_html",
      "block_delta" : null,
      "status" : "html"
   },
   "revisions" : [
      {
         "field_revision" : {
            "revision_translation_affected" : 1,
            "sticky" : 0,
            "default_langcode" : 1,
            "langcode" : null,
            "uid" : 1,
            "status" : 1,
            "created" : null,
            "changed" : null,
            "title" : "Oasis Perkins"
         },
         "status" : 1,
         "log" : "",
         "comment" : 1,
         "sticky" : 0,
         "node_revision__field_tags" : [],
         "title" : "Oasis Perkins",
         "vuuid" : "857d47b6-dea4-4dc5-bc94-ed21cdeaa9d4",
         "node_revision__body" : {
            "langcode" : "und",
            "entity_id" : 2103,
            "body_summary" : "",
            "body_value" : "<p class=\"well\"><strong>Spring 2021</strong> - Oasis Perkins is closed until further notice.</p><p>This peaceful space is dedicated to wellness at the Libraries. We encourage students, staff, faculty, and visitors are encouraged to explore the resources of the Oasis Perkins to relax and recharge.</p><center><img src=\"/sites/default/files/dul/rooms/oasisPerkins-couch.png\" alt=\"sitting area of Oasis Perkins\" width=\"500\" class=\"img-polaroid img-responsive\"></center><p></p><h2>What resources will you find?</h2><p>We encourage you to come explore what Oasis Perkins has to offer! Some of what you'll find include:</p><ul class=\"list-inline list-styled\"><li>Yoga mats</li><li>Meditation cushions</li><li>Origami paper and instructions</li><li>Sudoku and logic puzzles</li><li>Coloring books</li><li>A jigsaw puzzle corner</li><li>A quiet nook</li><li>Essential oil sprays</li><li>A neck massager</li><li>The Oasis Perkins book collection, including:&nbsp; <a href=\"https://www.penguinrandomhouse.com/books/545841/how-to-love-by-thich-nhat-hanh-illustrated-by-jason-deantonis/\" target=\"_blank\" title=\"How to Love by Thich Nhat Hanh\"> <em> How To Love </em> , </a> &nbsp; <a href=\"https://zenpencils.com/book1/\" target=\"_blank\"> <em> Zen Pencils </em> </a> , and more&nbsp;</li></ul><h3>Previous events include:</h3><ul class=\"list-inline list-styled\"><li><a href=\"https://studentaffairs.duke.edu/caps/workshops-and-discussions/koru-mindfulness-and-meditation-class\"> Koru </a> meditation classes</li><li>Tea-laxation and Paint by Stickers, hosted by Duke Wellness (November 12, 2018 and February 20, 2019)</li><li>Cups of Kindness, a event promoting mental health awareness through NAMU (November 13, 2018)</li><li>DIY Aromatherapy and Kindness Grams, hosted by Duke Wellness (October 18, 2019)</li><li>Wooden Ornament Painting, hosted by Duke Wellness (December 10, 2019)</li></ul><h2>Other wellness spaces</h2><p>You can find the Duke Libraries <a href=\"https://blogs.library.duke.edu/blog/2016/09/30/prayer-meditation-room-open/\"> Prayer and Meditation Room </a> in Perkins 220, a smaller space for quiet reflection.</p><p>Oasis Perkins is managed by the Duke Libraries, in collaboration with Duke Wellness. We encourage you to also visit Oasis East and Oasis West, two more self-care spaces in the Student Health Center and on East Campus, respectively. You'll find resources to create your own aromatherapy room spray with essential oils, a massage chair, events, and more.</p><!-- <h2>\r\nEvents\r\n</h2>\r\n<h3>\r\nKoru Meditation\r\n</h3>\r\n<p>\r\n<img src=\"https://i.imgur.com/MwvktlA.jpg\" alt=\"Koru Mindfulness logo: a green fern\" width=\"200\" height=\"200\" class=\"img-responsive\">\r\n</p>\r\n<p>\r\n<a href=\"https://korumindfulness.org/\">\r\nKoru Mindfulness\r\n</a>\r\nis a 4 session course that will teach you the skill of mindfulness and help you build a life-long habit. Ciara Healy will\r\nbe teaching a course in the Oasis Perkins from 8:15 to 9:45 am on Thursdays, beginning March 21st.\r\n<a href=\"https://dashboard.korumindfulness.org/web/index.php?r=course%2Fsignup&amp;id=1916\">\r\nRegister here\r\n</a>\r\nfor the course.\r\n</p>\r\n-->",
            "revision_id" : 30102,
            "deleted" : 0,
            "delta" : 0,
            "body_format" : "full_html_no_wysiwyg",
            "bundle" : "page"
         },
         "uid" : 114,
         "timestamp" : 1609953738,
         "promote" : 0
      }
   ],
   "langcode" : "und",
   "node__body" : {
      "deleted" : 0,
      "bundle" : "page",
      "body_format" : "full_html_no_wysiwyg",
      "delta" : 0,
      "revision_id" : 30102,
      "body_value" : "<p class=\"well\"><strong>Spring 2021</strong> - Oasis Perkins is closed until further notice.</p><p>This peaceful space is dedicated to wellness at the Libraries. We encourage students, staff, faculty, and visitors are encouraged to explore the resources of the Oasis Perkins to relax and recharge.</p><center><img src=\"/sites/default/files/dul/rooms/oasisPerkins-couch.png\" alt=\"sitting area of Oasis Perkins\" width=\"500\" class=\"img-polaroid img-responsive\"></center><p></p><h2>What resources will you find?</h2><p>We encourage you to come explore what Oasis Perkins has to offer! Some of what you'll find include:</p><ul class=\"list-inline list-styled\"><li>Yoga mats</li><li>Meditation cushions</li><li>Origami paper and instructions</li><li>Sudoku and logic puzzles</li><li>Coloring books</li><li>A jigsaw puzzle corner</li><li>A quiet nook</li><li>Essential oil sprays</li><li>A neck massager</li><li>The Oasis Perkins book collection, including:&nbsp; <a href=\"https://www.penguinrandomhouse.com/books/545841/how-to-love-by-thich-nhat-hanh-illustrated-by-jason-deantonis/\" target=\"_blank\" title=\"How to Love by Thich Nhat Hanh\"> <em> How To Love </em> , </a> &nbsp; <a href=\"https://zenpencils.com/book1/\" target=\"_blank\"> <em> Zen Pencils </em> </a> , and more&nbsp;</li></ul><h3>Previous events include:</h3><ul class=\"list-inline list-styled\"><li><a href=\"https://studentaffairs.duke.edu/caps/workshops-and-discussions/koru-mindfulness-and-meditation-class\"> Koru </a> meditation classes</li><li>Tea-laxation and Paint by Stickers, hosted by Duke Wellness (November 12, 2018 and February 20, 2019)</li><li>Cups of Kindness, a event promoting mental health awareness through NAMU (November 13, 2018)</li><li>DIY Aromatherapy and Kindness Grams, hosted by Duke Wellness (October 18, 2019)</li><li>Wooden Ornament Painting, hosted by Duke Wellness (December 10, 2019)</li></ul><h2>Other wellness spaces</h2><p>You can find the Duke Libraries <a href=\"https://blogs.library.duke.edu/blog/2016/09/30/prayer-meditation-room-open/\"> Prayer and Meditation Room </a> in Perkins 220, a smaller space for quiet reflection.</p><p>Oasis Perkins is managed by the Duke Libraries, in collaboration with Duke Wellness. We encourage you to also visit Oasis East and Oasis West, two more self-care spaces in the Student Health Center and on East Campus, respectively. You'll find resources to create your own aromatherapy room spray with essential oils, a massage chair, events, and more.</p><!-- <h2>\r\nEvents\r\n</h2>\r\n<h3>\r\nKoru Meditation\r\n</h3>\r\n<p>\r\n<img src=\"https://i.imgur.com/MwvktlA.jpg\" alt=\"Koru Mindfulness logo: a green fern\" width=\"200\" height=\"200\" class=\"img-responsive\">\r\n</p>\r\n<p>\r\n<a href=\"https://korumindfulness.org/\">\r\nKoru Mindfulness\r\n</a>\r\nis a 4 session course that will teach you the skill of mindfulness and help you build a life-long habit. Ciara Healy will\r\nbe teaching a course in the Oasis Perkins from 8:15 to 9:45 am on Thursdays, beginning March 21st.\r\n<a href=\"https://dashboard.korumindfulness.org/web/index.php?r=course%2Fsignup&amp;id=1916\">\r\nRegister here\r\n</a>\r\nfor the course.\r\n</p>\r\n-->",
      "body_summary" : "",
      "entity_id" : 2103,
      "langcode" : "und"
   },
   "vid" : 30102,
   "uuid" : "c966003a-9dd2-4c65-b921-0f40bb7ed6d2",
   "field_image" : null,
   "type" : "page"
}

