{
   "uuid" : "cbcef43c-8cd3-4dfd-b87b-b4d4d0b60bb4",
   "type" : "exhibit",
   "langcode" : "und",
   "field_tags" : [],
   "path_alias" : {
      "alias" : "/exhibits/2019/honor",
      "pid" : 1937,
      "language" : "und",
      "status" : 0,
      "langcode" : "und"
   },
   "node_field_data" : {
      "revision_translation_affected" : 1,
      "langcode" : "und",
      "uid" : 1,
      "promote" : 0,
      "changed" : null,
      "type" : "exhibit",
      "default_langcode" : 1,
      "sticky" : 0,
      "created" : 1462305912,
      "status" : 1,
      "title" : "The Duke Honor Council"
   },
   "node_access" : null,
   "node__field_image" : {},
   "node__body" : {
      "revision_id" : 13459,
      "body_value" : "<p><span style=\"font-size: 12.0pt; font-family: 'Calibri',sans-serif; mso-ascii-theme-font: minor-latin; mso-fareast-font-family: Calibri; mso-fareast-theme-font: minor-latin; mso-hansi-theme-font: minor-latin; mso-bidi-font-family: 'Times New Roman'; mso-bidi-theme-font: minor-bidi; mso-ansi-language: EN-US; mso-fareast-language: EN-US; mso-bidi-language: AR-SA;\">This exhibit is presented by the Duke Honor Council, in promotion of Integrity Week, taking place March 22-29, 2019.&nbsp;</span></p>",
      "deleted" : 0,
      "body_format" : "full_html",
      "delta" : 0,
      "bundle" : "exhibit",
      "entity_id" : 1375,
      "body_summary" : "",
      "langcode" : "und"
   },
   "vid" : 13459,
   "field_image" : {
      "file_uuid" : "ad93501a-c27b-4be3-85e4-c2dbdc19f4f0",
      "language" : "und",
      "revision_id" : 13459,
      "field_image_fid" : 4475,
      "deleted" : 0,
      "entity_id" : 1375,
      "field_image_target_id" : 4475,
      "field_image_title" : "",
      "field_image_alt" : "",
      "field_image_width" : 800,
      "bundle" : "exhibit",
      "delta" : 0,
      "field_image_height" : 371,
      "entity_type" : "node",
      "langcode" : "und"
   },
   "revisions" : [
      {
         "title" : "The Duke Honor Council",
         "vuuid" : "00d3e43d-333d-4d68-8d73-f28baff7d8fe",
         "node_revision__field_tags" : [],
         "node_revision__body" : {
            "body_summary" : "",
            "entity_id" : 1375,
            "langcode" : "und",
            "deleted" : 0,
            "delta" : 0,
            "body_format" : "full_html",
            "bundle" : "exhibit",
            "body_value" : "<p><span style=\"font-size: 12.0pt; font-family: 'Calibri',sans-serif; mso-ascii-theme-font: minor-latin; mso-fareast-font-family: Calibri; mso-fareast-theme-font: minor-latin; mso-hansi-theme-font: minor-latin; mso-bidi-font-family: 'Times New Roman'; mso-bidi-theme-font: minor-bidi; mso-ansi-language: EN-US; mso-fareast-language: EN-US; mso-bidi-language: AR-SA;\">This exhibit is presented by the Duke Honor Council, in promotion of Integrity Week, taking place March 22-29, 2019.&nbsp;</span></p>",
            "revision_id" : 13459
         },
         "status" : 1,
         "field_revision" : {
            "default_langcode" : 1,
            "sticky" : 0,
            "revision_translation_affected" : 1,
            "created" : null,
            "langcode" : null,
            "uid" : 1,
            "status" : 1,
            "changed" : null,
            "title" : "The Duke Honor Council"
         },
         "sticky" : 0,
         "comment" : 1,
         "log" : "",
         "promote" : 0,
         "uid" : 2213,
         "timestamp" : 1556640884
      }
   ],
   "nid" : "1375",
   "asidebox" : null
}

