{
   "type" : "about_page",
   "field_image" : null,
   "uuid" : "d026cf5c-14c8-4c18-92d3-3399d1a5acce",
   "node__body" : {
      "revision_id" : 29762,
      "body_value" : "<div class=\"well well-lg\"><p class=\"lead\" style=\"margin-bottom: 0;\">Duke Libraries’ Assessment &amp; User Experience (AUX) Department collaborates with library staff and departments to improve users’ experiences with library spaces, services, and web interfaces.</p></div><h2>Featured projects</h2><div class=\"row\"><div class=\"col-md-3\" style=\"height: 160px; background-image: url('/sites/default/files/dul/users/angela.zoss/dulcatalog.png'); background-repeat: no-repeat; background-size: 240px 160px; background-position: 15px 0px; margin-bottom: 15px;\"><div class=\"large\" style=\"width: 240px; height: 70px; padding: 8px; background-color: rgba(102, 102, 102, 0.7);\"><strong style=\"color: #fff;\"><a href=\"https://trln.org/activities/trln-discovery/\" style=\"color: #fff; display: block; width: 240 px; height: 160px;\">TRLN Discovery</a></strong></div></div><div class=\"col-md-3\" style=\"height: 160px; background-image: url('/sites/default/files/dul/users/angela.zoss/1gwordcloud.png'); background-repeat: no-repeat; background-size: 240px 160px; background-position: 15px 0px; margin-bottom: 15px;\"><div class=\"large\" style=\"width: 240px; height: 70px; padding: 8px; background-color: rgba(102, 102, 102, 0.7);\"><strong style=\"color: #fff;\"> <a href=\"https://library.duke.edu/about/depts/assessment-user-experience/user-studies\" style=\"color: #fff; display: block; width: 240 px; height: 160px;\">In-depth user studies</a></strong></div></div><div class=\"col-md-3\" style=\"height: 160px; background-image: url('/sites/default/files/dul/users/angela.zoss/surveydashboard.png'); background-repeat: no-repeat; background-size: 240px 160px; background-position: 15px 0px; margin-bottom: 15px;\"><div class=\"large\" style=\"width: 240px; height: 70px; padding: 8px; background-color: rgba(102, 102, 102, 0.7);\"><strong style=\"color: #fff;\"><a href=\"https://library.duke.edu/about/depts/assessment-user-experience/biennial-surveys\" style=\"color: #fff; display: block; width: 240 px; height: 160px;\">Biennial satisfaction surveys</a></strong></div></div><div class=\"col-md-3\" style=\"height: 160px; background-image: url('/sites/default/files/dul/users/angela.zoss/webcontentchecklist.png'); background-repeat: no-repeat; background-size: 240px 160px; background-position: 15px 0px; margin-bottom: 15px;\"><div class=\"large\" style=\"width: 240px; height: 70px; padding: 8px; background-color: rgba(102, 102, 102, 0.7);\"><strong style=\"color: #fff;\"><a href=\"https://library.duke.edu/about/content-guidelines\" style=\"color: #fff; display: block; width: 240 px; height: 160px;\">Website content strategy</a></strong></div></div></div><h2>Scope of our work</h2><p>In active support of the <a href=\"https://library.duke.edu/about/mission/\"> mission of Duke University Libraries</a>, we conduct work in the following broad areas:</p><div class=\"panel panel-default\"><div class=\"panel-heading\"><h3 style=\"margin-top: 12px;\">Conduct assessment</h3></div><div class=\"panel-body\"><div class=\"row\"><div class=\"col-md-4\"><p class=\"large\">Conduct regular qualitative and quantitative assessments, and proactively gather input from users though usability studies, observational studies, discussion groups, and interviews.</p><p><a href=\"https://public.tableau.com/profile/duke.university.libraries.assessment.user.experience.department#!/\"> <button class=\"btn btn-default btn-sm\" style=\"margin: 8px;\"> AUX Tableau Public Dashboards </button> </a></p></div><div class=\"col-md-8\"><h4>Major projects</h4><ul><li><a href=\"https://library.duke.edu/about/depts/assessment-user-experience/biennial-surveys\"> Biennial user satisfaction survey </a></li><li>Libraries’ <a href=\"https://library.duke.edu/about/advisory-boards/undergraduate\"> Undergraduate Advisory Board </a> and <a href=\"https://library.duke.edu/about/advisory-boards/graduate\"> Graduate &amp; Professional Student Advisory Board </a></li><li>In-depth user studies (e.g., year-long studies of&nbsp;<a href=\"https://blogs.library.duke.edu/bitstreams/2018/10/02/1g-students-at-duke/\">first-generation college students</a>&nbsp;and <a href=\"https://dukespace.lib.duke.edu/dspace/handle/10161/20251\">Black students</a> at Duke).</li><li><a href=\"https://library.duke.edu/about/reports-quickfacts\">External reporting</a>&nbsp;</li><li><a href=\"https://dukespace.lib.duke.edu/dspace/browse?value=AUX+-+survey&amp;type=subject\">Surveys</a>,&nbsp;<a href=\"https://dukespace.lib.duke.edu/dspace/handle/10161/5738/browse?value=AUX+-+observational%2Fwayfinding+study&amp;type=subject\">observational/wayfinding studies</a>,&nbsp;<a href=\"https://dukespace.lib.duke.edu/dspace/handle/10161/5738/browse?value=AUX+-+usability+test&amp;type=subject\">usability studies</a>, and&nbsp;<a href=\"https://dukespace.lib.duke.edu/dspace/browse?value=AUX+-+other&amp;type=subject\">other studies</a></li></ul></div></div></div></div><div class=\"panel panel-default\"><div class=\"panel-heading\"><h3 style=\"margin-top: 12px;\">Lead website &amp; software projects</h3></div><div class=\"panel-body\"><div class=\"row\"><div class=\"col-md-4\"><p class=\"large\">Coordinate the governance teams for the <a href=\"https://library.duke.edu/\"> Duke Libraries website</a>, ensure web interfaces provide an optimal user experience in keeping with our <a href=\"https://library.duke.edu/about/depts/assessment-user-experience/vision-values\"> Vision and Values</a>, and lead software development projects.</p></div><div class=\"col-md-8\"><h4>Major projects</h4><ul><li><a href=\"https://trln.org/activities/trln-discovery/\">TRLN Discovery&nbsp;shared catalog</a></li><li><a href=\"https://library.duke.edu/using/library-spaces\">Find Library Spaces</a></li><li><a href=\"https://library.duke.edu/about/directory\">Duke Libraries Staff Directory&nbsp;</a></li></ul></div></div></div></div><div class=\"panel panel-default\"><div class=\"panel-heading\"><h3 style=\"margin-top: 12px;\">Make improvements &amp; communicate findings</h3></div><div class=\"panel-body\"><div class=\"row\"><div class=\"col-md-4\"><p class=\"large\">Develop and implement recommendations from assessments, and make our <a href=\"https://dukespace.lib.duke.edu/dspace/handle/10161/5738\"> reports of findings and recommendations </a> and <a href=\"https://public.tableau.com/profile/duke.university.libraries.assessment.user.experience.department#!/\"> data visualizations </a> publicly accessible.</p></div><div class=\"col-md-8\"><h4>Major projects</h4><ul><li><a href=\"https://blogs.library.duke.edu/bitstreams/2019/12/06/where-do-patrons-get-lost-a-study-of-library-navigation/\">Signage and wayfinding</a>&nbsp;</li><li><a href=\"https://blogs.library.duke.edu/bitstreams/?s=survey\">Biennial user satisfaction survey recommendations</a></li><li><a href=\"https://blogs.library.duke.edu/bitstreams/?s=libkey+discovery\">Improving access to online journals and articles&nbsp;</a></li></ul></div></div></div></div><div class=\"panel panel-default\"><div class=\"panel-heading\"><h3 style=\"margin-top: 12px;\">Consult with library staff</h3></div><div class=\"panel-body\"><div class=\"row\"><div class=\"col-md-4\"><p class=\"large\">Consult with library staff on assessment, data analysis and visualization, web design, project management, and meeting/team facilitation.</p></div><div class=\"col-md-8\"><h4>Major projects</h4><ul><li><a href=\"https://tableau.oit.duke.edu/#/site/prod/workbooks/12091/views%20\">Missing books dashboard</a> (Duke staff only)</li><li><a href=\"http://bit.ly/ERL20-60-02\">Journal Subscription Usage Analysis</a></li><li>Rubenstein Library Processing Cost Calculator</li></ul></div></div></div></div><div class=\"panel panel-default\"><div class=\"panel-heading\"><h3 style=\"margin-top: 12px;\">Mentor future UX professionals</h3></div><div class=\"panel-body\"><div class=\"row\"><div class=\"col-md-4\"><p class=\"large\">Coordinate a hands-on, semester-long practicum for MSIS/MSLS to gain experience in academic libraries, user experience, assessment, and project management.&nbsp;</p><p><a href=\"/about/jobs/auxfieldexperience\"><button class=\"btn btn-default btn-sm\" style=\"margin: 8px;\">Apply for a practicum</button> </a></p></div><div class=\"col-md-8\"><h4>Recent student-led projects</h4><ul><li><a href=\"https://blogs.library.duke.edu/blog/2020/02/12/find-article-pdfs-faster-with-this-browser-plugin/\">LibKey Nomad promotion</a></li><li><a href=\"https://public.3.basecamp.com/p/mKsf6voWydy6R2wStggnqPj3\">'How to read an LC call number' handouts&nbsp;</a></li><li><a href=\"https://public.3.basecamp.com/p/6c5miCn4FHnej4N9F4sYLEpT\">Book stacks signage and handouts</a></li></ul></div></div></div></div><h2>Contact</h2><div class=\"row\"><div class=\"col-md-4\"><a href=\"/about/directory/staff/631\"> <img src=\"/sites/default/files/dul/users/emily.daly/daly-emily.jpg\" alt=\"Emily Daly\" title=\"Emily Daly\" class=\"image-left\"> </a><h3 style=\"margin-top: 0;\"><a href=\"/about/directory/staff/631\"> Emily Daly </a></h3><p style=\"min-height: 135px; margin-left: 150px;\">Head, Assessment &amp; User Experience Department <br> (919) 660-5879 <br> <a href=\"mailto:emily.daly@duke.edu\"> emily.daly@duke.edu </a></p></div><div class=\"col-md-4\"><a href=\"/about/directory/staff/7397\"> <img src=\"/sites/default/files/dul/staff-portraits/chapman-joyce.jpg\" alt=\"Joyce Chapman\" title=\"Joyce Chapman\" class=\"image-left\"> </a><h3 style=\"margin-top: 0;\"><a href=\"/about/directory/staff/7397\"> Joyce Chapman </a></h3><p style=\"min-height: 135px; margin-left: 150px;\">Assessment Analyst &amp; Consultant <br> (919) 660-5889 <br> <a href=\"mailto:joyce.chapman@duke.edu\"> joyce.chapman@duke.edu </a></p></div><div class=\"col-md-4\"><a href=\"/about/directory/staff/591\"> <img src=\"/sites/default/files/dul/staff-portraits/crichlow-130x170_0.jpg\" alt=\"Thomas Crichlow\" title=\"Thomas Crichlow\" class=\"image-left\"> </a><h3 style=\"margin-top: 0;\"><a href=\"/about/directory/staff/591\"> Thomas Crichlow </a></h3><p style=\"min-height: 135px; margin-left: 150px;\">Web Experience Project Lead <br> (919) 660-6932 <br> <a href=\"mailto:thomas.crichlow@duke.edu\"> thomas.crichlow@duke.edu </a></p></div></div><div class=\"row\"><div class=\"col-md-4\" style=\"padding-top: 40px;\"><a href=\"/about/directory/staff/7417\"> <img src=\"/sites/default/files/dul/staff-portraits/lown-cory.jpg\" alt=\"Cory Lown\" title=\"Cory Lown\" class=\"image-left\"> </a><h3 style=\"margin-top: 0;\"><a href=\"/about/directory/staff/7417\"> Cory Lown </a></h3><p style=\"min-height: 135px; margin-left: 150px;\">Application Development Project Lead <br> (919) 660-5885 <br> <a href=\"mailto:cory.lown@duke.edu\"> cory.lown@duke.edu </a></p></div><div class=\"col-md-4\" style=\"padding-top: 40px;\"><a href=\"/about/directory/staff/6881\"> <img src=\"/sites/default/files/dul/staff-portraits/zoss-angela-2018.jpg\" alt=\"Angela Zoss\" title=\"Angela Zoss\" class=\"image-left\"> </a><h3 style=\"margin-top: 0;\"><a href=\"/about/directory/staff/6881\"> Angela Zoss, Ph.D. </a></h3><p style=\"min-height: 135px; margin-left: 150px;\">Assessment &amp; Data Visualization Analyst <br> (919) 684-8186 <br> <a href=\"mailto:angela.zoss@duke.edu\"> angela.zoss@duke.edu </a></p></div><div class=\"col-md-4\" style=\"padding-top: 40px;\"><a href=\"/about/directory/staff/6881\"> <img src=\"/sites/default/files/dul/staff-portraits/wang-candice.jpg\" alt=\"Candice Wang\" title=\"Candice Wang\" class=\"image-left\"> </a><h3 style=\"margin-top: 0;\">Candice Wang</h3><p style=\"min-height: 135px; margin-left: 150px;\">AUX Graduate Student Assistant <br> <a href=\"mailto:yuxi.wang@duke.edu\"> yuxi.wang@duke.edu </a></p></div></div><div class=\"row\"><div class=\"col-md-12\"><div class=\"well well-lg\"><h2 style=\"margin-top: 0px;\">About AUX</h2><p>AUX formed in 2013 to study and improve users' experiences with all aspects of Duke Libraries. Since 2013, we have expanded our scope to include library assessment and project management, with an emphasis on website and software projects.</p></div></div></div>",
      "body_format" : "full_html_no_wysiwyg",
      "bundle" : "about_page",
      "delta" : 0,
      "deleted" : 0,
      "entity_id" : 1209,
      "body_summary" : "",
      "langcode" : "und"
   },
   "vid" : 29762,
   "langcode" : "und",
   "revisions" : [
      {
         "sticky" : 0,
         "comment" : 1,
         "log" : "",
         "status" : 1,
         "field_revision" : {
            "changed" : null,
            "title" : "Assessment & User Experience ",
            "revision_translation_affected" : 1,
            "sticky" : 0,
            "default_langcode" : 1,
            "langcode" : null,
            "uid" : 1,
            "status" : 1,
            "created" : null
         },
         "node_revision__body" : {
            "langcode" : "und",
            "body_summary" : "",
            "entity_id" : 1209,
            "body_format" : "full_html_no_wysiwyg",
            "delta" : 0,
            "bundle" : "about_page",
            "deleted" : 0,
            "revision_id" : 29762,
            "body_value" : "<div class=\"well well-lg\"><p class=\"lead\" style=\"margin-bottom: 0;\">Duke Libraries’ Assessment &amp; User Experience (AUX) Department collaborates with library staff and departments to improve users’ experiences with library spaces, services, and web interfaces.</p></div><h2>Featured projects</h2><div class=\"row\"><div class=\"col-md-3\" style=\"height: 160px; background-image: url('/sites/default/files/dul/users/angela.zoss/dulcatalog.png'); background-repeat: no-repeat; background-size: 240px 160px; background-position: 15px 0px; margin-bottom: 15px;\"><div class=\"large\" style=\"width: 240px; height: 70px; padding: 8px; background-color: rgba(102, 102, 102, 0.7);\"><strong style=\"color: #fff;\"><a href=\"https://trln.org/activities/trln-discovery/\" style=\"color: #fff; display: block; width: 240 px; height: 160px;\">TRLN Discovery</a></strong></div></div><div class=\"col-md-3\" style=\"height: 160px; background-image: url('/sites/default/files/dul/users/angela.zoss/1gwordcloud.png'); background-repeat: no-repeat; background-size: 240px 160px; background-position: 15px 0px; margin-bottom: 15px;\"><div class=\"large\" style=\"width: 240px; height: 70px; padding: 8px; background-color: rgba(102, 102, 102, 0.7);\"><strong style=\"color: #fff;\"> <a href=\"https://library.duke.edu/about/depts/assessment-user-experience/user-studies\" style=\"color: #fff; display: block; width: 240 px; height: 160px;\">In-depth user studies</a></strong></div></div><div class=\"col-md-3\" style=\"height: 160px; background-image: url('/sites/default/files/dul/users/angela.zoss/surveydashboard.png'); background-repeat: no-repeat; background-size: 240px 160px; background-position: 15px 0px; margin-bottom: 15px;\"><div class=\"large\" style=\"width: 240px; height: 70px; padding: 8px; background-color: rgba(102, 102, 102, 0.7);\"><strong style=\"color: #fff;\"><a href=\"https://library.duke.edu/about/depts/assessment-user-experience/biennial-surveys\" style=\"color: #fff; display: block; width: 240 px; height: 160px;\">Biennial satisfaction surveys</a></strong></div></div><div class=\"col-md-3\" style=\"height: 160px; background-image: url('/sites/default/files/dul/users/angela.zoss/webcontentchecklist.png'); background-repeat: no-repeat; background-size: 240px 160px; background-position: 15px 0px; margin-bottom: 15px;\"><div class=\"large\" style=\"width: 240px; height: 70px; padding: 8px; background-color: rgba(102, 102, 102, 0.7);\"><strong style=\"color: #fff;\"><a href=\"https://library.duke.edu/about/content-guidelines\" style=\"color: #fff; display: block; width: 240 px; height: 160px;\">Website content strategy</a></strong></div></div></div><h2>Scope of our work</h2><p>In active support of the <a href=\"https://library.duke.edu/about/mission/\"> mission of Duke University Libraries</a>, we conduct work in the following broad areas:</p><div class=\"panel panel-default\"><div class=\"panel-heading\"><h3 style=\"margin-top: 12px;\">Conduct assessment</h3></div><div class=\"panel-body\"><div class=\"row\"><div class=\"col-md-4\"><p class=\"large\">Conduct regular qualitative and quantitative assessments, and proactively gather input from users though usability studies, observational studies, discussion groups, and interviews.</p><p><a href=\"https://public.tableau.com/profile/duke.university.libraries.assessment.user.experience.department#!/\"> <button class=\"btn btn-default btn-sm\" style=\"margin: 8px;\"> AUX Tableau Public Dashboards </button> </a></p></div><div class=\"col-md-8\"><h4>Major projects</h4><ul><li><a href=\"https://library.duke.edu/about/depts/assessment-user-experience/biennial-surveys\"> Biennial user satisfaction survey </a></li><li>Libraries’ <a href=\"https://library.duke.edu/about/advisory-boards/undergraduate\"> Undergraduate Advisory Board </a> and <a href=\"https://library.duke.edu/about/advisory-boards/graduate\"> Graduate &amp; Professional Student Advisory Board </a></li><li>In-depth user studies (e.g., year-long studies of&nbsp;<a href=\"https://blogs.library.duke.edu/bitstreams/2018/10/02/1g-students-at-duke/\">first-generation college students</a>&nbsp;and <a href=\"https://dukespace.lib.duke.edu/dspace/handle/10161/20251\">Black students</a> at Duke).</li><li><a href=\"https://library.duke.edu/about/reports-quickfacts\">External reporting</a>&nbsp;</li><li><a href=\"https://dukespace.lib.duke.edu/dspace/browse?value=AUX+-+survey&amp;type=subject\">Surveys</a>,&nbsp;<a href=\"https://dukespace.lib.duke.edu/dspace/handle/10161/5738/browse?value=AUX+-+observational%2Fwayfinding+study&amp;type=subject\">observational/wayfinding studies</a>,&nbsp;<a href=\"https://dukespace.lib.duke.edu/dspace/handle/10161/5738/browse?value=AUX+-+usability+test&amp;type=subject\">usability studies</a>, and&nbsp;<a href=\"https://dukespace.lib.duke.edu/dspace/browse?value=AUX+-+other&amp;type=subject\">other studies</a></li></ul></div></div></div></div><div class=\"panel panel-default\"><div class=\"panel-heading\"><h3 style=\"margin-top: 12px;\">Lead website &amp; software projects</h3></div><div class=\"panel-body\"><div class=\"row\"><div class=\"col-md-4\"><p class=\"large\">Coordinate the governance teams for the <a href=\"https://library.duke.edu/\"> Duke Libraries website</a>, ensure web interfaces provide an optimal user experience in keeping with our <a href=\"https://library.duke.edu/about/depts/assessment-user-experience/vision-values\"> Vision and Values</a>, and lead software development projects.</p></div><div class=\"col-md-8\"><h4>Major projects</h4><ul><li><a href=\"https://trln.org/activities/trln-discovery/\">TRLN Discovery&nbsp;shared catalog</a></li><li><a href=\"https://library.duke.edu/using/library-spaces\">Find Library Spaces</a></li><li><a href=\"https://library.duke.edu/about/directory\">Duke Libraries Staff Directory&nbsp;</a></li></ul></div></div></div></div><div class=\"panel panel-default\"><div class=\"panel-heading\"><h3 style=\"margin-top: 12px;\">Make improvements &amp; communicate findings</h3></div><div class=\"panel-body\"><div class=\"row\"><div class=\"col-md-4\"><p class=\"large\">Develop and implement recommendations from assessments, and make our <a href=\"https://dukespace.lib.duke.edu/dspace/handle/10161/5738\"> reports of findings and recommendations </a> and <a href=\"https://public.tableau.com/profile/duke.university.libraries.assessment.user.experience.department#!/\"> data visualizations </a> publicly accessible.</p></div><div class=\"col-md-8\"><h4>Major projects</h4><ul><li><a href=\"https://blogs.library.duke.edu/bitstreams/2019/12/06/where-do-patrons-get-lost-a-study-of-library-navigation/\">Signage and wayfinding</a>&nbsp;</li><li><a href=\"https://blogs.library.duke.edu/bitstreams/?s=survey\">Biennial user satisfaction survey recommendations</a></li><li><a href=\"https://blogs.library.duke.edu/bitstreams/?s=libkey+discovery\">Improving access to online journals and articles&nbsp;</a></li></ul></div></div></div></div><div class=\"panel panel-default\"><div class=\"panel-heading\"><h3 style=\"margin-top: 12px;\">Consult with library staff</h3></div><div class=\"panel-body\"><div class=\"row\"><div class=\"col-md-4\"><p class=\"large\">Consult with library staff on assessment, data analysis and visualization, web design, project management, and meeting/team facilitation.</p></div><div class=\"col-md-8\"><h4>Major projects</h4><ul><li><a href=\"https://tableau.oit.duke.edu/#/site/prod/workbooks/12091/views%20\">Missing books dashboard</a> (Duke staff only)</li><li><a href=\"http://bit.ly/ERL20-60-02\">Journal Subscription Usage Analysis</a></li><li>Rubenstein Library Processing Cost Calculator</li></ul></div></div></div></div><div class=\"panel panel-default\"><div class=\"panel-heading\"><h3 style=\"margin-top: 12px;\">Mentor future UX professionals</h3></div><div class=\"panel-body\"><div class=\"row\"><div class=\"col-md-4\"><p class=\"large\">Coordinate a hands-on, semester-long practicum for MSIS/MSLS to gain experience in academic libraries, user experience, assessment, and project management.&nbsp;</p><p><a href=\"/about/jobs/auxfieldexperience\"><button class=\"btn btn-default btn-sm\" style=\"margin: 8px;\">Apply for a practicum</button> </a></p></div><div class=\"col-md-8\"><h4>Recent student-led projects</h4><ul><li><a href=\"https://blogs.library.duke.edu/blog/2020/02/12/find-article-pdfs-faster-with-this-browser-plugin/\">LibKey Nomad promotion</a></li><li><a href=\"https://public.3.basecamp.com/p/mKsf6voWydy6R2wStggnqPj3\">'How to read an LC call number' handouts&nbsp;</a></li><li><a href=\"https://public.3.basecamp.com/p/6c5miCn4FHnej4N9F4sYLEpT\">Book stacks signage and handouts</a></li></ul></div></div></div></div><h2>Contact</h2><div class=\"row\"><div class=\"col-md-4\"><a href=\"/about/directory/staff/631\"> <img src=\"/sites/default/files/dul/users/emily.daly/daly-emily.jpg\" alt=\"Emily Daly\" title=\"Emily Daly\" class=\"image-left\"> </a><h3 style=\"margin-top: 0;\"><a href=\"/about/directory/staff/631\"> Emily Daly </a></h3><p style=\"min-height: 135px; margin-left: 150px;\">Head, Assessment &amp; User Experience Department <br> (919) 660-5879 <br> <a href=\"mailto:emily.daly@duke.edu\"> emily.daly@duke.edu </a></p></div><div class=\"col-md-4\"><a href=\"/about/directory/staff/7397\"> <img src=\"/sites/default/files/dul/staff-portraits/chapman-joyce.jpg\" alt=\"Joyce Chapman\" title=\"Joyce Chapman\" class=\"image-left\"> </a><h3 style=\"margin-top: 0;\"><a href=\"/about/directory/staff/7397\"> Joyce Chapman </a></h3><p style=\"min-height: 135px; margin-left: 150px;\">Assessment Analyst &amp; Consultant <br> (919) 660-5889 <br> <a href=\"mailto:joyce.chapman@duke.edu\"> joyce.chapman@duke.edu </a></p></div><div class=\"col-md-4\"><a href=\"/about/directory/staff/591\"> <img src=\"/sites/default/files/dul/staff-portraits/crichlow-130x170_0.jpg\" alt=\"Thomas Crichlow\" title=\"Thomas Crichlow\" class=\"image-left\"> </a><h3 style=\"margin-top: 0;\"><a href=\"/about/directory/staff/591\"> Thomas Crichlow </a></h3><p style=\"min-height: 135px; margin-left: 150px;\">Web Experience Project Lead <br> (919) 660-6932 <br> <a href=\"mailto:thomas.crichlow@duke.edu\"> thomas.crichlow@duke.edu </a></p></div></div><div class=\"row\"><div class=\"col-md-4\" style=\"padding-top: 40px;\"><a href=\"/about/directory/staff/7417\"> <img src=\"/sites/default/files/dul/staff-portraits/lown-cory.jpg\" alt=\"Cory Lown\" title=\"Cory Lown\" class=\"image-left\"> </a><h3 style=\"margin-top: 0;\"><a href=\"/about/directory/staff/7417\"> Cory Lown </a></h3><p style=\"min-height: 135px; margin-left: 150px;\">Application Development Project Lead <br> (919) 660-5885 <br> <a href=\"mailto:cory.lown@duke.edu\"> cory.lown@duke.edu </a></p></div><div class=\"col-md-4\" style=\"padding-top: 40px;\"><a href=\"/about/directory/staff/6881\"> <img src=\"/sites/default/files/dul/staff-portraits/zoss-angela-2018.jpg\" alt=\"Angela Zoss\" title=\"Angela Zoss\" class=\"image-left\"> </a><h3 style=\"margin-top: 0;\"><a href=\"/about/directory/staff/6881\"> Angela Zoss, Ph.D. </a></h3><p style=\"min-height: 135px; margin-left: 150px;\">Assessment &amp; Data Visualization Analyst <br> (919) 684-8186 <br> <a href=\"mailto:angela.zoss@duke.edu\"> angela.zoss@duke.edu </a></p></div><div class=\"col-md-4\" style=\"padding-top: 40px;\"><a href=\"/about/directory/staff/6881\"> <img src=\"/sites/default/files/dul/staff-portraits/wang-candice.jpg\" alt=\"Candice Wang\" title=\"Candice Wang\" class=\"image-left\"> </a><h3 style=\"margin-top: 0;\">Candice Wang</h3><p style=\"min-height: 135px; margin-left: 150px;\">AUX Graduate Student Assistant <br> <a href=\"mailto:yuxi.wang@duke.edu\"> yuxi.wang@duke.edu </a></p></div></div><div class=\"row\"><div class=\"col-md-12\"><div class=\"well well-lg\"><h2 style=\"margin-top: 0px;\">About AUX</h2><p>AUX formed in 2013 to study and improve users' experiences with all aspects of Duke Libraries. Since 2013, we have expanded our scope to include library assessment and project management, with an emphasis on website and software projects.</p></div></div></div>"
         },
         "title" : "Assessment & User Experience ",
         "vuuid" : "a5b3d166-8606-47f2-b825-c17924033fd2",
         "node_revision__field_tags" : [],
         "timestamp" : 1601914960,
         "uid" : 42,
         "promote" : 0
      }
   ],
   "node_access" : null,
   "asidebox" : {
      "vid" : 29762,
      "bid" : null,
      "body_title" : "",
      "nid" : 1209,
      "block_module" : null,
      "body_value" : "<p style=\"margin: auto;\"><img src=\"http://placehold.it/200x200\"></p>",
      "body_format" : "full_html",
      "block_delta" : null,
      "status" : "disabled"
   },
   "nid" : "1209",
   "node_field_data" : {
      "sticky" : 0,
      "default_langcode" : 1,
      "status" : 1,
      "created" : 1446663696,
      "title" : "Assessment & User Experience ",
      "revision_translation_affected" : 1,
      "uid" : 1,
      "langcode" : "und",
      "promote" : 0,
      "changed" : null,
      "type" : "about_page"
   },
   "path_alias" : {
      "language" : "und",
      "alias" : "/about/depts/assessment-user-experience",
      "pid" : 1725,
      "langcode" : "und",
      "status" : 0
   },
   "field_tags" : []
}

