{
   "type" : "library_services_page",
   "field_image" : null,
   "uuid" : "d60af160-00f3-4ac4-ab0b-6c02f0adf7dd",
   "node__body" : {
      "delta" : 0,
      "body_format" : "full_html_no_wysiwyg",
      "bundle" : "library_services_page",
      "deleted" : 0,
      "body_value" : "<!-- removed for Spring 2021 -->\r\n<!--\r\n<ul class=\"nav nav-tabs nav-tabs-sticky\" id=\"myTab\"><li class=\"active\"><a href=\"#info\" data-toggle=\"tab\"> Information </a></li>\r\n<li><a href=\"#perkins\" data-toggle=\"tab\"> Perkins and Bostock Libraries </a></li>\r\n<li><a href=\"#lilly\" data-toggle=\"tab\"> Lilly Library </a></li>\r\n<li><a href=\"#music\" data-toggle=\"tab\"> Music Library </a></li>\r\n<li><a href=\"#other\" data-toggle=\"tab\"> Professional School Libraries </a></li>\r\n</ul>\r\n-->\r\n\r\n<!-- removed for Spring 2021 -->\r\n<!--<div class=\"tab-content\" style=\"margin-top: -20px;\">-->\r\n\r\n  <div class=\"tab-pane active\" id=\"info\">\r\n\r\n    <p class=\"well\"><strong>Spring 2021</strong> - For locations of available ePrint stations to use for copying, please refer to our <a href=\"https://library.duke.edu/using/technology\" title=\"Technology at the Libraries\">Technology</a> page.</p>\r\n\r\n    <h2>How can I pay for my copies?</h2>\r\n\r\n    <h3>DukeCard</h3>\r\n    \r\n    <p>If you have a FLEX Account connected to your <a href=\"https://dukecard.duke.edu\">DukeCard</a> , you can load money onto your account either online or at Value Transfer Station (VTS) kiosks in most libraries on campus.</p>\r\n    \r\n    <p>Please note that VTS kiosks accept $5, $10 or $20 bills. Once you have money loaded onto your <a href=\"https://dukecard.duke.edu\">DukeCard</a> , you can use your card at most public-access copiers on campus.</p>\r\n    \r\n    <h3 style=\"margin-top: 20px;\">White Library Copy Card</h3>\r\n    \r\n    <p>You can purchase and load money onto a white library copy card from Value Transfer Station (VTS) kiosks in most libraries on campus.</p>\r\n    \r\n    <p>You can use white library copy cards at all campus libraries except the Medical Center Library Archives.</p>\r\n    \r\n    <h3 style=\"margin-top: 20px;\">Medical Center Library Copy Card</h3>\r\n    \r\n    <p>Some Medical Center Library copiers accept copy cards, but you must purchase a specific copy card from the Medical Center Library.</p>\r\n    \r\n    <p>Please note that if you have purchased a white library copy card from Perkins or other campus libraries, you will not be able to use it on Medical Center Library copiers.</p>\r\n    \r\n    <h3 style=\"margin-top: 20px;\">Cash</h3>\r\n    \r\n    <p>A limited number of copiers on campus accept cash, mostly quarters.</p>\r\n    \r\n    <h3 style=\"margin-top: 20px;\">Departmental Copy Card</h3>\r\n    \r\n    <p>You can use a departmental copy card only on a departmental copier.</p>\r\n    \r\n    <h2>How much will I pay?</h2>\r\n    \r\n    <ul>\r\n      <li>$.07 for each copy (DukeCard or library copy card)</li>\r\n      <li>$.10 for each copy (cash)</li>\r\n    </ul>\r\n\r\n    <h2>What if my copier is misbehaving?</h2>\r\n    \r\n    <ul>\r\n      <li>Write down the unit number, located on the front of the copier.</li>\r\n      <li>Report information to the staff at the circulation desk of your library.</li>\r\n    </ul>\r\n\r\n  </div>\r\n\r\n\r\n\r\n<!-- removed for Spring 2021 -->\r\n<!--\r\n<div class=\"tab-pane\" id=\"perkins\">\r\n<h2>Perkins Library</h2>\r\n<table style=\"width: 100%; float: none ! important; background-color: #f2f2f2 !important;\" class=\"table table-bordered\" align=\"left\" border=\"0\"><tbody>\r\n<tr><td colspan=\"2\"><h3>Color ePrint Stations <span class=\"text-muted\"> (copy/print/scan) </span></h3>\r\n</td>\r\n</tr>\r\n<tr><td style=\"width: 50%;\"><h5 class=\"text-success\">Location</h5><ul class=\"bullet-gray\">\r\n<li>1st floor</li>\r\n</ul>\r\n</td>\r\n<td style=\"width: 50%;\"><h5 class=\"text-success\">Payment Options</h5><ul class=\"bullet-gray\"><li>DukeCard with a FLEX account</li>\r\n<li>White library copy card</li>\r\n</ul>\r\n</td>\r\n</tr>\r\n<tr><td colspan=\"2\"><h3>Copiers</h3>\r\n</td>\r\n</tr>\r\n<tr><td style=\"width: 50%;\"><h5 class=\"text-success\">Location</h5><ul class=\"bullet-gray\"><li>Room 131</li>\r\n</ul>\r\n</td>\r\n<td style=\"width: 50%;\"><h5 class=\"text-success\">Payment Options</h5><ul class=\"bullet-gray\"><li>DukeCard with a FLEX account</li>\r\n<li>White library copy card</li>\r\n<li>Departmental copy card</li>\r\n</ul>\r\n</td>\r\n</tr>\r\n</tbody></table>\r\n<h2>Bostock Library</h2>\r\n<table style=\"width: 100%; float: none ! important; background-color: #f2f2f2 !important;\" class=\"table table-bordered\"><tbody><tr><td colspan=\"2\"><h3>Color ePrint Stations <span class=\"text-muted\"> (copy/print/scan) </span></h3>\r\n</td>\r\n</tr>\r\n<tr><td style=\"width: 50%;\"><h5 class=\"text-success\">Location</h5><ul class=\"bullet-gray\">\r\n<li>1st floor</li>\r\n</ul>\r\n</td>\r\n<td style=\"width: 50%;\"><h5 class=\"text-success\">Payment Options</h5><ul class=\"bullet-gray\"><li>DukeCard with a FLEX account</li>\r\n<li>White library copy card</li>\r\n</ul>\r\n</td>\r\n</tr>\r\n</tbody></table>\r\n</div><div class=\"tab-pane\" id=\"lilly\"><h2>Lilly Library</h2>\r\n<table style=\"width: 100%; float: none ! important; background-color: #f2f2f2 !important;\" class=\"table table-bordered\"><tbody><tr><td colspan=\"2\"><h3>Public-Access Copiers</h3>\r\n</td>\r\n</tr>\r\n<tr><td style=\"width: 50%;\"><h5 class=\"text-success\">Locations</h5><ul class=\"bullet-gray\"><li>1st floor lobby, near Reference Room hallway</li>\r\n<li>Basement, center study room</li>\r\n</ul>\r\n</td>\r\n<td style=\"width: 50%;\"><h5 class=\"text-success\">Payment Options</h5><ul class=\"bullet-gray\"><li>DukeCard with a FLEX account</li><li>White library copy card</li>\r\n</ul>\r\n</td>\r\n</tr>\r\n</tbody></table>\r\n<table style=\"width: 100%; float: none ! important; background-color: #f2f2f2 !important;\" class=\"table table-bordered\"><tbody><tr><td colspan=\"2\"><h3>Departmental Copiers</h3>\r\n</td>\r\n</tr>\r\n<tr><td style=\"width: 50%;\"><h5 class=\"text-success\">Location</h5><ul class=\"bullet-gray\"><li>Basement, center study room</li>\r\n</ul>\r\n</td>\r\n<td style=\"width: 50%;\"><h5 class=\"text-success\">Payment Option</h5><ul class=\"bullet-gray\"><li>Departmental copy card</li>\r\n</ul>\r\n</td>\r\n</tr>\r\n</tbody></table>\r\n</div><div class=\"tab-pane\" id=\"music\">\r\n<h2>Music Library</h2>\r\n<table style=\"width: 100%; float: none ! important; background-color: #f2f2f2 !important;\" class=\"table table-bordered\"><tbody><tr><td colspan=\"2\"><h3>Public-Access Copiers</h3>\r\n</td>\r\n</tr>\r\n<tr><td style=\"width: 50%;\"><h5 class=\"text-success\">Location</h5><ul class=\"bullet-gray\"><li>1st floor, beside ePrint station and near the stairwell to the lower level</li>\r\n</ul>\r\n</td>\r\n<td style=\"width: 50%;\"><h5 class=\"text-success\">Payment Options</h5><ul class=\"bullet-gray\"><li>DukeCard with a FLEX account</li>\r\n<li>White library copy card</li>\r\n</ul>\r\n</td>\r\n</tr>\r\n</tbody></table>\r\n</div><div class=\"tab-pane\" id=\"other\">\r\n<div class=\"panel-group\" id=\"other\"><div class=\"panel panel-default\"><div class=\"panel-heading\"><h2 class=\"panel-title\"><a href=\"#divinity\" class=\"accordion-toggle\" data-toggle=\"collapse\" data-parent=\"#other\"> Divinity School Library </a></h2>\r\n</div><div id=\"divinity\" class=\"panel-collapse collapse\"><div class=\"panel-body\"><table style=\"width: 100%; float: none ! important; background-color: #f2f2f2 !important;\" class=\"table table-bordered\"><tbody><tr><td colspan=\"2\"><h3>Public & Departmental Access Copiers</h3>\r\n</td>\r\n</tr>\r\n<tr><td style=\"width: 50%;\"><h5 class=\"text-success\">Location</h5><ul class=\"bullet-gray\"><li>1st floor in the ePrint area, behind the Help Desk</li>\r\n</ul>\r\n</td>\r\n<td style=\"width: 50%;\"><h5 class=\"text-success\">Payment Options</h5><ul class=\"bullet-gray\"><li>DukeCard with a FLEX account</li>\r\n<li>White library copy card</li>\r\n<li>Quarters</li>\r\n</ul>\r\n</td>\r\n</tr>\r\n<tr><td style=\"width: 50%;\"><h5 class=\"text-success\">Locations</h5><ul class=\"bullet-gray\"><li>1st floor by the KIC Scanner</li>\r\n<li>2nd floor at the top of the stairs</li>\r\n</ul>\r\n</td>\r\n<td style=\"width: 50%;\"><h5 class=\"text-success\">Payment Options</h5><ul class=\"bullet-gray\"><li>DukeCard with a FLEX account</li>\r\n<li>White library copy card</li>\r\n<li>Departmental copy card</li>\r\n</ul>\r\n</td>\r\n</tr>\r\n</tbody></table>\r\n</div></div></div><div class=\"panel panel-default\"><div class=\"panel-heading\"><h2 class=\"panel-title\"><a href=\"#ford\" class=\"accordion-toggle\" data-toggle=\"collapse\" data-parent=\"#other\">Ford Library, Fuqua School of Business</a></h2>\r\n</div><div id=\"ford\" class=\"panel-collapse collapse\"><div class=\"panel-body\"><table style=\"width: 100%; float: none ! important; background-color: #f2f2f2 !important;\" class=\"table table-bordered\"><tbody><tr><td colspan=\"2\"><h3>Public-Access Copiers</h3>\r\n</td>\r\n</tr>\r\n<tr><td style=\"width: 50%;\"><h5 class=\"text-success\">Locations</h5><ul class=\"bullet-gray\"><li>1st floor next to Circulation Desk, in a small room designated \"Copy Room\"</li>\r\n<li>1st floor in the back of library, in a small room designated \"Microfiche Room\"</li>\r\n</ul>\r\n</td>\r\n<td style=\"width: 50%;\"><h5 class=\"text-success\">Payment Options</h5><ul class=\"bullet-gray\"><li>DukeCard with a FLEX account</li>\r\n<li>White library copy card</li>\r\n</ul>\r\n</td>\r\n</tr>\r\n</tbody></table>\r\n</div></div></div><div class=\"panel panel-default\"><div class=\"panel-heading\"><h2 class=\"panel-title\"><a href=\"#goodson\" class=\"accordion-toggle\" data-toggle=\"collapse\" data-parent=\"#other\"> Goodson Law Library </a></h2>\r\n</div><div id=\"goodson\" class=\"panel-collapse collapse\"><div class=\"panel-body\"><table style=\"width: 100%; float: none ! important; background-color: #f2f2f2 !important;\" class=\"table table-bordered\"><tbody><tr><td colspan=\"2\"><h3>Public-Access Copiers</h3>\r\n</td>\r\n</tr>\r\n<tr><td style=\"width: 50%;\"><h5 class=\"text-success\">Locations</h5><ul class=\"bullet-gray\"><li><span class=\"text-muted\"> 1A </span> - ePrint Level 1, near center stairs</li>\r\n<li><span class=\"text-muted\"> 1B </span> ePrint Level 1, west end near rear elevator</li>\r\n<li><span class=\"text-muted\"> 2A </span> ePrint Level 2, near center stairs</li>\r\n<li><span class=\"text-muted\"> 2B </span> ePrint Level 2, west end near rear elevator</li>\r\n<li>Law Color 1 Document Production Room (3210)</li>\r\n<li><span class=\"text-muted\"> 3A </span> ePrint Document Production Room (3210)</li>\r\n<li><span class=\"text-muted\"> 3B </span> ePrint Document Production Room (3210)</li>\r\n<li><span class=\"text-muted\"> 3C </span> ePrint Level 3, near stairs</li>\r\n<li><span class=\"text-muted\"> 4A </span> ePrint Level 4, near center stairs</li>\r\n<li><span class=\"text-muted\"> 4B </span> ePrint Level 4, near center stairs</li>\r\n</ul>\r\n</td>\r\n<td style=\"width: 50%;\"><h5 class=\"text-success\">Payment Options</h5><ul class=\"bullet-gray\"><li>Law DukeCard with a FLEX account</li>\r\n<li>White library copy card</li>\r\n</ul>\r\n<span class=\"label label-info\"> Important </span> Non-Law students are unable to use their DukeCards at Goodson Law Library</td>\r\n</tr>\r\n</tbody></table>\r\n</div></div></div><div class=\"panel panel-default\"><div class=\"panel-heading\"><h2 class=\"panel-title\"><a href=\"#med\" class=\"accordion-toggle\" data-toggle=\"collapse\" data-parent=\"#other\"> Medical Center Library </a></h2>\r\n</div><div id=\"med\" class=\"panel-collapse collapse\"><div class=\"panel-body\"><table style=\"width: 100%; float: none ! important; background-color: #f2f2f2 !important;\" class=\"table table-bordered\"><tbody><tr><td colspan=\"2\"><h3>Public-Access Copiers</h3>\r\n</td>\r\n</tr>\r\n<tr><td style=\"width: 50%;\"><h5 class=\"text-success\">Locations</h5><ul class=\"bullet-gray\"><li>Journal Floor</li>\r\n</ul>\r\n</td>\r\n<td style=\"width: 50%;\"><h5 class=\"text-success\">Payment Options</h5><ul class=\"bullet-gray\"><li>DukeCard with a FLEX account</li>\r\n<li>Duke Medical Center Library copy card</li>\r\n<li>Quarters and dimes</li>\r\n</ul>\r\n<span class=\"label label-info\"> Important </span> The Medical Center Library does not accept white library copy cards from other libraries.</td>\r\n</tr>\r\n</tbody></table>\r\n<table style=\"width: 100%; float: none ! important; background-color: #f2f2f2 !important;\" class=\"table table-bordered\"><tbody><tr><td colspan=\"2\"><h3>Medical Center Copy Card-Access Copiers</h3>\r\n</td>\r\n</tr>\r\n<tr><td style=\"width: 50%;\"><h5 class=\"text-success\">Location</h5><ul class=\"bullet-gray\"><li>Book Stacks Level in On-Site Stacks</li>\r\n</ul>\r\n</td>\r\n<td style=\"width: 50%;\"><h5 class=\"text-success\">Payment Options</h5><ul class=\"bullet-gray\"><li>Duke Medical Center Library copy card</li>\r\n</ul>\r\n<span class=\"label label-info\"> Important </span> The Medical Center Library does not accept white library copy cards from other libraries.</td>\r\n</tr>\r\n</tbody></table>\r\n</div>\r\n</div>\r\n</div>\r\n</div>\r\n</div>\r\n-->\r\n\r\n<!-- removed for Spring 2021 -->\r\n<!-- </div> -->",
      "revision_id" : 30098,
      "body_summary" : "",
      "entity_id" : 462,
      "langcode" : "und"
   },
   "vid" : 30098,
   "langcode" : "und",
   "revisions" : [
      {
         "promote" : 0,
         "timestamp" : 1609948905,
         "uid" : 114,
         "node_revision__body" : {
            "entity_id" : 462,
            "body_summary" : "",
            "langcode" : "und",
            "revision_id" : 30098,
            "body_value" : "<!-- removed for Spring 2021 -->\r\n<!--\r\n<ul class=\"nav nav-tabs nav-tabs-sticky\" id=\"myTab\"><li class=\"active\"><a href=\"#info\" data-toggle=\"tab\"> Information </a></li>\r\n<li><a href=\"#perkins\" data-toggle=\"tab\"> Perkins and Bostock Libraries </a></li>\r\n<li><a href=\"#lilly\" data-toggle=\"tab\"> Lilly Library </a></li>\r\n<li><a href=\"#music\" data-toggle=\"tab\"> Music Library </a></li>\r\n<li><a href=\"#other\" data-toggle=\"tab\"> Professional School Libraries </a></li>\r\n</ul>\r\n-->\r\n\r\n<!-- removed for Spring 2021 -->\r\n<!--<div class=\"tab-content\" style=\"margin-top: -20px;\">-->\r\n\r\n  <div class=\"tab-pane active\" id=\"info\">\r\n\r\n    <p class=\"well\"><strong>Spring 2021</strong> - For locations of available ePrint stations to use for copying, please refer to our <a href=\"https://library.duke.edu/using/technology\" title=\"Technology at the Libraries\">Technology</a> page.</p>\r\n\r\n    <h2>How can I pay for my copies?</h2>\r\n\r\n    <h3>DukeCard</h3>\r\n    \r\n    <p>If you have a FLEX Account connected to your <a href=\"https://dukecard.duke.edu\">DukeCard</a> , you can load money onto your account either online or at Value Transfer Station (VTS) kiosks in most libraries on campus.</p>\r\n    \r\n    <p>Please note that VTS kiosks accept $5, $10 or $20 bills. Once you have money loaded onto your <a href=\"https://dukecard.duke.edu\">DukeCard</a> , you can use your card at most public-access copiers on campus.</p>\r\n    \r\n    <h3 style=\"margin-top: 20px;\">White Library Copy Card</h3>\r\n    \r\n    <p>You can purchase and load money onto a white library copy card from Value Transfer Station (VTS) kiosks in most libraries on campus.</p>\r\n    \r\n    <p>You can use white library copy cards at all campus libraries except the Medical Center Library Archives.</p>\r\n    \r\n    <h3 style=\"margin-top: 20px;\">Medical Center Library Copy Card</h3>\r\n    \r\n    <p>Some Medical Center Library copiers accept copy cards, but you must purchase a specific copy card from the Medical Center Library.</p>\r\n    \r\n    <p>Please note that if you have purchased a white library copy card from Perkins or other campus libraries, you will not be able to use it on Medical Center Library copiers.</p>\r\n    \r\n    <h3 style=\"margin-top: 20px;\">Cash</h3>\r\n    \r\n    <p>A limited number of copiers on campus accept cash, mostly quarters.</p>\r\n    \r\n    <h3 style=\"margin-top: 20px;\">Departmental Copy Card</h3>\r\n    \r\n    <p>You can use a departmental copy card only on a departmental copier.</p>\r\n    \r\n    <h2>How much will I pay?</h2>\r\n    \r\n    <ul>\r\n      <li>$.07 for each copy (DukeCard or library copy card)</li>\r\n      <li>$.10 for each copy (cash)</li>\r\n    </ul>\r\n\r\n    <h2>What if my copier is misbehaving?</h2>\r\n    \r\n    <ul>\r\n      <li>Write down the unit number, located on the front of the copier.</li>\r\n      <li>Report information to the staff at the circulation desk of your library.</li>\r\n    </ul>\r\n\r\n  </div>\r\n\r\n\r\n\r\n<!-- removed for Spring 2021 -->\r\n<!--\r\n<div class=\"tab-pane\" id=\"perkins\">\r\n<h2>Perkins Library</h2>\r\n<table style=\"width: 100%; float: none ! important; background-color: #f2f2f2 !important;\" class=\"table table-bordered\" align=\"left\" border=\"0\"><tbody>\r\n<tr><td colspan=\"2\"><h3>Color ePrint Stations <span class=\"text-muted\"> (copy/print/scan) </span></h3>\r\n</td>\r\n</tr>\r\n<tr><td style=\"width: 50%;\"><h5 class=\"text-success\">Location</h5><ul class=\"bullet-gray\">\r\n<li>1st floor</li>\r\n</ul>\r\n</td>\r\n<td style=\"width: 50%;\"><h5 class=\"text-success\">Payment Options</h5><ul class=\"bullet-gray\"><li>DukeCard with a FLEX account</li>\r\n<li>White library copy card</li>\r\n</ul>\r\n</td>\r\n</tr>\r\n<tr><td colspan=\"2\"><h3>Copiers</h3>\r\n</td>\r\n</tr>\r\n<tr><td style=\"width: 50%;\"><h5 class=\"text-success\">Location</h5><ul class=\"bullet-gray\"><li>Room 131</li>\r\n</ul>\r\n</td>\r\n<td style=\"width: 50%;\"><h5 class=\"text-success\">Payment Options</h5><ul class=\"bullet-gray\"><li>DukeCard with a FLEX account</li>\r\n<li>White library copy card</li>\r\n<li>Departmental copy card</li>\r\n</ul>\r\n</td>\r\n</tr>\r\n</tbody></table>\r\n<h2>Bostock Library</h2>\r\n<table style=\"width: 100%; float: none ! important; background-color: #f2f2f2 !important;\" class=\"table table-bordered\"><tbody><tr><td colspan=\"2\"><h3>Color ePrint Stations <span class=\"text-muted\"> (copy/print/scan) </span></h3>\r\n</td>\r\n</tr>\r\n<tr><td style=\"width: 50%;\"><h5 class=\"text-success\">Location</h5><ul class=\"bullet-gray\">\r\n<li>1st floor</li>\r\n</ul>\r\n</td>\r\n<td style=\"width: 50%;\"><h5 class=\"text-success\">Payment Options</h5><ul class=\"bullet-gray\"><li>DukeCard with a FLEX account</li>\r\n<li>White library copy card</li>\r\n</ul>\r\n</td>\r\n</tr>\r\n</tbody></table>\r\n</div><div class=\"tab-pane\" id=\"lilly\"><h2>Lilly Library</h2>\r\n<table style=\"width: 100%; float: none ! important; background-color: #f2f2f2 !important;\" class=\"table table-bordered\"><tbody><tr><td colspan=\"2\"><h3>Public-Access Copiers</h3>\r\n</td>\r\n</tr>\r\n<tr><td style=\"width: 50%;\"><h5 class=\"text-success\">Locations</h5><ul class=\"bullet-gray\"><li>1st floor lobby, near Reference Room hallway</li>\r\n<li>Basement, center study room</li>\r\n</ul>\r\n</td>\r\n<td style=\"width: 50%;\"><h5 class=\"text-success\">Payment Options</h5><ul class=\"bullet-gray\"><li>DukeCard with a FLEX account</li><li>White library copy card</li>\r\n</ul>\r\n</td>\r\n</tr>\r\n</tbody></table>\r\n<table style=\"width: 100%; float: none ! important; background-color: #f2f2f2 !important;\" class=\"table table-bordered\"><tbody><tr><td colspan=\"2\"><h3>Departmental Copiers</h3>\r\n</td>\r\n</tr>\r\n<tr><td style=\"width: 50%;\"><h5 class=\"text-success\">Location</h5><ul class=\"bullet-gray\"><li>Basement, center study room</li>\r\n</ul>\r\n</td>\r\n<td style=\"width: 50%;\"><h5 class=\"text-success\">Payment Option</h5><ul class=\"bullet-gray\"><li>Departmental copy card</li>\r\n</ul>\r\n</td>\r\n</tr>\r\n</tbody></table>\r\n</div><div class=\"tab-pane\" id=\"music\">\r\n<h2>Music Library</h2>\r\n<table style=\"width: 100%; float: none ! important; background-color: #f2f2f2 !important;\" class=\"table table-bordered\"><tbody><tr><td colspan=\"2\"><h3>Public-Access Copiers</h3>\r\n</td>\r\n</tr>\r\n<tr><td style=\"width: 50%;\"><h5 class=\"text-success\">Location</h5><ul class=\"bullet-gray\"><li>1st floor, beside ePrint station and near the stairwell to the lower level</li>\r\n</ul>\r\n</td>\r\n<td style=\"width: 50%;\"><h5 class=\"text-success\">Payment Options</h5><ul class=\"bullet-gray\"><li>DukeCard with a FLEX account</li>\r\n<li>White library copy card</li>\r\n</ul>\r\n</td>\r\n</tr>\r\n</tbody></table>\r\n</div><div class=\"tab-pane\" id=\"other\">\r\n<div class=\"panel-group\" id=\"other\"><div class=\"panel panel-default\"><div class=\"panel-heading\"><h2 class=\"panel-title\"><a href=\"#divinity\" class=\"accordion-toggle\" data-toggle=\"collapse\" data-parent=\"#other\"> Divinity School Library </a></h2>\r\n</div><div id=\"divinity\" class=\"panel-collapse collapse\"><div class=\"panel-body\"><table style=\"width: 100%; float: none ! important; background-color: #f2f2f2 !important;\" class=\"table table-bordered\"><tbody><tr><td colspan=\"2\"><h3>Public & Departmental Access Copiers</h3>\r\n</td>\r\n</tr>\r\n<tr><td style=\"width: 50%;\"><h5 class=\"text-success\">Location</h5><ul class=\"bullet-gray\"><li>1st floor in the ePrint area, behind the Help Desk</li>\r\n</ul>\r\n</td>\r\n<td style=\"width: 50%;\"><h5 class=\"text-success\">Payment Options</h5><ul class=\"bullet-gray\"><li>DukeCard with a FLEX account</li>\r\n<li>White library copy card</li>\r\n<li>Quarters</li>\r\n</ul>\r\n</td>\r\n</tr>\r\n<tr><td style=\"width: 50%;\"><h5 class=\"text-success\">Locations</h5><ul class=\"bullet-gray\"><li>1st floor by the KIC Scanner</li>\r\n<li>2nd floor at the top of the stairs</li>\r\n</ul>\r\n</td>\r\n<td style=\"width: 50%;\"><h5 class=\"text-success\">Payment Options</h5><ul class=\"bullet-gray\"><li>DukeCard with a FLEX account</li>\r\n<li>White library copy card</li>\r\n<li>Departmental copy card</li>\r\n</ul>\r\n</td>\r\n</tr>\r\n</tbody></table>\r\n</div></div></div><div class=\"panel panel-default\"><div class=\"panel-heading\"><h2 class=\"panel-title\"><a href=\"#ford\" class=\"accordion-toggle\" data-toggle=\"collapse\" data-parent=\"#other\">Ford Library, Fuqua School of Business</a></h2>\r\n</div><div id=\"ford\" class=\"panel-collapse collapse\"><div class=\"panel-body\"><table style=\"width: 100%; float: none ! important; background-color: #f2f2f2 !important;\" class=\"table table-bordered\"><tbody><tr><td colspan=\"2\"><h3>Public-Access Copiers</h3>\r\n</td>\r\n</tr>\r\n<tr><td style=\"width: 50%;\"><h5 class=\"text-success\">Locations</h5><ul class=\"bullet-gray\"><li>1st floor next to Circulation Desk, in a small room designated \"Copy Room\"</li>\r\n<li>1st floor in the back of library, in a small room designated \"Microfiche Room\"</li>\r\n</ul>\r\n</td>\r\n<td style=\"width: 50%;\"><h5 class=\"text-success\">Payment Options</h5><ul class=\"bullet-gray\"><li>DukeCard with a FLEX account</li>\r\n<li>White library copy card</li>\r\n</ul>\r\n</td>\r\n</tr>\r\n</tbody></table>\r\n</div></div></div><div class=\"panel panel-default\"><div class=\"panel-heading\"><h2 class=\"panel-title\"><a href=\"#goodson\" class=\"accordion-toggle\" data-toggle=\"collapse\" data-parent=\"#other\"> Goodson Law Library </a></h2>\r\n</div><div id=\"goodson\" class=\"panel-collapse collapse\"><div class=\"panel-body\"><table style=\"width: 100%; float: none ! important; background-color: #f2f2f2 !important;\" class=\"table table-bordered\"><tbody><tr><td colspan=\"2\"><h3>Public-Access Copiers</h3>\r\n</td>\r\n</tr>\r\n<tr><td style=\"width: 50%;\"><h5 class=\"text-success\">Locations</h5><ul class=\"bullet-gray\"><li><span class=\"text-muted\"> 1A </span> - ePrint Level 1, near center stairs</li>\r\n<li><span class=\"text-muted\"> 1B </span> ePrint Level 1, west end near rear elevator</li>\r\n<li><span class=\"text-muted\"> 2A </span> ePrint Level 2, near center stairs</li>\r\n<li><span class=\"text-muted\"> 2B </span> ePrint Level 2, west end near rear elevator</li>\r\n<li>Law Color 1 Document Production Room (3210)</li>\r\n<li><span class=\"text-muted\"> 3A </span> ePrint Document Production Room (3210)</li>\r\n<li><span class=\"text-muted\"> 3B </span> ePrint Document Production Room (3210)</li>\r\n<li><span class=\"text-muted\"> 3C </span> ePrint Level 3, near stairs</li>\r\n<li><span class=\"text-muted\"> 4A </span> ePrint Level 4, near center stairs</li>\r\n<li><span class=\"text-muted\"> 4B </span> ePrint Level 4, near center stairs</li>\r\n</ul>\r\n</td>\r\n<td style=\"width: 50%;\"><h5 class=\"text-success\">Payment Options</h5><ul class=\"bullet-gray\"><li>Law DukeCard with a FLEX account</li>\r\n<li>White library copy card</li>\r\n</ul>\r\n<span class=\"label label-info\"> Important </span> Non-Law students are unable to use their DukeCards at Goodson Law Library</td>\r\n</tr>\r\n</tbody></table>\r\n</div></div></div><div class=\"panel panel-default\"><div class=\"panel-heading\"><h2 class=\"panel-title\"><a href=\"#med\" class=\"accordion-toggle\" data-toggle=\"collapse\" data-parent=\"#other\"> Medical Center Library </a></h2>\r\n</div><div id=\"med\" class=\"panel-collapse collapse\"><div class=\"panel-body\"><table style=\"width: 100%; float: none ! important; background-color: #f2f2f2 !important;\" class=\"table table-bordered\"><tbody><tr><td colspan=\"2\"><h3>Public-Access Copiers</h3>\r\n</td>\r\n</tr>\r\n<tr><td style=\"width: 50%;\"><h5 class=\"text-success\">Locations</h5><ul class=\"bullet-gray\"><li>Journal Floor</li>\r\n</ul>\r\n</td>\r\n<td style=\"width: 50%;\"><h5 class=\"text-success\">Payment Options</h5><ul class=\"bullet-gray\"><li>DukeCard with a FLEX account</li>\r\n<li>Duke Medical Center Library copy card</li>\r\n<li>Quarters and dimes</li>\r\n</ul>\r\n<span class=\"label label-info\"> Important </span> The Medical Center Library does not accept white library copy cards from other libraries.</td>\r\n</tr>\r\n</tbody></table>\r\n<table style=\"width: 100%; float: none ! important; background-color: #f2f2f2 !important;\" class=\"table table-bordered\"><tbody><tr><td colspan=\"2\"><h3>Medical Center Copy Card-Access Copiers</h3>\r\n</td>\r\n</tr>\r\n<tr><td style=\"width: 50%;\"><h5 class=\"text-success\">Location</h5><ul class=\"bullet-gray\"><li>Book Stacks Level in On-Site Stacks</li>\r\n</ul>\r\n</td>\r\n<td style=\"width: 50%;\"><h5 class=\"text-success\">Payment Options</h5><ul class=\"bullet-gray\"><li>Duke Medical Center Library copy card</li>\r\n</ul>\r\n<span class=\"label label-info\"> Important </span> The Medical Center Library does not accept white library copy cards from other libraries.</td>\r\n</tr>\r\n</tbody></table>\r\n</div>\r\n</div>\r\n</div>\r\n</div>\r\n</div>\r\n-->\r\n\r\n<!-- removed for Spring 2021 -->\r\n<!-- </div> -->",
            "deleted" : 0,
            "delta" : 0,
            "body_format" : "full_html_no_wysiwyg",
            "bundle" : "library_services_page"
         },
         "title" : "Paying for Copies",
         "vuuid" : "96c08485-ca4c-4d0f-aa30-9083c8ce759e",
         "node_revision__field_tags" : [],
         "sticky" : 0,
         "comment" : 1,
         "log" : "",
         "status" : 1,
         "field_revision" : {
            "title" : "Paying for Copies",
            "changed" : null,
            "created" : null,
            "uid" : 1,
            "langcode" : null,
            "status" : 1,
            "default_langcode" : 1,
            "sticky" : 0,
            "revision_translation_affected" : 1
         }
      }
   ],
   "node_access" : null,
   "asidebox" : {
      "nid" : 462,
      "body_title" : "More Information ",
      "vid" : 30098,
      "bid" : null,
      "body_format" : "full_html",
      "block_module" : null,
      "body_value" : "<h2><img src=\"/sites/default/files/dul/about/8717564105_0745250e97.jpg\" alt=\"Printers and Copiers\" height=\"352\" width=\"500\"></h2><h2>How can I pay for my copies?</h2><h3><strong>DukeCard</strong></h3><p style=\"font-size: 13px; font-weight: normal;\">If you have a&nbsp;<a href=\"http://dukecard.duke.edu/what/flex_faq.php\">FLEX Account</a>&nbsp;connected to your&nbsp;<a href=\"http://dukecard.duke.edu/get/index.php\">DukeCard</a>,&nbsp;you can load money onto your account either&nbsp;<a href=\"http://dukecard.duke.edu/manage/index.php\">online</a>&nbsp;or at&nbsp;Value Transfer Station (VTS) kiosks in most libraries on campus.</p><p style=\"font-size: 13px; font-weight: normal;\">Please note that VTS kiosks accept $5, $10 or $20 bills. Once you have money loaded onto your&nbsp;<a href=\"http://dukecard.duke.edu/get/index.php\">DukeCard</a>, you can use your card at&nbsp;most&nbsp;public-access copiers on campus.&nbsp;</p><h3><strong>White Library Copy Card</strong></h3><p style=\"font-size: 13px; font-weight: normal;\">You can purchase and load money onto a white library copy card from Value Transfer Station (VTS) kiosks in most library's on campus.</p><p style=\"font-size: 13px; font-weight: normal;\">You can use white library copy cards at all campus libraries except the Medical Center Library &amp; Archives.</p><h3><strong>Medical Center Library Copy Card</strong></h3><p style=\"font-size: 13px; font-weight: normal;\">Some Medical Center Library copiers accept copy cards, but you must purchase a specific copy card from the Medical Center Library.</p><p style=\"font-size: 13px; font-weight: normal;\">Please note that if you have purchased a&nbsp;white library copy card from Perkins or other campus libraries, you will not be able to use it on Medical Center Library copiers.</p><h3><strong>Cash</strong></h3><p style=\"font-size: 13px; font-weight: normal;\">A limited number of copiers on campus accept cash, mostly quarters.</p><h3><strong>Departmental Copy Card</strong></h3><p style=\"font-size: 13px; font-weight: normal;\">You can use a departmental copy card only on a departmental copier.</p><h2>How much will I pay?</h2><ul><li>$.07 for each copy (DukeCard or library copy card)</li><li>$.10 for each copy (cash)</li></ul><h2>What if my copier is misbehaving?</h2><ul><li>Write down the unit number, located on the front of the copier</li><li>Report information to the staff at the circulation desk of your library</li></ul>",
      "block_delta" : null,
      "status" : "disabled"
   },
   "nid" : "462",
   "path_alias" : {
      "alias" : "/using/copiers",
      "pid" : 666,
      "language" : "und",
      "status" : 0,
      "langcode" : "und"
   },
   "node_field_data" : {
      "status" : 1,
      "created" : 1381500181,
      "sticky" : 0,
      "default_langcode" : 1,
      "title" : "Paying for Copies",
      "uid" : 1,
      "langcode" : "und",
      "revision_translation_affected" : 1,
      "type" : "library_services_page",
      "promote" : 0,
      "changed" : null
   },
   "field_tags" : []
}

