{
   "type" : "exhibit",
   "uuid" : "d81b2a88-c7e6-4dc0-ba14-c0774310196b",
   "langcode" : "und",
   "node_access" : null,
   "node_field_data" : {
      "title" : "Everyday Objects Transformed by the Conflict",
      "status" : 1,
      "created" : 1438181533,
      "sticky" : 0,
      "default_langcode" : 1,
      "type" : "exhibit",
      "promote" : 0,
      "changed" : null,
      "uid" : 1,
      "langcode" : "und",
      "revision_translation_affected" : 1
   },
   "path_alias" : {
      "status" : 0,
      "langcode" : "und",
      "language" : "und",
      "alias" : "/exhibits/2013/everyday-objects",
      "pid" : 1431
   },
   "field_tags" : [],
   "node__field_image" : {},
   "field_image" : {
      "deleted" : 0,
      "field_image_fid" : 1525,
      "revision_id" : 10925,
      "language" : "und",
      "file_uuid" : "9b6e1124-d8ac-4f0f-9b01-10f9881f8c7f",
      "field_image_title" : "",
      "field_image_target_id" : 1525,
      "entity_id" : 945,
      "bundle" : "exhibit",
      "delta" : 0,
      "field_image_alt" : "",
      "field_image_width" : 800,
      "langcode" : "und",
      "entity_type" : "node",
      "field_image_height" : 547
   },
   "node__body" : {
      "deleted" : 0,
      "bundle" : "exhibit",
      "body_format" : "full_html",
      "delta" : 0,
      "body_value" : "<p>This photographic exhibition, which grew out of a DukeEngage trip in 2012, brings together many views and experiences of the conflict in and about Northern Ireland. The exhibit reveals both unique and everyday stories through a range of ordinary objects, with captions written in the words of those who own them. Duke undergraduate Beth Blackwood T’14 helped prepare the <a href=\"https://www.flickr.com/photos/51489058@N04/with/6794523372/\">original exhibition</a> in Belfast and organized this adapted version in the library.</p>",
      "revision_id" : 10925,
      "langcode" : "und",
      "body_summary" : "",
      "entity_id" : 945
   },
   "vid" : 10925,
   "revisions" : [
      {
         "promote" : 0,
         "uid" : 3,
         "timestamp" : 1538401420,
         "node_revision__field_tags" : [],
         "vuuid" : "ec0e0909-9191-4ee7-bb1e-2605dea7def1",
         "title" : "Everyday Objects Transformed by the Conflict",
         "node_revision__body" : {
            "langcode" : "und",
            "entity_id" : 945,
            "body_summary" : "",
            "revision_id" : 10925,
            "body_value" : "<p>This photographic exhibition, which grew out of a DukeEngage trip in 2012, brings together many views and experiences of the conflict in and about Northern Ireland. The exhibit reveals both unique and everyday stories through a range of ordinary objects, with captions written in the words of those who own them. Duke undergraduate Beth Blackwood T’14 helped prepare the <a href=\"https://www.flickr.com/photos/51489058@N04/with/6794523372/\">original exhibition</a> in Belfast and organized this adapted version in the library.</p>",
            "delta" : 0,
            "body_format" : "full_html",
            "bundle" : "exhibit",
            "deleted" : 0
         },
         "field_revision" : {
            "title" : "Everyday Objects Transformed by the Conflict",
            "changed" : null,
            "created" : null,
            "uid" : 1,
            "status" : 1,
            "langcode" : null,
            "default_langcode" : 1,
            "sticky" : 0,
            "revision_translation_affected" : 1
         },
         "status" : 1,
         "log" : "",
         "comment" : 1,
         "sticky" : 0
      }
   ],
   "asidebox" : null,
   "nid" : "945"
}

