{
   "type" : "exhibit",
   "uuid" : "d975c68d-9538-4d49-9a54-83c42bef99a8",
   "langcode" : "und",
   "node_access" : null,
   "node_field_data" : {
      "title" : "Unnatural Nature",
      "status" : 1,
      "created" : 1435179272,
      "sticky" : 0,
      "default_langcode" : 1,
      "type" : "exhibit",
      "promote" : 0,
      "changed" : null,
      "langcode" : "und",
      "uid" : 1,
      "revision_translation_affected" : 1
   },
   "path_alias" : {
      "pid" : 1385,
      "alias" : "/exhibits/2014/unnatural-nature",
      "language" : "und",
      "status" : 0,
      "langcode" : "und"
   },
   "field_tags" : [],
   "node__field_image" : {},
   "field_image" : {
      "revision_id" : 10575,
      "field_image_fid" : 1473,
      "deleted" : 0,
      "file_uuid" : "09cd3f93-575f-40f1-acc6-abbb58e04c6a",
      "language" : "und",
      "field_image_title" : "",
      "entity_id" : 905,
      "field_image_target_id" : 1473,
      "bundle" : "exhibit",
      "delta" : 0,
      "field_image_alt" : "",
      "field_image_width" : 655,
      "langcode" : "und",
      "field_image_height" : 400,
      "entity_type" : "node"
   },
   "vid" : 10575,
   "node__body" : {
      "deleted" : 0,
      "delta" : 0,
      "body_format" : "full_html",
      "bundle" : "exhibit",
      "revision_id" : 10575,
      "body_value" : "<p>This exhibit is from the 2013 fall seminar “Unnatural Nature: Literature and Eology,” from Duke’s English Department. Students read widely in environmental literature —fiction, nonfiction, philosophy, poetry, film—and researched significant works of environmental art in various media before crafting the creative final projects displayed in this exhibition.</p>",
      "body_summary" : "",
      "entity_id" : 905,
      "langcode" : "und"
   },
   "revisions" : [
      {
         "promote" : 0,
         "uid" : 2213,
         "timestamp" : 1587445113,
         "node_revision__field_tags" : [],
         "title" : "Unnatural Nature",
         "vuuid" : "d7025e82-0798-4552-a41f-e7dd9527cf7c",
         "node_revision__body" : {
            "bundle" : "exhibit",
            "body_format" : "full_html",
            "delta" : 0,
            "deleted" : 0,
            "revision_id" : 10575,
            "body_value" : "<p>This exhibit is from the 2013 fall seminar “Unnatural Nature: Literature and Eology,” from Duke’s English Department. Students read widely in environmental literature —fiction, nonfiction, philosophy, poetry, film—and researched significant works of environmental art in various media before crafting the creative final projects displayed in this exhibition.</p>",
            "langcode" : "und",
            "body_summary" : "",
            "entity_id" : 905
         },
         "field_revision" : {
            "changed" : null,
            "title" : "Unnatural Nature",
            "revision_translation_affected" : 1,
            "sticky" : 0,
            "default_langcode" : 1,
            "uid" : 1,
            "langcode" : null,
            "status" : 1,
            "created" : null
         },
         "status" : 1,
         "comment" : 1,
         "sticky" : 0,
         "log" : ""
      }
   ],
   "asidebox" : null,
   "nid" : "905"
}

