{
   "revisions" : [
      {
         "uid" : 42,
         "timestamp" : 1614216158,
         "promote" : 1,
         "status" : 1,
         "field_revision" : {
            "changed" : null,
            "title" : "Assessment & User Experience (AUX) Practicum/Field Experience (Unpaid)",
            "revision_translation_affected" : 1,
            "sticky" : 0,
            "default_langcode" : 1,
            "status" : 1,
            "uid" : 1,
            "langcode" : null,
            "created" : null
         },
         "log" : "",
         "sticky" : 0,
         "comment" : 1,
         "vuuid" : "520f2448-4624-47ca-9e95-3b0833da4477",
         "title" : "Assessment & User Experience (AUX) Practicum/Field Experience (Unpaid)",
         "node_revision__field_tags" : [],
         "node_revision__body" : {
            "revision_id" : 16509,
            "body_value" : "<p><span style=\"background-color: #ffff99;\"><strong>*We will not be hosting practicum students in summer 2021. We plan to host practicum students in the fall 2021 semester (likely entirely online, exact details TBD).*</strong></span></p><p>Assessment &amp; User Experience (AUX) Department staff coordinate and conduct studies of library users’ needs and priorities and identify ways to meet and exceed users’ expectations of Duke Libraries' physical and virtual spaces, services and collections. AUX staff collaborate closely with colleagues throughout the Libraries to improve spaces and services, and they provide leadership for evaluating and improving the design, content, and organization of the Libraries’ online presence. Finally, AUX staff coordinate library assessment tasks and projects and manage external reporting for the Libraries. This is an unpaid practicum.&nbsp;<strong>We especially encourage students from underrepresented or marginalized groups to submit resumes and statements of interest for a practicum with the AUX department.</strong></p><p><strong>Tasks</strong>:&nbsp; Practicum students will work closely with AUX staff to do the following:</p><p>1. Conduct monthly usability studies of both online interfaces and physical spaces and services</p><p>2. Lead monthly meetings of the Libraries' student advisory boards</p><p>3. Develop and implement observational studies, surveys, focus groups and other user studies to learn more about&nbsp;our researchers</p><p>4. Other duties, as assigned -- the possibilities for learning more about and enhancing our users' experiences are endless!</p><p><strong>Requirements</strong>: Current enrollment in an MSIS or MSLS program accredited by the American Library Association or equivalent program.&nbsp; One semester of course work or prior experience in libraries or related fields is strongly preferred.&nbsp; Successful AUX practicum students take the initiative on projects or tasks; enjoy learning new concepts or UX research methods; excel when working independently and as part of a team; and have a keen interest in assessment, user research, service design, or other UX principles.&nbsp; Direct experience or related coursework is appreciated but not required.&nbsp;&nbsp;</p><p><strong>Timeframe</strong>: fall, spring, or summer term (see note below about application dates for each term)</p><p><strong>Hours</strong> to be worked: 8-10 hours/week on between 7:30 a.m. and 5:30 p.m., Monday - Friday&nbsp;</p><p><strong>Location:&nbsp;</strong>Duke University, Perkins Library; 411 Chapel Drive; Durham, NC 27708 (Note that the AUX Department has <strong>free parking passes</strong> available for practicum students who drive to campus.)</p><p style=\"margin-top: 0in; margin-right: 0in; margin-bottom: 9.0pt; margin-left: 0in; background: white;\"><strong>Application process:</strong>&nbsp;Please send a resume and brief statement of interest to Joyce Chapman,&nbsp;Assessment Analyst &amp; Consultant, by <strong>June 1</strong>&nbsp;if you are interested in a fall semester practicum, by <strong>October 15</strong> if you are interested in a spring semester practicum, or by <strong>March 1</strong> if you are interested in a summer practicum.&nbsp; Students who send their resumes and brief statements of interest by these deadlines will be given priority as AUX staff review applications.</p><p>Email: <a href=\"mailto:joyce.chapman@duke.edu\">joyce.chapman@duke.edu</a>&nbsp; &nbsp; Phone: 919-660-5889</p>",
            "body_format" : "full_html_no_wysiwyg",
            "bundle" : "jobs_field_experience",
            "delta" : 0,
            "deleted" : 0,
            "langcode" : "und",
            "entity_id" : 1595,
            "body_summary" : ""
         }
      }
   ],
   "langcode" : "und",
   "uuid" : "d9a3854f-2a3e-4c50-9760-0f4e8673d378",
   "vid" : 16509,
   "node__body" : {
      "body_summary" : "",
      "entity_id" : 1595,
      "langcode" : "und",
      "body_format" : "full_html_no_wysiwyg",
      "delta" : 0,
      "bundle" : "jobs_field_experience",
      "deleted" : 0,
      "revision_id" : 16509,
      "body_value" : "<p><span style=\"background-color: #ffff99;\"><strong>*We will not be hosting practicum students in summer 2021. We plan to host practicum students in the fall 2021 semester (likely entirely online, exact details TBD).*</strong></span></p><p>Assessment &amp; User Experience (AUX) Department staff coordinate and conduct studies of library users’ needs and priorities and identify ways to meet and exceed users’ expectations of Duke Libraries' physical and virtual spaces, services and collections. AUX staff collaborate closely with colleagues throughout the Libraries to improve spaces and services, and they provide leadership for evaluating and improving the design, content, and organization of the Libraries’ online presence. Finally, AUX staff coordinate library assessment tasks and projects and manage external reporting for the Libraries. This is an unpaid practicum.&nbsp;<strong>We especially encourage students from underrepresented or marginalized groups to submit resumes and statements of interest for a practicum with the AUX department.</strong></p><p><strong>Tasks</strong>:&nbsp; Practicum students will work closely with AUX staff to do the following:</p><p>1. Conduct monthly usability studies of both online interfaces and physical spaces and services</p><p>2. Lead monthly meetings of the Libraries' student advisory boards</p><p>3. Develop and implement observational studies, surveys, focus groups and other user studies to learn more about&nbsp;our researchers</p><p>4. Other duties, as assigned -- the possibilities for learning more about and enhancing our users' experiences are endless!</p><p><strong>Requirements</strong>: Current enrollment in an MSIS or MSLS program accredited by the American Library Association or equivalent program.&nbsp; One semester of course work or prior experience in libraries or related fields is strongly preferred.&nbsp; Successful AUX practicum students take the initiative on projects or tasks; enjoy learning new concepts or UX research methods; excel when working independently and as part of a team; and have a keen interest in assessment, user research, service design, or other UX principles.&nbsp; Direct experience or related coursework is appreciated but not required.&nbsp;&nbsp;</p><p><strong>Timeframe</strong>: fall, spring, or summer term (see note below about application dates for each term)</p><p><strong>Hours</strong> to be worked: 8-10 hours/week on between 7:30 a.m. and 5:30 p.m., Monday - Friday&nbsp;</p><p><strong>Location:&nbsp;</strong>Duke University, Perkins Library; 411 Chapel Drive; Durham, NC 27708 (Note that the AUX Department has <strong>free parking passes</strong> available for practicum students who drive to campus.)</p><p style=\"margin-top: 0in; margin-right: 0in; margin-bottom: 9.0pt; margin-left: 0in; background: white;\"><strong>Application process:</strong>&nbsp;Please send a resume and brief statement of interest to Joyce Chapman,&nbsp;Assessment Analyst &amp; Consultant, by <strong>June 1</strong>&nbsp;if you are interested in a fall semester practicum, by <strong>October 15</strong> if you are interested in a spring semester practicum, or by <strong>March 1</strong> if you are interested in a summer practicum.&nbsp; Students who send their resumes and brief statements of interest by these deadlines will be given priority as AUX staff review applications.</p><p>Email: <a href=\"mailto:joyce.chapman@duke.edu\">joyce.chapman@duke.edu</a>&nbsp; &nbsp; Phone: 919-660-5889</p>"
   },
   "type" : "jobs_field_experience",
   "field_image" : null,
   "path_alias" : {
      "alias" : "/about/jobs/auxfieldexperience",
      "pid" : 3583,
      "language" : "und",
      "langcode" : "und",
      "status" : 0
   },
   "node_field_data" : {
      "changed" : null,
      "promote" : 1,
      "type" : "jobs_field_experience",
      "revision_translation_affected" : 1,
      "uid" : 1,
      "langcode" : "und",
      "title" : "Assessment & User Experience (AUX) Practicum/Field Experience (Unpaid)",
      "default_langcode" : 1,
      "sticky" : 0,
      "created" : 1494962102,
      "status" : 1
   },
   "field_tags" : [],
   "nid" : "1595",
   "asidebox" : {
      "block_delta" : null,
      "status" : "disabled",
      "body_title" : "",
      "nid" : 1595,
      "vid" : 16509,
      "bid" : null,
      "body_format" : null,
      "body_value" : null,
      "block_module" : null
   },
   "node_access" : null
}

