{
   "node_access" : null,
   "asidebox" : {
      "body_value" : null,
      "block_module" : null,
      "body_format" : null,
      "vid" : 18585,
      "bid" : null,
      "nid" : 939,
      "body_title" : "",
      "status" : "disabled",
      "block_delta" : null
   },
   "nid" : "939",
   "field_tags" : [],
   "node_field_data" : {
      "default_langcode" : 1,
      "sticky" : 0,
      "created" : 1437676686,
      "status" : 1,
      "title" : "The Edge Space Use Guidelines",
      "revision_translation_affected" : 1,
      "uid" : 1,
      "langcode" : "und",
      "changed" : null,
      "promote" : 0,
      "type" : "research_page"
   },
   "path_alias" : {
      "status" : 0,
      "langcode" : "und",
      "alias" : "/edge/events/guidelines",
      "pid" : 1425,
      "language" : "und"
   },
   "langcode" : "und",
   "revisions" : [
      {
         "uid" : 3,
         "timestamp" : 1506904079,
         "promote" : 0,
         "field_revision" : {
            "title" : "The Edge Space Use Guidelines",
            "changed" : null,
            "uid" : 1,
            "status" : 1,
            "langcode" : null,
            "created" : null,
            "sticky" : 0,
            "revision_translation_affected" : 1,
            "default_langcode" : 1
         },
         "status" : 1,
         "log" : "",
         "comment" : 1,
         "sticky" : 0,
         "node_revision__field_tags" : [],
         "title" : "The Edge Space Use Guidelines",
         "vuuid" : "ff969383-c699-4735-a359-a162850df4ed",
         "node_revision__body" : {
            "bundle" : "research_page",
            "body_format" : "full_html",
            "delta" : 0,
            "deleted" : 0,
            "revision_id" : 18585,
            "body_value" : "<h2>Events in The Edge:</h2><p>The Edge regularly hosts workshops, programs, and special events that showcase scholarly research. We are particularly interested in programs that:</p><ul><li>Engage users in new research methods</li><li>Engage users with important research issues, such as intellectual property and open access</li><li>Include researchers across disciplines</li><li>Showcase research, especially cross-disciplinary research</li><li>Leverage new technologies</li><li>Are open to &nbsp;the entire Duke Community</li></ul><p>Decisions about use of the space and co-sponsorship are at the sole discretion of the Libraries. Preference is given to events that align with The Edge’s mission to provide a collaborative space for interdisciplinary, data-driven, digitally reliant or team-based research.&nbsp;</p><h2>Use Guidelines</h2><h3>What are the general guidelines for using spaces in The Edge?</h3><ul><li><em>Priority use</em>: Workshops or presentations that highlight the mission of The Edge: interdisciplinary, team-based, data-driven or digitally reliant research.</li><li>The Workshop Room is normally available only for events during regular Perkins/Bostock Library hours.</li><li>The Edge Workshop Room is locked. To access this room on the day of your event, please check out a key from the Perkins Service Desk. You will need to return the key immediately following your event.</li></ul><h3>How can I reserve a room for my event?</h3><p>Submit a <a href=\"https://duke.qualtrics.com/SE/?SID=SV_0krCzEoKconBjff\">programming proposal form</a> with the details of your event; Edge staff will review your proposal and follow up to confirm your event</p><h3>Occupancy</h3><p>The Edge Workshop Room can hold 49 occupants in its default seminar-style setup with tables and chairs. It can hold an additional 21 chairs with additional chairs around the perimeter and aisles. Tables may be removed by your staff to seat up to 70 participants.</p><h3>What technologies are available in The Edge Workshop Room?</h3><ul><li>The speaker’s station has a dedicated laptop connected to a projector. There are no additional computers or laptops in The Edge Workshop Room.</li><li>The room contains VGA, HDMI and Mac connectors.</li><li>You may not modify the computer hardware or software configurations unless given prior approval by Libraries Information Technology Services (ITS).</li><li>Audiovisual support in this room is provided by Trinity Technology Services (TTS). Please contact them ahead of time (<a href=\"https://trinity.duke.edu/multimedia-support\" target=\"_blank\">via this form</a>) if you know that you will need training or assistance.</li></ul><h3>What previous arrangements must be made to use this room for an event?</h3><h4>Furniture</h4><ul><li>You must notify staff prior to your event if you will need additional seating or tables.</li><li>You are responsible for setting up furniture prior to your event and returning the room to its original setup after the event.</li></ul><h4>Food &amp; Catering</h4><ul><li>Food and drink are permitted.</li><li>Food and drink may not be stored in The Edge refrigerator overnight.</li><li>You are responsible for all catering arrangements, setup and cleanup. There may be event costs incurred if additional housekeeping arrangements must be made.</li><li>All catering arrangements must be communicated to and approved by The Edge Coordinator at least one week in advance of the event.</li></ul><h2>For Conferences:</h2><p>The Edge can occasionally accommodate conferences, primarily between semesters and during breaks. To submit an application to The Edge to host an all-day or multi-day conference, you must provide the following information:</p><ul><li>A Duke-affiliated primary contact</li><li>A fund code to charge back costs related to housekeeping and technical support.</li><li>Dates and times of the conference</li><li>Summary of programming</li><li>Expected attendance</li><li>Whether attendees will all be Duke affiliates if this conference is open to the larger community or other academic institutions</li><li>A signed copy of the Workshop Room space usage agreement (available here).</li></ul><p>We require that additional housekeeping be retained if food is being served at an all-day event.&nbsp;</p>",
            "langcode" : "und",
            "body_summary" : "",
            "entity_id" : 939
         }
      }
   ],
   "field_image" : null,
   "type" : "research_page",
   "vid" : 18585,
   "node__body" : {
      "body_value" : "<h2>Events in The Edge:</h2><p>The Edge regularly hosts workshops, programs, and special events that showcase scholarly research. We are particularly interested in programs that:</p><ul><li>Engage users in new research methods</li><li>Engage users with important research issues, such as intellectual property and open access</li><li>Include researchers across disciplines</li><li>Showcase research, especially cross-disciplinary research</li><li>Leverage new technologies</li><li>Are open to &nbsp;the entire Duke Community</li></ul><p>Decisions about use of the space and co-sponsorship are at the sole discretion of the Libraries. Preference is given to events that align with The Edge’s mission to provide a collaborative space for interdisciplinary, data-driven, digitally reliant or team-based research.&nbsp;</p><h2>Use Guidelines</h2><h3>What are the general guidelines for using spaces in The Edge?</h3><ul><li><em>Priority use</em>: Workshops or presentations that highlight the mission of The Edge: interdisciplinary, team-based, data-driven or digitally reliant research.</li><li>The Workshop Room is normally available only for events during regular Perkins/Bostock Library hours.</li><li>The Edge Workshop Room is locked. To access this room on the day of your event, please check out a key from the Perkins Service Desk. You will need to return the key immediately following your event.</li></ul><h3>How can I reserve a room for my event?</h3><p>Submit a <a href=\"https://duke.qualtrics.com/SE/?SID=SV_0krCzEoKconBjff\">programming proposal form</a> with the details of your event; Edge staff will review your proposal and follow up to confirm your event</p><h3>Occupancy</h3><p>The Edge Workshop Room can hold 49 occupants in its default seminar-style setup with tables and chairs. It can hold an additional 21 chairs with additional chairs around the perimeter and aisles. Tables may be removed by your staff to seat up to 70 participants.</p><h3>What technologies are available in The Edge Workshop Room?</h3><ul><li>The speaker’s station has a dedicated laptop connected to a projector. There are no additional computers or laptops in The Edge Workshop Room.</li><li>The room contains VGA, HDMI and Mac connectors.</li><li>You may not modify the computer hardware or software configurations unless given prior approval by Libraries Information Technology Services (ITS).</li><li>Audiovisual support in this room is provided by Trinity Technology Services (TTS). Please contact them ahead of time (<a href=\"https://trinity.duke.edu/multimedia-support\" target=\"_blank\">via this form</a>) if you know that you will need training or assistance.</li></ul><h3>What previous arrangements must be made to use this room for an event?</h3><h4>Furniture</h4><ul><li>You must notify staff prior to your event if you will need additional seating or tables.</li><li>You are responsible for setting up furniture prior to your event and returning the room to its original setup after the event.</li></ul><h4>Food &amp; Catering</h4><ul><li>Food and drink are permitted.</li><li>Food and drink may not be stored in The Edge refrigerator overnight.</li><li>You are responsible for all catering arrangements, setup and cleanup. There may be event costs incurred if additional housekeeping arrangements must be made.</li><li>All catering arrangements must be communicated to and approved by The Edge Coordinator at least one week in advance of the event.</li></ul><h2>For Conferences:</h2><p>The Edge can occasionally accommodate conferences, primarily between semesters and during breaks. To submit an application to The Edge to host an all-day or multi-day conference, you must provide the following information:</p><ul><li>A Duke-affiliated primary contact</li><li>A fund code to charge back costs related to housekeeping and technical support.</li><li>Dates and times of the conference</li><li>Summary of programming</li><li>Expected attendance</li><li>Whether attendees will all be Duke affiliates if this conference is open to the larger community or other academic institutions</li><li>A signed copy of the Workshop Room space usage agreement (available here).</li></ul><p>We require that additional housekeeping be retained if food is being served at an all-day event.&nbsp;</p>",
      "revision_id" : 18585,
      "deleted" : 0,
      "delta" : 0,
      "body_format" : "full_html",
      "bundle" : "research_page",
      "entity_id" : 939,
      "body_summary" : "",
      "langcode" : "und"
   },
   "uuid" : "da1a7b01-d599-471e-af63-cfb3e9a3226b"
}

