{
   "nid" : "541",
   "path_alias" : {
      "alias" : "/research/international/western-europe",
      "pid" : 823,
      "language" : "und",
      "status" : 0,
      "langcode" : "und"
   },
   "node_field_data" : {
      "title" : "Western European Studies",
      "sticky" : 0,
      "default_langcode" : 1,
      "status" : 1,
      "created" : 1390497623,
      "changed" : null,
      "promote" : 0,
      "type" : "research_page",
      "revision_translation_affected" : 1,
      "uid" : 1,
      "langcode" : "und"
   },
   "field_tags" : [],
   "node_access" : null,
   "asidebox" : {
      "body_value" : "<p style=\"text-align: center;\"><img src=\"/sites/default/files/dul/research-support/international/western_european_studies.PNG\" alt=\"Western Europe\" width=\"358\" height=\"347\" class=\"img-responsive\"></p>",
      "block_module" : null,
      "body_format" : "full_html",
      "vid" : 28095,
      "bid" : null,
      "nid" : 541,
      "body_title" : "",
      "status" : "html",
      "block_delta" : null
   },
   "revisions" : [
      {
         "field_revision" : {
            "title" : "Western European Studies",
            "changed" : null,
            "created" : null,
            "status" : 1,
            "uid" : 1,
            "langcode" : null,
            "default_langcode" : 1,
            "sticky" : 0,
            "revision_translation_affected" : 1
         },
         "status" : 1,
         "comment" : 1,
         "sticky" : 0,
         "log" : "",
         "node_revision__field_tags" : [],
         "title" : "Western European Studies",
         "vuuid" : "d7777c20-bfa5-417c-86c6-efa6978fc400",
         "node_revision__body" : {
            "langcode" : "und",
            "body_summary" : "",
            "entity_id" : 541,
            "bundle" : "research_page",
            "body_format" : "full_html",
            "delta" : 0,
            "deleted" : 0,
            "revision_id" : 28095,
            "body_value" : "<p>Getting Started</p><ul><li>Get research help from the librarian! <a href=\"mailto:heidi.madden@duke.edu\"> Make an appointment online</a>.</li><li>Research Guides<ul><li><a href=\"https://guides.library.duke.edu/duces\" style=\"line-height: 1.53em;\">Western European Studies </a></li><li><a href=\"https://guides.library.duke.edu/french\" style=\"line-height: 1.53em;\">French &amp; Francophone </a></li><li><a href=\"https://guides.library.duke.edu/carolina_duke_german\" style=\"line-height: 1.53em;\">Germanic </a></li><li><a href=\"https://guides.library.duke.edu/italian\" style=\"line-height: 1.53em;\">Italy </a></li><li><a href=\"https://guides.library.duke.edu/profile.php?uid=5178\">All research guides </a></li></ul></li><li><a href=\"https://guides.library.duke.edu/aecontent.php?pid=200863&amp;sid=1679165\">Specialized Databases </a></li><li><a href=\"https://guides.library.duke.edu/film-and-video-resources\">Films </a></li><li><a href=\"/data/\">Numeric Data &amp; Statistics</a></li><li><a href=\"https://guides.library.duke.edu/c.php?g=289598&amp;p=1930452\">Primary Sources</a><a href=\"https://guides.library.duke.edu/europe_archives\"> </a></li><li><a href=\"https://guides.library.duke.edu/content.php?pid=200863&amp;sid=1699608\">Learning Languages </a></li><li><a href=\"https://guides.library.duke.edu/europe_archives\">Conducting Research in Europe </a></li><li><a href=\"https://guides.library.duke.edu/content.php?pid=200863&amp;sid=4046573\">Description of the Collection </a></li></ul><p>Librarian for Western European Studies</p><p><br> <a href=\"https://library.duke.edu/about/directory/staff/heidi.madden\">Heidi Madden, Ph.D., M.L.S.</a><br> 232 Bostock Library<br> <a href=\"tel:+19196605984\">(919) 660-5984</a><br> <a href=\"mailto:heidi.madden@duke.edu\">heidi.madden@duke.edu</a></p>"
         },
         "uid" : 61,
         "timestamp" : 1583167428,
         "promote" : 0
      }
   ],
   "langcode" : "und",
   "uuid" : "db142501-be6e-4959-9a3a-9d67a561b169",
   "vid" : 28095,
   "node__body" : {
      "body_value" : "<p>Getting Started</p><ul><li>Get research help from the librarian! <a href=\"mailto:heidi.madden@duke.edu\"> Make an appointment online</a>.</li><li>Research Guides<ul><li><a href=\"https://guides.library.duke.edu/duces\" style=\"line-height: 1.53em;\">Western European Studies </a></li><li><a href=\"https://guides.library.duke.edu/french\" style=\"line-height: 1.53em;\">French &amp; Francophone </a></li><li><a href=\"https://guides.library.duke.edu/carolina_duke_german\" style=\"line-height: 1.53em;\">Germanic </a></li><li><a href=\"https://guides.library.duke.edu/italian\" style=\"line-height: 1.53em;\">Italy </a></li><li><a href=\"https://guides.library.duke.edu/profile.php?uid=5178\">All research guides </a></li></ul></li><li><a href=\"https://guides.library.duke.edu/aecontent.php?pid=200863&amp;sid=1679165\">Specialized Databases </a></li><li><a href=\"https://guides.library.duke.edu/film-and-video-resources\">Films </a></li><li><a href=\"/data/\">Numeric Data &amp; Statistics</a></li><li><a href=\"https://guides.library.duke.edu/c.php?g=289598&amp;p=1930452\">Primary Sources</a><a href=\"https://guides.library.duke.edu/europe_archives\"> </a></li><li><a href=\"https://guides.library.duke.edu/content.php?pid=200863&amp;sid=1699608\">Learning Languages </a></li><li><a href=\"https://guides.library.duke.edu/europe_archives\">Conducting Research in Europe </a></li><li><a href=\"https://guides.library.duke.edu/content.php?pid=200863&amp;sid=4046573\">Description of the Collection </a></li></ul><p>Librarian for Western European Studies</p><p><br> <a href=\"https://library.duke.edu/about/directory/staff/heidi.madden\">Heidi Madden, Ph.D., M.L.S.</a><br> 232 Bostock Library<br> <a href=\"tel:+19196605984\">(919) 660-5984</a><br> <a href=\"mailto:heidi.madden@duke.edu\">heidi.madden@duke.edu</a></p>",
      "revision_id" : 28095,
      "deleted" : 0,
      "body_format" : "full_html",
      "bundle" : "research_page",
      "delta" : 0,
      "langcode" : "und",
      "entity_id" : 541,
      "body_summary" : ""
   },
   "type" : "research_page",
   "field_image" : null
}

