{
   "field_image" : {
      "field_image_height" : 373,
      "entity_type" : "node",
      "langcode" : "und",
      "field_image_alt" : "",
      "field_image_width" : 800,
      "delta" : 0,
      "bundle" : "exhibit",
      "entity_id" : 1793,
      "field_image_target_id" : 4131,
      "field_image_title" : "",
      "language" : "und",
      "file_uuid" : "aaf1a2c7-bb9b-4836-a87a-7267cfa7e39f",
      "field_image_fid" : 4131,
      "revision_id" : 19531,
      "deleted" : 0
   },
   "node__body" : {
      "entity_id" : 1793,
      "body_summary" : "",
      "langcode" : "und",
      "body_value" : "<p>An exhibition created by Duke University Honors Students, looking at the history of the honor code.</p>",
      "revision_id" : 19531,
      "deleted" : 0,
      "delta" : 0,
      "body_format" : "full_html",
      "bundle" : "exhibit"
   },
   "vid" : 19531,
   "revisions" : [
      {
         "field_revision" : {
            "uid" : 1,
            "langcode" : null,
            "status" : 1,
            "created" : null,
            "sticky" : 0,
            "revision_translation_affected" : 1,
            "default_langcode" : 1,
            "title" : "Honors Council",
            "changed" : null
         },
         "status" : 1,
         "log" : "",
         "comment" : 1,
         "sticky" : 0,
         "node_revision__field_tags" : [],
         "vuuid" : "8f0ddb75-7c6d-4fab-9d61-b2f079f1ab98",
         "title" : "Honors Council",
         "node_revision__body" : {
            "deleted" : 0,
            "delta" : 0,
            "body_format" : "full_html",
            "bundle" : "exhibit",
            "body_value" : "<p>An exhibition created by Duke University Honors Students, looking at the history of the honor code.</p>",
            "revision_id" : 19531,
            "body_summary" : "",
            "entity_id" : 1793,
            "langcode" : "und"
         },
         "uid" : 3,
         "timestamp" : 1538401271,
         "promote" : 0
      }
   ],
   "asidebox" : null,
   "nid" : "1793",
   "type" : "exhibit",
   "uuid" : "def0761e-8bfb-4172-b80b-09166ccdd7a9",
   "langcode" : "und",
   "node_access" : null,
   "field_tags" : [],
   "path_alias" : {
      "pid" : 3845,
      "alias" : "/exhibits/2018/honorscouncil",
      "language" : "und",
      "status" : 0,
      "langcode" : "und"
   },
   "node_field_data" : {
      "revision_translation_affected" : 1,
      "langcode" : "und",
      "uid" : 1,
      "changed" : null,
      "promote" : 0,
      "type" : "exhibit",
      "sticky" : 0,
      "default_langcode" : 1,
      "status" : 1,
      "created" : 1510608984,
      "title" : "Honors Council"
   },
   "node__field_image" : {}
}

