{
   "node_access" : null,
   "asidebox" : null,
   "nid" : "2433",
   "field_tags" : [],
   "path_alias" : {
      "language" : "und",
      "pid" : 4697,
      "alias" : "/exhibits/2020/JulyCCW",
      "langcode" : "und",
      "status" : 0
   },
   "node_field_data" : {
      "title" : "July 2020 (available)",
      "created" : 1579897882,
      "status" : 1,
      "default_langcode" : 1,
      "sticky" : 0,
      "type" : "exhibit",
      "promote" : 0,
      "changed" : null,
      "uid" : 1,
      "langcode" : "und",
      "revision_translation_affected" : 1
   },
   "field_image" : null,
   "type" : "exhibit",
   "vid" : 27773,
   "node__body" : null,
   "uuid" : "df2160a9-ca52-45ed-95da-9c077535d174",
   "langcode" : "und",
   "revisions" : [
      {
         "uid" : 2213,
         "timestamp" : 1579897882,
         "promote" : 0,
         "status" : 1,
         "field_revision" : {
            "status" : 1,
            "uid" : 1,
            "langcode" : null,
            "created" : null,
            "sticky" : 0,
            "revision_translation_affected" : 1,
            "default_langcode" : 1,
            "title" : "July 2020 (available)",
            "changed" : null
         },
         "sticky" : 0,
         "comment" : 1,
         "log" : "",
         "title" : "July 2020 (available)",
         "vuuid" : "d16fb9cb-a1bf-471e-92a9-993cdb340494",
         "node_revision__field_tags" : [],
         "node_revision__body" : {
            "langcode" : null
         }
      }
   ]
}

