{
   "field_tags" : [],
   "path_alias" : {
      "language" : "und",
      "alias" : "/using/building/policies/public-hours",
      "pid" : 721,
      "langcode" : "und",
      "status" : 0
   },
   "node_field_data" : {
      "changed" : null,
      "promote" : 0,
      "type" : "page",
      "revision_translation_affected" : 1,
      "langcode" : "und",
      "uid" : 1,
      "title" : "Public Access and Hours ",
      "sticky" : 0,
      "default_langcode" : 1,
      "status" : 0,
      "created" : 1382969482
   },
   "nid" : "481",
   "asidebox" : null,
   "node_access" : null,
   "node__body" : {
      "entity_id" : 481,
      "body_summary" : "",
      "langcode" : "und",
      "revision_id" : 25893,
      "body_value" : "<p>Members of the public are welcome to visit and use the Duke University Libraries. &nbsp;</p><p>Perkins Library, Bostock Library and the Rubenstein Rare Book &amp; Manuscript Library on West Campus and Lilly and Music libraries on East Campus&nbsp;are generally open to the public from <strong>8 AM or the hour at which they open</strong>, whichever&nbsp;is later, until <strong>7 PM or the hour at which they close</strong>, whichever is earlier. &nbsp;If a library remains open after 7 PM, the doors automatically lock and only authorized Duke Card holders can access the Libraries using the card swipe devices at the entrance doors. &nbsp;</p><p>Consult the&nbsp;<a href=\"/about/hours/\">Duke University Libraries hours</a> before visiting the Libraries.&nbsp;</p><p>&nbsp;</p>",
      "body_format" : "full_html",
      "bundle" : "page",
      "delta" : 0,
      "deleted" : 0
   },
   "vid" : 25893,
   "uuid" : "e2089266-2e76-4c88-a241-61ac647389fb",
   "field_image" : null,
   "type" : "page",
   "revisions" : [
      {
         "sticky" : 0,
         "comment" : 1,
         "log" : "",
         "status" : 0,
         "field_revision" : {
            "revision_translation_affected" : 1,
            "sticky" : 0,
            "default_langcode" : 1,
            "status" : 0,
            "uid" : 1,
            "langcode" : null,
            "created" : null,
            "changed" : null,
            "title" : "Public Access and Hours "
         },
         "node_revision__body" : {
            "langcode" : "und",
            "entity_id" : 481,
            "body_summary" : "",
            "body_value" : "<p>Members of the public are welcome to visit and use the Duke University Libraries. &nbsp;</p><p>Perkins Library, Bostock Library and the Rubenstein Rare Book &amp; Manuscript Library on West Campus and Lilly and Music libraries on East Campus&nbsp;are generally open to the public from <strong>8 AM or the hour at which they open</strong>, whichever&nbsp;is later, until <strong>7 PM or the hour at which they close</strong>, whichever is earlier. &nbsp;If a library remains open after 7 PM, the doors automatically lock and only authorized Duke Card holders can access the Libraries using the card swipe devices at the entrance doors. &nbsp;</p><p>Consult the&nbsp;<a href=\"/about/hours/\">Duke University Libraries hours</a> before visiting the Libraries.&nbsp;</p><p>&nbsp;</p>",
            "revision_id" : 25893,
            "deleted" : 0,
            "body_format" : "full_html",
            "bundle" : "page",
            "delta" : 0
         },
         "title" : "Public Access and Hours ",
         "vuuid" : "21015ac8-70fa-4e3d-8d90-dd4aa68d126d",
         "node_revision__field_tags" : [],
         "timestamp" : 1563461974,
         "uid" : 3,
         "promote" : 0
      }
   ],
   "langcode" : "und"
}

