{
   "node_access" : null,
   "field_tags" : [],
   "node_field_data" : {
      "default_langcode" : 1,
      "sticky" : 0,
      "created" : 1572529818,
      "status" : 1,
      "title" : "Forever Humboldt!!",
      "revision_translation_affected" : 1,
      "langcode" : "und",
      "uid" : 1,
      "promote" : 0,
      "changed" : null,
      "type" : "exhibit"
   },
   "path_alias" : {
      "alias" : "/exhibits/2019/Humboldt",
      "pid" : 4627,
      "language" : "und",
      "status" : 0,
      "langcode" : "und"
   },
   "node__field_image" : {},
   "type" : "exhibit",
   "uuid" : "e29d6ba4-c512-4974-be5d-02b54e9a628a",
   "langcode" : "und",
   "asidebox" : null,
   "nid" : "2391",
   "field_image" : {
      "langcode" : "und",
      "entity_type" : "node",
      "field_image_height" : 600,
      "delta" : 0,
      "bundle" : "exhibit",
      "field_image_alt" : "",
      "field_image_width" : 516,
      "field_image_title" : "",
      "field_image_target_id" : 4737,
      "entity_id" : 2391,
      "deleted" : 0,
      "field_image_fid" : 4737,
      "revision_id" : 27141,
      "language" : "und",
      "file_uuid" : "cd67014c-08c9-41c3-a607-7d68750d36bb"
   },
   "node__body" : {
      "langcode" : "und",
      "body_summary" : "",
      "entity_id" : 2391,
      "deleted" : 0,
      "bundle" : "exhibit",
      "body_format" : "full_html",
      "delta" : 0,
      "body_value" : "<p><span color=\"#444444\" face=\"Source Sans Pro, Calibri, Candara, Arial, sans-serif\" style=\"color: #444444; font-family: 'Source Sans Pro', Calibri, Candara, Arial, sans-serif;\">To honor his hundredth birthday, The New York Times devoted its entire front page on September 15, 1869 to Alexander von Humboldt, the fearless and always curious explorer of South America, the most famous scientist of his time. Parades with bands and speeches celebrated Humboldt’s birthday throughout the world. Emerson called the mid-nineteenth century “the Age of Humboldt.” Too bad Humboldt himself wasn’t there to enjoy all the attention. He had died eleven years earlier.</span></p><p><span color=\"#444444\" face=\"Source Sans Pro, Calibri, Candara, Arial, sans-serif\" style=\"color: #444444; font-family: 'Source Sans Pro', Calibri, Candara, Arial, sans-serif;\">Alexander von Humboldt had a huge personality. He was warm, magnetic, friendly, joyful, periodically lonely, and overwhelmingly popular. He was also a voluminous correspondent and seemed to be ever awestruck by the magnificence of the natural world. For years, he wrote and received nearly ten substantial letters each day. Ever an early adopter, he was an obsessive networker.</span></p><p><span color=\"#444444\" face=\"Source Sans Pro, Calibri, Candara, Arial, sans-serif\" style=\"color: #444444; font-family: 'Source Sans Pro', Calibri, Candara, Arial, sans-serif;\">Today, much of the world has nearly forgotten the once-famous Humboldt. But his approach, work, and even his sense of wonder about the world are once again rallying. In recent years, natural and social scientists, humanities scholars, and artists are becoming fascinated by Humboldt’s attempt to embrace and unify all of physical nature, human culture, and history. Humboldt’s wildly popular book Cosmos portrays the stunning oneness of the natural world and our place in it, in a perspective that seems strikingly contemporary. Cosmos, along with his other works, became the inspiration for several generations of scientists, explorers, and writers, including Charles Darwin, John Muir, and Henry David Thoreau.</span></p><p><span color=\"#444444\" face=\"Source Sans Pro, Calibri, Candara, Arial, sans-serif\" style=\"color: #444444; font-family: 'Source Sans Pro', Calibri, Candara, Arial, sans-serif;\">This academic year, a Duke Bass Connections project has observed and celebrated the 250th anniversary of Humboldt’s birth. Scholarly celebrations involved bringing Humboldt scholars to Duke for a well-attended public lecture by Andrea Wulf and a two-day workshop with four leading Humboldt experts (all of them with new books on Humboldt). The project also made a trip to the Smithsonian American Museum of Art at the invitation of Dr. Eleanor Harvey, Senior Curator, who gave us a near four-hour, riveting peak at her spectacular new Humboldt exhibit that will open after the COVID virus has subsided. The project studied and created a public exhibit of the many Humboldt-related materials that to be found in the Rubinstein-Perkins Library. As a last project, a second exhibit will open in Nicholas School of the Environment’s Granger Hall in the fall 2020.</span></p><p><span color=\"#444444\" face=\"Source Sans Pro, Calibri, Candara, Arial, sans-serif\" style=\"color: #444444; font-family: 'Source Sans Pro', Calibri, Candara, Arial, sans-serif;\">This exhibit was curated by Professors Daniel Richter and graduate students Juan Llano Caldas, Chelsea Sloggy, and Avery Davis. The curators wish to thank Margaret Brown, the E. Rhodes and Leona B. Carpenter Foundation Exhibits Librarian, and everyone involved in the 2019-2020 Bass Connections Forever Humboldt!! Project. Special thanks go also to Duke Professors Stefani Engelstein, Chair of Germanic Languages and Literature for German translations and Zackary Johnson of NSOE for writing the Bass proposal. The group also thanks Dr. Eleanor Harvey, Senior Curator of the Smithsonian’s American Art Museum, Dr. Laura Walls Professor at Notre Dame, Dr. Stephen Bell Professor at UCLA, Dr. Stephen Jackson of the USGS, Dr. Elizabeth Millán Professor at DePaul, Dr. Nicolaas Rupke of Washington and Lee, and Andrea Wulf, the latter seven scholars whom interacted actively with the Bass Connections project.</span></p><p></p>",
      "revision_id" : 27141
   },
   "vid" : 27141,
   "revisions" : [
      {
         "node_revision__body" : {
            "langcode" : "und",
            "body_summary" : "",
            "entity_id" : 2391,
            "deleted" : 0,
            "delta" : 0,
            "body_format" : "full_html",
            "bundle" : "exhibit",
            "body_value" : "<p><span color=\"#444444\" face=\"Source Sans Pro, Calibri, Candara, Arial, sans-serif\" style=\"color: #444444; font-family: 'Source Sans Pro', Calibri, Candara, Arial, sans-serif;\">To honor his hundredth birthday, The New York Times devoted its entire front page on September 15, 1869 to Alexander von Humboldt, the fearless and always curious explorer of South America, the most famous scientist of his time. Parades with bands and speeches celebrated Humboldt’s birthday throughout the world. Emerson called the mid-nineteenth century “the Age of Humboldt.” Too bad Humboldt himself wasn’t there to enjoy all the attention. He had died eleven years earlier.</span></p><p><span color=\"#444444\" face=\"Source Sans Pro, Calibri, Candara, Arial, sans-serif\" style=\"color: #444444; font-family: 'Source Sans Pro', Calibri, Candara, Arial, sans-serif;\">Alexander von Humboldt had a huge personality. He was warm, magnetic, friendly, joyful, periodically lonely, and overwhelmingly popular. He was also a voluminous correspondent and seemed to be ever awestruck by the magnificence of the natural world. For years, he wrote and received nearly ten substantial letters each day. Ever an early adopter, he was an obsessive networker.</span></p><p><span color=\"#444444\" face=\"Source Sans Pro, Calibri, Candara, Arial, sans-serif\" style=\"color: #444444; font-family: 'Source Sans Pro', Calibri, Candara, Arial, sans-serif;\">Today, much of the world has nearly forgotten the once-famous Humboldt. But his approach, work, and even his sense of wonder about the world are once again rallying. In recent years, natural and social scientists, humanities scholars, and artists are becoming fascinated by Humboldt’s attempt to embrace and unify all of physical nature, human culture, and history. Humboldt’s wildly popular book Cosmos portrays the stunning oneness of the natural world and our place in it, in a perspective that seems strikingly contemporary. Cosmos, along with his other works, became the inspiration for several generations of scientists, explorers, and writers, including Charles Darwin, John Muir, and Henry David Thoreau.</span></p><p><span color=\"#444444\" face=\"Source Sans Pro, Calibri, Candara, Arial, sans-serif\" style=\"color: #444444; font-family: 'Source Sans Pro', Calibri, Candara, Arial, sans-serif;\">This academic year, a Duke Bass Connections project has observed and celebrated the 250th anniversary of Humboldt’s birth. Scholarly celebrations involved bringing Humboldt scholars to Duke for a well-attended public lecture by Andrea Wulf and a two-day workshop with four leading Humboldt experts (all of them with new books on Humboldt). The project also made a trip to the Smithsonian American Museum of Art at the invitation of Dr. Eleanor Harvey, Senior Curator, who gave us a near four-hour, riveting peak at her spectacular new Humboldt exhibit that will open after the COVID virus has subsided. The project studied and created a public exhibit of the many Humboldt-related materials that to be found in the Rubinstein-Perkins Library. As a last project, a second exhibit will open in Nicholas School of the Environment’s Granger Hall in the fall 2020.</span></p><p><span color=\"#444444\" face=\"Source Sans Pro, Calibri, Candara, Arial, sans-serif\" style=\"color: #444444; font-family: 'Source Sans Pro', Calibri, Candara, Arial, sans-serif;\">This exhibit was curated by Professors Daniel Richter and graduate students Juan Llano Caldas, Chelsea Sloggy, and Avery Davis. The curators wish to thank Margaret Brown, the E. Rhodes and Leona B. Carpenter Foundation Exhibits Librarian, and everyone involved in the 2019-2020 Bass Connections Forever Humboldt!! Project. Special thanks go also to Duke Professors Stefani Engelstein, Chair of Germanic Languages and Literature for German translations and Zackary Johnson of NSOE for writing the Bass proposal. The group also thanks Dr. Eleanor Harvey, Senior Curator of the Smithsonian’s American Art Museum, Dr. Laura Walls Professor at Notre Dame, Dr. Stephen Bell Professor at UCLA, Dr. Stephen Jackson of the USGS, Dr. Elizabeth Millán Professor at DePaul, Dr. Nicolaas Rupke of Washington and Lee, and Andrea Wulf, the latter seven scholars whom interacted actively with the Bass Connections project.</span></p><p></p>",
            "revision_id" : 27141
         },
         "node_revision__field_tags" : [],
         "vuuid" : "c8dfb420-00f7-46dc-bcb5-262db97f5e41",
         "title" : "Forever Humboldt!!",
         "log" : "",
         "comment" : 1,
         "sticky" : 0,
         "field_revision" : {
            "title" : "Forever Humboldt!!",
            "changed" : null,
            "created" : null,
            "status" : 1,
            "uid" : 1,
            "langcode" : null,
            "default_langcode" : 1,
            "sticky" : 0,
            "revision_translation_affected" : 1
         },
         "status" : 1,
         "promote" : 0,
         "timestamp" : 1589778555,
         "uid" : 2213
      }
   ]
}

