{
   "vid" : 21373,
   "node__body" : {
      "entity_id" : 1491,
      "body_summary" : "",
      "langcode" : "und",
      "revision_id" : 21373,
      "body_value" : "<p><img src=\"/sites/default/files/dul/users/lee.sorensen/boycott-header2.jpg\" alt=\"Duke University student bus boycott, 1949\" width=\"1083\" height=\"261\"></p><p><img src=\"/sites/default/files/dul/users/lee.sorensen/BANNER2.jpg\" width=\"1083\" height=\"75\"></p><table border=\"0\" style=\"width: 586px; height: 160px;\"><tbody><tr><td><img src=\"/sites/default/files/dul/users/lee.sorensen/LWV1927sm.jpg\" width=\"89\" height=\"75\"></td><td></td><td><img src=\"/sites/default/files/dul/users/lee.sorensen/LWV1927-1.jpg\" width=\"68\" height=\"75\"></td><td><img src=\"/sites/default/files/dul/users/lee.sorensen/harte1937.jpg\" width=\"52\" height=\"75\"></td><td></td><td></td><td></td><td></td><td></td><td></td><td></td><td></td></tr><tr><td>1927</td><td></td><td>1927</td><td>1938</td><td></td><td></td><td></td><td></td><td></td><td></td><td></td><td></td></tr></tbody></table><p><img src=\"/sites/default/files/dul/users/lee.sorensen/timeline1.jpg\" alt=\"timeline\" width=\"1083\" height=\"400\"></p><p><img src=\"/sites/default/files/dul/users/lee.sorensen/waitress.jpg\" alt=\"Waitress letter\" width=\"200\" height=\"51\"></p>",
      "body_format" : "full_html",
      "delta" : 0,
      "bundle" : "research_page",
      "deleted" : 0
   },
   "uuid" : "e5cd98fb-09da-45ce-a76d-1fbcc038a570",
   "field_image" : null,
   "type" : "research_page",
   "revisions" : [
      {
         "uid" : 3,
         "timestamp" : 1520354700,
         "promote" : 0,
         "field_revision" : {
            "title" : "Student Activism",
            "changed" : null,
            "uid" : 1,
            "status" : 0,
            "langcode" : null,
            "created" : null,
            "sticky" : 0,
            "revision_translation_affected" : 1,
            "default_langcode" : 1
         },
         "status" : 0,
         "log" : "",
         "comment" : 1,
         "sticky" : 0,
         "node_revision__field_tags" : [
            {
               "language" : "und",
               "delta" : 0,
               "bundle" : "research_page",
               "deleted" : 0,
               "revision_id" : 21373,
               "entity_id" : 1491,
               "field_tags_target_id" : 145,
               "langcode" : "und"
            }
         ],
         "title" : "Student Activism",
         "vuuid" : "5a3672ad-1626-453b-ab2f-a42c560dfa8f",
         "node_revision__body" : {
            "langcode" : "und",
            "body_summary" : "",
            "entity_id" : 1491,
            "body_format" : "full_html",
            "delta" : 0,
            "bundle" : "research_page",
            "deleted" : 0,
            "revision_id" : 21373,
            "body_value" : "<p><img src=\"/sites/default/files/dul/users/lee.sorensen/boycott-header2.jpg\" alt=\"Duke University student bus boycott, 1949\" width=\"1083\" height=\"261\"></p><p><img src=\"/sites/default/files/dul/users/lee.sorensen/BANNER2.jpg\" width=\"1083\" height=\"75\"></p><table border=\"0\" style=\"width: 586px; height: 160px;\"><tbody><tr><td><img src=\"/sites/default/files/dul/users/lee.sorensen/LWV1927sm.jpg\" width=\"89\" height=\"75\"></td><td></td><td><img src=\"/sites/default/files/dul/users/lee.sorensen/LWV1927-1.jpg\" width=\"68\" height=\"75\"></td><td><img src=\"/sites/default/files/dul/users/lee.sorensen/harte1937.jpg\" width=\"52\" height=\"75\"></td><td></td><td></td><td></td><td></td><td></td><td></td><td></td><td></td></tr><tr><td>1927</td><td></td><td>1927</td><td>1938</td><td></td><td></td><td></td><td></td><td></td><td></td><td></td><td></td></tr></tbody></table><p><img src=\"/sites/default/files/dul/users/lee.sorensen/timeline1.jpg\" alt=\"timeline\" width=\"1083\" height=\"400\"></p><p><img src=\"/sites/default/files/dul/users/lee.sorensen/waitress.jpg\" alt=\"Waitress letter\" width=\"200\" height=\"51\"></p>"
         }
      }
   ],
   "langcode" : "und",
   "field_tags" : [
      {
         "revision_id" : 21373,
         "deleted" : 0,
         "bundle" : "research_page",
         "delta" : 0,
         "language" : "und",
         "langcode" : "und",
         "field_tags_target_id" : 145,
         "entity_id" : 1491,
         "term_uuid" : "160eb9f6-123d-4617-969e-1bc3680f4fa4"
      }
   ],
   "path_alias" : {
      "langcode" : "und",
      "status" : 0,
      "alias" : "/research/student-activism-OLD",
      "pid" : 3437,
      "language" : "und"
   },
   "node_field_data" : {
      "changed" : null,
      "promote" : 0,
      "type" : "research_page",
      "revision_translation_affected" : 1,
      "langcode" : "und",
      "uid" : 1,
      "title" : "Student Activism",
      "sticky" : 0,
      "default_langcode" : 1,
      "status" : 0,
      "created" : 1485196622
   },
   "nid" : "1491",
   "asidebox" : null,
   "node_access" : null
}

