{
   "node__field_image" : {},
   "node_access" : null,
   "path_alias" : {
      "status" : 0,
      "langcode" : "und",
      "pid" : 1979,
      "alias" : "/exhibits/2016/econ",
      "language" : "und"
   },
   "node_field_data" : {
      "uid" : 1,
      "langcode" : "und",
      "revision_translation_affected" : 1,
      "type" : "exhibit",
      "changed" : null,
      "promote" : 0,
      "created" : 1467079291,
      "status" : 1,
      "default_langcode" : 1,
      "sticky" : 0,
      "title" : "Worth the Paper It’s Printed On"
   },
   "field_tags" : [],
   "langcode" : "und",
   "type" : "exhibit",
   "uuid" : "e9a99ac5-7b9d-42c7-bfa8-204a3af46230",
   "asidebox" : null,
   "nid" : "1401",
   "revisions" : [
      {
         "status" : 1,
         "field_revision" : {
            "title" : "Worth the Paper It’s Printed On",
            "changed" : null,
            "status" : 1,
            "uid" : 1,
            "langcode" : null,
            "created" : null,
            "revision_translation_affected" : 1,
            "sticky" : 0,
            "default_langcode" : 1
         },
         "log" : "",
         "sticky" : 0,
         "comment" : 1,
         "title" : "Worth the Paper It’s Printed On",
         "vuuid" : "a3af51a7-1dd1-43d0-8309-810b1d37252b",
         "node_revision__field_tags" : [],
         "node_revision__body" : {
            "body_format" : "full_html",
            "delta" : 0,
            "bundle" : "exhibit",
            "deleted" : 0,
            "revision_id" : 13747,
            "body_value" : "<p>One of eight signature collections in the Rubenstein Library, the Economists’ Papers Archive draws scholars from around the world to research the history of political economy through the study of prominent economists’ academic and personal papers, scholarly journal records, and academic association documents. Materials in the collection document the work of economists from the 19th century to the present day, and the strengths of the collection include game theory, macroeconomics, and—as demonstrated by the items on display here—monetary economics.</p><p></p><p>To what extent should the government seek to intervene in the economy? What can we learn about the impact of monetary policy carried out by past administrations? Is the gap between rich and poor too great, and if so, what should the government do about it? What determines the value of our work, and the value of the money we earn? The Economists’ Archive documents these controversies through the decades, and illuminates the current economic-centered debates among our elected officials—and presidential candidates.</p>",
            "body_summary" : "",
            "entity_id" : 1401,
            "langcode" : "und"
         },
         "uid" : 3,
         "timestamp" : 1538402193,
         "promote" : 0
      }
   ],
   "field_image" : {
      "delta" : 0,
      "bundle" : "exhibit",
      "field_image_alt" : "",
      "field_image_width" : 471,
      "langcode" : "und",
      "entity_type" : "node",
      "field_image_height" : 600,
      "deleted" : 0,
      "revision_id" : 13747,
      "field_image_fid" : 2077,
      "file_uuid" : "add6d6a8-736b-407b-8375-bd321b6641e2",
      "language" : "und",
      "field_image_title" : "",
      "field_image_target_id" : 2077,
      "entity_id" : 1401
   },
   "node__body" : {
      "deleted" : 0,
      "body_format" : "full_html",
      "delta" : 0,
      "bundle" : "exhibit",
      "body_value" : "<p>One of eight signature collections in the Rubenstein Library, the Economists’ Papers Archive draws scholars from around the world to research the history of political economy through the study of prominent economists’ academic and personal papers, scholarly journal records, and academic association documents. Materials in the collection document the work of economists from the 19th century to the present day, and the strengths of the collection include game theory, macroeconomics, and—as demonstrated by the items on display here—monetary economics.</p><p></p><p>To what extent should the government seek to intervene in the economy? What can we learn about the impact of monetary policy carried out by past administrations? Is the gap between rich and poor too great, and if so, what should the government do about it? What determines the value of our work, and the value of the money we earn? The Economists’ Archive documents these controversies through the decades, and illuminates the current economic-centered debates among our elected officials—and presidential candidates.</p>",
      "revision_id" : 13747,
      "body_summary" : "",
      "entity_id" : 1401,
      "langcode" : "und"
   },
   "vid" : 13747
}

