{
   "vid" : 27965,
   "node__body" : {
      "revision_id" : 27965,
      "body_value" : "<h2>What is Zotero?</h2><p>Zotero is a citation management tool that allows you to gather and to organize your research in one, searchable platform in your browser or desktop. You can collect a wide range of research with Zotero, including:</p><ul><li>audio and video files</li><li>images</li><li>PDF files</li><li>web page screen shots</li></ul><h2>Get Started</h2><ul><li><a href=\"https://www.zotero.org/\" target=\"_blank\" title=\"Zotero Download\">Download Zotero.</a>&nbsp;Zotero works with Google Chrome, Firefox and Safari.</li><li>Download Zotero&nbsp;<a href=\"https://www.zotero.org/support/word_processor_plugin_installation\" target=\"_blank\" title=\"in text plug-ins\">word processor plug-ins</a>&nbsp;for in-text citations. With a plug-in, you can cite as you are writing your document.</li><li>View Zotero's comprehensive library of screencast<a href=\"https://www.zotero.org/support/screencast_tutorials\">&nbsp;tutorials.</a></li><li>Use this <a href=\"https://research.library.gsu.edu/zotero\" target=\"_blank\" title=\"Puckett Zotero LibGuide\">extensive LibGuide</a> to stay up to date on what's new with Zotero.</li><li>Check out the book <a href=\"https://find.library.duke.edu/catalog/DUKE005067804\">Zotero : a guide for librarians, researchers, and educators </a>from Perkins Library</li><li>To purchase more storage at Zotero.org, use <a href=\"https://www.zotero.org/settings/purchasestorage%20\" target=\"_blank\" title=\"Zotero link to purchase cloud storage\">this link</a>.</li></ul>",
      "delta" : 0,
      "body_format" : "full_html",
      "bundle" : "research_page",
      "deleted" : 0,
      "entity_id" : 237,
      "body_summary" : "",
      "langcode" : "und"
   },
   "uuid" : "ebe903ca-015a-481f-adb6-e7aef2283368",
   "field_image" : null,
   "type" : "research_page",
   "revisions" : [
      {
         "status" : 1,
         "field_revision" : {
            "revision_translation_affected" : 1,
            "sticky" : 0,
            "default_langcode" : 1,
            "uid" : 1,
            "langcode" : null,
            "status" : 1,
            "created" : null,
            "changed" : null,
            "title" : "Zotero"
         },
         "log" : "",
         "sticky" : 0,
         "comment" : 1,
         "vuuid" : "1dec7ab1-4f45-4a65-b7e7-feafd05a68b0",
         "title" : "Zotero",
         "node_revision__field_tags" : [],
         "node_revision__body" : {
            "body_summary" : "",
            "entity_id" : 237,
            "langcode" : "und",
            "body_format" : "full_html",
            "bundle" : "research_page",
            "delta" : 0,
            "deleted" : 0,
            "body_value" : "<h2>What is Zotero?</h2><p>Zotero is a citation management tool that allows you to gather and to organize your research in one, searchable platform in your browser or desktop. You can collect a wide range of research with Zotero, including:</p><ul><li>audio and video files</li><li>images</li><li>PDF files</li><li>web page screen shots</li></ul><h2>Get Started</h2><ul><li><a href=\"https://www.zotero.org/\" target=\"_blank\" title=\"Zotero Download\">Download Zotero.</a>&nbsp;Zotero works with Google Chrome, Firefox and Safari.</li><li>Download Zotero&nbsp;<a href=\"https://www.zotero.org/support/word_processor_plugin_installation\" target=\"_blank\" title=\"in text plug-ins\">word processor plug-ins</a>&nbsp;for in-text citations. With a plug-in, you can cite as you are writing your document.</li><li>View Zotero's comprehensive library of screencast<a href=\"https://www.zotero.org/support/screencast_tutorials\">&nbsp;tutorials.</a></li><li>Use this <a href=\"https://research.library.gsu.edu/zotero\" target=\"_blank\" title=\"Puckett Zotero LibGuide\">extensive LibGuide</a> to stay up to date on what's new with Zotero.</li><li>Check out the book <a href=\"https://find.library.duke.edu/catalog/DUKE005067804\">Zotero : a guide for librarians, researchers, and educators </a>from Perkins Library</li><li>To purchase more storage at Zotero.org, use <a href=\"https://www.zotero.org/settings/purchasestorage%20\" target=\"_blank\" title=\"Zotero link to purchase cloud storage\">this link</a>.</li></ul>",
            "revision_id" : 27965
         },
         "uid" : 101,
         "timestamp" : 1581533585,
         "promote" : 0
      }
   ],
   "langcode" : "und",
   "field_tags" : [],
   "path_alias" : {
      "langcode" : "und",
      "status" : 0,
      "language" : "und",
      "alias" : "/research/zotero",
      "pid" : 411
   },
   "node_field_data" : {
      "title" : "Zotero",
      "status" : 1,
      "created" : 1376418026,
      "sticky" : 0,
      "default_langcode" : 1,
      "type" : "research_page",
      "changed" : null,
      "promote" : 0,
      "langcode" : "und",
      "uid" : 1,
      "revision_translation_affected" : 1
   },
   "nid" : "237",
   "asidebox" : {
      "status" : "html",
      "block_delta" : null,
      "body_format" : "full_html",
      "body_value" : "<p>Contact&nbsp;<a href=\"http://guides.library.duke.edu/profile.php?uid=35412\" target=\"_blank\" title=\"Contact Ciara\" style=\"text-decoration: underline;\">Ciara Healy</a>&nbsp;for&nbsp;Zotero support &amp; instruction at Duke</p>",
      "block_module" : null,
      "body_title" : "More Information ",
      "nid" : 237,
      "vid" : 27965,
      "bid" : null
   },
   "node_access" : null
}

