{
   "type" : "library_services_page",
   "field_image" : null,
   "uuid" : "ed63444d-90cb-4646-bfcb-44d9507af64a",
   "vid" : 27475,
   "node__body" : {
      "body_summary" : "",
      "entity_id" : 1445,
      "langcode" : "und",
      "deleted" : 0,
      "body_format" : "full_html",
      "delta" : 0,
      "bundle" : "library_services_page",
      "body_value" : "<h2>Overview</h2><p>The Duke University <a href=\"https://library.duke.edu/course-support/course-reserves/textbooks\"> Top Textbooks Program </a> is designed to reduce the burden of textbook costs for our student population by purchasing textbooks for the 100 largest courses on campus, based on course enrollment each semester, and placing them on reserve. That means that these textbooks are available for you to borrow at the Libraries for up to 3 hours!</p><p><a href=\"https://library.duke.edu/course-support/course-reserves/textbooks\" class=\"btn btn-primary\">Spring 2020 Top Textbooks </a></p><h3>Using Top Textbooks</h3><p>First, check to see if we have your class's textbook on reserve, using the button above. In order to serve the largest number of students, we have collected the textbooks for the 100 courses with the highest enrollment. If your textbook isn't listed there, other course materials can be placed on reserve at faculty request (<a href=\"https://library.duke.edu/course-support/course-reserves\">Course Reserves</a>). Some course packs and lab manuals are also available, if the Libraries was able to buy them.</p><p>You can check out Top Textbooks for up to 3 hours at a time from the Perkins Library Service Desk.&nbsp;For more information on fines and renewals, see our full <a href=\"https://library.duke.edu/using/borrowing\"> Circulation Policies </a> . Some titles have copies available at the Lilly Library on East Campus, which is indicated in the Top Textbooks list.</p><p>Note that the list of Top Textbooks changes each semester to reflect which classes have the highest enrollment.</p><h3>Other Reserves</h3><p>If your instructor said there were materials on reserve, but you can't find them here, don’t despair! This list only includes textbooks for classes with the highest enrollment. Duke University Libraries also has books and film on reserve at Lilly Library. There are also music reserves at the Music Library. You may want to check out the <a href=\"https://library.duke.edu/course-support/course-reserves\"> Course Reserves </a> page. These materials are set aside by faculty request; they are distinct from our Top Textbooks program.</p><h3>Questions or Comments?</h3><ul><li>For questions about textbook reserves at Perkins Library, please contact:&nbsp; <a href=\"mailto:perkins-reserves@duke.edu\" style=\"font-size: 13.008px;\"> perkins-reserves@duke.edu </a> .</li><li>For questions about textbook reserves at Lilly Library, please contact:&nbsp; <a href=\"mailto:lilly-requests@duke.edu\" style=\"font-size: 13.008px;\"> lilly-requests@duke.edu </a> .</li></ul>",
      "revision_id" : 27475
   },
   "langcode" : "und",
   "revisions" : [
      {
         "title" : "Top Textbooks at the Duke Libraries",
         "vuuid" : "9a38e3a9-5743-4d8f-b1b9-31ca15131617",
         "node_revision__field_tags" : [],
         "node_revision__body" : {
            "body_format" : "full_html",
            "delta" : 0,
            "bundle" : "library_services_page",
            "deleted" : 0,
            "body_value" : "<h2>Overview</h2><p>The Duke University <a href=\"https://library.duke.edu/course-support/course-reserves/textbooks\"> Top Textbooks Program </a> is designed to reduce the burden of textbook costs for our student population by purchasing textbooks for the 100 largest courses on campus, based on course enrollment each semester, and placing them on reserve. That means that these textbooks are available for you to borrow at the Libraries for up to 3 hours!</p><p><a href=\"https://library.duke.edu/course-support/course-reserves/textbooks\" class=\"btn btn-primary\">Spring 2020 Top Textbooks </a></p><h3>Using Top Textbooks</h3><p>First, check to see if we have your class's textbook on reserve, using the button above. In order to serve the largest number of students, we have collected the textbooks for the 100 courses with the highest enrollment. If your textbook isn't listed there, other course materials can be placed on reserve at faculty request (<a href=\"https://library.duke.edu/course-support/course-reserves\">Course Reserves</a>). Some course packs and lab manuals are also available, if the Libraries was able to buy them.</p><p>You can check out Top Textbooks for up to 3 hours at a time from the Perkins Library Service Desk.&nbsp;For more information on fines and renewals, see our full <a href=\"https://library.duke.edu/using/borrowing\"> Circulation Policies </a> . Some titles have copies available at the Lilly Library on East Campus, which is indicated in the Top Textbooks list.</p><p>Note that the list of Top Textbooks changes each semester to reflect which classes have the highest enrollment.</p><h3>Other Reserves</h3><p>If your instructor said there were materials on reserve, but you can't find them here, don’t despair! This list only includes textbooks for classes with the highest enrollment. Duke University Libraries also has books and film on reserve at Lilly Library. There are also music reserves at the Music Library. You may want to check out the <a href=\"https://library.duke.edu/course-support/course-reserves\"> Course Reserves </a> page. These materials are set aside by faculty request; they are distinct from our Top Textbooks program.</p><h3>Questions or Comments?</h3><ul><li>For questions about textbook reserves at Perkins Library, please contact:&nbsp; <a href=\"mailto:perkins-reserves@duke.edu\" style=\"font-size: 13.008px;\"> perkins-reserves@duke.edu </a> .</li><li>For questions about textbook reserves at Lilly Library, please contact:&nbsp; <a href=\"mailto:lilly-requests@duke.edu\" style=\"font-size: 13.008px;\"> lilly-requests@duke.edu </a> .</li></ul>",
            "revision_id" : 27475,
            "body_summary" : "",
            "entity_id" : 1445,
            "langcode" : "und"
         },
         "status" : 1,
         "field_revision" : {
            "title" : "Top Textbooks at the Duke Libraries",
            "changed" : null,
            "langcode" : null,
            "uid" : 1,
            "status" : 1,
            "created" : null,
            "sticky" : 0,
            "revision_translation_affected" : 1,
            "default_langcode" : 1
         },
         "sticky" : 0,
         "comment" : 1,
         "log" : "",
         "promote" : 0,
         "uid" : 42,
         "timestamp" : 1578345898
      }
   ],
   "asidebox" : {
      "bid" : null,
      "vid" : 27475,
      "nid" : 1445,
      "body_title" : "What are Top Textbooks?",
      "body_value" : "<p>Top Textbooks are textbooks that the Duke Libraries keep on reserve. They can be checked out for up to 3 hours at a time! Visit the Perkins Service Desk to check out a textbook.</p>",
      "block_module" : null,
      "body_format" : "full_html",
      "block_delta" : null,
      "status" : "html"
   },
   "node_access" : null,
   "path_alias" : {
      "alias" : "/course-support/course-reserves/textbooks/about",
      "pid" : 2041,
      "language" : "und",
      "status" : 0,
      "langcode" : "und"
   },
   "node_field_data" : {
      "default_langcode" : 1,
      "sticky" : 0,
      "created" : 1472651209,
      "status" : 1,
      "title" : "Top Textbooks at the Duke Libraries",
      "revision_translation_affected" : 1,
      "uid" : 1,
      "langcode" : "und",
      "promote" : 0,
      "changed" : null,
      "type" : "library_services_page"
   },
   "field_tags" : [],
   "nid" : "1445"
}

