{
   "nid" : "1563",
   "asidebox" : null,
   "revisions" : [
      {
         "timestamp" : 1538401565,
         "uid" : 3,
         "promote" : 0,
         "sticky" : 0,
         "comment" : 1,
         "log" : "",
         "status" : 1,
         "field_revision" : {
            "changed" : null,
            "title" : "A Sound Mind in a Sound Body",
            "default_langcode" : 1,
            "revision_translation_affected" : 1,
            "sticky" : 0,
            "created" : null,
            "langcode" : null,
            "uid" : 1,
            "status" : 1
         },
         "node_revision__body" : {
            "langcode" : "und",
            "body_summary" : "",
            "entity_id" : 1563,
            "body_format" : "full_html",
            "bundle" : "exhibit",
            "delta" : 0,
            "deleted" : 0,
            "revision_id" : 16159,
            "body_value" : "<p>The items in the exhibit trace the history of medical advice written specifically for scholars and students and reflect the wide range of approaches to scholarly health.</p>"
         },
         "vuuid" : "9c48296e-001a-45d1-9662-a7d173218ed5",
         "title" : "A Sound Mind in a Sound Body",
         "node_revision__field_tags" : []
      }
   ],
   "vid" : 16159,
   "node__body" : {
      "delta" : 0,
      "body_format" : "full_html",
      "bundle" : "exhibit",
      "deleted" : 0,
      "revision_id" : 16159,
      "body_value" : "<p>The items in the exhibit trace the history of medical advice written specifically for scholars and students and reflect the wide range of approaches to scholarly health.</p>",
      "langcode" : "und",
      "body_summary" : "",
      "entity_id" : 1563
   },
   "field_image" : {
      "revision_id" : 16159,
      "field_image_fid" : 2419,
      "deleted" : 0,
      "language" : "und",
      "file_uuid" : "793e8fef-407a-427e-97ea-f1c864e3f84c",
      "field_image_title" : "",
      "entity_id" : 1563,
      "field_image_target_id" : 2419,
      "delta" : 0,
      "bundle" : "exhibit",
      "field_image_alt" : "“Health and Strength,” Wilbur Wade Card Papers, from the Duke University Archives",
      "field_image_width" : 667,
      "langcode" : "und",
      "field_image_height" : 600,
      "entity_type" : "node"
   },
   "node__field_image" : {},
   "field_tags" : [],
   "node_field_data" : {
      "revision_translation_affected" : 1,
      "langcode" : "und",
      "uid" : 1,
      "changed" : null,
      "promote" : 0,
      "type" : "exhibit",
      "sticky" : 0,
      "default_langcode" : 1,
      "status" : 1,
      "created" : 1491359553,
      "title" : "A Sound Mind in a Sound Body"
   },
   "path_alias" : {
      "alias" : "/exhibits/2017/studenthealth",
      "pid" : 3535,
      "language" : "und",
      "status" : 0,
      "langcode" : "und"
   },
   "node_access" : null,
   "langcode" : "und",
   "uuid" : "ee020216-263e-47d9-9f9f-faed2ebb9d26",
   "type" : "exhibit"
}

