{
   "node_access" : null,
   "asidebox" : {
      "bid" : null,
      "vid" : 22125,
      "nid" : 1909,
      "body_title" : "",
      "block_module" : null,
      "body_value" : null,
      "body_format" : null,
      "block_delta" : null,
      "status" : "disabled"
   },
   "nid" : "1909",
   "node_field_data" : {
      "title" : "Distaff's Inaugural Issue",
      "default_langcode" : 1,
      "sticky" : 0,
      "created" : 1518732928,
      "status" : 1,
      "promote" : 0,
      "changed" : null,
      "type" : "page",
      "revision_translation_affected" : 1,
      "langcode" : "und",
      "uid" : 1
   },
   "path_alias" : {
      "status" : 0,
      "langcode" : "und",
      "alias" : "/research/student-activism/documents/distaff",
      "pid" : 3971,
      "language" : "und"
   },
   "field_tags" : [],
   "type" : "page",
   "field_image" : null,
   "uuid" : "ee41950d-be44-44bb-a807-aa59fd6d72f9",
   "node__body" : {
      "revision_id" : 22125,
      "body_value" : "<h2><em>Chronicle</em> Article</h2><ul><li><a href=\"/sites/default/files/dul/research/student-activism/3%2025%2031%20%281%29.pdf\" target=\"_blank\">March 25, 1931</a> (PDF, 8 MB) | <a href=\"https://library.duke.edu/digitalcollections/dukechronicle_dchnp52022/\" target=\"_blank\">Full issue</a></li></ul><hr class=\"dashed\"><p></p><h2>Other Related Documents</h2><p><a href=\"/sites/default/files/dul/research/student-activism/distaffp1-11optimized.pdf\" target=\"_blank\"><img src=\"/sites/default/files/dul/research/student-activism/distaffcoverrotatedtn.jpg\" alt=\"Magazine Cover\" title=\"Distaff, inaugural issue, pages 1-11\" width=\"250\" height=\"324\" class=\"caption-left\"></a><a href=\"/sites/default/files/dul/research/student-activism/distaffp12-27optimized.pdf\" target=\"_blank\"><img src=\"/sites/default/files/dul/research/student-activism/distaffcoverrotatedtn.jpg\" alt=\"Magazine Cover\" title=\"Distaff, inaugural issue, pages 12-27\" width=\"250\" height=\"324\" class=\"caption-left\"></a></p><!--/div--><div class=\"col-md-12\"><hr class=\"dashed\"><p><a href=\"https://search.library.duke.edu/search?id=DUKE001550817\" target=\"_blank\"><small>Duke University Archives</small></a></p></div>",
      "body_format" : "full_html",
      "delta" : 0,
      "bundle" : "page",
      "deleted" : 0,
      "langcode" : "und",
      "entity_id" : 1909,
      "body_summary" : ""
   },
   "vid" : 22125,
   "langcode" : "und",
   "revisions" : [
      {
         "log" : "",
         "comment" : 1,
         "sticky" : 0,
         "field_revision" : {
            "created" : null,
            "langcode" : null,
            "uid" : 1,
            "status" : 1,
            "default_langcode" : 1,
            "sticky" : 0,
            "revision_translation_affected" : 1,
            "title" : "Distaff's Inaugural Issue",
            "changed" : null
         },
         "status" : 1,
         "node_revision__body" : {
            "revision_id" : 22125,
            "body_value" : "<h2><em>Chronicle</em> Article</h2><ul><li><a href=\"/sites/default/files/dul/research/student-activism/3%2025%2031%20%281%29.pdf\" target=\"_blank\">March 25, 1931</a> (PDF, 8 MB) | <a href=\"https://library.duke.edu/digitalcollections/dukechronicle_dchnp52022/\" target=\"_blank\">Full issue</a></li></ul><hr class=\"dashed\"><p></p><h2>Other Related Documents</h2><p><a href=\"/sites/default/files/dul/research/student-activism/distaffp1-11optimized.pdf\" target=\"_blank\"><img src=\"/sites/default/files/dul/research/student-activism/distaffcoverrotatedtn.jpg\" alt=\"Magazine Cover\" title=\"Distaff, inaugural issue, pages 1-11\" width=\"250\" height=\"324\" class=\"caption-left\"></a><a href=\"/sites/default/files/dul/research/student-activism/distaffp12-27optimized.pdf\" target=\"_blank\"><img src=\"/sites/default/files/dul/research/student-activism/distaffcoverrotatedtn.jpg\" alt=\"Magazine Cover\" title=\"Distaff, inaugural issue, pages 12-27\" width=\"250\" height=\"324\" class=\"caption-left\"></a></p><!--/div--><div class=\"col-md-12\"><hr class=\"dashed\"><p><a href=\"https://search.library.duke.edu/search?id=DUKE001550817\" target=\"_blank\"><small>Duke University Archives</small></a></p></div>",
            "deleted" : 0,
            "body_format" : "full_html",
            "delta" : 0,
            "bundle" : "page",
            "langcode" : "und",
            "entity_id" : 1909,
            "body_summary" : ""
         },
         "node_revision__field_tags" : [],
         "title" : "Distaff's Inaugural Issue",
         "vuuid" : "539936f1-89ef-4f82-a8f6-a447b2e83f99",
         "timestamp" : 1524670300,
         "uid" : 3,
         "promote" : 0
      }
   ]
}

