{
   "revisions" : [
      {
         "timestamp" : 1440178026,
         "uid" : 339,
         "promote" : 0,
         "log" : "",
         "sticky" : 0,
         "comment" : 1,
         "status" : 1,
         "field_revision" : {
            "title" : "Botanical Treasures from Duke's Hidden Library",
            "changed" : null,
            "langcode" : null,
            "uid" : 1,
            "status" : 1,
            "created" : null,
            "revision_translation_affected" : 1,
            "sticky" : 0,
            "default_langcode" : 1
         },
         "node_revision__body" : {
            "bundle" : "exhibit",
            "body_format" : "full_html",
            "delta" : 0,
            "deleted" : 0,
            "body_value" : "<p>An exhibit about the 800,000 preserved plant specimens housed in Duke's Herbarium (\"hidden library\"). It was curated by faculty, staff and students from Duke's Biology Department.</p>",
            "revision_id" : 10937,
            "langcode" : "und",
            "body_summary" : "",
            "entity_id" : 957
         },
         "vuuid" : "0ecc58d4-cdd2-42bf-8904-9051be223e45",
         "title" : "Botanical Treasures from Duke's Hidden Library",
         "node_revision__field_tags" : []
      }
   ],
   "node__body" : {
      "body_format" : "full_html",
      "delta" : 0,
      "bundle" : "exhibit",
      "deleted" : 0,
      "revision_id" : 10937,
      "body_value" : "<p>An exhibit about the 800,000 preserved plant specimens housed in Duke's Herbarium (\"hidden library\"). It was curated by faculty, staff and students from Duke's Biology Department.</p>",
      "body_summary" : "",
      "entity_id" : 957,
      "langcode" : "und"
   },
   "vid" : 10937,
   "field_image" : {
      "file_uuid" : "94385902-eff6-4d76-9bf0-31bd943fe44b",
      "language" : "und",
      "deleted" : 0,
      "field_image_fid" : 1537,
      "revision_id" : 10937,
      "field_image_target_id" : 1537,
      "entity_id" : 957,
      "field_image_title" : "",
      "field_image_width" : 451,
      "field_image_alt" : "",
      "delta" : 0,
      "bundle" : "exhibit",
      "entity_type" : "node",
      "field_image_height" : 600,
      "langcode" : "und"
   },
   "nid" : "957",
   "asidebox" : null,
   "langcode" : "und",
   "uuid" : "ef5e006e-f105-47ba-80f1-46310d9d7c19",
   "type" : "exhibit",
   "node__field_image" : {},
   "field_tags" : [],
   "path_alias" : {
      "language" : "und",
      "pid" : 1443,
      "alias" : "/exhibits/2013/herbarium",
      "status" : 0,
      "langcode" : "und"
   },
   "node_field_data" : {
      "default_langcode" : 1,
      "sticky" : 0,
      "created" : 1438187345,
      "status" : 1,
      "title" : "Botanical Treasures from Duke's Hidden Library",
      "revision_translation_affected" : 1,
      "langcode" : "und",
      "uid" : 1,
      "changed" : null,
      "promote" : 0,
      "type" : "exhibit"
   },
   "node_access" : {
      "gid" : 0,
      "realm" : "all",
      "langcode" : "und",
      "grant_delete" : 0,
      "nid" : 957,
      "grant_update" : 0,
      "grant_view" : 1
   }
}

