{
   "node_access" : null,
   "asidebox" : {
      "block_delta" : null,
      "status" : "html",
      "body_title" : "More Information ",
      "nid" : 264,
      "vid" : 18297,
      "bid" : null,
      "body_format" : "full_html",
      "body_value" : "<h4>Contact Us</h4><p><strong>Winston Atkins,&nbsp;Preservation Officer&nbsp;</strong></p><p>Email:&nbsp;<a href=\"mailto:winston.atkins@duke.edu\">winston.atkins@duke.edu</a>&nbsp;</p><p>Telephone:&nbsp;<a href=\"tel:9196605843\">(919) 660-5843</a></p><h4>Location</h4><p>034 Perkins Library&nbsp;<br>Campus Box 90189&nbsp;<br>Durham, NC 27708-0189</p><h4>Learn More</h4><p style=\"text-align: left;\">Visit the <a href=\"/about/depts/conservation\">Conservation Services Department's page</a> to learn how our conservators treat books and manuscripts in the Duke University Libraries' circulating and special collections.</p><p>&nbsp;</p>",
      "block_module" : null
   },
   "nid" : "264",
   "field_tags" : [],
   "path_alias" : {
      "language" : "und",
      "pid" : 438,
      "alias" : "/about/depts/preservation",
      "langcode" : "und",
      "status" : 0
   },
   "node_field_data" : {
      "changed" : null,
      "promote" : 0,
      "type" : "about_page",
      "revision_translation_affected" : 1,
      "langcode" : "und",
      "uid" : 1,
      "title" : "Preservation Department",
      "default_langcode" : 1,
      "sticky" : 0,
      "created" : 1376667895,
      "status" : 1
   },
   "field_image" : null,
   "type" : "about_page",
   "node__body" : {
      "deleted" : 0,
      "bundle" : "about_page",
      "body_format" : "full_html",
      "delta" : 0,
      "body_value" : "<p>The Preservation Department maintains Duke University’s scholarly resources for a wide range of scholars. Our four main areas of responsibility are:</p><h3>Preservation &amp; curation of digital resources</h3><p>As academic research and publication increases its reliance on computer-driven technologies, the Preservation Department is helping build services and infrastructure for the Duke University Libraries and the university community. &nbsp;&nbsp;</p><h3>Transferring obsolete or damaged materials to useable formats</h3><p>Played an 8-track tape recently? Didn't think so. Our collections include a variety of formats. Inevitably, age or newer technologies mean that some resources become unusable. To&nbsp; improve our users' library experience, the Preservation Department helps transfer these materials into digital formats that better suit their needs.</p><h3>Core preservation services</h3><p>Even as Duke University Libraries increase our range of digital resources, we continue to maintain our collections of books (5.6 million volumes), manuscripts (20 million pages) and sizeable collections of photographic and audio-video materials. Our direct responsibilities include emergency response planning and support, as well as monitoring our buildings' temperature and humidity levels.</p><h3>Education &amp; outreach</h3><p>Formats that were curiosities a few years ago are critical sources for research and publication now. If we do not understand the characteristics that make those formats significant, we cannot curate them effectively. Many of the Preservation Department’s outreach activities give librarians and the university community the opportunity to discuss these complex materials with the researchers who use them.</p><hr><h3></h3><h3>Additional resources</h3><ul><li><p>Duke University Libraries&nbsp;<a href=\"https://tinyurl.com/k88snw9\">emergency response information</a>&nbsp;(staff only)&nbsp;</p></li><li><p>Monitoring severe weather (<a href=\"https://www.wunderground.com/tropical/\">Weather Underground</a>,&nbsp;<a href=\"https://www.nhc.noaa.gov/\">NOAA</a>)&nbsp;</p></li><li>Duke University&nbsp;<a href=\"https://www.hr.duke.edu/policies/expectations/severe_weather/index.php\">severe weather &amp; emergency guidelines</a>.</li></ul>",
      "revision_id" : 18297,
      "body_summary" : "",
      "entity_id" : 264,
      "langcode" : "und"
   },
   "vid" : 18297,
   "uuid" : "f16169b9-41e4-4ec0-848e-129221969992",
   "langcode" : "und",
   "revisions" : [
      {
         "sticky" : 0,
         "comment" : 1,
         "log" : "",
         "status" : 1,
         "field_revision" : {
            "title" : "Preservation Department",
            "changed" : null,
            "langcode" : null,
            "uid" : 1,
            "status" : 1,
            "created" : null,
            "sticky" : 0,
            "revision_translation_affected" : 1,
            "default_langcode" : 1
         },
         "node_revision__body" : {
            "body_format" : "full_html",
            "delta" : 0,
            "bundle" : "about_page",
            "deleted" : 0,
            "revision_id" : 18297,
            "body_value" : "<p>The Preservation Department maintains Duke University’s scholarly resources for a wide range of scholars. Our four main areas of responsibility are:</p><h3>Preservation &amp; curation of digital resources</h3><p>As academic research and publication increases its reliance on computer-driven technologies, the Preservation Department is helping build services and infrastructure for the Duke University Libraries and the university community. &nbsp;&nbsp;</p><h3>Transferring obsolete or damaged materials to useable formats</h3><p>Played an 8-track tape recently? Didn't think so. Our collections include a variety of formats. Inevitably, age or newer technologies mean that some resources become unusable. To&nbsp; improve our users' library experience, the Preservation Department helps transfer these materials into digital formats that better suit their needs.</p><h3>Core preservation services</h3><p>Even as Duke University Libraries increase our range of digital resources, we continue to maintain our collections of books (5.6 million volumes), manuscripts (20 million pages) and sizeable collections of photographic and audio-video materials. Our direct responsibilities include emergency response planning and support, as well as monitoring our buildings' temperature and humidity levels.</p><h3>Education &amp; outreach</h3><p>Formats that were curiosities a few years ago are critical sources for research and publication now. If we do not understand the characteristics that make those formats significant, we cannot curate them effectively. Many of the Preservation Department’s outreach activities give librarians and the university community the opportunity to discuss these complex materials with the researchers who use them.</p><hr><h3></h3><h3>Additional resources</h3><ul><li><p>Duke University Libraries&nbsp;<a href=\"https://tinyurl.com/k88snw9\">emergency response information</a>&nbsp;(staff only)&nbsp;</p></li><li><p>Monitoring severe weather (<a href=\"https://www.wunderground.com/tropical/\">Weather Underground</a>,&nbsp;<a href=\"https://www.nhc.noaa.gov/\">NOAA</a>)&nbsp;</p></li><li>Duke University&nbsp;<a href=\"https://www.hr.duke.edu/policies/expectations/severe_weather/index.php\">severe weather &amp; emergency guidelines</a>.</li></ul>",
            "body_summary" : "",
            "entity_id" : 264,
            "langcode" : "und"
         },
         "vuuid" : "dafe0f26-746e-416e-b6ba-0b7af966530d",
         "title" : "Preservation Department",
         "node_revision__field_tags" : [],
         "timestamp" : 1506609583,
         "uid" : 3,
         "promote" : 0
      }
   ]
}

