{
   "vid" : 19555,
   "node__body" : {
      "langcode" : "und",
      "body_summary" : "",
      "entity_id" : 1801,
      "deleted" : 0,
      "delta" : 0,
      "body_format" : "full_html",
      "bundle" : "exhibit",
      "body_value" : "<p>Photographs by Lauren Pond, 2016 Winner of the CDS/Honickman First Book Prize in Photography</p><p>Lauren Pond was chosen by curator Peter Barberie, to win the eighth biennial Center for Documentary Studies/Honickman First Book Prize in Photography for her series Test of Faith. The images document, as Pond writes, “a family of Pentecostal Holiness serpent handlers that I have photographed since 2011.”</p><p>“Serpent handlers, also known as Signs Followers, hold a literal interpretation of a verse in the New Testament’s Gospel of Mark, which states that, among other abilities, true believers shall be able to ‘take up serpents.’ Despite scores of deaths from snakebites and the closure of numerous churches, there remains a small contingent of serpent handlers devoted to keeping the practice alive.</p><p>“Who are the serpent handlers? What motivates them to keep going? These are questions that I sought to answer when I first traveled to West Virginia and met Pastor Randy “Mack” Wolford, one of the best-known Signs Following preachers in the region. I spent the following year getting to know him and his family, but the course of my project changed dramatically in May 2012 when Mack, then forty-four years old, was bitten by a rattlesnake during a worship service I attended.”</p><p>Lauren Pond, a documentary photographer who specializes in faith and religion, is currently the multimedia content producer for the American Religious Sounds Project within The Ohio State University's Center for the Study of Religion. She also manages an art gallery and works on freelance projects across the country.</p><p>The CDS/Honickman First Book Prize in Photography is awarded by the Center for Documentary Studies at Duke University and the Honickman Foundation. Book available through Duke University Press.</p><p>IMAGE: Pastor Mack Wolford’s yellow timber rattlesnake Old Yeller slithers around his neck during an outdoor worship service, Panther, West Virginia, May 2011. Photograph by Lauren Pond.</p>",
      "revision_id" : 19555
   },
   "field_image" : {
      "field_image_title" : "",
      "entity_id" : 1801,
      "field_image_target_id" : 3329,
      "field_image_fid" : 3329,
      "revision_id" : 19555,
      "deleted" : 0,
      "file_uuid" : "f4bca2ce-1a50-410d-9fef-148cfdb5159f",
      "language" : "und",
      "langcode" : "und",
      "field_image_height" : 403,
      "entity_type" : "node",
      "bundle" : "exhibit",
      "delta" : 0,
      "field_image_alt" : "",
      "field_image_width" : 600
   },
   "revisions" : [
      {
         "timestamp" : 1538503542,
         "uid" : 3,
         "promote" : 0,
         "comment" : 1,
         "sticky" : 0,
         "log" : "",
         "field_revision" : {
            "title" : "Test of Faith",
            "changed" : null,
            "created" : null,
            "uid" : 1,
            "status" : 1,
            "langcode" : null,
            "default_langcode" : 1,
            "sticky" : 0,
            "revision_translation_affected" : 1
         },
         "status" : 1,
         "node_revision__body" : {
            "body_value" : "<p>Photographs by Lauren Pond, 2016 Winner of the CDS/Honickman First Book Prize in Photography</p><p>Lauren Pond was chosen by curator Peter Barberie, to win the eighth biennial Center for Documentary Studies/Honickman First Book Prize in Photography for her series Test of Faith. The images document, as Pond writes, “a family of Pentecostal Holiness serpent handlers that I have photographed since 2011.”</p><p>“Serpent handlers, also known as Signs Followers, hold a literal interpretation of a verse in the New Testament’s Gospel of Mark, which states that, among other abilities, true believers shall be able to ‘take up serpents.’ Despite scores of deaths from snakebites and the closure of numerous churches, there remains a small contingent of serpent handlers devoted to keeping the practice alive.</p><p>“Who are the serpent handlers? What motivates them to keep going? These are questions that I sought to answer when I first traveled to West Virginia and met Pastor Randy “Mack” Wolford, one of the best-known Signs Following preachers in the region. I spent the following year getting to know him and his family, but the course of my project changed dramatically in May 2012 when Mack, then forty-four years old, was bitten by a rattlesnake during a worship service I attended.”</p><p>Lauren Pond, a documentary photographer who specializes in faith and religion, is currently the multimedia content producer for the American Religious Sounds Project within The Ohio State University's Center for the Study of Religion. She also manages an art gallery and works on freelance projects across the country.</p><p>The CDS/Honickman First Book Prize in Photography is awarded by the Center for Documentary Studies at Duke University and the Honickman Foundation. Book available through Duke University Press.</p><p>IMAGE: Pastor Mack Wolford’s yellow timber rattlesnake Old Yeller slithers around his neck during an outdoor worship service, Panther, West Virginia, May 2011. Photograph by Lauren Pond.</p>",
            "revision_id" : 19555,
            "deleted" : 0,
            "body_format" : "full_html",
            "bundle" : "exhibit",
            "delta" : 0,
            "entity_id" : 1801,
            "body_summary" : "",
            "langcode" : "und"
         },
         "node_revision__field_tags" : [],
         "vuuid" : "1cac556c-a288-42ae-9763-ed360e4da123",
         "title" : "Test of Faith"
      }
   ],
   "nid" : "1801",
   "asidebox" : null,
   "uuid" : "f348aedf-95a3-4906-80ec-08bc87d94961",
   "type" : "exhibit",
   "langcode" : "und",
   "node_field_data" : {
      "revision_translation_affected" : 1,
      "uid" : 1,
      "langcode" : "und",
      "promote" : 0,
      "changed" : null,
      "type" : "exhibit",
      "default_langcode" : 1,
      "sticky" : 0,
      "created" : 1510863641,
      "status" : 1,
      "title" : "Test of Faith"
   },
   "path_alias" : {
      "status" : 0,
      "langcode" : "und",
      "language" : "und",
      "pid" : 3853,
      "alias" : "/exhibits/2017/laurenpond"
   },
   "field_tags" : [],
   "node_access" : null,
   "node__field_image" : {}
}

