{
   "asidebox" : {
      "status" : "html",
      "block_delta" : null,
      "body_format" : "full_html",
      "body_value" : "<ul><li>Do not rely on printed copies of the links on this page.</li><li>We revise these online documents reguarly.</li><li>We announce major changes only.&nbsp;</li></ul>",
      "block_module" : null,
      "nid" : 204,
      "body_title" : "Please Note",
      "vid" : 21775,
      "bid" : null
   },
   "node_access" : null,
   "field_tags" : [],
   "node_field_data" : {
      "type" : "about_page",
      "promote" : 0,
      "changed" : null,
      "uid" : 1,
      "langcode" : "und",
      "revision_translation_affected" : 1,
      "title" : "Monographic cataloging policies and procedures",
      "created" : 1376062447,
      "status" : 1,
      "default_langcode" : 1,
      "sticky" : 0
   },
   "path_alias" : {
      "language" : "und",
      "pid" : 376,
      "alias" : "/about/depts/cataloging/documentation",
      "status" : 0,
      "langcode" : "und"
   },
   "nid" : "204",
   "langcode" : "und",
   "revisions" : [
      {
         "field_revision" : {
            "uid" : 1,
            "langcode" : null,
            "status" : 1,
            "created" : null,
            "revision_translation_affected" : 1,
            "sticky" : 0,
            "default_langcode" : 1,
            "title" : "Monographic cataloging policies and procedures",
            "changed" : null
         },
         "status" : 1,
         "log" : "",
         "comment" : 1,
         "sticky" : 0,
         "node_revision__field_tags" : [],
         "title" : "Monographic cataloging policies and procedures",
         "vuuid" : "e466fbc7-d84a-404d-aa4f-549c276366ba",
         "node_revision__body" : {
            "langcode" : "und",
            "body_summary" : "",
            "entity_id" : 204,
            "body_format" : "full_html",
            "delta" : 0,
            "bundle" : "about_page",
            "deleted" : 0,
            "revision_id" : 21775,
            "body_value" : "<p id=\"pageTitle\">This page includes online documents used by CatS and by copy catalogers and is created and maintained by the Monographic Cataloging Documentation Group, whose members are the following:</p><div id=\"pageContentProper\"><div class=\"pageSection\"><ul><li>Holly Chang</li><li>Miree Ku</li><li>Cathy Leonardi</li><li>Lesley Looper</li><li>Nanako Thomas</li><li>Amy Turner, chair</li></ul></div><div class=\"pageSection\"><h1 id=\"pageTitle\">Most used documents</h1></div><div class=\"pageSection\">Find links to our most used documents below. Some documents are in specialized sections on SharePoint, such as the <a href=\"https://sharepoint.oit.duke.edu/sites/perkins/catS/SitePages/Home.aspx\">CatS</a> and<a href=\"https://sharepoint.oit.duke.edu/sites/perkins/rms/SitePages/Home.aspx\"> </a><a href=\"https://sharepoint-2013.oit.duke.edu/sites/perkins/Shelf-Preparation/SitePages/Home.aspx\">Shelf Preparation</a> sites .&nbsp;</div><div class=\"pageSection\">&nbsp;</div><div class=\"pageSection\">&nbsp;</div><div class=\"pageSection\"><a href=\"/about/depts/cataloging/documentation/aleph-collections-chart\">Aleph collections chart</a></div><div class=\"pageSection\">&nbsp;</div><div class=\"pageSection\"><a href=\"/about/depts/cataloging/documentation/duke-authority-control-lti\">Authority control with LTI&nbsp;</a></div><div class=\"pageSection\">&nbsp;</div><div class=\"pageSection\">Call numbers&nbsp;</div><div class=\"pageSection\">&nbsp; &nbsp; &nbsp;<a href=\"https://library.duke.edu/about/depts/cataloging/documentation/call-numbers\">Classification policy &amp; accepting and creating LC classification numbers</a></div><p style=\"box-sizing: border-box; margin-top: 0px; margin-bottom: 12px; color: #333333; font-family: 'Source Sans Pro', Calibri, Candara, Arial, sans-serif; font-size: 17px;\">&nbsp; &nbsp; &nbsp; <a href=\"/about/depts/cataloging/documentation/852-indicators-and-formatting-852-field-and-description-item-record\">852 indicators, formatting the 852 field and the description in the item record&nbsp;</a> &nbsp;<br>&nbsp; &nbsp; &nbsp; <a href=\"/about/depts/cataloging/documentation/common-patterns-lc-numbers\">Common patterns of LC call numbers</a><br>&nbsp; &nbsp; &nbsp; <a href=\"/about/depts/cataloging/documentation/dates-in-lc-call-numbers\">Dates in LC call numbers</a><br>&nbsp; &nbsp; <a href=\"/about/depts/cataloging/documentation/appearance-call-number-labels\">&nbsp;&nbsp;Appearance of call number labels</a><a href=\"about/depts/cataloging/documentation/appearance-call-number-labels\"><br></a>&nbsp; &nbsp; &nbsp; <a href=\"/about/depts/cataloging/documentation/correction-of-duplicate-call-numbers\">Correction of duplicate call numbers</a></p><p style=\"box-sizing: border-box; margin-top: 0px; margin-bottom: 12px; color: #333333; font-family: 'Source Sans Pro', Calibri, Candara, Arial, sans-serif; font-size: 17px;\"><a href=\"/about/depts/cataloging/documentation/copy-cataloging\" style=\"font-family: 'Lucida Grande', 'Lucida Sans Unicode', sans-serif; font-size: 13.008px;\">Copy cataloging</a> (Note that examples link to SharePoint)</p><p class=\"pageColumn\"><a href=\"/about/depts/cataloging/documentation/editions-printings-duplicates\">Editions, printings &amp; duplicates</a></p><p class=\"pageColumn\"><a href=\"/about/depts/cataloging/documentation/electronicplates\">Electronic gift plates</a></p><p class=\"pageColumn\"><a href=\"/about/depts/cataloging/documentation/multiple-physical-pieces\">Multiple physical pieces</a> (Includes materials in pockets, added copies, added locations,&nbsp;sets for ERSM and CatS.&nbsp; See also&nbsp;copy cataloging documentation on sets</p><p class=\"pageSection\"><a href=\"/about/depts/cataloging/documentation/naco-duke\" title=\"NACO\">NACO at Duke</a></p><p class=\"pageSection\"><a href=\"/about/depts/cataloging/documentation/past-practices\">Past practices</a>&nbsp; (A few reminders of what we don't do any more)</p><p class=\"pageSection\"><a href=\"/about/depts/cataloging/documentation/rda\" title=\"rda\">RDA</a></p><p class=\"pageSection\"><a href=\"/about/depts/cataloging/documentation/searching-OCLC-and-Aleph\">Searching Aleph and OCLC</a></p><p class=\"pageSection\"><a href=\"/about/depts/cataloging/documentation/standards\">Standards</a></p><p class=\"pageSection\">Workflow <br>&nbsp;&nbsp;&nbsp;&nbsp;&nbsp;&nbsp;&nbsp;&nbsp; <a href=\"/about/depts/cataloging/documentation/workflow%20%20%20%20%20\">Statistics and macros</a><br>&nbsp;&nbsp;&nbsp;&nbsp;&nbsp;&nbsp;&nbsp;&nbsp; <a href=\"/about/depts/cataloging/documentation/barcodes-and-item-and-holdings-basics\">Barcoding and item &amp; holding record basics</a><br>&nbsp;&nbsp;&nbsp;&nbsp;&nbsp;&nbsp;&nbsp;&nbsp; <a href=\"/about/depts/cataloging/documentation/overlay\">Overlay</a><br>&nbsp;&nbsp; &nbsp;&nbsp;&nbsp;&nbsp;&nbsp;<a href=\"about/depts/cataloging/documentation/Treatment-Needs-for-Physical-Materials\"> </a><a href=\"/about/depts/cataloging/documentation/Treatment-Needs-for-Physical-Materials\">Guidelines for determining treatment needs for physical materials&nbsp;</a>&nbsp;&nbsp;<a href=\"about/depts/cataloging/documentation/Treatment-Needs-for-Physical-Materials\"><br>&nbsp; &nbsp; &nbsp; &nbsp;&nbsp;</a> <a href=\"/about/depts/cataloging/where-put-what\">Where to put what&nbsp; </a><a href=\"about/depts/cataloging/documentation/Treatment-Needs-for-Physical-Materials\"><br>&nbsp;&nbsp;&nbsp;&nbsp;&nbsp;&nbsp;&nbsp;&nbsp; </a><a href=\"/about/depts/cataloging/documentation/rush\">Rush and notify</a><br>&nbsp;&nbsp;&nbsp;&nbsp;&nbsp;&nbsp;&nbsp;&nbsp; <a href=\"/about/depts/cataloging/documentation/post-cataloging\">Post cataloging</a></p><p class=\"pageSection\"></p></div>"
         },
         "uid" : 56,
         "timestamp" : 1523192079,
         "promote" : 0
      }
   ],
   "field_image" : null,
   "type" : "about_page",
   "vid" : 21775,
   "node__body" : {
      "body_format" : "full_html",
      "delta" : 0,
      "bundle" : "about_page",
      "deleted" : 0,
      "revision_id" : 21775,
      "body_value" : "<p id=\"pageTitle\">This page includes online documents used by CatS and by copy catalogers and is created and maintained by the Monographic Cataloging Documentation Group, whose members are the following:</p><div id=\"pageContentProper\"><div class=\"pageSection\"><ul><li>Holly Chang</li><li>Miree Ku</li><li>Cathy Leonardi</li><li>Lesley Looper</li><li>Nanako Thomas</li><li>Amy Turner, chair</li></ul></div><div class=\"pageSection\"><h1 id=\"pageTitle\">Most used documents</h1></div><div class=\"pageSection\">Find links to our most used documents below. Some documents are in specialized sections on SharePoint, such as the <a href=\"https://sharepoint.oit.duke.edu/sites/perkins/catS/SitePages/Home.aspx\">CatS</a> and<a href=\"https://sharepoint.oit.duke.edu/sites/perkins/rms/SitePages/Home.aspx\"> </a><a href=\"https://sharepoint-2013.oit.duke.edu/sites/perkins/Shelf-Preparation/SitePages/Home.aspx\">Shelf Preparation</a> sites .&nbsp;</div><div class=\"pageSection\">&nbsp;</div><div class=\"pageSection\">&nbsp;</div><div class=\"pageSection\"><a href=\"/about/depts/cataloging/documentation/aleph-collections-chart\">Aleph collections chart</a></div><div class=\"pageSection\">&nbsp;</div><div class=\"pageSection\"><a href=\"/about/depts/cataloging/documentation/duke-authority-control-lti\">Authority control with LTI&nbsp;</a></div><div class=\"pageSection\">&nbsp;</div><div class=\"pageSection\">Call numbers&nbsp;</div><div class=\"pageSection\">&nbsp; &nbsp; &nbsp;<a href=\"https://library.duke.edu/about/depts/cataloging/documentation/call-numbers\">Classification policy &amp; accepting and creating LC classification numbers</a></div><p style=\"box-sizing: border-box; margin-top: 0px; margin-bottom: 12px; color: #333333; font-family: 'Source Sans Pro', Calibri, Candara, Arial, sans-serif; font-size: 17px;\">&nbsp; &nbsp; &nbsp; <a href=\"/about/depts/cataloging/documentation/852-indicators-and-formatting-852-field-and-description-item-record\">852 indicators, formatting the 852 field and the description in the item record&nbsp;</a> &nbsp;<br>&nbsp; &nbsp; &nbsp; <a href=\"/about/depts/cataloging/documentation/common-patterns-lc-numbers\">Common patterns of LC call numbers</a><br>&nbsp; &nbsp; &nbsp; <a href=\"/about/depts/cataloging/documentation/dates-in-lc-call-numbers\">Dates in LC call numbers</a><br>&nbsp; &nbsp; <a href=\"/about/depts/cataloging/documentation/appearance-call-number-labels\">&nbsp;&nbsp;Appearance of call number labels</a><a href=\"about/depts/cataloging/documentation/appearance-call-number-labels\"><br></a>&nbsp; &nbsp; &nbsp; <a href=\"/about/depts/cataloging/documentation/correction-of-duplicate-call-numbers\">Correction of duplicate call numbers</a></p><p style=\"box-sizing: border-box; margin-top: 0px; margin-bottom: 12px; color: #333333; font-family: 'Source Sans Pro', Calibri, Candara, Arial, sans-serif; font-size: 17px;\"><a href=\"/about/depts/cataloging/documentation/copy-cataloging\" style=\"font-family: 'Lucida Grande', 'Lucida Sans Unicode', sans-serif; font-size: 13.008px;\">Copy cataloging</a> (Note that examples link to SharePoint)</p><p class=\"pageColumn\"><a href=\"/about/depts/cataloging/documentation/editions-printings-duplicates\">Editions, printings &amp; duplicates</a></p><p class=\"pageColumn\"><a href=\"/about/depts/cataloging/documentation/electronicplates\">Electronic gift plates</a></p><p class=\"pageColumn\"><a href=\"/about/depts/cataloging/documentation/multiple-physical-pieces\">Multiple physical pieces</a> (Includes materials in pockets, added copies, added locations,&nbsp;sets for ERSM and CatS.&nbsp; See also&nbsp;copy cataloging documentation on sets</p><p class=\"pageSection\"><a href=\"/about/depts/cataloging/documentation/naco-duke\" title=\"NACO\">NACO at Duke</a></p><p class=\"pageSection\"><a href=\"/about/depts/cataloging/documentation/past-practices\">Past practices</a>&nbsp; (A few reminders of what we don't do any more)</p><p class=\"pageSection\"><a href=\"/about/depts/cataloging/documentation/rda\" title=\"rda\">RDA</a></p><p class=\"pageSection\"><a href=\"/about/depts/cataloging/documentation/searching-OCLC-and-Aleph\">Searching Aleph and OCLC</a></p><p class=\"pageSection\"><a href=\"/about/depts/cataloging/documentation/standards\">Standards</a></p><p class=\"pageSection\">Workflow <br>&nbsp;&nbsp;&nbsp;&nbsp;&nbsp;&nbsp;&nbsp;&nbsp; <a href=\"/about/depts/cataloging/documentation/workflow%20%20%20%20%20\">Statistics and macros</a><br>&nbsp;&nbsp;&nbsp;&nbsp;&nbsp;&nbsp;&nbsp;&nbsp; <a href=\"/about/depts/cataloging/documentation/barcodes-and-item-and-holdings-basics\">Barcoding and item &amp; holding record basics</a><br>&nbsp;&nbsp;&nbsp;&nbsp;&nbsp;&nbsp;&nbsp;&nbsp; <a href=\"/about/depts/cataloging/documentation/overlay\">Overlay</a><br>&nbsp;&nbsp; &nbsp;&nbsp;&nbsp;&nbsp;&nbsp;<a href=\"about/depts/cataloging/documentation/Treatment-Needs-for-Physical-Materials\"> </a><a href=\"/about/depts/cataloging/documentation/Treatment-Needs-for-Physical-Materials\">Guidelines for determining treatment needs for physical materials&nbsp;</a>&nbsp;&nbsp;<a href=\"about/depts/cataloging/documentation/Treatment-Needs-for-Physical-Materials\"><br>&nbsp; &nbsp; &nbsp; &nbsp;&nbsp;</a> <a href=\"/about/depts/cataloging/where-put-what\">Where to put what&nbsp; </a><a href=\"about/depts/cataloging/documentation/Treatment-Needs-for-Physical-Materials\"><br>&nbsp;&nbsp;&nbsp;&nbsp;&nbsp;&nbsp;&nbsp;&nbsp; </a><a href=\"/about/depts/cataloging/documentation/rush\">Rush and notify</a><br>&nbsp;&nbsp;&nbsp;&nbsp;&nbsp;&nbsp;&nbsp;&nbsp; <a href=\"/about/depts/cataloging/documentation/post-cataloging\">Post cataloging</a></p><p class=\"pageSection\"></p></div>",
      "body_summary" : "",
      "entity_id" : 204,
      "langcode" : "und"
   },
   "uuid" : "f5dc89c9-3c33-4e1d-8d9b-d14610c424fc"
}

