{
   "asidebox" : null,
   "nid" : "1205",
   "revisions" : [
      {
         "promote" : 0,
         "timestamp" : 1538408026,
         "uid" : 3,
         "node_revision__body" : {
            "entity_id" : 1205,
            "body_summary" : "",
            "langcode" : "und",
            "body_value" : "<p><em>Intimate Gestures: Handmade Books by William Gedney</em> surveys the photographer’s little known practice of making photobooks by hand, a pursuit he was devoted to throughout his entire career. The exhibit features seven completed photobooks and four book projects that were in-progress at the time of Gedney’s death in 1989, as well as handmade journals and related ephemera. All of the books were conceived, designed, and constructed by Gedney and correspond to his major photographic series produced in Eastern Kentucky, New York, San Francisco, and Benares, India between 1954 and 1980.</p><p>While Gedney’s photographs have been exhibited internationally at venues such as the Center for Documentary Studies, George Eastman House, the Museum of Modern Art, the San Francisco Museum of Modern Art, and the Museo Nacional Centro de Arte Reina Sofía, Intimate Gestures is the first exhibit to highlight Gedney’s work in book form and the first time his entire collection of handmade books have been publically displayed.</p><p>The exhibition is curated by Lisa McCarty, Curator of the Archive of Documentary Arts, David M. Rubenstein Rare Book &amp; Manuscript Library.</p>",
            "revision_id" : 11693,
            "deleted" : 0,
            "body_format" : "full_html",
            "bundle" : "exhibit",
            "delta" : 0
         },
         "node_revision__field_tags" : [],
         "vuuid" : "da7b2a34-ae41-4031-a495-a9e3b2949087",
         "title" : "Intimate Gestures",
         "log" : "",
         "comment" : 1,
         "sticky" : 0,
         "field_revision" : {
            "changed" : null,
            "title" : "Intimate Gestures",
            "default_langcode" : 1,
            "sticky" : 0,
            "revision_translation_affected" : 1,
            "created" : null,
            "uid" : 1,
            "status" : 1,
            "langcode" : null
         },
         "status" : 1
      }
   ],
   "field_image" : {
      "langcode" : "und",
      "entity_type" : "node",
      "field_image_height" : 399,
      "delta" : 0,
      "bundle" : "exhibit",
      "field_image_width" : 800,
      "field_image_alt" : "",
      "field_image_title" : "",
      "field_image_target_id" : 1793,
      "entity_id" : 1205,
      "deleted" : 0,
      "revision_id" : 11693,
      "field_image_fid" : 1793,
      "file_uuid" : "90b1938b-3cbc-4297-9ed2-3d1414943aff",
      "language" : "und"
   },
   "vid" : 11693,
   "node__body" : {
      "revision_id" : 11693,
      "body_value" : "<p><em>Intimate Gestures: Handmade Books by William Gedney</em> surveys the photographer’s little known practice of making photobooks by hand, a pursuit he was devoted to throughout his entire career. The exhibit features seven completed photobooks and four book projects that were in-progress at the time of Gedney’s death in 1989, as well as handmade journals and related ephemera. All of the books were conceived, designed, and constructed by Gedney and correspond to his major photographic series produced in Eastern Kentucky, New York, San Francisco, and Benares, India between 1954 and 1980.</p><p>While Gedney’s photographs have been exhibited internationally at venues such as the Center for Documentary Studies, George Eastman House, the Museum of Modern Art, the San Francisco Museum of Modern Art, and the Museo Nacional Centro de Arte Reina Sofía, Intimate Gestures is the first exhibit to highlight Gedney’s work in book form and the first time his entire collection of handmade books have been publically displayed.</p><p>The exhibition is curated by Lisa McCarty, Curator of the Archive of Documentary Arts, David M. Rubenstein Rare Book &amp; Manuscript Library.</p>",
      "deleted" : 0,
      "body_format" : "full_html",
      "delta" : 0,
      "bundle" : "exhibit",
      "entity_id" : 1205,
      "body_summary" : "",
      "langcode" : "und"
   },
   "node__field_image" : {},
   "node_access" : null,
   "path_alias" : {
      "status" : 0,
      "langcode" : "und",
      "language" : "und",
      "pid" : 1721,
      "alias" : "/exhibits/2015/gedney"
   },
   "node_field_data" : {
      "revision_translation_affected" : 1,
      "langcode" : "und",
      "uid" : 1,
      "promote" : 0,
      "changed" : null,
      "type" : "exhibit",
      "sticky" : 0,
      "default_langcode" : 1,
      "status" : 1,
      "created" : 1446484024,
      "title" : "Intimate Gestures"
   },
   "field_tags" : [],
   "langcode" : "und",
   "type" : "exhibit",
   "uuid" : "f6833481-b909-42f3-a600-aab902e574ca"
}

