{
   "field_tags" : [],
   "node_field_data" : {
      "default_langcode" : 1,
      "sticky" : 0,
      "created" : 1434640781,
      "status" : 0,
      "title" : "Copyright for Images",
      "revision_translation_affected" : 1,
      "uid" : 1,
      "langcode" : "und",
      "changed" : null,
      "promote" : 0,
      "type" : "library_services_page"
   },
   "path_alias" : {
      "alias" : "/research/image-collections-scholarship/copyright-images",
      "pid" : 1343,
      "language" : "und",
      "langcode" : "und",
      "status" : 0
   },
   "nid" : "863",
   "asidebox" : null,
   "node_access" : {
      "realm" : "view_unpublished_content",
      "langcode" : "und",
      "grant_delete" : 0,
      "gid" : 1,
      "grant_update" : 0,
      "grant_view" : 1,
      "nid" : 863
   },
   "node__body" : {
      "body_value" : "<table border=\"0\"><tbody><tr><td><img src=\"/sites/default/files/dul/studying.jpg\" height=\"390\" width=\"725\"></td><td></td></tr><tr><td></td><td></td></tr></tbody></table>",
      "revision_id" : 10469,
      "body_format" : "full_html",
      "delta" : 0,
      "bundle" : "library_services_page",
      "deleted" : 0,
      "entity_id" : 863,
      "body_summary" : "",
      "langcode" : "und"
   },
   "vid" : 10469,
   "uuid" : "f798c1bd-1813-43fc-ac73-29ce933ed519",
   "field_image" : null,
   "type" : "library_services_page",
   "revisions" : [
      {
         "timestamp" : 1434642624,
         "uid" : 48,
         "promote" : 0,
         "log" : "",
         "sticky" : 0,
         "comment" : 1,
         "status" : 0,
         "field_revision" : {
            "revision_translation_affected" : 1,
            "sticky" : 0,
            "default_langcode" : 1,
            "langcode" : null,
            "uid" : 1,
            "status" : 0,
            "created" : null,
            "changed" : null,
            "title" : "Copyright for Images"
         },
         "node_revision__body" : {
            "body_value" : "<table border=\"0\"><tbody><tr><td><img src=\"/sites/default/files/dul/studying.jpg\" height=\"390\" width=\"725\"></td><td></td></tr><tr><td></td><td></td></tr></tbody></table>",
            "revision_id" : 10469,
            "bundle" : "library_services_page",
            "body_format" : "full_html",
            "delta" : 0,
            "deleted" : 0,
            "entity_id" : 863,
            "body_summary" : "",
            "langcode" : "und"
         },
         "title" : "Copyright for Images",
         "vuuid" : "e9ca85a6-2fd1-4727-b053-b6e682cf291e",
         "node_revision__field_tags" : []
      }
   ],
   "langcode" : "und"
}

