{
   "node_field_data" : {
      "langcode" : "und",
      "uid" : 1,
      "revision_translation_affected" : 1,
      "type" : "research_page",
      "changed" : null,
      "promote" : 0,
      "status" : 1,
      "created" : 1378237194,
      "sticky" : 0,
      "default_langcode" : 1,
      "title" : "Holsti Prize in Political Science and Public Policy"
   },
   "path_alias" : {
      "language" : "und",
      "pid" : 531,
      "alias" : "/research/awards/holsti",
      "status" : 0,
      "langcode" : "und"
   },
   "field_tags" : [],
   "nid" : "352",
   "asidebox" : {
      "body_format" : "full_html",
      "block_module" : null,
      "body_value" : "<ul><li><span style=\"font-size: 13.008px; line-height: 1.538em;\"><strong>Deadline for submissions is June 30, 2020</strong><br></span></li><li><span style=\"font-size: 13.008px; line-height: 1.538em;\">A signed faculty nomination form must accompany your paper </span></li><li><span style=\"font-size: 13.008px; line-height: 1.538em;\">An application form must also accompany your paper</span></li><li><span style=\"font-size: 13.008px; line-height: 1.538em;\">Email your paper as a PDF or Word Document and the signed nomination form to <a href=\"http://library.duke.edu/about/directory/staff/7579\">Ryan Denniston</a>, Librarian for Political Science and Public Policy</span></li></ul>",
      "nid" : 352,
      "body_title" : "The Basics",
      "bid" : null,
      "vid" : 29003,
      "status" : "html",
      "block_delta" : null
   },
   "node_access" : null,
   "uuid" : "f7a5eab5-f0fb-4318-995c-8d3f7adefb56",
   "node__body" : {
      "revision_id" : 29003,
      "body_value" : "<h2>What are the Holsti Prizes?</h2><p>Duke University Libraries awards the Ole R. Holsti Prizes for excellence in undergraduate research using <strong>primary sources</strong> for political science or public policy. &nbsp;Funding for the awards was provided by Ole Holsti, George V. Allen Professor Emeritus of Political Science at Duke University.</p><ul><li>One award is awarded to the best undergraduate paper written for a semester-long course.</li><li>One award is awarded to the best undergraduate thesis written for Graduation with Distinction.</li><li><strong>Each Prize carries a $1,000 cash award.</strong></li></ul><p>&nbsp;</p><h2>Is my paper eligible?</h2><ul><li>Your paper must have been written in the past academic year (last Summer through Spring terms of present year) and must be written for a course, thesis, or independent study in the Political Science or Public Policy departments.</li><li>You must be an undergraduate.</li><li>Primary soruces must be used in the paper. &nbsp;In these fields, primary sources include (but are not limited to):<ul><li>data sets</li><li>government documents</li><li>first-person accounts</li><li>public opinion polls</li><li>contemporaneous news</li></ul></li></ul><p>&nbsp;</p><h2>How do I apply?</h2><ul><li>If your paper is eligible, it must also be nominated by&nbsp;the faculty member or instructor for whom you wrote the paper using the&nbsp;<strong><a href=\"https://duke.app.box.com/s/umwf9e400ljhq07o8y230elsaq5v6r8i\">nomination form</a></strong>.&nbsp;</li><li>Email one clean copy of your paper (without your name, course, professor, grade, or marginal notes) as a PDF or Word document, the faculty nomination form, and a <strong><a href=\"https://duke.box.com/s/umwf9e400ljhq07o8y230elsaq5v6r8i\">completed application form</a> </strong>to <a href=\"/about/directory/staff/7579\">Ryan Denniston</a> , Librarian for Public Policy and Political Science. &nbsp;The nominating faculty member may also email or mail the nomination form himself or herself.</li><li>Papers should be double spaced and formatted with standard margins. &nbsp;Include all bibliography and appendices.</li><li>The deadline for submission is <span style=\"text-decoration: line-through;\">May 31</span> <strong>June 30</strong>.</li></ul><p>&nbsp;</p><h2>How is a winner chosen?</h2><p>Papers shall be judged based on students’ effective use of primary sources and research procedures, as evidenced by the following:</p><ul><li>sophistication or unusual depth or breadth in the identification, evaluation and use of primary sources</li><li>exceptional ability to integrate primary sources in a research project that shows originality and the potential to contribute to scholarship in the field</li><li>excellent writing style and thorough documentation</li></ul><p>&nbsp;</p>",
      "body_format" : "full_html",
      "delta" : 0,
      "bundle" : "research_page",
      "deleted" : 0,
      "langcode" : "und",
      "entity_id" : 352,
      "body_summary" : ""
   },
   "vid" : 29003,
   "type" : "research_page",
   "field_image" : null,
   "revisions" : [
      {
         "timestamp" : 1588869569,
         "uid" : 241,
         "promote" : 0,
         "sticky" : 0,
         "comment" : 1,
         "log" : "",
         "status" : 1,
         "field_revision" : {
            "changed" : null,
            "title" : "Holsti Prize in Political Science and Public Policy",
            "sticky" : 0,
            "revision_translation_affected" : 1,
            "default_langcode" : 1,
            "uid" : 1,
            "status" : 1,
            "langcode" : null,
            "created" : null
         },
         "node_revision__body" : {
            "langcode" : "und",
            "entity_id" : 352,
            "body_summary" : "",
            "body_value" : "<h2>What are the Holsti Prizes?</h2><p>Duke University Libraries awards the Ole R. Holsti Prizes for excellence in undergraduate research using <strong>primary sources</strong> for political science or public policy. &nbsp;Funding for the awards was provided by Ole Holsti, George V. Allen Professor Emeritus of Political Science at Duke University.</p><ul><li>One award is awarded to the best undergraduate paper written for a semester-long course.</li><li>One award is awarded to the best undergraduate thesis written for Graduation with Distinction.</li><li><strong>Each Prize carries a $1,000 cash award.</strong></li></ul><p>&nbsp;</p><h2>Is my paper eligible?</h2><ul><li>Your paper must have been written in the past academic year (last Summer through Spring terms of present year) and must be written for a course, thesis, or independent study in the Political Science or Public Policy departments.</li><li>You must be an undergraduate.</li><li>Primary soruces must be used in the paper. &nbsp;In these fields, primary sources include (but are not limited to):<ul><li>data sets</li><li>government documents</li><li>first-person accounts</li><li>public opinion polls</li><li>contemporaneous news</li></ul></li></ul><p>&nbsp;</p><h2>How do I apply?</h2><ul><li>If your paper is eligible, it must also be nominated by&nbsp;the faculty member or instructor for whom you wrote the paper using the&nbsp;<strong><a href=\"https://duke.app.box.com/s/umwf9e400ljhq07o8y230elsaq5v6r8i\">nomination form</a></strong>.&nbsp;</li><li>Email one clean copy of your paper (without your name, course, professor, grade, or marginal notes) as a PDF or Word document, the faculty nomination form, and a <strong><a href=\"https://duke.box.com/s/umwf9e400ljhq07o8y230elsaq5v6r8i\">completed application form</a> </strong>to <a href=\"/about/directory/staff/7579\">Ryan Denniston</a> , Librarian for Public Policy and Political Science. &nbsp;The nominating faculty member may also email or mail the nomination form himself or herself.</li><li>Papers should be double spaced and formatted with standard margins. &nbsp;Include all bibliography and appendices.</li><li>The deadline for submission is <span style=\"text-decoration: line-through;\">May 31</span> <strong>June 30</strong>.</li></ul><p>&nbsp;</p><h2>How is a winner chosen?</h2><p>Papers shall be judged based on students’ effective use of primary sources and research procedures, as evidenced by the following:</p><ul><li>sophistication or unusual depth or breadth in the identification, evaluation and use of primary sources</li><li>exceptional ability to integrate primary sources in a research project that shows originality and the potential to contribute to scholarship in the field</li><li>excellent writing style and thorough documentation</li></ul><p>&nbsp;</p>",
            "revision_id" : 29003,
            "delta" : 0,
            "body_format" : "full_html",
            "bundle" : "research_page",
            "deleted" : 0
         },
         "vuuid" : "dbe17c67-c336-420a-81e6-fd032bc55819",
         "title" : "Holsti Prize in Political Science and Public Policy",
         "node_revision__field_tags" : []
      }
   ],
   "langcode" : "und"
}

