{
   "vid" : 11059,
   "node__body" : {
      "body_summary" : "",
      "entity_id" : 1071,
      "langcode" : "und",
      "deleted" : 0,
      "body_format" : "full_html",
      "delta" : 0,
      "bundle" : "exhibit",
      "body_value" : "<p>This exhibition of materials from the SAF Archive of the Rubenstein Library Human Rights Collection demonstrates how SAF uses theatre, the visual arts, oral history, and documentary photography in teaching and outreach. The display includes props and videos of theatre productions; t-shirts, artists books and masks created by children of farmworkers, and artistic signs used in protest campaigns.</p>",
      "revision_id" : 11059
   },
   "field_image" : {
      "entity_type" : "node",
      "field_image_height" : 533,
      "langcode" : "und",
      "field_image_alt" : "",
      "field_image_width" : 800,
      "bundle" : "exhibit",
      "delta" : 0,
      "field_image_target_id" : 1647,
      "entity_id" : 1071,
      "field_image_title" : "",
      "language" : "und",
      "file_uuid" : "48ac9556-0bf7-42b0-bdd0-2b613ee32ac7",
      "deleted" : 0,
      "field_image_fid" : 1647,
      "revision_id" : 11059
   },
   "revisions" : [
      {
         "node_revision__field_tags" : [],
         "title" : "The Art of SAF",
         "vuuid" : "9c333225-8c84-4cad-985b-f833dce00913",
         "node_revision__body" : {
            "delta" : 0,
            "body_format" : "full_html",
            "bundle" : "exhibit",
            "deleted" : 0,
            "body_value" : "<p>This exhibition of materials from the SAF Archive of the Rubenstein Library Human Rights Collection demonstrates how SAF uses theatre, the visual arts, oral history, and documentary photography in teaching and outreach. The display includes props and videos of theatre productions; t-shirts, artists books and masks created by children of farmworkers, and artistic signs used in protest campaigns.</p>",
            "revision_id" : 11059,
            "body_summary" : "",
            "entity_id" : 1071,
            "langcode" : "und"
         },
         "field_revision" : {
            "changed" : null,
            "title" : "The Art of SAF",
            "sticky" : 0,
            "revision_translation_affected" : 1,
            "default_langcode" : 1,
            "uid" : 1,
            "langcode" : null,
            "status" : 1,
            "created" : null
         },
         "status" : 1,
         "comment" : 1,
         "sticky" : 0,
         "log" : "",
         "promote" : 0,
         "uid" : 2213,
         "timestamp" : 1587500108
      }
   ],
   "nid" : "1071",
   "asidebox" : null,
   "uuid" : "f8241ab1-7360-4db4-b26c-6926b80b9c48",
   "type" : "exhibit",
   "langcode" : "und",
   "field_tags" : [],
   "path_alias" : {
      "langcode" : "und",
      "status" : 0,
      "pid" : 1561,
      "alias" : "/exhibits/2012/art-of-saf",
      "language" : "und"
   },
   "node_field_data" : {
      "changed" : null,
      "promote" : 0,
      "type" : "exhibit",
      "revision_translation_affected" : 1,
      "uid" : 1,
      "langcode" : "und",
      "title" : "The Art of SAF",
      "default_langcode" : 1,
      "sticky" : 0,
      "created" : 1438980515,
      "status" : 1
   },
   "node_access" : null,
   "node__field_image" : {}
}

