{
   "langcode" : "und",
   "revisions" : [
      {
         "node_revision__field_tags" : [],
         "vuuid" : "df88be39-dd68-484f-b5c5-0cd902b60ac8",
         "title" : "Shadae's test page",
         "node_revision__body" : {
            "langcode" : "und",
            "entity_id" : 2423,
            "body_summary" : "",
            "body_value" : "<p>I'm learning drupal Yay!</p><p>khghjghjxfohgjohhf.khktxpthrxtphk</p><p>nxfdkhnxkhnkxfghnkxgh</p><p><img src=\"/sites/default/files/dul/users/Shadae%20Gatlin/earth_goddess_at_atlanta_botanical_garden_0.jpg\" alt=\"earth_goddess_at_atlanta_botanical_garden\" width=\"500\" height=\"281\" class=\"image-right img-responsive\"></p>",
            "revision_id" : 27571,
            "bundle" : "page",
            "body_format" : "full_html",
            "delta" : 0,
            "deleted" : 0
         },
         "field_revision" : {
            "title" : "Shadae's test page",
            "changed" : null,
            "langcode" : null,
            "uid" : 1,
            "status" : 1,
            "created" : null,
            "revision_translation_affected" : 1,
            "sticky" : 0,
            "default_langcode" : 1
         },
         "status" : 1,
         "comment" : 1,
         "sticky" : 0,
         "log" : "",
         "promote" : 0,
         "uid" : 2335,
         "timestamp" : 1578947631
      }
   ],
   "type" : "page",
   "field_image" : null,
   "uuid" : "fbb652e1-5906-4877-994b-4cc304701d51",
   "vid" : 27571,
   "node__body" : {
      "revision_id" : 27571,
      "body_value" : "<p>I'm learning drupal Yay!</p><p>khghjghjxfohgjohhf.khktxpthrxtphk</p><p>nxfdkhnxkhnkxfghnkxgh</p><p><img src=\"/sites/default/files/dul/users/Shadae%20Gatlin/earth_goddess_at_atlanta_botanical_garden_0.jpg\" alt=\"earth_goddess_at_atlanta_botanical_garden\" width=\"500\" height=\"281\" class=\"image-right img-responsive\"></p>",
      "body_format" : "full_html",
      "bundle" : "page",
      "delta" : 0,
      "deleted" : 0,
      "entity_id" : 2423,
      "body_summary" : "",
      "langcode" : "und"
   },
   "asidebox" : {
      "block_module" : null,
      "body_value" : null,
      "body_format" : null,
      "bid" : null,
      "vid" : 27571,
      "body_title" : "",
      "nid" : 2423,
      "status" : "disabled",
      "block_delta" : null
   },
   "node_access" : null,
   "path_alias" : {
      "language" : "und",
      "alias" : "/shadaes-test-page",
      "pid" : 4679,
      "langcode" : "und",
      "status" : 0
   },
   "node_field_data" : {
      "title" : "Shadae's test page",
      "created" : 1578946218,
      "status" : 1,
      "default_langcode" : 1,
      "sticky" : 0,
      "type" : "page",
      "promote" : 0,
      "changed" : null,
      "langcode" : "und",
      "uid" : 1,
      "revision_translation_affected" : 1
   },
   "field_tags" : [],
   "nid" : "2423"
}

