{
   "revisions" : [
      {
         "vuuid" : "fe3fe0c2-5cd9-4d9e-b18e-2b321137d632",
         "title" : "Steven Smith",
         "node_revision__field_tags" : [],
         "node_revision__body" : {
            "deleted" : 0,
            "body_format" : "full_html",
            "delta" : 0,
            "bundle" : "exhibit",
            "body_value" : "<p>In these black-and-white, landscape photographs, Steven Smith depicts the continuous expansion of suburban development into the deserts and up the mountain sides of California, Utah, Nevada, and Colorado. Smith won the Center for Documentary Studies/Honickman First Book in Photography award for this stellar body of work.</p><p></p><hr><p></p><p>The online exhibit is no longer available, but an archived version <a href=\"https://web.archive.org/web/20130309075114/http://library.duke.edu/exhibits/stevensmith/index.html\">can be viewed at the Internet Archive</a>.</p>",
            "revision_id" : 10991,
            "body_summary" : "",
            "entity_id" : 1007,
            "langcode" : "und"
         },
         "status" : 1,
         "field_revision" : {
            "default_langcode" : 1,
            "revision_translation_affected" : 1,
            "sticky" : 0,
            "created" : null,
            "uid" : 1,
            "langcode" : null,
            "status" : 1,
            "changed" : null,
            "title" : "Steven Smith"
         },
         "log" : "",
         "sticky" : 0,
         "comment" : 1,
         "promote" : 0,
         "uid" : 3,
         "timestamp" : 1612820565
      }
   ],
   "node__body" : {
      "bundle" : "exhibit",
      "body_format" : "full_html",
      "delta" : 0,
      "deleted" : 0,
      "body_value" : "<p>In these black-and-white, landscape photographs, Steven Smith depicts the continuous expansion of suburban development into the deserts and up the mountain sides of California, Utah, Nevada, and Colorado. Smith won the Center for Documentary Studies/Honickman First Book in Photography award for this stellar body of work.</p><p></p><hr><p></p><p>The online exhibit is no longer available, but an archived version <a href=\"https://web.archive.org/web/20130309075114/http://library.duke.edu/exhibits/stevensmith/index.html\">can be viewed at the Internet Archive</a>.</p>",
      "revision_id" : 10991,
      "body_summary" : "",
      "entity_id" : 1007,
      "langcode" : "und"
   },
   "vid" : 10991,
   "field_image" : {
      "deleted" : 0,
      "revision_id" : 10991,
      "field_image_fid" : 1583,
      "language" : "und",
      "file_uuid" : "bed1ccf1-82d2-4acd-af55-9c6a287c7778",
      "field_image_title" : "",
      "field_image_target_id" : 1583,
      "entity_id" : 1007,
      "delta" : 0,
      "bundle" : "exhibit",
      "field_image_width" : 768,
      "field_image_alt" : "",
      "langcode" : "und",
      "entity_type" : "node",
      "field_image_height" : 599
   },
   "nid" : "1007",
   "asidebox" : null,
   "langcode" : "und",
   "uuid" : "fd8f7714-9217-47d2-8f01-c399a4c28d0f",
   "type" : "exhibit",
   "node__field_image" : {},
   "field_tags" : [],
   "path_alias" : {
      "language" : "und",
      "alias" : "/exhibits/2005/steven-smith-suburban-west",
      "pid" : 1495,
      "langcode" : "und",
      "status" : 0
   },
   "node_field_data" : {
      "revision_translation_affected" : 1,
      "langcode" : "und",
      "uid" : 1,
      "changed" : null,
      "promote" : 0,
      "type" : "exhibit",
      "default_langcode" : 1,
      "sticky" : 0,
      "created" : 1438800283,
      "status" : 1,
      "title" : "Steven Smith"
   },
   "node_access" : null
}

