{
   "vid" : 23909,
   "node__body" : {
      "revision_id" : 23909,
      "body_value" : "<p>Citation tools (also called bibliographic management tools or citation managers) help you organize, manage and format citations for your research.</p><div class=\"table-responsive\"><table class=\"table table-bordered table-striped\" border=\"0\" cellspacing=\"5\"><tbody><tr><td>&nbsp;</td><td style=\"text-align: center;\"><h4>EndNote X8</h4></td><td style=\"text-align: center;\"><h4>Mendeley</h4></td><td style=\"text-align: center;\"><h4>New Refworks</h4></td><td style=\"text-align: center;\"><h4>Zotero</h4></td></tr><tr><td><h5><strong> Download/Register </strong></h5></td><td style=\"text-align: center;\">Free for Duke affiliates (<a href=\"https://software.duke.edu/node/75\" target=\"_new\">download</a>)</td><td style=\"text-align: center;\">Free for everyone (<a href=\"https://www.mendeley.com/download-desktop/\" target=\"_new\">download</a>)</td><td style=\"text-align: center;\">Free for Duke students, faculty, staff, &amp; alumni (<a href=\"https://library.duke.edu/research/citing/refworks\">more info</a>)</td><td style=\"text-align: center;\">Free for everyone (<a href=\"https://www.zotero.org/download/\" target=\"_new\">download</a>)</td></tr><tr><td><h5><strong> Access Type </strong></h5></td><td style=\"text-align: center;\">Desktop application with basic web version for syncing and sharing</td><td style=\"text-align: center;\">Desktop application with full web version</td><td style=\"text-align: center;\">Web-only</td><td style=\"text-align: center;\">Desktop application with full web version</td></tr><tr><td><h5><strong> Bibliographic Styles </strong></h5></td><td style=\"text-align: center;\"><a href=\"https://endnote.com/downloads/styles/\" target=\"_new\">Endnote Output Styles</a></td><td style=\"text-align: center;\"><a href=\"https://csl.mendeley.com/about/\" target=\"_new\">Mendeley Output Styles</a></td><td style=\"text-align: center;\"><a href=\"https://www.refworks.com/content/path_learn/output_style.asp\" target=\"_new\">RefWorks Output Styles</a></td><td style=\"text-align: center;\"><a href=\"https://www.zotero.org/styles\" target=\"_new\">Zotero Output Styles</a></td></tr><tr><td><h5><strong> Word processor integration </strong></h5></td><td style=\"text-align: center;\"><ul class=\"list-inline list-styled\"><li>MS Word</li><li>Libre Office</li><li>Google Docs</li></ul></td><td style=\"text-align: center;\"><ul class=\"list-inline list-styled\"><li>MS Word</li><li>Libre Office</li><li>Neo Office</li></ul></td><td style=\"text-align: center;\"><ul class=\"list-inline list-styled\"><li>MS Word</li><li>Google Docs</li></ul></td><td style=\"text-align: center;\"><ul class=\"list-inline list-styled\"><li>MS Word</li><li>Libre Office</li><li>Google Docs</li><li>Neo Office</li></ul></td></tr><tr><td><h5><strong> Duplicate detection </strong></h5></td><td style=\"text-align: center;\">User can identify fields, Requires comparison</td><td style=\"text-align: center;\">Merges duplicates</td><td style=\"text-align: center;\">Requires comparison</td><td style=\"text-align: center;\">Merges duplicates</td></tr><tr><td><h5><strong> Storage space </strong></h5></td><td style=\"text-align: center;\">Unlimited reference and attachment storage in X9</td><td style=\"text-align: center;\">2 GB free storage; several plans for additional storage</td><td style=\"text-align: center;\">Unlimited reference storage; 20 MB for attachments</td><td style=\"text-align: center;\">300 MB Free; 2 GB $20/year; 6 GB $60/year; Unlimited $120/year</td></tr><tr><td><h5><strong> Mobile apps or mobile optimized web interfaces </strong></h5></td><td style=\"text-align: center;\">Yes—iOS only</td><td style=\"text-align: center;\">Yes</td><td style=\"text-align: center;\">Yes</td><td style=\"text-align: center;\">Some community-developed apps are compatible</td></tr><tr><td><h5><strong> Support for collaboration </strong></h5></td><td style=\"text-align: center;\">Shared libraries through EndNote web, which is not as fully featured as the desktop application</td><td style=\"text-align: center;\">Excellent</td><td style=\"text-align: center;\">Easy for groups at the same institution, not supported across institutions</td><td style=\"text-align: center;\">Excellent</td></tr><tr><td><h5><strong> pdf annotation </strong></h5></td><td style=\"text-align: center;\">Yes</td><td style=\"text-align: center;\">Yes</td><td style=\"text-align: center;\">Yes</td><td style=\"text-align: center;\">No</td></tr><tr><td><h5><strong> Non-traditional formats and unpublished works </strong></h5></td><td style=\"text-align: center;\">Yes</td><td style=\"text-align: center;\">No templates for archival materials</td><td style=\"text-align: center;\">Yes</td><td style=\"text-align: center;\">Yes</td></tr><tr><td><h5><strong> Global find and replace </strong></h5></td><td style=\"text-align: center;\">Yes</td><td style=\"text-align: center;\">No</td><td style=\"text-align: center;\">Limited</td><td style=\"text-align: center;\">No</td></tr><tr><td><h5><strong> Ability to work offline </strong></h5></td><td style=\"text-align: center;\">Using desktop application</td><td style=\"text-align: center;\">Using desktop application</td><td style=\"text-align: center;\">No</td><td style=\"text-align: center;\">Using desktop application</td></tr><tr><td><h5><strong> Tool-specific features </strong></h5></td><td style=\"text-align: center;\">Find full-text feature; authenticate through library</td><td style=\"text-align: center;\">Social Networking: newsfeeds, profile pages, following, commenting</td><td style=\"text-align: center;\">Open source community; Active, crowd-sourced support forums</td><td style=\"text-align: center;\">Many language interfaces: Chinese, English, French, German, Italian, Japanese, Korean, Spanish</td></tr><tr><td><h5><strong> Availability after Duke </strong></h5></td><td style=\"text-align: center;\">At cost</td><td style=\"text-align: center;\">Free</td><td style=\"text-align: center;\">Alumni access</td><td style=\"text-align: center;\">Free</td></tr></tbody></table></div>",
      "body_format" : "full_html",
      "delta" : 0,
      "bundle" : "research_page",
      "deleted" : 0,
      "entity_id" : 283,
      "body_summary" : "",
      "langcode" : "und"
   },
   "uuid" : "ff765491-78e3-4a13-b158-a19cee83005b",
   "field_image" : null,
   "type" : "research_page",
   "revisions" : [
      {
         "node_revision__body" : {
            "revision_id" : 23909,
            "body_value" : "<p>Citation tools (also called bibliographic management tools or citation managers) help you organize, manage and format citations for your research.</p><div class=\"table-responsive\"><table class=\"table table-bordered table-striped\" border=\"0\" cellspacing=\"5\"><tbody><tr><td>&nbsp;</td><td style=\"text-align: center;\"><h4>EndNote X8</h4></td><td style=\"text-align: center;\"><h4>Mendeley</h4></td><td style=\"text-align: center;\"><h4>New Refworks</h4></td><td style=\"text-align: center;\"><h4>Zotero</h4></td></tr><tr><td><h5><strong> Download/Register </strong></h5></td><td style=\"text-align: center;\">Free for Duke affiliates (<a href=\"https://software.duke.edu/node/75\" target=\"_new\">download</a>)</td><td style=\"text-align: center;\">Free for everyone (<a href=\"https://www.mendeley.com/download-desktop/\" target=\"_new\">download</a>)</td><td style=\"text-align: center;\">Free for Duke students, faculty, staff, &amp; alumni (<a href=\"https://library.duke.edu/research/citing/refworks\">more info</a>)</td><td style=\"text-align: center;\">Free for everyone (<a href=\"https://www.zotero.org/download/\" target=\"_new\">download</a>)</td></tr><tr><td><h5><strong> Access Type </strong></h5></td><td style=\"text-align: center;\">Desktop application with basic web version for syncing and sharing</td><td style=\"text-align: center;\">Desktop application with full web version</td><td style=\"text-align: center;\">Web-only</td><td style=\"text-align: center;\">Desktop application with full web version</td></tr><tr><td><h5><strong> Bibliographic Styles </strong></h5></td><td style=\"text-align: center;\"><a href=\"https://endnote.com/downloads/styles/\" target=\"_new\">Endnote Output Styles</a></td><td style=\"text-align: center;\"><a href=\"https://csl.mendeley.com/about/\" target=\"_new\">Mendeley Output Styles</a></td><td style=\"text-align: center;\"><a href=\"https://www.refworks.com/content/path_learn/output_style.asp\" target=\"_new\">RefWorks Output Styles</a></td><td style=\"text-align: center;\"><a href=\"https://www.zotero.org/styles\" target=\"_new\">Zotero Output Styles</a></td></tr><tr><td><h5><strong> Word processor integration </strong></h5></td><td style=\"text-align: center;\"><ul class=\"list-inline list-styled\"><li>MS Word</li><li>Libre Office</li><li>Google Docs</li></ul></td><td style=\"text-align: center;\"><ul class=\"list-inline list-styled\"><li>MS Word</li><li>Libre Office</li><li>Neo Office</li></ul></td><td style=\"text-align: center;\"><ul class=\"list-inline list-styled\"><li>MS Word</li><li>Google Docs</li></ul></td><td style=\"text-align: center;\"><ul class=\"list-inline list-styled\"><li>MS Word</li><li>Libre Office</li><li>Google Docs</li><li>Neo Office</li></ul></td></tr><tr><td><h5><strong> Duplicate detection </strong></h5></td><td style=\"text-align: center;\">User can identify fields, Requires comparison</td><td style=\"text-align: center;\">Merges duplicates</td><td style=\"text-align: center;\">Requires comparison</td><td style=\"text-align: center;\">Merges duplicates</td></tr><tr><td><h5><strong> Storage space </strong></h5></td><td style=\"text-align: center;\">Unlimited reference and attachment storage in X9</td><td style=\"text-align: center;\">2 GB free storage; several plans for additional storage</td><td style=\"text-align: center;\">Unlimited reference storage; 20 MB for attachments</td><td style=\"text-align: center;\">300 MB Free; 2 GB $20/year; 6 GB $60/year; Unlimited $120/year</td></tr><tr><td><h5><strong> Mobile apps or mobile optimized web interfaces </strong></h5></td><td style=\"text-align: center;\">Yes—iOS only</td><td style=\"text-align: center;\">Yes</td><td style=\"text-align: center;\">Yes</td><td style=\"text-align: center;\">Some community-developed apps are compatible</td></tr><tr><td><h5><strong> Support for collaboration </strong></h5></td><td style=\"text-align: center;\">Shared libraries through EndNote web, which is not as fully featured as the desktop application</td><td style=\"text-align: center;\">Excellent</td><td style=\"text-align: center;\">Easy for groups at the same institution, not supported across institutions</td><td style=\"text-align: center;\">Excellent</td></tr><tr><td><h5><strong> pdf annotation </strong></h5></td><td style=\"text-align: center;\">Yes</td><td style=\"text-align: center;\">Yes</td><td style=\"text-align: center;\">Yes</td><td style=\"text-align: center;\">No</td></tr><tr><td><h5><strong> Non-traditional formats and unpublished works </strong></h5></td><td style=\"text-align: center;\">Yes</td><td style=\"text-align: center;\">No templates for archival materials</td><td style=\"text-align: center;\">Yes</td><td style=\"text-align: center;\">Yes</td></tr><tr><td><h5><strong> Global find and replace </strong></h5></td><td style=\"text-align: center;\">Yes</td><td style=\"text-align: center;\">No</td><td style=\"text-align: center;\">Limited</td><td style=\"text-align: center;\">No</td></tr><tr><td><h5><strong> Ability to work offline </strong></h5></td><td style=\"text-align: center;\">Using desktop application</td><td style=\"text-align: center;\">Using desktop application</td><td style=\"text-align: center;\">No</td><td style=\"text-align: center;\">Using desktop application</td></tr><tr><td><h5><strong> Tool-specific features </strong></h5></td><td style=\"text-align: center;\">Find full-text feature; authenticate through library</td><td style=\"text-align: center;\">Social Networking: newsfeeds, profile pages, following, commenting</td><td style=\"text-align: center;\">Open source community; Active, crowd-sourced support forums</td><td style=\"text-align: center;\">Many language interfaces: Chinese, English, French, German, Italian, Japanese, Korean, Spanish</td></tr><tr><td><h5><strong> Availability after Duke </strong></h5></td><td style=\"text-align: center;\">At cost</td><td style=\"text-align: center;\">Free</td><td style=\"text-align: center;\">Alumni access</td><td style=\"text-align: center;\">Free</td></tr></tbody></table></div>",
            "bundle" : "research_page",
            "body_format" : "full_html",
            "delta" : 0,
            "deleted" : 0,
            "langcode" : "und",
            "entity_id" : 283,
            "body_summary" : ""
         },
         "vuuid" : "ff965b47-68fe-432b-b8ad-bf49f7ba0143",
         "title" : "Citation Tool Comparison",
         "node_revision__field_tags" : [],
         "log" : "",
         "sticky" : 0,
         "comment" : 1,
         "status" : 1,
         "field_revision" : {
            "created" : null,
            "uid" : 1,
            "langcode" : null,
            "status" : 1,
            "default_langcode" : 1,
            "sticky" : 0,
            "revision_translation_affected" : 1,
            "title" : "Citation Tool Comparison",
            "changed" : null
         },
         "promote" : 0,
         "timestamp" : 1542160691,
         "uid" : 2077
      }
   ],
   "langcode" : "und",
   "field_tags" : [],
   "node_field_data" : {
      "type" : "research_page",
      "promote" : 0,
      "changed" : null,
      "langcode" : "und",
      "uid" : 1,
      "revision_translation_affected" : 1,
      "title" : "Citation Tool Comparison",
      "created" : 1377016240,
      "status" : 1,
      "default_langcode" : 1,
      "sticky" : 0
   },
   "path_alias" : {
      "langcode" : "und",
      "status" : 0,
      "language" : "und",
      "pid" : 459,
      "alias" : "/research/citing/tools-comparison"
   },
   "nid" : "283",
   "asidebox" : {
      "status" : "disabled",
      "block_delta" : null,
      "body_format" : null,
      "body_value" : null,
      "block_module" : null,
      "body_title" : "",
      "nid" : 283,
      "bid" : null,
      "vid" : 23909
   },
   "node_access" : null
}

