{
   "uuid" : "ffde97c0-177f-4195-8783-e603c4654fbd",
   "vid" : 22383,
   "node__body" : {
      "langcode" : "und",
      "entity_id" : 1779,
      "body_summary" : "",
      "body_value" : "<h2><em>Chronicle</em> Articles</h2><ul><li><a href=\"/sites/default/files/dul/research/student-activism/19420428_Food.pdf\" target=\"_blank\" title=\"Food Quality Protest 1\">April 28, 1942</a> (PDF, 1 MB) | <a href=\"https://library.duke.edu/digitalcollections/dukechronicle_dchnp42052/\" target=\"_blank\" title=\"Chronicle, April 28, 1942\">Full issue</a></li><li><a href=\"/sites/default/files/dul/research/student-activism/19420501_Food.pdf\" target=\"_blank\" title=\"Food Quality Protest 2\">May 1, 1942</a> (PDF,&nbsp;1.7 MB)&nbsp;| <a href=\"https://library.duke.edu/digitalcollections/dukechronicle_dchnp42053/\" target=\"_blank\" title=\"Chronicle, May 1, 1942\">Full issue</a></li><li><a href=\"/sites/default/files/dul/research/student-activism/chroniclemay1942foodprotest.pdf\" target=\"_blank\">May 1, 1942</a>, editorial and letter to the editor&nbsp; (PDF, 1.7 MB)&nbsp;| <a href=\"https://library.duke.edu/digitalcollections/dukechronicle_dchnp42053/\" target=\"_blank\" title=\"Chronicle, May 1, 1942\">Full issue</a></li></ul>",
      "revision_id" : 22383,
      "body_format" : "full_html",
      "delta" : 0,
      "bundle" : "page",
      "deleted" : 0
   },
   "type" : "page",
   "field_image" : null,
   "revisions" : [
      {
         "log" : "",
         "sticky" : 0,
         "comment" : 1,
         "status" : 1,
         "field_revision" : {
            "sticky" : 0,
            "revision_translation_affected" : 1,
            "default_langcode" : 1,
            "uid" : 1,
            "status" : 1,
            "langcode" : null,
            "created" : null,
            "changed" : null,
            "title" : "Students Protest Food Quality "
         },
         "node_revision__body" : {
            "langcode" : "und",
            "entity_id" : 1779,
            "body_summary" : "",
            "body_value" : "<h2><em>Chronicle</em> Articles</h2><ul><li><a href=\"/sites/default/files/dul/research/student-activism/19420428_Food.pdf\" target=\"_blank\" title=\"Food Quality Protest 1\">April 28, 1942</a> (PDF, 1 MB) | <a href=\"https://library.duke.edu/digitalcollections/dukechronicle_dchnp42052/\" target=\"_blank\" title=\"Chronicle, April 28, 1942\">Full issue</a></li><li><a href=\"/sites/default/files/dul/research/student-activism/19420501_Food.pdf\" target=\"_blank\" title=\"Food Quality Protest 2\">May 1, 1942</a> (PDF,&nbsp;1.7 MB)&nbsp;| <a href=\"https://library.duke.edu/digitalcollections/dukechronicle_dchnp42053/\" target=\"_blank\" title=\"Chronicle, May 1, 1942\">Full issue</a></li><li><a href=\"/sites/default/files/dul/research/student-activism/chroniclemay1942foodprotest.pdf\" target=\"_blank\">May 1, 1942</a>, editorial and letter to the editor&nbsp; (PDF, 1.7 MB)&nbsp;| <a href=\"https://library.duke.edu/digitalcollections/dukechronicle_dchnp42053/\" target=\"_blank\" title=\"Chronicle, May 1, 1942\">Full issue</a></li></ul>",
            "revision_id" : 22383,
            "bundle" : "page",
            "body_format" : "full_html",
            "delta" : 0,
            "deleted" : 0
         },
         "title" : "Students Protest Food Quality ",
         "vuuid" : "000fc363-4fa0-4793-8f83-07259c377840",
         "node_revision__field_tags" : [],
         "timestamp" : 1526342162,
         "uid" : 73,
         "promote" : 0
      }
   ],
   "langcode" : "und",
   "nid" : "1779",
   "node_field_data" : {
      "title" : "Students Protest Food Quality ",
      "sticky" : 0,
      "default_langcode" : 1,
      "status" : 1,
      "created" : 1510167227,
      "promote" : 0,
      "changed" : null,
      "type" : "page",
      "revision_translation_affected" : 1,
      "uid" : 1,
      "langcode" : "und"
   },
   "path_alias" : {
      "status" : 0,
      "langcode" : "und",
      "pid" : 3831,
      "alias" : "/research/student-activism/documents/food_protest",
      "language" : "und"
   },
   "field_tags" : [],
   "node_access" : null,
   "asidebox" : {
      "bid" : null,
      "vid" : 22383,
      "nid" : 1779,
      "body_title" : "",
      "body_value" : null,
      "block_module" : null,
      "body_format" : null,
      "block_delta" : null,
      "status" : "disabled"
   }
}

