{
   "term" : {
      "description" : null,
      "format" : null,
      "tid" : 15,
      "weight" : 0,
      "uuid" : "0815afe0-53da-45d1-9683-a3295b27d0e6",
      "name" : "pandas",
      "vid" : 1,
      "vocab_machine_name" : "tags"
   }
}
