{
   "term" : {
      "uuid" : "0e26d4b1-e505-4d20-959f-3f62e8fd6f8d",
      "tid" : 38,
      "description" : null,
      "format" : null,
      "weight" : 0,
      "vocab_machine_name" : "tags",
      "name" : "digitize",
      "vid" : 1
   }
}
