{
   "term" : {
      "uuid" : "2c6514c0-9393-4458-8426-4c45cbe74f3f",
      "tid" : 31,
      "description" : null,
      "format" : null,
      "weight" : 0,
      "vocab_machine_name" : "tags",
      "name" : "copy",
      "vid" : 1
   }
}
