{
   "term" : {
      "name" : "scanning",
      "vid" : 1,
      "vocab_machine_name" : "tags",
      "description" : null,
      "format" : null,
      "tid" : 28,
      "weight" : 0,
      "uuid" : "4acbb9dc-9608-4e49-bc45-6d6c0836d8bc"
   }
}
