{
   "term" : {
      "uuid" : "63076f4a-8897-471c-9127-5a8fc8fd7b26",
      "weight" : 0,
      "description" : null,
      "tid" : 24,
      "format" : null,
      "vocab_machine_name" : "tags",
      "vid" : 1,
      "name" : "reproduction"
   }
}
