{
   "term" : {
      "weight" : 0,
      "description" : null,
      "tid" : 33,
      "format" : null,
      "uuid" : "96adbe85-2c09-4687-8d07-93a86aabe161",
      "vid" : 1,
      "name" : "self-service",
      "vocab_machine_name" : "tags"
   }
}
