{
   "term" : {
      "vid" : 1,
      "name" : "Hartman Center",
      "vocab_machine_name" : "tags",
      "weight" : 0,
      "tid" : 6,
      "description" : null,
      "format" : null,
      "uuid" : "da946c73-f0d4-4c4f-a164-fb752132803f"
   }
}
