{
   "revisions" : [
      {
         "node_revision__field_tags" : [],
         "sticky" : 0,
         "node_revision__body" : {
            "body_value" : "<h2 class=\"MsoNormal\" style=\"margin-bottom: 0.0001pt;\">Completed: 1974<o:p></o:p></h2><h2 class=\"MsoNormal\" style=\"margin-bottom: 0.0001pt;\">Architect: Edward Durell Stone<o:p></o:p></h2><p class=\"MsoNormal\" style=\"margin-bottom: 14pt;\"><img src=\"/rubenstein/sites/default/files/rubenstein/users/MatthewSchaefer/Biddle_P1_300px.jpg\" alt=\"Mary Duke Biddle\" title=\"Mary Duke Biddle\" width=\"115\" height=\"129\" class=\"image-left img-responsive\">Mary Duke Biddle (1887-1960) was the daughter of Benjamin N. and Sarah P. Duke. She was a graduate of Trinity College with a major in English in 1907. Mary Duke Biddle became known as a patron of the arts, supporting symphony, opera, and community cultural projects in both Durham and New York City, where she made her primary residence. In 1956, she established a family trust, forming a foundation for continued support of activities and institutions dedicated to the advancement of the arts. Her foundation contributed over $650,000 towards the construction of the music building.</p><p class=\"MsoNormal\" style=\"margin-bottom: 14pt;\">Dedicated on October 19, 1974, the Biddle Music Building has housed the music department since its opening. The building when first constructed featured fully equipped classroom and seminar rooms, a rehearsal hall, ensemble rooms, thirty-five soundproofed practice rooms, twenty-five offices/studios, a recording studio, electronic studio, a 32,000 volume library, two organ teaching studios, and three organ practice rooms.</p><p class=\"MsoNormal\" style=\"margin-bottom: 0.0001pt;\">Today there are twenty practice rooms with grand pianos, four organ practice rooms, several harpsichord practice rooms, ensemble rehearsal studios, and Bone Hall, a large rehearsal hall. The Biddle Music Building houses the Music Library with over 100,000 books, scores, journals, and microfilms. The Media Center, with some 30,000 sound recordings and a growing collection of video materials, adjoins a state-of-the-art audio facility which can accommodate 32 listeners. The library's special collections include an archive donated by the Pulitzer-prize-winning composer Robert Ward and an extensive collection of research materials assembled by the Viennese music bibliographer Alexander Weinmann. The Music Library's web pages include links to internet resources for music research. DUMIC, the Duke University Musical Instrument Collections, are also housed in the Mary Duke Biddle Music Building. These instruments are used by faculty and students in classes and for concerts of early music.&nbsp;</p><p class=\"MsoNormal\" style=\"margin-bottom: 0.0001pt;\"></p><p class=\"MsoNormal\" style=\"margin-bottom: 0.0001pt;\"><img src=\"/rubenstein/sites/default/files/rubenstein/users/MatthewSchaefer/Biddle_B1_500px.jpg\" alt=\"Mary Duke Biddle Music Building\" title=\"Mary Duke Biddle Music Building\" width=\"500\" height=\"260\" class=\"img-responsive\"></p><h2 class=\"MsoNormal\" style=\"margin-bottom: 6pt;\">For Further Research:</h2><p class=\"MsoNormal\" style=\"margin-bottom: 0.0001pt;\"></p><ul><li><a href=\"http://library.duke.edu/rubenstein/findingaids/uabio/\" style=\"margin: 0px; padding: 0px; border: 0px; outline: 0px; vertical-align: baseline; font-family: inherit; font-size: inherit; font-style: inherit; font-variant: inherit; font-weight: inherit; line-height: inherit; color: #0062a0;\">Biographical Reference Collection</a>&nbsp;- Contains biographical information on Mary Duke Biddle.</li><li><a href=\"http://library.duke.edu/rubenstein/findingaids/uabuilding/\" style=\"margin: 0px; padding: 0px; border: 0px; outline: 0px; vertical-align: baseline; font-family: inherit; font-size: inherit; font-style: inherit; font-variant: inherit; font-weight: inherit; line-height: inherit; color: #0062a0;\">Building Reference Collection</a>&nbsp;-&nbsp;Contains historical building information.</li><li><a href=\"http://music.duke.edu/about/facilities\">Music Department Facilties Page</a> - Contains information on the Mary Duke Biddle Building facilities.</li><li><a href=\"https://www.flickr.com/search?user_id=19219926%40N04&amp;sort=relevance&amp;text=Music%20Building\">Flickr photographs related to the Mary Duke Biddle Music Building.</a></li></ul><p class=\"MsoNormal\" style=\"margin-bottom: 0.0001pt;\"></p>",
            "revision_id" : 11537,
            "langcode" : "und",
            "deleted" : 0,
            "body_format" : "full_html",
            "bundle" : "page",
            "entity_id" : 409,
            "body_summary" : "",
            "delta" : 0
         },
         "status" : 1,
         "comment" : 1,
         "timestamp" : 1488916549,
         "log" : "",
         "vuuid" : "c9458056-97a9-40ba-bcc5-83a10fc80c8b",
         "uid" : 7,
         "field_revision" : {
            "changed" : null,
            "status" : 1,
            "sticky" : 0,
            "uid" : 1,
            "revision_translation_affected" : 1,
            "created" : null,
            "langcode" : null,
            "default_langcode" : 1,
            "title" : "Mary Duke Biddle Music Building"
         },
         "promote" : 0,
         "title" : "Mary Duke Biddle Music Building"
      }
   ],
   "nid" : "409",
   "asidebox" : {
      "block_delta" : null,
      "body_value" : null,
      "status" : "disabled",
      "block_module" : null,
      "vid" : 11537,
      "body_format" : null,
      "nid" : 409,
      "body_title" : "",
      "bid" : null
   },
   "node_field_data" : {
      "sticky" : 0,
      "type" : "page",
      "status" : 1,
      "changed" : null,
      "langcode" : "und",
      "default_langcode" : 1,
      "uid" : 1,
      "revision_translation_affected" : 1,
      "created" : 1396540147,
      "promote" : 0,
      "title" : "Mary Duke Biddle Music Building"
   },
   "uuid" : "01a6dd16-01f2-4724-baa2-e48964f1428e",
   "vid" : 11537,
   "path_alias" : {
      "language" : "und",
      "status" : 0,
      "langcode" : "und",
      "pid" : 489,
      "alias" : "/uarchives/history/exhibits/building-names/east/biddle"
   },
   "field_image" : null,
   "field_tags" : [],
   "type" : "page",
   "node_access" : null,
   "node__body" : {
      "delta" : 0,
      "body_summary" : "",
      "bundle" : "page",
      "entity_id" : 409,
      "body_format" : "full_html",
      "deleted" : 0,
      "revision_id" : 11537,
      "langcode" : "und",
      "body_value" : "<h2 class=\"MsoNormal\" style=\"margin-bottom: 0.0001pt;\">Completed: 1974<o:p></o:p></h2><h2 class=\"MsoNormal\" style=\"margin-bottom: 0.0001pt;\">Architect: Edward Durell Stone<o:p></o:p></h2><p class=\"MsoNormal\" style=\"margin-bottom: 14pt;\"><img src=\"/rubenstein/sites/default/files/rubenstein/users/MatthewSchaefer/Biddle_P1_300px.jpg\" alt=\"Mary Duke Biddle\" title=\"Mary Duke Biddle\" width=\"115\" height=\"129\" class=\"image-left img-responsive\">Mary Duke Biddle (1887-1960) was the daughter of Benjamin N. and Sarah P. Duke. She was a graduate of Trinity College with a major in English in 1907. Mary Duke Biddle became known as a patron of the arts, supporting symphony, opera, and community cultural projects in both Durham and New York City, where she made her primary residence. In 1956, she established a family trust, forming a foundation for continued support of activities and institutions dedicated to the advancement of the arts. Her foundation contributed over $650,000 towards the construction of the music building.</p><p class=\"MsoNormal\" style=\"margin-bottom: 14pt;\">Dedicated on October 19, 1974, the Biddle Music Building has housed the music department since its opening. The building when first constructed featured fully equipped classroom and seminar rooms, a rehearsal hall, ensemble rooms, thirty-five soundproofed practice rooms, twenty-five offices/studios, a recording studio, electronic studio, a 32,000 volume library, two organ teaching studios, and three organ practice rooms.</p><p class=\"MsoNormal\" style=\"margin-bottom: 0.0001pt;\">Today there are twenty practice rooms with grand pianos, four organ practice rooms, several harpsichord practice rooms, ensemble rehearsal studios, and Bone Hall, a large rehearsal hall. The Biddle Music Building houses the Music Library with over 100,000 books, scores, journals, and microfilms. The Media Center, with some 30,000 sound recordings and a growing collection of video materials, adjoins a state-of-the-art audio facility which can accommodate 32 listeners. The library's special collections include an archive donated by the Pulitzer-prize-winning composer Robert Ward and an extensive collection of research materials assembled by the Viennese music bibliographer Alexander Weinmann. The Music Library's web pages include links to internet resources for music research. DUMIC, the Duke University Musical Instrument Collections, are also housed in the Mary Duke Biddle Music Building. These instruments are used by faculty and students in classes and for concerts of early music.&nbsp;</p><p class=\"MsoNormal\" style=\"margin-bottom: 0.0001pt;\"></p><p class=\"MsoNormal\" style=\"margin-bottom: 0.0001pt;\"><img src=\"/rubenstein/sites/default/files/rubenstein/users/MatthewSchaefer/Biddle_B1_500px.jpg\" alt=\"Mary Duke Biddle Music Building\" title=\"Mary Duke Biddle Music Building\" width=\"500\" height=\"260\" class=\"img-responsive\"></p><h2 class=\"MsoNormal\" style=\"margin-bottom: 6pt;\">For Further Research:</h2><p class=\"MsoNormal\" style=\"margin-bottom: 0.0001pt;\"></p><ul><li><a href=\"http://library.duke.edu/rubenstein/findingaids/uabio/\" style=\"margin: 0px; padding: 0px; border: 0px; outline: 0px; vertical-align: baseline; font-family: inherit; font-size: inherit; font-style: inherit; font-variant: inherit; font-weight: inherit; line-height: inherit; color: #0062a0;\">Biographical Reference Collection</a>&nbsp;- Contains biographical information on Mary Duke Biddle.</li><li><a href=\"http://library.duke.edu/rubenstein/findingaids/uabuilding/\" style=\"margin: 0px; padding: 0px; border: 0px; outline: 0px; vertical-align: baseline; font-family: inherit; font-size: inherit; font-style: inherit; font-variant: inherit; font-weight: inherit; line-height: inherit; color: #0062a0;\">Building Reference Collection</a>&nbsp;-&nbsp;Contains historical building information.</li><li><a href=\"http://music.duke.edu/about/facilities\">Music Department Facilties Page</a> - Contains information on the Mary Duke Biddle Building facilities.</li><li><a href=\"https://www.flickr.com/search?user_id=19219926%40N04&amp;sort=relevance&amp;text=Music%20Building\">Flickr photographs related to the Mary Duke Biddle Music Building.</a></li></ul><p class=\"MsoNormal\" style=\"margin-bottom: 0.0001pt;\"></p>"
   },
   "langcode" : "und"
}

