{
   "node__body" : {
      "body_value" : "<div id=\"accordion\">\r\n  <h3>Section 1</h3>\r\n  <div>\r\n    <p>Mauris mauris ante, blandit et, ultrices a, suscipit eget, quam. Integer ut neque. Vivamus nisi metus, molestie vel, gravida in, condimentum sit amet, nunc. Nam a nibh. Donec suscipit eros. Nam mi. Proin viverra leo ut odio. Curabitur malesuada. Vestibulum a velit eu ante scelerisque vulputate. Mauris mauris ante, blandit et, ultrices a, suscipit eget, quam. Integer ut neque. Vivamus nisi metus, molestie vel, gravida in, condimentum sit amet, nunc. Nam a nibh. Donec suscipit eros. Nam mi. Proin viverra leo ut odio. Curabitur malesuada. Vestibulum a velit eu ante scelerisque vulputate.</p>\r\n  </div>\r\n  <h3>Section 2</h3>\r\n  <div>\r\n    <p>Mauris mauris ante, blandit et, ultrices a, suscipit eget, quam. Integer ut neque. Vivamus nisi metus, molestie vel, gravida in, condimentum sit amet, nunc. Nam a nibh. Donec suscipit eros. Nam mi. ultrices a, suscipit eget, quam. Integer ut neque. Vivamus nisi metus, molestie vel, gravida in, condimentum sit amet, nunc. Nam a nibh. Donec suscipit eros. Nam mi. Proin viverra leo ut odio. Curabitur malesuada. Vestibulum a velit eu ante scelerisque vulputate.</p>\r\n  </div>\r\n  <h3>Section 3</h3>\r\n  <div>\r\n    <p>Mauris mauris ante, blandit et, ultrices a, suscipit eget, quam. Integer ut neque. Vivamus nisi metus, molestie vel, gravida in, condimentum sit amet, nunc. Nam a nibh. Donec suscipit eros. Nam mi. Proin viverra leo ut odio. Curabitur malesuada. Vestibulum a velit eu ante scelerisque vulputate. Mauris mauris ante, blandit et, ultrices a, suscipit eget, quam. Integer ut neque. Vivamus nisi metus, molestie vel, gravida in, condimentum sit amet, nunc. Nam a nibh. Donec suscipit eros. Nam mi. Proin viverra leo ut odio. Curabitur malesuada. Vestibulum a velit eu ante scelerisque vulputate.</p>\r\n  </div>\r\n  <h3>Section 4</h3>\r\n  <div>\r\n    <p>Mauris mauris ante, blandit et, ultrices a, suscipit eget, quam. Integer ut neque. Vivamus nisi metus, molestie vel, gravida in, condimentum sit amet, nunc. Nam a nibh. Donec suscipit eros. Nam mi. Proin viverra leo ut odio. Curabitur malesuada. Vestibulum a velit eu ante scelerisque vulputate. Mauris mauris ante, blandit et, ultrices a, suscipit eget, quam. Integer ut neque. Vivamus nisi metus, molestie vel, gravida in, condimentum sit amet, nunc. Nam a nibh. Donec suscipit eros. Nam mi. Proin viverra leo ut odio. Curabitur malesuada. Vestibulum a velit eu ante scelerisque vulputate.</p>\r\n    <p>Mauris mauris ante, blandit et, ultrices a, suscipit eget, quam. Integer ut neque. Vivamus nisi metus, molestie vel, gravida in, condimentum sit amet, nunc. Nam a nibh. Donec suscipit eros. Nam mi. Proin viverra leo ut odio. Curabitur malesuada. Vestibulum a velit eu ante scelerisque vulputate. Mauris mauris ante, blandit et, ultrices a, suscipit eget, quam. Integer ut neque. Vivamus nisi metus, molestie vel, gravida in, condimentum sit amet, nunc. Nam a nibh. Donec suscipit eros. Nam mi. Proin viverra leo ut odio. Curabitur malesuada. Vestibulum a velit eu ante scelerisque vulputate.</p>\r\n  </div>\r\n</div>\r\n\r\n<style type=\"text/css\">\r\n\r\n#accordion {\r\n  font-family: \"Source Sans Pro\",Calibri,Candara,Arial,sans-serif;\r\n}\r\n\r\n#accordion .ui-widget-content,\r\n#accordion .ui-state-active, \r\n#accordion .ui-widget-content .ui-state-active, \r\n#accordion .ui-widget-header .ui-state-active  {\r\n  border: none;\r\n}\r\n\r\n#accordion .ui-accordion-header-icon {\r\n  display: inline-block;\r\n  margin-top: .25em;\r\n  font-size: 1.5em;\r\n}\r\n\r\n#accordion h3 {\r\n    border-radius: 0;\r\n    background: #eee;\r\n    border: 0;\r\n    font-size: .9em;\r\n    padding: .25em;\r\n    margin-bottom: 1em;\r\n}\r\n\r\n#accordion h3:hover {\r\n    background: #ddd;\r\n}\r\n\r\n#accordion p {\r\n    font-family: \"Source Sans Pro\",Calibri,Candara,Arial,sans-serif;\r\n    margin-left: 1em;\r\n}\r\n</style>",
      "revision_id" : 16482,
      "langcode" : "und",
      "body_format" : "full_html_no_wysiwyg",
      "deleted" : 0,
      "bundle" : "page",
      "entity_id" : 798,
      "body_summary" : "",
      "delta" : 0
   },
   "langcode" : "und",
   "type" : "page",
   "field_tags" : [],
   "node_access" : null,
   "uuid" : "135b6e00-3f5b-481a-a2cc-ba168fa3d381",
   "vid" : 16482,
   "path_alias" : {
      "pid" : 951,
      "alias" : "/uarchives/history/test",
      "langcode" : "und",
      "status" : 0,
      "language" : "und"
   },
   "field_image" : null,
   "node_field_data" : {
      "promote" : 0,
      "title" : "testing accordion",
      "default_langcode" : 1,
      "langcode" : "und",
      "created" : 1599684529,
      "revision_translation_affected" : 1,
      "uid" : 1,
      "sticky" : 0,
      "changed" : null,
      "type" : "page",
      "status" : 1
   },
   "asidebox" : {
      "nid" : 798,
      "bid" : null,
      "body_title" : "",
      "status" : "disabled",
      "body_value" : null,
      "block_delta" : null,
      "body_format" : null,
      "vid" : 16482,
      "block_module" : null
   },
   "nid" : "798",
   "revisions" : [
      {
         "field_revision" : {
            "sticky" : 0,
            "changed" : null,
            "status" : 1,
            "langcode" : null,
            "default_langcode" : 1,
            "uid" : 1,
            "revision_translation_affected" : 1,
            "created" : null,
            "title" : "testing accordion"
         },
         "title" : "testing accordion",
         "promote" : 0,
         "log" : "",
         "uid" : 7,
         "vuuid" : "09fa9511-a1ca-4b5b-88c5-a3c29d637551",
         "timestamp" : 1599685634,
         "status" : 1,
         "node_revision__field_tags" : [],
         "node_revision__body" : {
            "entity_id" : 798,
            "bundle" : "page",
            "delta" : 0,
            "body_summary" : "",
            "body_value" : "<div id=\"accordion\">\r\n  <h3>Section 1</h3>\r\n  <div>\r\n    <p>Mauris mauris ante, blandit et, ultrices a, suscipit eget, quam. Integer ut neque. Vivamus nisi metus, molestie vel, gravida in, condimentum sit amet, nunc. Nam a nibh. Donec suscipit eros. Nam mi. Proin viverra leo ut odio. Curabitur malesuada. Vestibulum a velit eu ante scelerisque vulputate. Mauris mauris ante, blandit et, ultrices a, suscipit eget, quam. Integer ut neque. Vivamus nisi metus, molestie vel, gravida in, condimentum sit amet, nunc. Nam a nibh. Donec suscipit eros. Nam mi. Proin viverra leo ut odio. Curabitur malesuada. Vestibulum a velit eu ante scelerisque vulputate.</p>\r\n  </div>\r\n  <h3>Section 2</h3>\r\n  <div>\r\n    <p>Mauris mauris ante, blandit et, ultrices a, suscipit eget, quam. Integer ut neque. Vivamus nisi metus, molestie vel, gravida in, condimentum sit amet, nunc. Nam a nibh. Donec suscipit eros. Nam mi. ultrices a, suscipit eget, quam. Integer ut neque. Vivamus nisi metus, molestie vel, gravida in, condimentum sit amet, nunc. Nam a nibh. Donec suscipit eros. Nam mi. Proin viverra leo ut odio. Curabitur malesuada. Vestibulum a velit eu ante scelerisque vulputate.</p>\r\n  </div>\r\n  <h3>Section 3</h3>\r\n  <div>\r\n    <p>Mauris mauris ante, blandit et, ultrices a, suscipit eget, quam. Integer ut neque. Vivamus nisi metus, molestie vel, gravida in, condimentum sit amet, nunc. Nam a nibh. Donec suscipit eros. Nam mi. Proin viverra leo ut odio. Curabitur malesuada. Vestibulum a velit eu ante scelerisque vulputate. Mauris mauris ante, blandit et, ultrices a, suscipit eget, quam. Integer ut neque. Vivamus nisi metus, molestie vel, gravida in, condimentum sit amet, nunc. Nam a nibh. Donec suscipit eros. Nam mi. Proin viverra leo ut odio. Curabitur malesuada. Vestibulum a velit eu ante scelerisque vulputate.</p>\r\n  </div>\r\n  <h3>Section 4</h3>\r\n  <div>\r\n    <p>Mauris mauris ante, blandit et, ultrices a, suscipit eget, quam. Integer ut neque. Vivamus nisi metus, molestie vel, gravida in, condimentum sit amet, nunc. Nam a nibh. Donec suscipit eros. Nam mi. Proin viverra leo ut odio. Curabitur malesuada. Vestibulum a velit eu ante scelerisque vulputate. Mauris mauris ante, blandit et, ultrices a, suscipit eget, quam. Integer ut neque. Vivamus nisi metus, molestie vel, gravida in, condimentum sit amet, nunc. Nam a nibh. Donec suscipit eros. Nam mi. Proin viverra leo ut odio. Curabitur malesuada. Vestibulum a velit eu ante scelerisque vulputate.</p>\r\n    <p>Mauris mauris ante, blandit et, ultrices a, suscipit eget, quam. Integer ut neque. Vivamus nisi metus, molestie vel, gravida in, condimentum sit amet, nunc. Nam a nibh. Donec suscipit eros. Nam mi. Proin viverra leo ut odio. Curabitur malesuada. Vestibulum a velit eu ante scelerisque vulputate. Mauris mauris ante, blandit et, ultrices a, suscipit eget, quam. Integer ut neque. Vivamus nisi metus, molestie vel, gravida in, condimentum sit amet, nunc. Nam a nibh. Donec suscipit eros. Nam mi. Proin viverra leo ut odio. Curabitur malesuada. Vestibulum a velit eu ante scelerisque vulputate.</p>\r\n  </div>\r\n</div>\r\n\r\n<style type=\"text/css\">\r\n\r\n#accordion {\r\n  font-family: \"Source Sans Pro\",Calibri,Candara,Arial,sans-serif;\r\n}\r\n\r\n#accordion .ui-widget-content,\r\n#accordion .ui-state-active, \r\n#accordion .ui-widget-content .ui-state-active, \r\n#accordion .ui-widget-header .ui-state-active  {\r\n  border: none;\r\n}\r\n\r\n#accordion .ui-accordion-header-icon {\r\n  display: inline-block;\r\n  margin-top: .25em;\r\n  font-size: 1.5em;\r\n}\r\n\r\n#accordion h3 {\r\n    border-radius: 0;\r\n    background: #eee;\r\n    border: 0;\r\n    font-size: .9em;\r\n    padding: .25em;\r\n    margin-bottom: 1em;\r\n}\r\n\r\n#accordion h3:hover {\r\n    background: #ddd;\r\n}\r\n\r\n#accordion p {\r\n    font-family: \"Source Sans Pro\",Calibri,Candara,Arial,sans-serif;\r\n    margin-left: 1em;\r\n}\r\n</style>",
            "deleted" : 0,
            "body_format" : "full_html_no_wysiwyg",
            "langcode" : "und",
            "revision_id" : 16482
         },
         "sticky" : 0,
         "comment" : 1
      }
   ]
}

