{
   "node__body" : {
      "body_value" : "<p><img src=\"/rubenstein/sites/default/files/rubenstein/users/kate.collins/34567789304_604f776240_o.jpg\" alt=\"Photograph of two women doing archival research in a library. They are seated at a table facing one another. They both have a folder of archival documents in front of them, one of the women has her laptop open.\" style=\"float: left; margin: 10px;\" width=\"350\" height=\"288\"></p><p>Archival Expeditions introduces Duke graduate students to teaching with digital and physical primary sources. Each student partners with a Duke faculty sponsor to design an undergraduate course module that incorporates primary source material tailored to a specific class taught by that faculty member. Students have the option of drawing on the physical special collections of the Rubenstein Library or primary source databases and digital collections available at Duke or elsewhere. This new program is based on the successful <a href=\"https://bigdata.duke.edu/data-expeditions\">Data Expeditions</a> program.</p><p>Graduate students will be expected to spend 70-75 hours during a semester consulting with their faculty sponsor, library staff and other experts and researching, developing and testing the module. The students will work with their faculty sponsor to establish the expectations and parameters for the module prior to applying to the program. A module can take a variety of shapes and be adjusted to fit different courses, disciplines, and goals of the faculty sponsor. Each module should be designed to allow for roughly 1-2 weeks of time within an existing course or 10-20 student hours. These hours can be a combination of in-class and out-of-class activities. Archival Expeditions drawing on physical special collections must include student time with the original material from the David M. Rubenstein Rare Book &amp; Manuscript Library.</p><p>Successful applicants will join a cohort of other Archival Expeditions graduate student instructors. They will participate in a brief boot camp at the beginning of the program and will meet a few times during the semester to share experiences and lessons learned. Students will be compensated $1,500 for their work and have the option of an additional $500 if they help teach the module in a subsequent semester. Students and faculty sponsors will present their modules as part of a showcase and panel discussion at the end of the semester.The course module will also be made available on the Archival Expeditions website under a CC-BY NC Creative Commons license, allowing other faculty and students to learn from and reuse it.</p><p><i>Eligibility</i></p><p>Any Duke graduate student who has completed 1 academic year at Duke may apply. &nbsp;The applicant must secure a letter of support from the faculty sponsor and complete the Archival Expeditions Application.&nbsp; Applications will be reviewed by a panel of faculty members and librarians. Please review the <a href=\"#FAQ\">\"Frequently Asked Questions for Faculty Sponsors\"</a> &nbsp;with your faculty member to be clear about expectations.</p><h3>Previous Fellows</h3><h3>Summer 2020</h3><p><b>Sinja Küppers, Classical Studies<br></b>Sponsor: Dr. Erika Weiberg<br>Course: Lyric and Hellenistic Poetry<br> Module: Textual Transmission of Female Greek Lyric Poets<br> Download:&nbsp;<a href=\"https://duke.box.com/s/6qh53dmg79mcz1a9fmvypymvvrr3ddw7\">Lesson Plan</a>&nbsp;</p><p><b>Garrett McKinnon, History<br></b>Sponsor: Dr. Dirk Bönker<br>Course: History of Modern Warfare<br> Module: Post-Colonial People’s War in Vietnam<br> Download:&nbsp;<a href=\"https://duke.box.com/s/c3gapa8vnh0dcj7tm5yew2q0l7yk5hdz\">Lesson Plan</a>&nbsp;</p><p><b>Krishni Metivier, Religion</b><br> Sponsor: Heather Martin<br> Module: Recovering Black American Experiences with Hinduism and Buddhism<br> Download:&nbsp;<a href=\"https://duke.box.com/s/7e3gpbb0zdtkhamulnojg68z7toh3rs4\">Lesson Plan &nbsp;</a></p><p><b>Joanna Murdoch, English</b><br> Sponsor: Dr. Sarah Beckwith<br>Course: Shakespeare in Nature<br> Module: Teaching Shakespeare and Nature with Primary Sources<br> Download:&nbsp;<a href=\"https://duke.box.com/s/zknoqo8tugs9ep0u7pm3katei9oj0tfo\">Lesson Plan</a>&nbsp;</p><p><b>Allison Raven, English</b><br> Sponsors: Dr. James Chappell and Dr. Cecilia Marquez<br>Course: History of the Present<br>Download:&nbsp;<a href=\"https://duke.box.com/s/48fe32adudeade2zt3sf32cbqxxeay0g\">Black Lives Matter Lesson Plan</a>, <a href=\"https://duke.box.com/s/wst46lr3ijqdk8eesajmk0no3czard4j\">2008 Recession Lesson Plan</a>, <a href=\"https://duke.box.com/s/1zfg7tcvarslv0635e2j9eud6fzrcxqa\">Pandemics and Disasters Lesson Plan</a>, <a href=\"https://duke.box.com/s/hya5hcn7gk6s97cde7tbm7ljns8kuw6g\">Rise of the Internet Lesson Plan</a>, <a href=\"https://duke.box.com/s/3aklojhss4xsiiunm52135up15jiihe1\">The Transformation of American Politics Lesson Plan</a></p><p><b>Zexi (Jesse) Sun, Religion</b><br> Sponsor: Luo Zhou<br> Module: History of Modern China<br> Download:&nbsp;<a href=\"https://duke.box.com/s/2z90rs3v44bqx75lf9t6xndyuyjhgwhn\">Lesson Plan</a> &nbsp;</p><h4>2019</h4><p><strong>Kimberley Dimitriadis, English</strong><br>Faculty Sponsor: Dr. Charlotte Sussman <br>Course: Doctors' Stories<br>Module: Cure: Then and Now<br>Download: <a href=\"/rubenstein/sites/default/files/rubenstein/pdf/KBD_Doctor%E2%80%99sStories_ArchivalExpeditionsModule_LessonPlan.pdf\">Lesson Plan</a></p><p><strong>Jonathan Homrighausen, Religion</strong> <br>Faculty Sponsor: Dr. Marc Brettler<br>Course: The Old Testament / Hebrew Bible<br>Module: The Living, Material Bible<br>Download: <a href=\"/rubenstein/sites/default/files/rubenstein/pdf/LivingHebrewBibleWeb.pdf\">Lesson Plan</a></p><p><strong>Joseph Mulligan, Romance Studies</strong> <br>Faculty Sponsor: Dr. José María Rodriguez García<br>Course: Introduction to Spanish Literature<br>Module: Pedagogical Missions of Spain<br>Download: <a href=\"/rubenstein/sites/default/files/rubenstein/pdf/Pedagogical_Missions_Spain_AE_Module_JMulligan.pdf\">Lesson Plan</a></p><p></p><h4>2018</h4><p><strong>Michael Freeman, Classical Studies&nbsp;</strong><a href=\"/rubenstein/sites/default/files/rubenstein/users/kate.collins/Freeman_Papyrology_AE.pdf\"><br></a>Faculty Sponsor: Dr. Clare Woods<br>Course: History of the Book<br>Module: Introduction to Papyrology<a href=\"/rubenstein/sites/default/files/rubenstein/users/kate.collins/Freeman_Papyrology_AE.pdf\"><br></a>Download:&nbsp;<a href=\"/rubenstein/sites/default/files/rubenstein/users/kate.collins/Freeman_Papyrology_AE.pdf\">Lesson Plan</a></p><p><strong>Ashton Merck, History, and Helen Shears, History&nbsp;</strong><i></i><br>Faculty Sponsor: Dr. David Robinson<br>Module: Historical Contexts of Innovation and Entrepreneurship<br>Downloads: <a href=\"/rubenstein/sites/default/files/rubenstein/users/kate.collins/History_of_Innovation_Lesson_Plans.pdf\">Lesson Plans</a> and <a href=\"/rubenstein/sites/default/files/rubenstein/users/kate.collins/History-of-Innovation_Handout_AE.pdf\">Student Worksheet</a>&nbsp;</p><p><strong>Alyssa Miller, Cultural Anthropology</strong><br>Faculty Sponsor: Dr. Ellen McLarney<br>Course: Black Muslims<br>Module:&nbsp;Recovering Black Muslim Experiences<br>Downloads: <a href=\"/rubenstein/sites/default/files/rubenstein/users/kate.collins/Black_Muslims_Lesson_Plan_AE.pdf\">Lesson Plan</a> and <a href=\"/rubenstein/sites/default/files/rubenstein/users/kate.collins/Black%20Muslims--lesson%20worksheet.pdf\">Student Worksheet</a></p><h3><a name=\"FAQ\"></a>Frequently Asked Questions for Faculty Sponsors<a></a></h3><h4>What is the faculty sponsor’s role?</h4><p>The faculty sponsor will establish the expectations and parameters for the module with the graduate student and act as a consultant during the design and testing of the module. The faculty sponsor should expect to teach the course with the module within one year of completion. The graduate student may be involved in the module component of the course and will receive a one-time stipend of $500 for their participation.</p><h4>What is the time commitment?</h4><p>The faculty sponsor should expect to meet with the student to discuss the application, course, and module prior to the application deadline. The faculty sponsor and student should plan to meet at least once a month, more frequent meetings can be determined by the faculty sponsor and the graduate student.</p><h4>What is a module?</h4><p>A module can take a variety of shapes and be adjusted to fit different courses, disciplines, and goals of the faculty sponsor. Each module should be designed to allow for roughly 1-2 weeks of time within an existing course or 10-20 student hours. Students drawing on the physical special collections of the Rubenstein Library must include student time with the original material from the David M. Rubenstein Rare Book &amp; Manuscript Library.</p><h4>If my student needs support finding material or building the module who should they contact?</h4><p><i></i>The primary liaison for the student is the faculty sponsor, who can communicate their vision for the module.</p><p>The Rubenstein Library contact is Katie Henningsen, Head of Research Services, and the digital primary source contact is Arianne Hartsell-Gundy, Head of Humanities Section and Librarian for Literature and Theater Studies. Katie and/or Arianne will connect the student with the appropriate curators, subject experts, and technology resources to create an effective teaching module.</p>",
      "revision_id" : 16991,
      "langcode" : "und",
      "deleted" : 0,
      "body_format" : "full_html",
      "bundle" : "page",
      "entity_id" : 699,
      "body_summary" : "",
      "delta" : 0
   },
   "langcode" : "und",
   "type" : "page",
   "field_tags" : [],
   "node_access" : null,
   "node_field_data" : {
      "title" : "Archival Expeditions",
      "promote" : 0,
      "uid" : 1,
      "revision_translation_affected" : 1,
      "created" : 1527015632,
      "langcode" : "und",
      "default_langcode" : 1,
      "changed" : null,
      "type" : "page",
      "status" : 1,
      "sticky" : 0
   },
   "asidebox" : {
      "nid" : 699,
      "body_title" : "Summer Archival Expeditions",
      "bid" : null,
      "block_delta" : null,
      "body_value" : "<p>In the Summer Archival Expeditions program, students partner with a Duke faculty or librarian sponsor and over 8 weeks design an undergraduate course assignment or module that incorporates primary source material in a specific class taught by their sponsor.</p><p><a href=\"https://library.duke.edu/rubenstein/instruction/archival-expeditions/summer\">Learn more about and apply for the Summer 2021 Archival Expeditions program. </a></p><p>Priority deadline is April 30, 2021.</p>",
      "status" : "html",
      "block_module" : null,
      "vid" : 16991,
      "body_format" : "full_html"
   },
   "nid" : "699",
   "revisions" : [
      {
         "field_revision" : {
            "title" : "Archival Expeditions",
            "changed" : null,
            "status" : 1,
            "sticky" : 0,
            "revision_translation_affected" : 1,
            "created" : null,
            "uid" : 1,
            "default_langcode" : 1,
            "langcode" : null
         },
         "title" : "Archival Expeditions",
         "promote" : 0,
         "log" : "",
         "uid" : 11,
         "vuuid" : "c92ec5df-ed5a-4afd-8dcd-b14a4f7c01fc",
         "timestamp" : 1617223909,
         "status" : 1,
         "node_revision__field_tags" : [],
         "node_revision__body" : {
            "body_value" : "<p><img src=\"/rubenstein/sites/default/files/rubenstein/users/kate.collins/34567789304_604f776240_o.jpg\" alt=\"Photograph of two women doing archival research in a library. They are seated at a table facing one another. They both have a folder of archival documents in front of them, one of the women has her laptop open.\" style=\"float: left; margin: 10px;\" width=\"350\" height=\"288\"></p><p>Archival Expeditions introduces Duke graduate students to teaching with digital and physical primary sources. Each student partners with a Duke faculty sponsor to design an undergraduate course module that incorporates primary source material tailored to a specific class taught by that faculty member. Students have the option of drawing on the physical special collections of the Rubenstein Library or primary source databases and digital collections available at Duke or elsewhere. This new program is based on the successful <a href=\"https://bigdata.duke.edu/data-expeditions\">Data Expeditions</a> program.</p><p>Graduate students will be expected to spend 70-75 hours during a semester consulting with their faculty sponsor, library staff and other experts and researching, developing and testing the module. The students will work with their faculty sponsor to establish the expectations and parameters for the module prior to applying to the program. A module can take a variety of shapes and be adjusted to fit different courses, disciplines, and goals of the faculty sponsor. Each module should be designed to allow for roughly 1-2 weeks of time within an existing course or 10-20 student hours. These hours can be a combination of in-class and out-of-class activities. Archival Expeditions drawing on physical special collections must include student time with the original material from the David M. Rubenstein Rare Book &amp; Manuscript Library.</p><p>Successful applicants will join a cohort of other Archival Expeditions graduate student instructors. They will participate in a brief boot camp at the beginning of the program and will meet a few times during the semester to share experiences and lessons learned. Students will be compensated $1,500 for their work and have the option of an additional $500 if they help teach the module in a subsequent semester. Students and faculty sponsors will present their modules as part of a showcase and panel discussion at the end of the semester.The course module will also be made available on the Archival Expeditions website under a CC-BY NC Creative Commons license, allowing other faculty and students to learn from and reuse it.</p><p><i>Eligibility</i></p><p>Any Duke graduate student who has completed 1 academic year at Duke may apply. &nbsp;The applicant must secure a letter of support from the faculty sponsor and complete the Archival Expeditions Application.&nbsp; Applications will be reviewed by a panel of faculty members and librarians. Please review the <a href=\"#FAQ\">\"Frequently Asked Questions for Faculty Sponsors\"</a> &nbsp;with your faculty member to be clear about expectations.</p><h3>Previous Fellows</h3><h3>Summer 2020</h3><p><b>Sinja Küppers, Classical Studies<br></b>Sponsor: Dr. Erika Weiberg<br>Course: Lyric and Hellenistic Poetry<br> Module: Textual Transmission of Female Greek Lyric Poets<br> Download:&nbsp;<a href=\"https://duke.box.com/s/6qh53dmg79mcz1a9fmvypymvvrr3ddw7\">Lesson Plan</a>&nbsp;</p><p><b>Garrett McKinnon, History<br></b>Sponsor: Dr. Dirk Bönker<br>Course: History of Modern Warfare<br> Module: Post-Colonial People’s War in Vietnam<br> Download:&nbsp;<a href=\"https://duke.box.com/s/c3gapa8vnh0dcj7tm5yew2q0l7yk5hdz\">Lesson Plan</a>&nbsp;</p><p><b>Krishni Metivier, Religion</b><br> Sponsor: Heather Martin<br> Module: Recovering Black American Experiences with Hinduism and Buddhism<br> Download:&nbsp;<a href=\"https://duke.box.com/s/7e3gpbb0zdtkhamulnojg68z7toh3rs4\">Lesson Plan &nbsp;</a></p><p><b>Joanna Murdoch, English</b><br> Sponsor: Dr. Sarah Beckwith<br>Course: Shakespeare in Nature<br> Module: Teaching Shakespeare and Nature with Primary Sources<br> Download:&nbsp;<a href=\"https://duke.box.com/s/zknoqo8tugs9ep0u7pm3katei9oj0tfo\">Lesson Plan</a>&nbsp;</p><p><b>Allison Raven, English</b><br> Sponsors: Dr. James Chappell and Dr. Cecilia Marquez<br>Course: History of the Present<br>Download:&nbsp;<a href=\"https://duke.box.com/s/48fe32adudeade2zt3sf32cbqxxeay0g\">Black Lives Matter Lesson Plan</a>, <a href=\"https://duke.box.com/s/wst46lr3ijqdk8eesajmk0no3czard4j\">2008 Recession Lesson Plan</a>, <a href=\"https://duke.box.com/s/1zfg7tcvarslv0635e2j9eud6fzrcxqa\">Pandemics and Disasters Lesson Plan</a>, <a href=\"https://duke.box.com/s/hya5hcn7gk6s97cde7tbm7ljns8kuw6g\">Rise of the Internet Lesson Plan</a>, <a href=\"https://duke.box.com/s/3aklojhss4xsiiunm52135up15jiihe1\">The Transformation of American Politics Lesson Plan</a></p><p><b>Zexi (Jesse) Sun, Religion</b><br> Sponsor: Luo Zhou<br> Module: History of Modern China<br> Download:&nbsp;<a href=\"https://duke.box.com/s/2z90rs3v44bqx75lf9t6xndyuyjhgwhn\">Lesson Plan</a> &nbsp;</p><h4>2019</h4><p><strong>Kimberley Dimitriadis, English</strong><br>Faculty Sponsor: Dr. Charlotte Sussman <br>Course: Doctors' Stories<br>Module: Cure: Then and Now<br>Download: <a href=\"/rubenstein/sites/default/files/rubenstein/pdf/KBD_Doctor%E2%80%99sStories_ArchivalExpeditionsModule_LessonPlan.pdf\">Lesson Plan</a></p><p><strong>Jonathan Homrighausen, Religion</strong> <br>Faculty Sponsor: Dr. Marc Brettler<br>Course: The Old Testament / Hebrew Bible<br>Module: The Living, Material Bible<br>Download: <a href=\"/rubenstein/sites/default/files/rubenstein/pdf/LivingHebrewBibleWeb.pdf\">Lesson Plan</a></p><p><strong>Joseph Mulligan, Romance Studies</strong> <br>Faculty Sponsor: Dr. José María Rodriguez García<br>Course: Introduction to Spanish Literature<br>Module: Pedagogical Missions of Spain<br>Download: <a href=\"/rubenstein/sites/default/files/rubenstein/pdf/Pedagogical_Missions_Spain_AE_Module_JMulligan.pdf\">Lesson Plan</a></p><p></p><h4>2018</h4><p><strong>Michael Freeman, Classical Studies&nbsp;</strong><a href=\"/rubenstein/sites/default/files/rubenstein/users/kate.collins/Freeman_Papyrology_AE.pdf\"><br></a>Faculty Sponsor: Dr. Clare Woods<br>Course: History of the Book<br>Module: Introduction to Papyrology<a href=\"/rubenstein/sites/default/files/rubenstein/users/kate.collins/Freeman_Papyrology_AE.pdf\"><br></a>Download:&nbsp;<a href=\"/rubenstein/sites/default/files/rubenstein/users/kate.collins/Freeman_Papyrology_AE.pdf\">Lesson Plan</a></p><p><strong>Ashton Merck, History, and Helen Shears, History&nbsp;</strong><i></i><br>Faculty Sponsor: Dr. David Robinson<br>Module: Historical Contexts of Innovation and Entrepreneurship<br>Downloads: <a href=\"/rubenstein/sites/default/files/rubenstein/users/kate.collins/History_of_Innovation_Lesson_Plans.pdf\">Lesson Plans</a> and <a href=\"/rubenstein/sites/default/files/rubenstein/users/kate.collins/History-of-Innovation_Handout_AE.pdf\">Student Worksheet</a>&nbsp;</p><p><strong>Alyssa Miller, Cultural Anthropology</strong><br>Faculty Sponsor: Dr. Ellen McLarney<br>Course: Black Muslims<br>Module:&nbsp;Recovering Black Muslim Experiences<br>Downloads: <a href=\"/rubenstein/sites/default/files/rubenstein/users/kate.collins/Black_Muslims_Lesson_Plan_AE.pdf\">Lesson Plan</a> and <a href=\"/rubenstein/sites/default/files/rubenstein/users/kate.collins/Black%20Muslims--lesson%20worksheet.pdf\">Student Worksheet</a></p><h3><a name=\"FAQ\"></a>Frequently Asked Questions for Faculty Sponsors<a></a></h3><h4>What is the faculty sponsor’s role?</h4><p>The faculty sponsor will establish the expectations and parameters for the module with the graduate student and act as a consultant during the design and testing of the module. The faculty sponsor should expect to teach the course with the module within one year of completion. The graduate student may be involved in the module component of the course and will receive a one-time stipend of $500 for their participation.</p><h4>What is the time commitment?</h4><p>The faculty sponsor should expect to meet with the student to discuss the application, course, and module prior to the application deadline. The faculty sponsor and student should plan to meet at least once a month, more frequent meetings can be determined by the faculty sponsor and the graduate student.</p><h4>What is a module?</h4><p>A module can take a variety of shapes and be adjusted to fit different courses, disciplines, and goals of the faculty sponsor. Each module should be designed to allow for roughly 1-2 weeks of time within an existing course or 10-20 student hours. Students drawing on the physical special collections of the Rubenstein Library must include student time with the original material from the David M. Rubenstein Rare Book &amp; Manuscript Library.</p><h4>If my student needs support finding material or building the module who should they contact?</h4><p><i></i>The primary liaison for the student is the faculty sponsor, who can communicate their vision for the module.</p><p>The Rubenstein Library contact is Katie Henningsen, Head of Research Services, and the digital primary source contact is Arianne Hartsell-Gundy, Head of Humanities Section and Librarian for Literature and Theater Studies. Katie and/or Arianne will connect the student with the appropriate curators, subject experts, and technology resources to create an effective teaching module.</p>",
            "revision_id" : 16991,
            "langcode" : "und",
            "body_format" : "full_html",
            "deleted" : 0,
            "bundle" : "page",
            "entity_id" : 699,
            "body_summary" : "",
            "delta" : 0
         },
         "sticky" : 0,
         "comment" : 1
      }
   ],
   "uuid" : "16d5ce14-30cf-4d32-84d3-a4741bb43f82",
   "vid" : 16991,
   "path_alias" : {
      "langcode" : "und",
      "alias" : "/instruction/archival-expeditions",
      "pid" : 831,
      "language" : "und",
      "status" : 0
   },
   "field_image" : null
}

