{
   "uuid" : "18fd7673-22b6-4d8e-ab31-c7eb2d6f56d1",
   "path_alias" : {
      "status" : 0,
      "language" : "und",
      "pid" : 142,
      "alias" : "/uarchives/research-guides",
      "langcode" : "und"
   },
   "vid" : 17025,
   "field_image" : null,
   "revisions" : [
      {
         "log" : "",
         "vuuid" : "434233aa-a67c-4169-866a-93c4146bcf16",
         "uid" : 13,
         "field_revision" : {
            "title" : "University Archives Research Guides",
            "default_langcode" : 1,
            "langcode" : null,
            "revision_translation_affected" : 1,
            "created" : null,
            "uid" : 1,
            "sticky" : 0,
            "changed" : null,
            "status" : 1
         },
         "promote" : 0,
         "title" : "University Archives Research Guides",
         "node_revision__field_tags" : [],
         "sticky" : 0,
         "node_revision__body" : {
            "entity_id" : 96,
            "bundle" : "page",
            "delta" : 0,
            "body_summary" : "",
            "body_value" : "<h2>Research guides</h2><ul><li><a href=\"http://guides.library.duke.edu/duke-history\" target=\"_blank\">Introduction to Duke University History</a></li></ul><ul><li><a href=\"https://guides.library.duke.edu/duke-asian-american\" target=\"_blank\">Asian &amp; Asian-American History at Duke University</a></li></ul><ul><li><a href=\"http://guides.library.duke.edu/dukefamily\" target=\"_blank\">The Duke Family</a></li></ul><ul><li><a href=\"https://guides.library.duke.edu/duke-black-history\">Black History at Duke University</a></li></ul><ul><li><a href=\"http://guides.library.duke.edu/dukeathletics\" target=\"_blank\">Duke University Athletics</a></li></ul><ul><li><a href=\"http://guides.library.duke.edu/content.php?pid=31948&amp;sid=1572354\">LGBTQ History at Duke University</a></li></ul><ul><li><a href=\"http://guides.library.duke.edu/UA-oral-histories\" target=\"_blank\">Oral Histories at the University Archives</a></li></ul><ul><li><a href=\"http://guides.library.duke.edu/uavisualmaterials\" target=\"_blank\">Photos, Film, and Other Visual Materials at the University Archives</a></li></ul><ul><li><a href=\"http://guides.library.duke.edu/duke-student-activism\" target=\"_blank\">Student Activism at Duke University</a></li></ul>",
            "body_format" : "full_html",
            "deleted" : 0,
            "langcode" : "und",
            "revision_id" : 17025
         },
         "status" : 1,
         "comment" : 1,
         "timestamp" : 1619024431
      }
   ],
   "nid" : "96",
   "asidebox" : {
      "block_delta" : null,
      "status" : "html",
      "body_value" : "<p><img src=\"http://library.duke.edu/imgs/common/icons/accept.png\" alt=\"Access\" width=\"20\">&nbsp;Did you find what you need? <a href=\"/rubenstein/research/readingroom\" target=\"_blank\">Register and request materials online</a> before visiting the Rubenstein Library Reading Room.</p><p><img src=\"http://library.duke.edu/imgs/common/icons/comments.png\" alt=\"Contact Us!\" width=\"20\"> Need more help? <a href=\"/rubenstein/uarchives/ask\" target=\"_blank\">Ask the Duke University Archives staff</a>.</p>",
      "vid" : 17025,
      "block_module" : null,
      "body_format" : "full_html",
      "nid" : 96,
      "bid" : null,
      "body_title" : ""
   },
   "node_field_data" : {
      "type" : "page",
      "status" : 1,
      "changed" : null,
      "sticky" : 0,
      "created" : 1375630909,
      "revision_translation_affected" : 1,
      "uid" : 1,
      "default_langcode" : 1,
      "langcode" : "und",
      "title" : "University Archives Research Guides",
      "promote" : 0
   },
   "field_tags" : [],
   "type" : "page",
   "node_access" : null,
   "node__body" : {
      "body_summary" : "",
      "delta" : 0,
      "bundle" : "page",
      "entity_id" : 96,
      "revision_id" : 17025,
      "langcode" : "und",
      "deleted" : 0,
      "body_format" : "full_html",
      "body_value" : "<h2>Research guides</h2><ul><li><a href=\"http://guides.library.duke.edu/duke-history\" target=\"_blank\">Introduction to Duke University History</a></li></ul><ul><li><a href=\"https://guides.library.duke.edu/duke-asian-american\" target=\"_blank\">Asian &amp; Asian-American History at Duke University</a></li></ul><ul><li><a href=\"http://guides.library.duke.edu/dukefamily\" target=\"_blank\">The Duke Family</a></li></ul><ul><li><a href=\"https://guides.library.duke.edu/duke-black-history\">Black History at Duke University</a></li></ul><ul><li><a href=\"http://guides.library.duke.edu/dukeathletics\" target=\"_blank\">Duke University Athletics</a></li></ul><ul><li><a href=\"http://guides.library.duke.edu/content.php?pid=31948&amp;sid=1572354\">LGBTQ History at Duke University</a></li></ul><ul><li><a href=\"http://guides.library.duke.edu/UA-oral-histories\" target=\"_blank\">Oral Histories at the University Archives</a></li></ul><ul><li><a href=\"http://guides.library.duke.edu/uavisualmaterials\" target=\"_blank\">Photos, Film, and Other Visual Materials at the University Archives</a></li></ul><ul><li><a href=\"http://guides.library.duke.edu/duke-student-activism\" target=\"_blank\">Student Activism at Duke University</a></li></ul>"
   },
   "langcode" : "und"
}

