{
   "asidebox" : {
      "nid" : 713,
      "bid" : null,
      "body_title" : "",
      "block_delta" : null,
      "status" : "disabled",
      "body_value" : null,
      "vid" : 15653,
      "block_module" : null,
      "body_format" : null
   },
   "node_field_data" : {
      "uid" : 1,
      "created" : 1527885405,
      "revision_translation_affected" : 1,
      "langcode" : "und",
      "default_langcode" : 1,
      "status" : 1,
      "type" : "page",
      "changed" : null,
      "sticky" : 0,
      "title" : "Donate to the Economists' Research Papers Archive",
      "promote" : 0
   },
   "revisions" : [
      {
         "vuuid" : "b532d864-a6e6-4444-bafc-20ecbf8da76e",
         "uid" : 89,
         "log" : "",
         "promote" : 0,
         "title" : "Donate to the Economists' Research Papers Archive",
         "field_revision" : {
            "default_langcode" : 1,
            "langcode" : null,
            "revision_translation_affected" : 1,
            "created" : null,
            "uid" : 1,
            "sticky" : 0,
            "status" : 1,
            "changed" : null,
            "title" : "Donate to the Economists' Research Papers Archive"
         },
         "comment" : 1,
         "sticky" : 0,
         "node_revision__field_tags" : [],
         "node_revision__body" : {
            "deleted" : 0,
            "body_format" : "full_html",
            "langcode" : "und",
            "revision_id" : 15653,
            "body_value" : "<h3>Donating Materials</h3><p style=\"margin-top: 0px; margin-bottom: 12px; box-sizing: border-box; color: #333333; font-family: 'Source Sans Pro', Calibri, Candara, Arial, sans-serif; font-size: 17px;\">The Archive seeks to acquire the papers of influential economists in the US and abroad, and to record the history of economic thought by documenting the work of individual economists as well as significant organizations and journals in the field. Particular areas of strength include the fields of game theory, public policy and monetary economics, growth theory and other macroeconomic topics, as well as Keynesian and post-Keynesian economics. In addition the Archive is actively seeking the papers of women and people of color, and those working in welfare economics, feminist economics, and mechanism design.&nbsp;</p><p style=\"margin-top: 0px; margin-bottom: 12px; box-sizing: border-box; color: #333333; font-family: 'Source Sans Pro', Calibri, Candara, Arial, sans-serif; font-size: 17px;\">To determine whether your personal papers, organizational records, books, or other materials documenting the history of economic thought are a good fit for the Economists' Papers Archive, please&nbsp;<a href=\"http://library.duke.edu/rubenstein/ask\" target=\"_blank\">contact us</a>. We do not accept unsolicited donations without written gift agreements and cannot guarantee that materials will be added to our collections.&nbsp;</p><h3>Financial Contributions</h3><p style=\"margin-top: 0px; margin-bottom: 12px; box-sizing: border-box; color: #333333; font-family: 'Source Sans Pro', Calibri, Candara, Arial, sans-serif; font-size: 17px;\">Your gift to the Economists' Papers Archive is greatly appreciated and will support the acquisition of new collections, programming, and our work to provide access to materials.&nbsp;</p><div class=\"col-sm-9 panel-panel\" style=\"box-sizing: border-box; position: relative; min-height: 1px; padding-right: 15px; padding-left: 15px; float: left; width: 877.5px;\"><div class=\"row\" style=\"box-sizing: border-box; margin-right: -15px; margin-left: -15px;\"><div class=\"col-sm-8 radix-layouts-contentcolumn2 panel-panel\" style=\"box-sizing: border-box; position: relative; min-height: 1px; padding-right: 15px; padding-left: 15px; float: left; width: 585px;\"><div class=\"panel-pane pane-custom pane-3 support rl-support\" style=\"box-sizing: border-box;\"><div class=\"pane-content\" style=\"box-sizing: border-box;\"><div class=\"support-rubenstein\" style=\"box-sizing: border-box; background: url('/sites/all/themes/dulcet/assets/images/striped-grey.png') left top repeat; padding: 20px;\">Support the Rubenstein Library:&nbsp;<a href=\"https://library.duke.edu/support\" class=\"btn btn-success\" style=\"box-sizing: border-box; background-color: #a1b70d; color: #ffffff; display: inline-block; text-align: center; vertical-align: middle; touch-action: manipulation; cursor: pointer; background-image: none; border-width: 1px; border-style: solid; border-color: #a1b70d; white-space: nowrap; padding: 10px 18px; font-size: 17px; line-height: 1.42857; border-radius: 0px; user-select: none; margin-left: 10px;\">Give Now</a></div></div></div></div></div></div>",
            "delta" : 0,
            "body_summary" : "",
            "entity_id" : 713,
            "bundle" : "page"
         },
         "status" : 1,
         "timestamp" : 1585931335
      }
   ],
   "nid" : "713",
   "path_alias" : {
      "langcode" : "und",
      "alias" : "/economists/donate",
      "pid" : 849,
      "language" : "und",
      "status" : 0
   },
   "vid" : 15653,
   "field_image" : null,
   "uuid" : "1ef8a10c-d9ec-4653-923a-857b60ce8d95",
   "langcode" : "und",
   "node__body" : {
      "delta" : 0,
      "body_summary" : "",
      "entity_id" : 713,
      "bundle" : "page",
      "deleted" : 0,
      "body_format" : "full_html",
      "langcode" : "und",
      "revision_id" : 15653,
      "body_value" : "<h3>Donating Materials</h3><p style=\"margin-top: 0px; margin-bottom: 12px; box-sizing: border-box; color: #333333; font-family: 'Source Sans Pro', Calibri, Candara, Arial, sans-serif; font-size: 17px;\">The Archive seeks to acquire the papers of influential economists in the US and abroad, and to record the history of economic thought by documenting the work of individual economists as well as significant organizations and journals in the field. Particular areas of strength include the fields of game theory, public policy and monetary economics, growth theory and other macroeconomic topics, as well as Keynesian and post-Keynesian economics. In addition the Archive is actively seeking the papers of women and people of color, and those working in welfare economics, feminist economics, and mechanism design.&nbsp;</p><p style=\"margin-top: 0px; margin-bottom: 12px; box-sizing: border-box; color: #333333; font-family: 'Source Sans Pro', Calibri, Candara, Arial, sans-serif; font-size: 17px;\">To determine whether your personal papers, organizational records, books, or other materials documenting the history of economic thought are a good fit for the Economists' Papers Archive, please&nbsp;<a href=\"http://library.duke.edu/rubenstein/ask\" target=\"_blank\">contact us</a>. We do not accept unsolicited donations without written gift agreements and cannot guarantee that materials will be added to our collections.&nbsp;</p><h3>Financial Contributions</h3><p style=\"margin-top: 0px; margin-bottom: 12px; box-sizing: border-box; color: #333333; font-family: 'Source Sans Pro', Calibri, Candara, Arial, sans-serif; font-size: 17px;\">Your gift to the Economists' Papers Archive is greatly appreciated and will support the acquisition of new collections, programming, and our work to provide access to materials.&nbsp;</p><div class=\"col-sm-9 panel-panel\" style=\"box-sizing: border-box; position: relative; min-height: 1px; padding-right: 15px; padding-left: 15px; float: left; width: 877.5px;\"><div class=\"row\" style=\"box-sizing: border-box; margin-right: -15px; margin-left: -15px;\"><div class=\"col-sm-8 radix-layouts-contentcolumn2 panel-panel\" style=\"box-sizing: border-box; position: relative; min-height: 1px; padding-right: 15px; padding-left: 15px; float: left; width: 585px;\"><div class=\"panel-pane pane-custom pane-3 support rl-support\" style=\"box-sizing: border-box;\"><div class=\"pane-content\" style=\"box-sizing: border-box;\"><div class=\"support-rubenstein\" style=\"box-sizing: border-box; background: url('/sites/all/themes/dulcet/assets/images/striped-grey.png') left top repeat; padding: 20px;\">Support the Rubenstein Library:&nbsp;<a href=\"https://library.duke.edu/support\" class=\"btn btn-success\" style=\"box-sizing: border-box; background-color: #a1b70d; color: #ffffff; display: inline-block; text-align: center; vertical-align: middle; touch-action: manipulation; cursor: pointer; background-image: none; border-width: 1px; border-style: solid; border-color: #a1b70d; white-space: nowrap; padding: 10px 18px; font-size: 17px; line-height: 1.42857; border-radius: 0px; user-select: none; margin-left: 10px;\">Give Now</a></div></div></div></div></div></div>"
   },
   "node_access" : null,
   "field_tags" : [],
   "type" : "page"
}

