{
   "node__body" : {
      "bundle" : "page",
      "entity_id" : 365,
      "delta" : 0,
      "body_summary" : "",
      "body_value" : "<h3>Completed: 1912</h3><h3>Architect: C. C. Hook</h3><p><img src=\"/rubenstein/sites/default/files/rubenstein/users/MatthewSchaefer/Jarvis-B1_500px.jpg\" alt=\"West Residence Hall\" title=\"West Residence Hall\" height=\"300\" class=\"image-center img-responsive\"></p><p>Thomas Jordan Jarvis (1836-1915) was a North Carolina politician. When Zebulon B. Vance, the governor, won a seat in the United States Senate, Jarvis became Governor of North Carolina in 1879, and served until 1885. Upon completion of his term as governor, Jarvis was appointed ambassador to Brazil. In 1894, when Zebulon Vance died in office, Jarvis was appointed a US Senator and served until 1896. Jarvis was a longtime Trinity College trustee, and was very active in the Methodist Church.</p><p>Completed in the fall of 1912, West Residence Hall opened for students to move in at the same time as Epworth closed its doors and was declared unsuitable for habitation. West is similar to East Residence Hall: a three-story dormitory of white pressed brick and Indiana sandstone, roofed with green tile. For several years before 1928 the college post office was located in the basement. The building initially served as a men's dorm until the opening of West Campus and the creation of the Woman’s College in 1930. The interior received remodeling work in 1937 and 1938 and has remained mostly unchanged since its construction.</p><h2>For Further Research:</h2><ul><li><a href=\"http://library.duke.edu/rubenstein/findingaids/uabuilding/\" title=\"Building Reference Collection\">Building Reference Collection</a>: Contains historical building information.</li><li><a href=\"Jarvis%20House%20Records\">Jarvis House Records</a>: Records--including&nbsp;correspondence, fliers, minutes, newsletters, photographs, scrapbooks--from this residence hall dating from 1946 to 1981.</li></ul>",
      "body_format" : "full_html",
      "deleted" : 0,
      "revision_id" : 16621,
      "langcode" : "und"
   },
   "langcode" : "und",
   "type" : "page",
   "field_tags" : [],
   "node_access" : null,
   "node_field_data" : {
      "sticky" : 0,
      "type" : "page",
      "status" : 1,
      "changed" : null,
      "langcode" : "und",
      "default_langcode" : 1,
      "uid" : 1,
      "created" : 1393529280,
      "revision_translation_affected" : 1,
      "promote" : 0,
      "title" : "West Residence Hall (formerly Jarvis Residence Hall)"
   },
   "asidebox" : {
      "nid" : 365,
      "body_title" : "",
      "bid" : null,
      "block_delta" : null,
      "body_value" : null,
      "status" : "disabled",
      "block_module" : null,
      "vid" : 16621,
      "body_format" : null
   },
   "nid" : "365",
   "revisions" : [
      {
         "sticky" : 0,
         "node_revision__field_tags" : [],
         "node_revision__body" : {
            "revision_id" : 16621,
            "langcode" : "und",
            "deleted" : 0,
            "body_format" : "full_html",
            "body_value" : "<h3>Completed: 1912</h3><h3>Architect: C. C. Hook</h3><p><img src=\"/rubenstein/sites/default/files/rubenstein/users/MatthewSchaefer/Jarvis-B1_500px.jpg\" alt=\"West Residence Hall\" title=\"West Residence Hall\" height=\"300\" class=\"image-center img-responsive\"></p><p>Thomas Jordan Jarvis (1836-1915) was a North Carolina politician. When Zebulon B. Vance, the governor, won a seat in the United States Senate, Jarvis became Governor of North Carolina in 1879, and served until 1885. Upon completion of his term as governor, Jarvis was appointed ambassador to Brazil. In 1894, when Zebulon Vance died in office, Jarvis was appointed a US Senator and served until 1896. Jarvis was a longtime Trinity College trustee, and was very active in the Methodist Church.</p><p>Completed in the fall of 1912, West Residence Hall opened for students to move in at the same time as Epworth closed its doors and was declared unsuitable for habitation. West is similar to East Residence Hall: a three-story dormitory of white pressed brick and Indiana sandstone, roofed with green tile. For several years before 1928 the college post office was located in the basement. The building initially served as a men's dorm until the opening of West Campus and the creation of the Woman’s College in 1930. The interior received remodeling work in 1937 and 1938 and has remained mostly unchanged since its construction.</p><h2>For Further Research:</h2><ul><li><a href=\"http://library.duke.edu/rubenstein/findingaids/uabuilding/\" title=\"Building Reference Collection\">Building Reference Collection</a>: Contains historical building information.</li><li><a href=\"Jarvis%20House%20Records\">Jarvis House Records</a>: Records--including&nbsp;correspondence, fliers, minutes, newsletters, photographs, scrapbooks--from this residence hall dating from 1946 to 1981.</li></ul>",
            "body_summary" : "",
            "delta" : 0,
            "bundle" : "page",
            "entity_id" : 365
         },
         "status" : 1,
         "comment" : 1,
         "timestamp" : 1604349111,
         "log" : "",
         "vuuid" : "ca647199-7baa-4997-94bb-3131a361ef66",
         "uid" : 13,
         "field_revision" : {
            "status" : 1,
            "changed" : null,
            "sticky" : 0,
            "uid" : 1,
            "revision_translation_affected" : 1,
            "created" : null,
            "langcode" : null,
            "default_langcode" : 1,
            "title" : "West Residence Hall (formerly Jarvis Residence Hall)"
         },
         "promote" : 0,
         "title" : "West Residence Hall (formerly Jarvis Residence Hall)"
      }
   ],
   "uuid" : "2079681f-8be8-4a14-be56-092d68e0bfcc",
   "vid" : 16621,
   "path_alias" : {
      "language" : "und",
      "status" : 0,
      "langcode" : "und",
      "alias" : "/uarchives/history/exhibits/building-names/east/jarvis",
      "pid" : 443
   },
   "field_image" : null
}

