{
   "node_field_data" : {
      "title" : "Contact Us",
      "promote" : 0,
      "status" : 1,
      "changed" : null,
      "type" : "page",
      "sticky" : 0,
      "uid" : 1,
      "revision_translation_affected" : 1,
      "created" : 1372774800,
      "langcode" : "und",
      "default_langcode" : 1
   },
   "asidebox" : {
      "body_format" : "full_html",
      "block_module" : null,
      "vid" : 15923,
      "body_value" : "<h3><a href=\"http://library.duke.edu/rubenstein/ask/index.html\">Ask us a question</a></h3><p><strong>Email:</strong>&nbsp;<a href=\"mailto:franklin-collection@duke.edu\">franklin-collection@duke.edu</a></p><p><strong>Phone:</strong>&nbsp;<a href=\"tel:9196605922\">(919) 660-5922</a></p><p><strong>Fax:</strong>&nbsp;(919) 660-5934</p><p><strong>Postal Address:</strong></p><p>Franklin Research Center</p><p>Rubenstein Rare Book &amp; Manuscript Library</p><p>Box 90185</p><p>Durham, NC 27708</p><p><strong>Physical Location: </strong></p><p>The offices of the Franklin Research Center are located in the Rubenstein Library, 3rd Floor Perkins</p>",
      "status" : "disabled",
      "block_delta" : null,
      "body_title" : "More Information ",
      "bid" : null,
      "nid" : 16
   },
   "nid" : "16",
   "revisions" : [
      {
         "timestamp" : 1587493219,
         "comment" : 1,
         "status" : 1,
         "sticky" : 0,
         "node_revision__field_tags" : [],
         "node_revision__body" : {
            "bundle" : "page",
            "entity_id" : 16,
            "delta" : 0,
            "body_summary" : "",
            "body_value" : "<h2>General Contact Information <img src=\"/rubenstein/sites/default/files/rubenstein/users/john.gartrell/Come%20and%20Join%20us%20Brothers.jpg\" alt=\"AtTheTelephone\" class=\"image-right img-responsive\" width=\"350\" height=\"287\"></h2><ul><li><a href=\"mailto:franklin-collection@duke.edu\">Ask us a question via email</a></li><li>Call us:&nbsp;<a href=\"tel:9196605967\">(919) 660-5922</a></li><li>Send us a fax: <a href=\"tel:9196605934\">919-660-5934</a></li><li><a href=\"https://confirmsubscription.com/h/d/13D077440B9BF7B2\" target=\"_blank\">Subscribe to our email list<br></a></li></ul><div class=\"indentLeftMedium\"><h2>Location</h2><p><strong>Postal Address:</strong></p><p>John Hope Franklin Research Center for African and African American History and Culture<br>Box 90185<br> Duke University<br> Durham, North Carolina 27708-0185 U.S.A.</p><p><strong>Physical Location:</strong></p><p>The offices and collections of the Franklin Research Center are located in the reading room of the Rubenstein Rare Book &amp; Manuscript Library, which on the West Campus of Duke University (next to the Duke Chapel).&nbsp;<a href=\"http://library.duke.edu/rubenstein/about/visit\">Directions and parking information</a>.</p><p>If you are planning a <a href=\"http://library.duke.edu/rubenstein/about/visit\" target=\"_blank\">research visit</a>, please&nbsp;<a href=\"http://library.duke.edu/rubenstein/research/register\">register as a researcher</a>&nbsp;and&nbsp;<a href=\"http://library.duke.edu/rubenstein/research/requesting-material\">request your materials</a>&nbsp;online&nbsp;at least 2 full business days prior to your visit.&nbsp;</p></div><h2>Staff</h2><p><strong>John B. Gartrell</strong><br>Director<br><strong>E-mail:</strong> <a href=\"mailto:john.gartrell@duke.edu\">john.gartrell@duke.edu</a><br> <strong>Phone:</strong>&nbsp;<a href=\"tel:9196605828\">(919) 660-5922</a></p><p></p><p></p>",
            "deleted" : 0,
            "body_format" : "full_html",
            "revision_id" : 15923,
            "langcode" : "und"
         },
         "title" : "Contact Us",
         "promote" : 0,
         "field_revision" : {
            "title" : "Contact Us",
            "default_langcode" : 1,
            "langcode" : null,
            "created" : null,
            "revision_translation_affected" : 1,
            "uid" : 1,
            "sticky" : 0,
            "changed" : null,
            "status" : 1
         },
         "uid" : 11,
         "vuuid" : "420f5619-87a0-4036-8157-2c93ea7ef291",
         "log" : ""
      }
   ],
   "path_alias" : {
      "alias" : "/franklin/staff",
      "pid" : 55,
      "langcode" : "und",
      "status" : 0,
      "language" : "und"
   },
   "field_image" : null,
   "vid" : 15923,
   "uuid" : "20eaf59c-9bef-4bca-a530-fe57ca56d495",
   "langcode" : "und",
   "node__body" : {
      "body_value" : "<h2>General Contact Information <img src=\"/rubenstein/sites/default/files/rubenstein/users/john.gartrell/Come%20and%20Join%20us%20Brothers.jpg\" alt=\"AtTheTelephone\" class=\"image-right img-responsive\" width=\"350\" height=\"287\"></h2><ul><li><a href=\"mailto:franklin-collection@duke.edu\">Ask us a question via email</a></li><li>Call us:&nbsp;<a href=\"tel:9196605967\">(919) 660-5922</a></li><li>Send us a fax: <a href=\"tel:9196605934\">919-660-5934</a></li><li><a href=\"https://confirmsubscription.com/h/d/13D077440B9BF7B2\" target=\"_blank\">Subscribe to our email list<br></a></li></ul><div class=\"indentLeftMedium\"><h2>Location</h2><p><strong>Postal Address:</strong></p><p>John Hope Franklin Research Center for African and African American History and Culture<br>Box 90185<br> Duke University<br> Durham, North Carolina 27708-0185 U.S.A.</p><p><strong>Physical Location:</strong></p><p>The offices and collections of the Franklin Research Center are located in the reading room of the Rubenstein Rare Book &amp; Manuscript Library, which on the West Campus of Duke University (next to the Duke Chapel).&nbsp;<a href=\"http://library.duke.edu/rubenstein/about/visit\">Directions and parking information</a>.</p><p>If you are planning a <a href=\"http://library.duke.edu/rubenstein/about/visit\" target=\"_blank\">research visit</a>, please&nbsp;<a href=\"http://library.duke.edu/rubenstein/research/register\">register as a researcher</a>&nbsp;and&nbsp;<a href=\"http://library.duke.edu/rubenstein/research/requesting-material\">request your materials</a>&nbsp;online&nbsp;at least 2 full business days prior to your visit.&nbsp;</p></div><h2>Staff</h2><p><strong>John B. Gartrell</strong><br>Director<br><strong>E-mail:</strong> <a href=\"mailto:john.gartrell@duke.edu\">john.gartrell@duke.edu</a><br> <strong>Phone:</strong>&nbsp;<a href=\"tel:9196605828\">(919) 660-5922</a></p><p></p><p></p>",
      "revision_id" : 15923,
      "langcode" : "und",
      "deleted" : 0,
      "body_format" : "full_html",
      "bundle" : "page",
      "entity_id" : 16,
      "body_summary" : "",
      "delta" : 0
   },
   "node_access" : null,
   "type" : "page",
   "field_tags" : []
}

