{
   "asidebox" : {
      "body_value" : null,
      "status" : "disabled",
      "block_delta" : null,
      "body_format" : null,
      "block_module" : null,
      "vid" : 11539,
      "nid" : 411,
      "body_title" : "",
      "bid" : null
   },
   "node_field_data" : {
      "sticky" : 0,
      "status" : 1,
      "changed" : null,
      "type" : "page",
      "default_langcode" : 1,
      "langcode" : "und",
      "created" : 1396540646,
      "revision_translation_affected" : 1,
      "uid" : 1,
      "promote" : 0,
      "title" : "Stagg Pavilion"
   },
   "revisions" : [
      {
         "field_revision" : {
            "title" : "Stagg Pavilion",
            "sticky" : 0,
            "changed" : null,
            "status" : 1,
            "langcode" : null,
            "default_langcode" : 1,
            "uid" : 1,
            "revision_translation_affected" : 1,
            "created" : null
         },
         "promote" : 0,
         "title" : "Stagg Pavilion",
         "log" : "",
         "vuuid" : "87170cbc-564b-4e49-a687-a7f241fbdf74",
         "uid" : 7,
         "timestamp" : 1488916621,
         "node_revision__body" : {
            "body_value" : "<h2 class=\"MsoNormal\" style=\"margin-bottom: 0.0001pt;\">Completed: 1902<o:p></o:p></h2><h2 class=\"MsoNormal\" style=\"margin-bottom: 6pt;\">Architect: Unknown</h2><p class=\"MsoNormal\" style=\"margin-bottom: 14pt;\"><img src=\"/rubenstein/sites/default/files/rubenstein/users/MatthewSchaefer/Stagg_P1_300px.jpg\" alt=\"James Stagg\" title=\"James Stagg\" width=\"100\" height=\"141\" class=\"image-left img-responsive\">James Stagg (1850-1915) was a Trinity College trustee and husband of Mary Duke Lyon Stagg, granddaughter of Washington Duke.</p><p></p><p class=\"MsoNormal\" style=\"margin-bottom: 0.0001pt;\">Mary W. Lyon Stagg, daughter of Mary Duke Lyon and granddaughter of Washington Duke, gave the funds to build a pavilion to Trinity College on October 3rd, 1901. Erected in 1902, the pavilion was octagonal in shape, and roofed in copper. In 1916, after the death of James E. Stagg, the Duke Board of Trustees passed a resolution of appreciation and remembrance in which it gratefully acknowledged Stagg's membership, and stated that \"the Stagg Pavilion on our campus, the gift of himself and Mrs. Stagg, will remain as a constant and beautiful reminder to present and future generations of Trinity College.\" Many decades after, however, the name Stagg Pavilion had faded, and the structure was known to the campus community as the East Campus Gazebo. In the mid-1980s, a plaque was placed to identify the structure, and the name Stagg Pavilion came once again into common usage.&nbsp;<o:p></o:p></p><p class=\"MsoNormal\" style=\"margin-bottom: 0.0001pt;\"><img src=\"/rubenstein/sites/default/files/rubenstein/users/MatthewSchaefer/Stagg_B1_500px.jpg\" alt=\"Stagg Pavilion\" title=\"Stagg Pavilion\" width=\"500\" height=\"347\" class=\"img-responsive\"></p><h2 class=\"MsoNormal\" style=\"margin-bottom: 6pt;\">For Further Research:</h2><ul><li><a href=\"http://library.duke.edu/rubenstein/findingaids/uabuilding/\" style=\"margin: 0px; padding: 0px; border: 0px; outline: 0px; vertical-align: baseline; font-family: inherit; font-size: inherit; font-style: inherit; font-variant: inherit; font-weight: inherit; line-height: inherit; color: #0062a0;\">Building Reference Collection</a>&nbsp;- Contains historical building information.</li></ul>",
            "body_format" : "full_html",
            "deleted" : 0,
            "revision_id" : 11539,
            "langcode" : "und",
            "bundle" : "page",
            "entity_id" : 411,
            "delta" : 0,
            "body_summary" : ""
         },
         "node_revision__field_tags" : [],
         "sticky" : 0,
         "status" : 1,
         "comment" : 1
      }
   ],
   "nid" : "411",
   "uuid" : "213e3f1d-20df-4281-9efa-e3edc88a99e4",
   "vid" : 11539,
   "path_alias" : {
      "status" : 0,
      "language" : "und",
      "alias" : "/uarchives/history/exhibits/building-names/east/stagg",
      "pid" : 491,
      "langcode" : "und"
   },
   "field_image" : null,
   "node__body" : {
      "entity_id" : 411,
      "bundle" : "page",
      "delta" : 0,
      "body_summary" : "",
      "body_value" : "<h2 class=\"MsoNormal\" style=\"margin-bottom: 0.0001pt;\">Completed: 1902<o:p></o:p></h2><h2 class=\"MsoNormal\" style=\"margin-bottom: 6pt;\">Architect: Unknown</h2><p class=\"MsoNormal\" style=\"margin-bottom: 14pt;\"><img src=\"/rubenstein/sites/default/files/rubenstein/users/MatthewSchaefer/Stagg_P1_300px.jpg\" alt=\"James Stagg\" title=\"James Stagg\" width=\"100\" height=\"141\" class=\"image-left img-responsive\">James Stagg (1850-1915) was a Trinity College trustee and husband of Mary Duke Lyon Stagg, granddaughter of Washington Duke.</p><p></p><p class=\"MsoNormal\" style=\"margin-bottom: 0.0001pt;\">Mary W. Lyon Stagg, daughter of Mary Duke Lyon and granddaughter of Washington Duke, gave the funds to build a pavilion to Trinity College on October 3rd, 1901. Erected in 1902, the pavilion was octagonal in shape, and roofed in copper. In 1916, after the death of James E. Stagg, the Duke Board of Trustees passed a resolution of appreciation and remembrance in which it gratefully acknowledged Stagg's membership, and stated that \"the Stagg Pavilion on our campus, the gift of himself and Mrs. Stagg, will remain as a constant and beautiful reminder to present and future generations of Trinity College.\" Many decades after, however, the name Stagg Pavilion had faded, and the structure was known to the campus community as the East Campus Gazebo. In the mid-1980s, a plaque was placed to identify the structure, and the name Stagg Pavilion came once again into common usage.&nbsp;<o:p></o:p></p><p class=\"MsoNormal\" style=\"margin-bottom: 0.0001pt;\"><img src=\"/rubenstein/sites/default/files/rubenstein/users/MatthewSchaefer/Stagg_B1_500px.jpg\" alt=\"Stagg Pavilion\" title=\"Stagg Pavilion\" width=\"500\" height=\"347\" class=\"img-responsive\"></p><h2 class=\"MsoNormal\" style=\"margin-bottom: 6pt;\">For Further Research:</h2><ul><li><a href=\"http://library.duke.edu/rubenstein/findingaids/uabuilding/\" style=\"margin: 0px; padding: 0px; border: 0px; outline: 0px; vertical-align: baseline; font-family: inherit; font-size: inherit; font-style: inherit; font-variant: inherit; font-weight: inherit; line-height: inherit; color: #0062a0;\">Building Reference Collection</a>&nbsp;- Contains historical building information.</li></ul>",
      "body_format" : "full_html",
      "deleted" : 0,
      "langcode" : "und",
      "revision_id" : 11539
   },
   "langcode" : "und",
   "field_tags" : [],
   "type" : "page",
   "node_access" : null
}

