{
   "langcode" : "und",
   "node__body" : {
      "entity_id" : 705,
      "bundle" : "page",
      "body_summary" : "",
      "delta" : 0,
      "body_value" : "<p>In the 1980s, in collaboration with the faculty in the <a href=\"https://hope.econ.duke.edu/\" target=\"_blank\">Center for the History of Political Economy</a> in the Economics Department, Duke University’s David M. Rubenstein Rare Book &amp; Manuscript Library initiated an ongoing program to preserve the papers of distinguished economists.&nbsp; To date, the Library has received the papers of more than seventy significant economists, including twelve Nobel laureates.&nbsp; These collections offer a valuable resource to researchers in the history of economic thought, and include papers in virtually every area of modern economics. Please see the annotated the Economists' Papers Archive <a href=\"https://library.duke.edu/rubenstein/economists/collections\">Collections</a> section for more information.</p><p>Duke’s collections contain a wealth of economic research materials, including resources on game theory, public policy, growth theory, and many other areas.&nbsp; The sizes of the collections vary from very small collections of a few folders to hundreds of linear feet of material.&nbsp; Each of the collections has distinctive research value. Some contain all professional correspondence as well as the notes, drafts, and manuscripts of major works. Others contain information on political involvement, records of professional involvement (e.g., editorial boards, conference participation, etc.), and personal biographical material.&nbsp; Most of the collections are from economists working in the U.S. but include large aggregations of research material on areas worldwide.</p><p>In addition to the papers of individual economists, the library also holds the records of several organizations and journals important for the history of economic thought. Chief among them are the records of the American Economic Association, founded in 1885. This collection consists of more than 350 linear feet of materials and includes the records (correspondence and referee files, accepted articles, papers and proceedings) of the <strong>American Economic Review</strong>. The library is actively acquiring new collections as well as organizing and cataloging existing collections.</p><p>For further information on the history of the collections, see the article <a href=\"https://www.jstor.org/stable/2564807\" target=\"_blank\">“Archiving the History of Economics”</a> by E. Roy Weintraub et al. in the Journal of Economic Literature 36.3 (September 1998), pp. 1496-1501 (link for JSTOR subscribers; AEA members see <a href=\"http://www.e-jel.org/archive/sept1998/Weintrau.pdf\" target=\"_blank\">IDEAS/RePEc download</a>).</p>",
      "langcode" : "und",
      "revision_id" : 15651,
      "deleted" : 0,
      "body_format" : "full_html"
   },
   "node_access" : null,
   "type" : "page",
   "field_tags" : [],
   "node_field_data" : {
      "default_langcode" : 1,
      "langcode" : "und",
      "created" : 1527884804,
      "revision_translation_affected" : 1,
      "uid" : 1,
      "sticky" : 0,
      "type" : "page",
      "status" : 1,
      "changed" : null,
      "promote" : 0,
      "title" : "About the Economists' Papers Archive"
   },
   "asidebox" : {
      "nid" : 705,
      "body_title" : "",
      "bid" : null,
      "block_delta" : null,
      "body_value" : null,
      "status" : "disabled",
      "block_module" : null,
      "vid" : 15651,
      "body_format" : null
   },
   "nid" : "705",
   "revisions" : [
      {
         "timestamp" : 1585931235,
         "status" : 1,
         "node_revision__field_tags" : [],
         "sticky" : 0,
         "node_revision__body" : {
            "body_value" : "<p>In the 1980s, in collaboration with the faculty in the <a href=\"https://hope.econ.duke.edu/\" target=\"_blank\">Center for the History of Political Economy</a> in the Economics Department, Duke University’s David M. Rubenstein Rare Book &amp; Manuscript Library initiated an ongoing program to preserve the papers of distinguished economists.&nbsp; To date, the Library has received the papers of more than seventy significant economists, including twelve Nobel laureates.&nbsp; These collections offer a valuable resource to researchers in the history of economic thought, and include papers in virtually every area of modern economics. Please see the annotated the Economists' Papers Archive <a href=\"https://library.duke.edu/rubenstein/economists/collections\">Collections</a> section for more information.</p><p>Duke’s collections contain a wealth of economic research materials, including resources on game theory, public policy, growth theory, and many other areas.&nbsp; The sizes of the collections vary from very small collections of a few folders to hundreds of linear feet of material.&nbsp; Each of the collections has distinctive research value. Some contain all professional correspondence as well as the notes, drafts, and manuscripts of major works. Others contain information on political involvement, records of professional involvement (e.g., editorial boards, conference participation, etc.), and personal biographical material.&nbsp; Most of the collections are from economists working in the U.S. but include large aggregations of research material on areas worldwide.</p><p>In addition to the papers of individual economists, the library also holds the records of several organizations and journals important for the history of economic thought. Chief among them are the records of the American Economic Association, founded in 1885. This collection consists of more than 350 linear feet of materials and includes the records (correspondence and referee files, accepted articles, papers and proceedings) of the <strong>American Economic Review</strong>. The library is actively acquiring new collections as well as organizing and cataloging existing collections.</p><p>For further information on the history of the collections, see the article <a href=\"https://www.jstor.org/stable/2564807\" target=\"_blank\">“Archiving the History of Economics”</a> by E. Roy Weintraub et al. in the Journal of Economic Literature 36.3 (September 1998), pp. 1496-1501 (link for JSTOR subscribers; AEA members see <a href=\"http://www.e-jel.org/archive/sept1998/Weintrau.pdf\" target=\"_blank\">IDEAS/RePEc download</a>).</p>",
            "deleted" : 0,
            "body_format" : "full_html",
            "langcode" : "und",
            "revision_id" : 15651,
            "entity_id" : 705,
            "bundle" : "page",
            "delta" : 0,
            "body_summary" : ""
         },
         "comment" : 1,
         "field_revision" : {
            "title" : "About the Economists' Papers Archive",
            "status" : 1,
            "changed" : null,
            "sticky" : 0,
            "uid" : 1,
            "created" : null,
            "revision_translation_affected" : 1,
            "langcode" : null,
            "default_langcode" : 1
         },
         "title" : "About the Economists' Papers Archive",
         "promote" : 0,
         "log" : "",
         "uid" : 89,
         "vuuid" : "abb5578e-0997-4f6e-aa37-f91081683021"
      }
   ],
   "field_image" : null,
   "path_alias" : {
      "langcode" : "und",
      "alias" : "/economists/about",
      "pid" : 841,
      "language" : "und",
      "status" : 0
   },
   "vid" : 15651,
   "uuid" : "26736546-126e-49a9-80e4-6d51bbc0c426"
}

