{
   "node__body" : {
      "langcode" : "und",
      "revision_id" : 16721,
      "body_format" : "full_html",
      "deleted" : 0,
      "body_value" : "<p><img src=\"/rubenstein/sites/default/files/rubenstein/users/MatthewSchaefer/2122-Campus-Drive-500px.jpg\" alt=\"Faculty House 6, 2122 Campus Drive\" title=\"Faculty House 6, 2122 Campus Drive\" width=\"500\" height=\"370\" class=\"image-left img-responsive\"></p><p><img src=\"/rubenstein/sites/default/files/rubenstein/users/MatthewSchaefer/stead_eugene-300px.jpg\" alt=\"Francis Bayard Carter, MD\" title=\"Francis Bayard Carter, MD\" width=\"292\" height=\"421\" class=\"image-left img-responsive\"><br clear=\"all\">During construction, house 6 was initially slated for Professor R. H. Shryock, who came to Duke from Syracuse University. However, due to an unanticipated rent increase, Prof. Shryock chose to live elsewhere in Durham. Instead, this frame structure was occupied by Justin Miller, Dean of the Duke University School of Law until 1934. By 1935, it was occupied by Raymond S. Crispell, Professor of Psychiatry, who served during WWII as a lieutenant commander in the Naval Reserves. During his absence, various faculty members such as J. P. Mayfield and E. B. Nichols (both Physics Professors) lived in the house. In 1946, Dr. Crispell returned from the War but left Duke soon thereafter. Eugene Stead, Jr., MD, (above) Professor of Medicine, moved into the house in 1947. Dr. Stead created the Physician Assistant Program at Duke in 1965 and also served as Chairman of the Department of Medicine from 1947 to 1967. Dr. Stead lived in house 6 until 1977.</p><p>Occupancy of the house is undocumented for the years between 1977 and 1982, but according to Duke Directory maps, the house remained a private residence. The Center for International Studies occupied the house from 1982 until 2000 when it moved into offices on Erwin Road. House 6 was occupied by Undergraduate Financial Aid from 2001 to 2009 and Trinity College's Office of Technology Services until November 2020. It now houses the Department of Romance Studies.</p><h3 style=\"text-align: center;\" class=\"MsoNormal\"><a href=\"/rubenstein/uarchives/history/exhibits/faculty-houses-list\">Return to Faculty Houses List »</a></h3>",
      "body_summary" : "",
      "delta" : 0,
      "entity_id" : 222,
      "bundle" : "page"
   },
   "langcode" : "und",
   "type" : "page",
   "field_tags" : [],
   "node_access" : null,
   "node_field_data" : {
      "uid" : 1,
      "created" : 1378234651,
      "revision_translation_affected" : 1,
      "langcode" : "und",
      "default_langcode" : 1,
      "type" : "page",
      "status" : 1,
      "changed" : null,
      "sticky" : 0,
      "title" : "Faculty House 6, 2122 Campus Drive",
      "promote" : 0
   },
   "asidebox" : {
      "nid" : 222,
      "bid" : null,
      "body_title" : "",
      "block_delta" : null,
      "status" : "disabled",
      "body_value" : null,
      "vid" : 16721,
      "block_module" : null,
      "body_format" : null
   },
   "nid" : "222",
   "revisions" : [
      {
         "log" : "",
         "vuuid" : "476d92b5-00ac-4c11-9307-0da611e18f5f",
         "uid" : 13,
         "field_revision" : {
            "changed" : null,
            "status" : 1,
            "sticky" : 0,
            "uid" : 1,
            "created" : null,
            "revision_translation_affected" : 1,
            "langcode" : null,
            "default_langcode" : 1,
            "title" : "Faculty House 6, 2122 Campus Drive"
         },
         "promote" : 0,
         "title" : "Faculty House 6, 2122 Campus Drive",
         "node_revision__field_tags" : [],
         "sticky" : 0,
         "node_revision__body" : {
            "langcode" : "und",
            "revision_id" : 16721,
            "deleted" : 0,
            "body_format" : "full_html",
            "body_value" : "<p><img src=\"/rubenstein/sites/default/files/rubenstein/users/MatthewSchaefer/2122-Campus-Drive-500px.jpg\" alt=\"Faculty House 6, 2122 Campus Drive\" title=\"Faculty House 6, 2122 Campus Drive\" width=\"500\" height=\"370\" class=\"image-left img-responsive\"></p><p><img src=\"/rubenstein/sites/default/files/rubenstein/users/MatthewSchaefer/stead_eugene-300px.jpg\" alt=\"Francis Bayard Carter, MD\" title=\"Francis Bayard Carter, MD\" width=\"292\" height=\"421\" class=\"image-left img-responsive\"><br clear=\"all\">During construction, house 6 was initially slated for Professor R. H. Shryock, who came to Duke from Syracuse University. However, due to an unanticipated rent increase, Prof. Shryock chose to live elsewhere in Durham. Instead, this frame structure was occupied by Justin Miller, Dean of the Duke University School of Law until 1934. By 1935, it was occupied by Raymond S. Crispell, Professor of Psychiatry, who served during WWII as a lieutenant commander in the Naval Reserves. During his absence, various faculty members such as J. P. Mayfield and E. B. Nichols (both Physics Professors) lived in the house. In 1946, Dr. Crispell returned from the War but left Duke soon thereafter. Eugene Stead, Jr., MD, (above) Professor of Medicine, moved into the house in 1947. Dr. Stead created the Physician Assistant Program at Duke in 1965 and also served as Chairman of the Department of Medicine from 1947 to 1967. Dr. Stead lived in house 6 until 1977.</p><p>Occupancy of the house is undocumented for the years between 1977 and 1982, but according to Duke Directory maps, the house remained a private residence. The Center for International Studies occupied the house from 1982 until 2000 when it moved into offices on Erwin Road. House 6 was occupied by Undergraduate Financial Aid from 2001 to 2009 and Trinity College's Office of Technology Services until November 2020. It now houses the Department of Romance Studies.</p><h3 style=\"text-align: center;\" class=\"MsoNormal\"><a href=\"/rubenstein/uarchives/history/exhibits/faculty-houses-list\">Return to Faculty Houses List »</a></h3>",
            "body_summary" : "",
            "delta" : 0,
            "entity_id" : 222,
            "bundle" : "page"
         },
         "status" : 1,
         "comment" : 1,
         "timestamp" : 1607373107
      }
   ],
   "uuid" : "31d354c7-2a97-43cc-a8a7-aadbf4a731b0",
   "path_alias" : {
      "status" : 0,
      "language" : "und",
      "alias" : "/uarchives/history/exhibits/faculty-houses-6",
      "pid" : 287,
      "langcode" : "und"
   },
   "field_image" : null,
   "vid" : 16721
}

