{
   "node_access" : null,
   "field_tags" : [],
   "type" : "page",
   "langcode" : "und",
   "node__body" : {
      "body_format" : "full_html",
      "deleted" : 0,
      "revision_id" : 15907,
      "langcode" : "und",
      "body_value" : "<h2>About the Archive</h2><p><img src=\"/rubenstein/sites/default/files/rubenstein/users/kate.collins/peewee.jpg\" alt=\"Peewee Moore playing saxophone at a concert\" style=\"float: right; margin-left: 10px; margin-right: 10px;\" class=\"image-left img-responsive\" width=\"235\" height=\"169\"></p><p>The Jazz Archive at Duke University holds unique materials that document jazz's historical and ongoing significance. In addition to musical scores, the archive includes correspondence, newspaper clippings, advertisements, and concert playbills. It also holds photography, moving image materials, and original audio recordings in both analog and digital formats, from noncommercial musical recordings to researcher-generated interviews and oral histories. Focuses include:</p><ul><li dir=\"ltr\"><p dir=\"ltr\" role=\"presentation\">Unique manuscript scores of musical arrangements for jazz big bands and other large jazz ensembles.</p></li><li dir=\"ltr\"><p dir=\"ltr\" role=\"presentation\">Materials related to female jazz musicians or women in jazz.&nbsp;</p></li><li dir=\"ltr\"><p dir=\"ltr\" role=\"presentation\">Materials related to jazz musicians with a significant connection to North Carolina and the southeast U.S. more broadly. Including both musicians born or employed in the region who achieved international fame (e.g., John Coltrane, Paul Jeffrey), and musicians who contributed more locally to the jazz scene in and around the Raleigh-Durham area (e.g., Pee Wee Moore, Yusuf Salim).</p></li></ul><p dir=\"ltr\">Duke University has a long tradition of campus-based jazz performance, and several of the Jazz Archive’s collections document aspects of that history.&nbsp; These include the<a href=\"http://library.duke.edu/rubenstein/findingaids/brownles/\"> Les Brown Scores</a>, the<a href=\"http://library.duke.edu/rubenstein/findingaids/burke/\"> Sonny Burke Papers</a>, the<a href=\"http://library.duke.edu/rubenstein/findingaids/dahllinda/\"> Linda Dahl Collection on Mary Lou Williams</a> and the<a href=\"http://library.duke.edu/rubenstein/findingaids/jeffreypaul/\"> Paul Jeffrey Papers</a>.&nbsp;</p><h2 dir=\"ltr\">Collections</h2><ul><li dir=\"ltr\"><p dir=\"ltr\" role=\"presentation\"><a href=\"http://library.duke.edu/digitalcollections/rbmscl/simpkinscuthbert/inv/\">Cuthbert Simpkins Interviews on John Coltrane</a></p></li><li dir=\"ltr\"><p dir=\"ltr\" role=\"presentation\"><a href=\"http://library.duke.edu/digitalcollections/rbmscl/tegnelldavid/inv/\">David Tegnell Interviews on John Coltrane</a>&nbsp;&nbsp;</p></li><li dir=\"ltr\"><p dir=\"ltr\" role=\"presentation\"><a href=\"http://library.duke.edu/digitalcollections/rbmscl/uaambass/inv/\">Duke Ambassadors Records</a></p></li><li dir=\"ltr\"><p dir=\"ltr\" role=\"presentation\"><a href=\"http://library.duke.edu/digitalcollections/rbmscl/uajazzrc/inv/\">Duke University Jazz and Big Band Reference Collection</a></p></li><li dir=\"ltr\"><p dir=\"ltr\" role=\"presentation\"><a href=\"http://library.duke.edu/digitalcollections/rbmscl/kleinfrances/inv/\">Frances Klein Papers </a>&nbsp;</p></li><li dir=\"ltr\"><p dir=\"ltr\" role=\"presentation\"><a href=\"http://library.duke.edu/digitalcollections/rbmscl/fosterfrank/inv/\">Frank Foster Papers </a>&nbsp;</p></li><li dir=\"ltr\"><p dir=\"ltr\" role=\"presentation\"><a href=\"http://library.duke.edu/digitalcollections/rbmscl/uajelly/inv/\">George \"Jelly\" Leftwich Scrapbook</a></p></li><li dir=\"ltr\"><p dir=\"ltr\" role=\"presentation\"><a href=\"http://search.library.duke.edu/search?id=DUKE004982976\">John Hicks Papers</a></p></li><li dir=\"ltr\"><p dir=\"ltr\" role=\"presentation\"><a href=\"http://library.duke.edu/digitalcollections/rbmscl/ualongjohnny/inv/\">Johnny Long Scrapbook</a></p></li><li dir=\"ltr\"><p dir=\"ltr\" role=\"presentation\"><a href=\"http://library.duke.edu/digitalcollections/rbmscl/brownles/inv/\">Les Brown Scores</a></p></li><li dir=\"ltr\"><p dir=\"ltr\" role=\"presentation\"><a href=\"http://library.duke.edu/digitalcollections/rbmscl/dahllinda/inv/\">Linda Dahl Collection on Mary Lou Williams</a></p></li><li dir=\"ltr\"><p dir=\"ltr\" role=\"presentation\"><a href=\"http://library.duke.edu/digitalcollections/rbmscl/moorepeewee/inv/\">Pee Wee Moore Papers</a></p></li><li dir=\"ltr\"><p dir=\"ltr\" role=\"presentation\"><a href=\"http://library.duke.edu/catalog/search/recordid/DUKE003905195\">Paul Jeffrey Papers</a>&nbsp;&nbsp;</p></li><li dir=\"ltr\"><p dir=\"ltr\" role=\"presentation\"><a href=\"http://library.duke.edu/digitalcollections/rbmscl/reitzrosetta/inv/\">Rosetta Reitz Papers</a></p></li><li dir=\"ltr\"><p dir=\"ltr\" role=\"presentation\"><a href=\"http://library.duke.edu/digitalcollections/rbmscl/mariclesherrie/inv/\">Sherrie Maricle Collection</a>&nbsp;&nbsp;</p></li><li dir=\"ltr\"><p dir=\"ltr\" role=\"presentation\"><a href=\"http://library.duke.edu/digitalcollections/rbmscl/burke/inv/\">Sonny Burke Papers</a></p></li><li dir=\"ltr\"><p dir=\"ltr\" role=\"presentation\"><a href=\"http://search.library.duke.edu/search?id=DUKE004624144\">Talmage Farlow Documentary Film Collection</a></p></li><li dir=\"ltr\"><p dir=\"ltr\" role=\"presentation\"><a href=\"http://library.duke.edu/digitalcollections/rbmscl/chapinthomas/inv/\">Thomas Chapin Papers</a></p></li><li dir=\"ltr\"><p dir=\"ltr\" role=\"presentation\"><a href=\"http://library.duke.edu/digitalcollections/rbmscl/womenjazzphotographs/inv/\">Women in Jazz Photographs Collection</a></p></li><li dir=\"ltr\"><p dir=\"ltr\" role=\"presentation\"><a href=\"http://library.duke.edu/digitalcollections/rbmscl/salimyusuf/inv/\">Yusuf Salim Collection</a></p></li></ul>",
      "delta" : 0,
      "body_summary" : "",
      "bundle" : "page",
      "entity_id" : 259
   },
   "revisions" : [
      {
         "log" : "",
         "uid" : 11,
         "vuuid" : "240634bd-27de-4870-a15e-1c8c2d28eae0",
         "field_revision" : {
            "title" : "Jazz Archive",
            "default_langcode" : 1,
            "langcode" : null,
            "created" : null,
            "revision_translation_affected" : 1,
            "uid" : 1,
            "sticky" : 0,
            "changed" : null,
            "status" : 1
         },
         "title" : "Jazz Archive",
         "promote" : 0,
         "status" : 1,
         "sticky" : 0,
         "node_revision__field_tags" : [],
         "node_revision__body" : {
            "delta" : 0,
            "body_summary" : "",
            "entity_id" : 259,
            "bundle" : "page",
            "body_format" : "full_html",
            "deleted" : 0,
            "langcode" : "und",
            "revision_id" : 15907,
            "body_value" : "<h2>About the Archive</h2><p><img src=\"/rubenstein/sites/default/files/rubenstein/users/kate.collins/peewee.jpg\" alt=\"Peewee Moore playing saxophone at a concert\" style=\"float: right; margin-left: 10px; margin-right: 10px;\" class=\"image-left img-responsive\" width=\"235\" height=\"169\"></p><p>The Jazz Archive at Duke University holds unique materials that document jazz's historical and ongoing significance. In addition to musical scores, the archive includes correspondence, newspaper clippings, advertisements, and concert playbills. It also holds photography, moving image materials, and original audio recordings in both analog and digital formats, from noncommercial musical recordings to researcher-generated interviews and oral histories. Focuses include:</p><ul><li dir=\"ltr\"><p dir=\"ltr\" role=\"presentation\">Unique manuscript scores of musical arrangements for jazz big bands and other large jazz ensembles.</p></li><li dir=\"ltr\"><p dir=\"ltr\" role=\"presentation\">Materials related to female jazz musicians or women in jazz.&nbsp;</p></li><li dir=\"ltr\"><p dir=\"ltr\" role=\"presentation\">Materials related to jazz musicians with a significant connection to North Carolina and the southeast U.S. more broadly. Including both musicians born or employed in the region who achieved international fame (e.g., John Coltrane, Paul Jeffrey), and musicians who contributed more locally to the jazz scene in and around the Raleigh-Durham area (e.g., Pee Wee Moore, Yusuf Salim).</p></li></ul><p dir=\"ltr\">Duke University has a long tradition of campus-based jazz performance, and several of the Jazz Archive’s collections document aspects of that history.&nbsp; These include the<a href=\"http://library.duke.edu/rubenstein/findingaids/brownles/\"> Les Brown Scores</a>, the<a href=\"http://library.duke.edu/rubenstein/findingaids/burke/\"> Sonny Burke Papers</a>, the<a href=\"http://library.duke.edu/rubenstein/findingaids/dahllinda/\"> Linda Dahl Collection on Mary Lou Williams</a> and the<a href=\"http://library.duke.edu/rubenstein/findingaids/jeffreypaul/\"> Paul Jeffrey Papers</a>.&nbsp;</p><h2 dir=\"ltr\">Collections</h2><ul><li dir=\"ltr\"><p dir=\"ltr\" role=\"presentation\"><a href=\"http://library.duke.edu/digitalcollections/rbmscl/simpkinscuthbert/inv/\">Cuthbert Simpkins Interviews on John Coltrane</a></p></li><li dir=\"ltr\"><p dir=\"ltr\" role=\"presentation\"><a href=\"http://library.duke.edu/digitalcollections/rbmscl/tegnelldavid/inv/\">David Tegnell Interviews on John Coltrane</a>&nbsp;&nbsp;</p></li><li dir=\"ltr\"><p dir=\"ltr\" role=\"presentation\"><a href=\"http://library.duke.edu/digitalcollections/rbmscl/uaambass/inv/\">Duke Ambassadors Records</a></p></li><li dir=\"ltr\"><p dir=\"ltr\" role=\"presentation\"><a href=\"http://library.duke.edu/digitalcollections/rbmscl/uajazzrc/inv/\">Duke University Jazz and Big Band Reference Collection</a></p></li><li dir=\"ltr\"><p dir=\"ltr\" role=\"presentation\"><a href=\"http://library.duke.edu/digitalcollections/rbmscl/kleinfrances/inv/\">Frances Klein Papers </a>&nbsp;</p></li><li dir=\"ltr\"><p dir=\"ltr\" role=\"presentation\"><a href=\"http://library.duke.edu/digitalcollections/rbmscl/fosterfrank/inv/\">Frank Foster Papers </a>&nbsp;</p></li><li dir=\"ltr\"><p dir=\"ltr\" role=\"presentation\"><a href=\"http://library.duke.edu/digitalcollections/rbmscl/uajelly/inv/\">George \"Jelly\" Leftwich Scrapbook</a></p></li><li dir=\"ltr\"><p dir=\"ltr\" role=\"presentation\"><a href=\"http://search.library.duke.edu/search?id=DUKE004982976\">John Hicks Papers</a></p></li><li dir=\"ltr\"><p dir=\"ltr\" role=\"presentation\"><a href=\"http://library.duke.edu/digitalcollections/rbmscl/ualongjohnny/inv/\">Johnny Long Scrapbook</a></p></li><li dir=\"ltr\"><p dir=\"ltr\" role=\"presentation\"><a href=\"http://library.duke.edu/digitalcollections/rbmscl/brownles/inv/\">Les Brown Scores</a></p></li><li dir=\"ltr\"><p dir=\"ltr\" role=\"presentation\"><a href=\"http://library.duke.edu/digitalcollections/rbmscl/dahllinda/inv/\">Linda Dahl Collection on Mary Lou Williams</a></p></li><li dir=\"ltr\"><p dir=\"ltr\" role=\"presentation\"><a href=\"http://library.duke.edu/digitalcollections/rbmscl/moorepeewee/inv/\">Pee Wee Moore Papers</a></p></li><li dir=\"ltr\"><p dir=\"ltr\" role=\"presentation\"><a href=\"http://library.duke.edu/catalog/search/recordid/DUKE003905195\">Paul Jeffrey Papers</a>&nbsp;&nbsp;</p></li><li dir=\"ltr\"><p dir=\"ltr\" role=\"presentation\"><a href=\"http://library.duke.edu/digitalcollections/rbmscl/reitzrosetta/inv/\">Rosetta Reitz Papers</a></p></li><li dir=\"ltr\"><p dir=\"ltr\" role=\"presentation\"><a href=\"http://library.duke.edu/digitalcollections/rbmscl/mariclesherrie/inv/\">Sherrie Maricle Collection</a>&nbsp;&nbsp;</p></li><li dir=\"ltr\"><p dir=\"ltr\" role=\"presentation\"><a href=\"http://library.duke.edu/digitalcollections/rbmscl/burke/inv/\">Sonny Burke Papers</a></p></li><li dir=\"ltr\"><p dir=\"ltr\" role=\"presentation\"><a href=\"http://search.library.duke.edu/search?id=DUKE004624144\">Talmage Farlow Documentary Film Collection</a></p></li><li dir=\"ltr\"><p dir=\"ltr\" role=\"presentation\"><a href=\"http://library.duke.edu/digitalcollections/rbmscl/chapinthomas/inv/\">Thomas Chapin Papers</a></p></li><li dir=\"ltr\"><p dir=\"ltr\" role=\"presentation\"><a href=\"http://library.duke.edu/digitalcollections/rbmscl/womenjazzphotographs/inv/\">Women in Jazz Photographs Collection</a></p></li><li dir=\"ltr\"><p dir=\"ltr\" role=\"presentation\"><a href=\"http://library.duke.edu/digitalcollections/rbmscl/salimyusuf/inv/\">Yusuf Salim Collection</a></p></li></ul>"
         },
         "comment" : 1,
         "timestamp" : 1587490613
      }
   ],
   "nid" : "259",
   "asidebox" : {
      "nid" : 259,
      "bid" : null,
      "body_title" : "Current Collections",
      "status" : "disabled",
      "body_value" : "<p><img src=\"/rubenstein/sites/default/files/rubenstein/users/kate.collins/jeffreymonk3.jpg\" alt=\"jeffrey monk\" width=\"240\" height=\"212\" class=\"img-responsive\"></p><ul><li><a href=\"http://library.duke.edu/digitalcollections/rbmscl/simpkinscuthbert/inv/\">Cuthbert Simpkins Interviews on John Coltrane</a></li><li><a href=\"http://library.duke.edu/digitalcollections/rbmscl/tegnelldavid/inv/\">David Tegnell Interviews on John Coltrane</a>&nbsp;&nbsp;</li><li><a href=\"http://library.duke.edu/digitalcollections/rbmscl/uaambass/inv/\">Duke Ambassadors Records</a></li><li><a href=\"http://library.duke.edu/digitalcollections/rbmscl/uajazzrc/inv/\">Duke University Jazz and Big Band Reference Collection</a></li><li><a href=\"http://library.duke.edu/digitalcollections/rbmscl/kleinfrances/inv/\">Frances Klein Papers&nbsp;</a>&nbsp;</li><li><a href=\"http://library.duke.edu/digitalcollections/rbmscl/fosterfrank/inv/\">Frank Foster Papers&nbsp;</a>&nbsp;</li><li><a href=\"http://library.duke.edu/digitalcollections/rbmscl/uajelly/inv/\">George \"Jelly\" Leftwich Scrapbook</a></li><li><a href=\"http://search.library.duke.edu/search?id=DUKE004982976\">John Hicks Papers</a></li><li><a href=\"http://library.duke.edu/digitalcollections/rbmscl/ualongjohnny/inv/\">Johnny Long Scrapbook</a></li><li><a href=\"http://library.duke.edu/digitalcollections/rbmscl/brownles/inv/\">Les Brown Scores</a></li><li><a href=\"http://library.duke.edu/digitalcollections/rbmscl/dahllinda/inv/\">Linda Dahl Collection on Mary Lou Williams</a></li><li><a href=\"http://library.duke.edu/digitalcollections/rbmscl/moorepeewee/inv/\">Pee Wee Moore Papers</a></li><li><a href=\"http://library.duke.edu/catalog/search/recordid/DUKE003905195\" title=\"Paul Jeffrey Papers\">Paul Jeffrey Papers</a>&nbsp;&nbsp;</li><li><a href=\"http://library.duke.edu/digitalcollections/rbmscl/reitzrosetta/inv/\">Rosetta Reitz Papers</a></li><li><a href=\"http://library.duke.edu/digitalcollections/rbmscl/mariclesherrie/inv/\">Sherrie Maricle Collection</a>&nbsp;&nbsp;</li><li><a href=\"http://library.duke.edu/digitalcollections/rbmscl/burke/inv/\">Sonny Burke Papers</a></li><li><a href=\"http://search.library.duke.edu/search?id=DUKE004624144\">Talmage Farlow Documentary Film Collection</a></li><li><a href=\"http://library.duke.edu/digitalcollections/rbmscl/chapinthomas/inv/\">Thomas Chapin Papers</a></li><li><a href=\"http://library.duke.edu/digitalcollections/rbmscl/womenjazzphotographs/inv/\">Women in Jazz Photographs Collection</a></li><li><a href=\"http://library.duke.edu/digitalcollections/rbmscl/salimyusuf/inv/\">Yusuf Salim Collection</a></li></ul>",
      "block_delta" : null,
      "body_format" : "full_html",
      "vid" : 15907,
      "block_module" : null
   },
   "node_field_data" : {
      "uid" : 1,
      "revision_translation_affected" : 1,
      "created" : 1378775172,
      "langcode" : "und",
      "default_langcode" : 1,
      "type" : "page",
      "status" : 1,
      "changed" : null,
      "sticky" : 0,
      "title" : "Jazz Archive",
      "promote" : 0
   },
   "vid" : 15907,
   "path_alias" : {
      "langcode" : "und",
      "alias" : "/collections/jazz",
      "pid" : 324,
      "language" : "und",
      "status" : 0
   },
   "field_image" : null,
   "uuid" : "3e475a4e-3c3f-4ea9-bb03-f55289d814b6"
}

