{
   "field_tags" : [],
   "type" : "page",
   "node_access" : null,
   "node__body" : {
      "entity_id" : 86,
      "bundle" : "page",
      "body_summary" : "",
      "delta" : 0,
      "body_value" : "<p align=\"center\"><img src=\"/rubenstein/sites/default/files/rubenstein/hartman/rcmax1.jpg\" alt=\"The R.C. Maxwell Company\" width=\"500\" height=\"187\" class=\"img-responsive\"></p><h2>The Maxwell Collection at Duke</h2><p>David C. Maxwell, son of founder R. C. Maxwell, donated the company's extensive photograph collection&nbsp;—&nbsp;along with early financial records, house advertisements and several hundred documents —&nbsp;to Duke University beginning in 1996. The Maxwell Collection presents a uniquely comprehensive record of regional outdoor advertising over a period of nearly 80 years. Duke is extremely grateful to Mr. Maxwell for this gift and also for financial support of this fine collection.</p><p>The Maxwell photographs are arranged chronologically by a numerical system devised by the company. Preservation and indexing work is underway as part of a <a href=\"http://www.neh.gov/\">National Endowment for the Humanities</a> (NEH) grant generously awarded to the Hartman Center in 2000 for the arranging and describing of 11 Outdoor Advertising collections.&nbsp;</p><p>For additional information about the outdoor advertising collections at Duke, <a href=\"http://library.duke.edu/rubenstein/hartman/contact.html\">contact the Hartman Center</a>.</p><h2>A Capsule History of the Company</h2><p>The R. C. Maxwell Company was founded by Robert Chester Maxwell in 1894. In the late 19th century, railroads were the primary means of travel and commerce, so Mr. Maxwell built \"bill-boards,\" structures of wooden boards on which printed advertising bills were posted, to be seen by those riding the steel rails.</p><p>With the advent of the automobile, those rail travelers started driving along the growing network of roads and highways, and the company began building the now familiar roadside billboards to reach them.</p><p>For more than one hundred years, billboards have informed and entertained motorists and today are a unique part of American culture. With the development of incandescent lights, electric display signs were added to the company's repertoire. Mr. Maxwell, seeing great possibilities in these \"spectaculars,\" established the Electric Sign Manufacturing Plant in Atlantic City. In the 1920s he erected such landmarks as the giant 50-foot Colgate thermometer (the world's largest) and a unique all-neon display on the roof of the Atlantic City Million Dollar Pier that featured four horses racing around a track with a random winner every three minutes.</p><p>As media have evolved and changed in the course of the 20th century, the R. C. Maxwell Company, now headquartered in Trenton, N.J., continues to serve the advertising industry in new ways.</p><h2>Take a peak inside R. C. Maxwell Company's Photograph Collection</h2><p class=\"text-center\"><img src=\"/rubenstein/sites/default/files/rubenstein/hartman/rcmax2.jpg\" alt=\"Chesterfield Cigarettes Milder and Better Taste\" width=\"400\" height=\"271\" class=\"img-responsive\"></p><p>Billed as \"the worlds largest and most beautiful spectacular electric display\" when it was built in 1926, this sign by the R. C. Maxwell Company was the height of high technology in its day. It was located on the Steeplechase Pier at Pennsylvania Avenue and Boardwalk in Atlantic City. In a 75-second cycle, the 13,000 bulbs illuminated in 27-colored steps and finished in a burst of gold and white before fading out to begin again.</p><p class=\"text-center\"><img src=\"/rubenstein/sites/default/files/rubenstein/hartman/rcmax3.jpg\" alt=\"Hail Miss America\" width=\"400\" height=\"291\" class=\"img-responsive\"></p><p>The Miss America Pageant has been a unique tradition in Atlantic City since 1932. The contestants would parade along the boardwalk during the pageant week, often in floats constructed by the R. C. Maxwell Company.</p><p class=\"text-center\"><img src=\"/rubenstein/sites/default/files/rubenstein/hartman/rcmax4.jpg\" alt=\"Buy this Flour Because Pillsbury's Best\" width=\"358\" height=\"200\" class=\"img-responsive\"></p><p>Wall signs like these were common on city streets early in this century. Today, only faded ghosts remain.</p>",
      "langcode" : "und",
      "revision_id" : 11103,
      "body_format" : "full_html",
      "deleted" : 0
   },
   "langcode" : "und",
   "uuid" : "3f30415b-efc9-491f-b4ae-8ab4b07a78c7",
   "path_alias" : {
      "status" : 0,
      "language" : "und",
      "alias" : "/hartman/collections-and-guides/maxwell",
      "pid" : 132,
      "langcode" : "und"
   },
   "vid" : 11103,
   "field_image" : null,
   "revisions" : [
      {
         "comment" : 1,
         "node_revision__body" : {
            "body_summary" : "",
            "delta" : 0,
            "entity_id" : 86,
            "bundle" : "page",
            "langcode" : "und",
            "revision_id" : 11103,
            "body_format" : "full_html",
            "deleted" : 0,
            "body_value" : "<p align=\"center\"><img src=\"/rubenstein/sites/default/files/rubenstein/hartman/rcmax1.jpg\" alt=\"The R.C. Maxwell Company\" width=\"500\" height=\"187\" class=\"img-responsive\"></p><h2>The Maxwell Collection at Duke</h2><p>David C. Maxwell, son of founder R. C. Maxwell, donated the company's extensive photograph collection&nbsp;—&nbsp;along with early financial records, house advertisements and several hundred documents —&nbsp;to Duke University beginning in 1996. The Maxwell Collection presents a uniquely comprehensive record of regional outdoor advertising over a period of nearly 80 years. Duke is extremely grateful to Mr. Maxwell for this gift and also for financial support of this fine collection.</p><p>The Maxwell photographs are arranged chronologically by a numerical system devised by the company. Preservation and indexing work is underway as part of a <a href=\"http://www.neh.gov/\">National Endowment for the Humanities</a> (NEH) grant generously awarded to the Hartman Center in 2000 for the arranging and describing of 11 Outdoor Advertising collections.&nbsp;</p><p>For additional information about the outdoor advertising collections at Duke, <a href=\"http://library.duke.edu/rubenstein/hartman/contact.html\">contact the Hartman Center</a>.</p><h2>A Capsule History of the Company</h2><p>The R. C. Maxwell Company was founded by Robert Chester Maxwell in 1894. In the late 19th century, railroads were the primary means of travel and commerce, so Mr. Maxwell built \"bill-boards,\" structures of wooden boards on which printed advertising bills were posted, to be seen by those riding the steel rails.</p><p>With the advent of the automobile, those rail travelers started driving along the growing network of roads and highways, and the company began building the now familiar roadside billboards to reach them.</p><p>For more than one hundred years, billboards have informed and entertained motorists and today are a unique part of American culture. With the development of incandescent lights, electric display signs were added to the company's repertoire. Mr. Maxwell, seeing great possibilities in these \"spectaculars,\" established the Electric Sign Manufacturing Plant in Atlantic City. In the 1920s he erected such landmarks as the giant 50-foot Colgate thermometer (the world's largest) and a unique all-neon display on the roof of the Atlantic City Million Dollar Pier that featured four horses racing around a track with a random winner every three minutes.</p><p>As media have evolved and changed in the course of the 20th century, the R. C. Maxwell Company, now headquartered in Trenton, N.J., continues to serve the advertising industry in new ways.</p><h2>Take a peak inside R. C. Maxwell Company's Photograph Collection</h2><p class=\"text-center\"><img src=\"/rubenstein/sites/default/files/rubenstein/hartman/rcmax2.jpg\" alt=\"Chesterfield Cigarettes Milder and Better Taste\" width=\"400\" height=\"271\" class=\"img-responsive\"></p><p>Billed as \"the worlds largest and most beautiful spectacular electric display\" when it was built in 1926, this sign by the R. C. Maxwell Company was the height of high technology in its day. It was located on the Steeplechase Pier at Pennsylvania Avenue and Boardwalk in Atlantic City. In a 75-second cycle, the 13,000 bulbs illuminated in 27-colored steps and finished in a burst of gold and white before fading out to begin again.</p><p class=\"text-center\"><img src=\"/rubenstein/sites/default/files/rubenstein/hartman/rcmax3.jpg\" alt=\"Hail Miss America\" width=\"400\" height=\"291\" class=\"img-responsive\"></p><p>The Miss America Pageant has been a unique tradition in Atlantic City since 1932. The contestants would parade along the boardwalk during the pageant week, often in floats constructed by the R. C. Maxwell Company.</p><p class=\"text-center\"><img src=\"/rubenstein/sites/default/files/rubenstein/hartman/rcmax4.jpg\" alt=\"Buy this Flour Because Pillsbury's Best\" width=\"358\" height=\"200\" class=\"img-responsive\"></p><p>Wall signs like these were common on city streets early in this century. Today, only faded ghosts remain.</p>"
         },
         "node_revision__field_tags" : [],
         "sticky" : 0,
         "status" : 1,
         "timestamp" : 1488390431,
         "vuuid" : "99f5f319-0eda-4fc7-99f9-4ad92542c2be",
         "uid" : 7,
         "log" : "",
         "promote" : 0,
         "title" : "R.C. Maxwell Company Collection",
         "field_revision" : {
            "status" : 1,
            "changed" : null,
            "sticky" : 0,
            "created" : null,
            "revision_translation_affected" : 1,
            "uid" : 1,
            "default_langcode" : 1,
            "langcode" : null,
            "title" : "R.C. Maxwell Company Collection"
         }
      }
   ],
   "nid" : "86",
   "asidebox" : {
      "nid" : 86,
      "bid" : null,
      "body_title" : "Did you know?",
      "status" : "html",
      "body_value" : "<ul><li>The R. C. Maxwell Company was incorporated in 1894.</li><li>Until its sale in 2000, it was the oldest surviving outdoor company in the United States.</li><li>The company retained thousands of 8-by-10 professional photographs of its billboards and other advertising.</li><li>Dating from 1917, the earliest images are on glass negatives. Most of the scenes show places in New Jersey, with smaller numbers from Pennsylvania and other states. Because the excellent photos show outdoor advertising in its urban or rural setting&nbsp;—&nbsp;with cars and people, movie theaters and shops, boardwalks and beaches&nbsp;—&nbsp;they record valuable vignettes of American culture in the early part of the 20th century.</li></ul><h3>Learn more</h3><ul><li><a href=\"http://library.duke.edu/digitalcollections/eaa/browse/maxwell/\">View more than 500 pre-1929 Maxwell Company images online</a>.</li><li><a href=\"http://library.duke.edu/digitalcollections/outdooradvertising/\" target=\"_blank\">View hundreds of images of R.C. Maxwell photographs (1910s &amp; 1952). </a></li><li><a href=\"http://library.duke.edu/digitalcollections/road/\" title=\"ROAD\">Search the Resource of Outdoor Advertising Descriptions (ROAD) database for accompanying image descriptions.</a></li></ul>",
      "block_delta" : null,
      "body_format" : "full_html",
      "vid" : 11103,
      "block_module" : null
   },
   "node_field_data" : {
      "uid" : 1,
      "revision_translation_affected" : 1,
      "created" : 1375374645,
      "langcode" : "und",
      "default_langcode" : 1,
      "type" : "page",
      "status" : 1,
      "changed" : null,
      "sticky" : 0,
      "title" : "R.C. Maxwell Company Collection",
      "promote" : 0
   }
}

