{
   "type" : "page",
   "field_tags" : [],
   "node_access" : null,
   "node__body" : {
      "langcode" : "und",
      "revision_id" : 15763,
      "body_format" : "full_html",
      "deleted" : 0,
      "body_value" : "<div id=\"pageContentBox\"><div id=\"pageContentProper\"><h3>General contact information</h3><div class=\"indentLeftMedium\"><ul><li><a href=\"mailto:hartman-center@duke.edu\">E-mail us</a></li><li>Call us:&nbsp;<a href=\"tel:919660-5827\">(919) 660-5827</a></li><li>Fax:&nbsp;<a href=\"tel:9196605934\">(919) 660-5934</a></li><li>Mailing Address:</li></ul><p style=\"padding-left: 30px;\">Hartman Center<br>Box 90185 <br>Duke University<br>Durham, NC 27708-0185</p></div><h3>Our Staff</h3><div class=\"indentLeftMedium\"><p><strong><a href=\"http://library.duke.edu/apps/directory/staff/1951/\" title=\"Directory\">Jacqueline Reid Wachholz</a>, Director</strong><br><strong></strong></p><ul><li><a href=\"mailto:j.reid@duke.edu\">E-mail me</a></li><li>Call me at <a href=\"9196605836\">(919) 660-5836</a></li></ul><p><strong><a href=\"http://library.duke.edu/apps/directory/staff/571/\" title=\"Directory\">Richard Collier</a>, Technical Services Archivist</strong></p><ul><li><a href=\"mailto:richard.collier@duke.edu\">E-mail me</a>&nbsp;</li><li>Call me at <a href=\"tel:919660-5913\">(919) 660-5913</a></li></ul><p><strong><a href=\"http://library.duke.edu/apps/directory/staff/3521/\">Joshua Larkin Rowley</a>, Reference Archivist</strong></p><ul><li><a href=\"mailto:jl249@duke.edu\">E-mail me</a><b><br></b></li><li>Call me at <a href=\"tel:919660-5833\">(919) 660-5833</a></li></ul><p></p></div><h3>Physical Location</h3><ul><li>The Hartman Center is part of the Rubenstein Rare Book &amp; Manuscript Library, which is part of the Perkins Library building on the West Campus of Duke University (next to the Duke Chapel).&nbsp;</li><li><a href=\"http://library.duke.edu/rubenstein/about/visit\">Directions and parking information</a>.</li></ul><p class=\"indentLeftMedium\"></p></div></div>",
      "body_summary" : "",
      "delta" : 0,
      "entity_id" : 45,
      "bundle" : "page"
   },
   "langcode" : "und",
   "uuid" : "4537c445-d103-4345-9fdc-a767e7444a53",
   "path_alias" : {
      "status" : 0,
      "language" : "und",
      "pid" : 85,
      "alias" : "/hartman/contact",
      "langcode" : "und"
   },
   "field_image" : null,
   "vid" : 15763,
   "nid" : "45",
   "revisions" : [
      {
         "timestamp" : 1586379448,
         "comment" : 1,
         "status" : 1,
         "node_revision__body" : {
            "body_value" : "<div id=\"pageContentBox\"><div id=\"pageContentProper\"><h3>General contact information</h3><div class=\"indentLeftMedium\"><ul><li><a href=\"mailto:hartman-center@duke.edu\">E-mail us</a></li><li>Call us:&nbsp;<a href=\"tel:919660-5827\">(919) 660-5827</a></li><li>Fax:&nbsp;<a href=\"tel:9196605934\">(919) 660-5934</a></li><li>Mailing Address:</li></ul><p style=\"padding-left: 30px;\">Hartman Center<br>Box 90185 <br>Duke University<br>Durham, NC 27708-0185</p></div><h3>Our Staff</h3><div class=\"indentLeftMedium\"><p><strong><a href=\"http://library.duke.edu/apps/directory/staff/1951/\" title=\"Directory\">Jacqueline Reid Wachholz</a>, Director</strong><br><strong></strong></p><ul><li><a href=\"mailto:j.reid@duke.edu\">E-mail me</a></li><li>Call me at <a href=\"9196605836\">(919) 660-5836</a></li></ul><p><strong><a href=\"http://library.duke.edu/apps/directory/staff/571/\" title=\"Directory\">Richard Collier</a>, Technical Services Archivist</strong></p><ul><li><a href=\"mailto:richard.collier@duke.edu\">E-mail me</a>&nbsp;</li><li>Call me at <a href=\"tel:919660-5913\">(919) 660-5913</a></li></ul><p><strong><a href=\"http://library.duke.edu/apps/directory/staff/3521/\">Joshua Larkin Rowley</a>, Reference Archivist</strong></p><ul><li><a href=\"mailto:jl249@duke.edu\">E-mail me</a><b><br></b></li><li>Call me at <a href=\"tel:919660-5833\">(919) 660-5833</a></li></ul><p></p></div><h3>Physical Location</h3><ul><li>The Hartman Center is part of the Rubenstein Rare Book &amp; Manuscript Library, which is part of the Perkins Library building on the West Campus of Duke University (next to the Duke Chapel).&nbsp;</li><li><a href=\"http://library.duke.edu/rubenstein/about/visit\">Directions and parking information</a>.</li></ul><p class=\"indentLeftMedium\"></p></div></div>",
            "body_format" : "full_html",
            "deleted" : 0,
            "langcode" : "und",
            "revision_id" : 15763,
            "entity_id" : 45,
            "bundle" : "page",
            "delta" : 0,
            "body_summary" : ""
         },
         "node_revision__field_tags" : [],
         "sticky" : 0,
         "title" : "Contact the Hartman Center",
         "promote" : 0,
         "field_revision" : {
            "title" : "Contact the Hartman Center",
            "status" : 1,
            "changed" : null,
            "sticky" : 0,
            "uid" : 1,
            "revision_translation_affected" : 1,
            "created" : null,
            "langcode" : null,
            "default_langcode" : 1
         },
         "uid" : 11,
         "vuuid" : "edb7fde7-5643-4e29-b0f2-3afbd474d02a",
         "log" : ""
      }
   ],
   "node_field_data" : {
      "sticky" : 0,
      "status" : 1,
      "type" : "page",
      "changed" : null,
      "default_langcode" : 1,
      "langcode" : "und",
      "revision_translation_affected" : 1,
      "created" : 1374157564,
      "uid" : 1,
      "promote" : 0,
      "title" : "Contact the Hartman Center"
   },
   "asidebox" : {
      "body_format" : null,
      "block_module" : null,
      "vid" : 15763,
      "body_value" : null,
      "status" : "disabled",
      "block_delta" : null,
      "body_title" : "",
      "bid" : null,
      "nid" : 45
   }
}

