{
   "langcode" : "und",
   "node__body" : {
      "body_value" : "<h4><strong>Brantley York</strong></h4><p><strong>Principal of Union Institute, 1838-1842</strong></p><p>A largely self-taught educator, Methodist minister, and author of a series of English grammars, Brantley York (1805-1891) was asked by Methodist and Quaker farmers in rural Randolph County to help provide education for their sons and daughters. He organized Union Institute Academy in 1838 and met with instant success, having to build two new buildings within a year-and-a-half.Though gratified at his accomplish­ment, he worked extremely hard raising money, and he began to go blind working late at night preparing recitations in subjects he had not adequately studied. In fact, he recorded in his diary a statement saying he considered his years at Union Institute to be \"truly onerous.\" York, however, had found his life's work at Union Institute and, though completely blind by age forty-eight, he lived to be eighty-six and founded half-a-dozen schools, lectured over 8,000 times, and taught more than 15,000 pupils.</p><ul><li><a href=\"http://library.duke.edu/uarchives/history/histnotes/york_b.html\">Autobiographical article</a></li><li><em>The Autobiography of Brantley York</em>. Seeman Printery, 1910. (<a href=\"http://search.library.duke.edu/search?sugg=is&amp;source=duke&amp;Nty=1&amp;N=0&amp;Ntk=Title&amp;Ntt=the+autobiography+of+brantley+york\" target=\"_blank\">catalog record</a>) (<a href=\"http://docsouth.unc.edu/nc/york/york.html\">digital copy</a> via <a href=\"http://docsouth.unc.edu/index.html\" target=\"_blank\">Documenting the American South</a>).</li><li><a href=\"http://library.duke.edu/digitalcollections/rbmscl/uapresyork/inv/\">Collection guide</a> for Brantley York's records and papers at the Duke University Archives.</li></ul><hr><p></p><h4><strong>Braxton Craven</strong></h4><p><strong>Principal of Union Institute 1842-1851</strong></p><p><strong>President of Normal College, 1851-1859</strong></p><p><strong>President of Trinity College, 1859-1863 and 1866-1882</strong></p><p>Braxton Craven's (1822-1882) connection with the school began at age 19 when in 1841 he was asked to enroll both as a student and assistant teacher. He succeeded York as principal and until his death in 1882 the history of the institution is largely the biography of Braxton Craven. Well versed in educational theory, in 1851 he had the school chartered by the state as Normal College to train teachers for the state’s common schools. An ordained minister, he later turned to the Methodist Church for support with the resulting change of name to Trinity College in 1859. Under his leadership the school became well known, drawing its student body mostly from central Carolina, but it also drew consistently from all Southern states including some students from as far away as Arkansas and Missouri.</p><p>The break in Craven's presidency from 1863 to 1865 was caused by divisions in the Methodist Conference over his management of the school that led to his resignation. Professor William Trigg Gannaway was appointed president pro tempore. Unlike many Southern schools, Trinity managed to operate during the Civil War and Reconstruction. Classes were suspended for a few months in 1865 because of the disruption of college life when the campus was occupied by retreating troops, but there was little question that the college would reopen. Craven was persuaded to resume his office. A highly respected educator, though not an uncontroversial leader, Craven concurrently served as President, and Professor of Ancient Languages, Mental and Moral Science, Metaphysics, Rhetoric and Logic, National and Constitutional Law, and Biblical Literature.</p><ul><li><a href=\"http://library.duke.edu/uarchives/history/histnotes/b_craven.html\">Autobiographical article</a></li><li><em>Life of Braxton Craven</em> by Jerome Dowd. Duke University Press, 1939. (<a href=\"http://search.library.duke.edu/search?N=0&amp;Nty=1&amp;Ntk=Title&amp;Ntt=life+of+braxton+craven&amp;sugg=\" target=\"_blank\">catalog record</a>) (<a href=\"http://hdl.handle.net/2027/wu.89077014744\" target=\"_blank\">digital copy</a> via HathiTrust).</li><li><a href=\"http://library.duke.edu/digitalcollections/rbmscl/uaprescraven/inv/\">Collection guide</a> for Braxton Craven's records and papers at the Duke University Archives.</li></ul><hr><p></p><h4><strong>Marquis Lafayette Wood</strong></h4><p><b>President, Trinity College, 1883-1884</b></p><p>When Braxton Craven died in 1882, the Trustees turned to Marquis Lafayette Wood (1829-1893). Although he served only a year and a half, Duke might not be here today were it not for his leadership during the critical period following Craven's death. When 19th century institutions became closely identified with the personality of a long-time leader, they more often than not succumbed at the death of their president.</p><p>A minister and Craven's closest friend, Wood was a graduate of the school—the only president also an alumnus in our history. He worked diligently for the college, raised the first money ever for endowment, and remained on the Board of Trustees the rest of his life, even submitting the resolution in 1889 to move the college from his beloved native Randolph County. His one-sentence definition of the college presidency was that \"All great enterprises require time and patience and labor and suffering and money.\" After Wood left, the college was run for three years by a Committee of the Board of Trustees.</p><ul><li>\"The Life of Marquis Lafayette Wood as Shown by His Diary\" by Marquis Wood Lawrence. B.D. Thesis, Duke University, 1930 (<a href=\"http://search.library.duke.edu/search?id=DUKE000927484\" target=\"_blank\">catalog record</a>).</li><li><a href=\"http://library.duke.edu/digitalcollections/rbmscl/uapreswood/inv/\">Collection guide</a> for Marquis Wood's records and papers at the Duke University Archives.</li></ul><hr><p></p><h4><strong>John Franklin Crowell</strong></h4><p><strong>President, Trinity College, 1887-1894</strong></p><p>Even though he served in the late nineteenth century, Yale graduate John Franklin Crowell (1857-1931) was our first modern or \"twentieth century\" president. His most evident legacy was the move of the school to Durham. But equally significant was his replacement of the 19th century curriculum based on recitation with the then-developing German university practice of learning based on research in primary sources. Toward that end, Crowell persuaded the competing student literary societies to combine their libraries into a single college collection, where he personally catalogued the books and kept hours at a reference desk to encourage proper research methods. He also corrected the Latin in the college motto and coached the first football team, each fascinating stories in themselves. The relocation of the college to Durham succeeded beyond Crowell's wildest dreams as it allied Trinity closely with the interests of the spectacularly successful tobacconists and Methodist laymen, Julian Shakespeare Carr and Washington Duke.</p><ul><li><a href=\"http://library.duke.edu/uarchives/history/histnotes/j_f_crowell.html\">Autobiographical article</a></li><li><em>Personal Recollections of Trinity College, NC, 1887-1894</em> by John Franklin Crowell. Duke University Press, 1939 (<a href=\"http://search.library.duke.edu/search?id=DUKE000294965\" target=\"_blank\">catalog record</a>) (<a href=\"http://hdl.handle.net/2027/uc1.b17992\" target=\"_blank\">digital copy</a> via HathiTrust).</li><li><a href=\"http://library.duke.edu/digitalcollections/rbmscl/uaprescrowell/inv/\">Collection guide</a> for John Franklin Crowell's records and papers at the Duke University Archives.</li></ul><hr><p></p><p></p>",
      "langcode" : "und",
      "revision_id" : 12209,
      "body_format" : "full_html",
      "deleted" : 0,
      "entity_id" : 671,
      "bundle" : "page",
      "body_summary" : "",
      "delta" : 0
   },
   "node_access" : null,
   "field_tags" : [],
   "type" : "page",
   "field_image" : null,
   "path_alias" : {
      "status" : 0,
      "language" : "und",
      "pid" : 795,
      "alias" : "/uarchives/history/exhibits/dukepresidents/pastpresidents",
      "langcode" : "und"
   },
   "vid" : 12209,
   "uuid" : "483dc4a6-c506-418e-b4ef-ff74b159e028",
   "asidebox" : null,
   "node_field_data" : {
      "created" : 1506295851,
      "revision_translation_affected" : 1,
      "uid" : 1,
      "default_langcode" : 1,
      "langcode" : "und",
      "status" : 0,
      "type" : "page",
      "changed" : null,
      "sticky" : 0,
      "title" : "Past Presidents of Duke University",
      "promote" : 0
   },
   "revisions" : [
      {
         "comment" : 1,
         "node_revision__field_tags" : [],
         "node_revision__body" : {
            "body_format" : "full_html",
            "deleted" : 0,
            "revision_id" : 12209,
            "langcode" : "und",
            "body_value" : "<h4><strong>Brantley York</strong></h4><p><strong>Principal of Union Institute, 1838-1842</strong></p><p>A largely self-taught educator, Methodist minister, and author of a series of English grammars, Brantley York (1805-1891) was asked by Methodist and Quaker farmers in rural Randolph County to help provide education for their sons and daughters. He organized Union Institute Academy in 1838 and met with instant success, having to build two new buildings within a year-and-a-half.Though gratified at his accomplish­ment, he worked extremely hard raising money, and he began to go blind working late at night preparing recitations in subjects he had not adequately studied. In fact, he recorded in his diary a statement saying he considered his years at Union Institute to be \"truly onerous.\" York, however, had found his life's work at Union Institute and, though completely blind by age forty-eight, he lived to be eighty-six and founded half-a-dozen schools, lectured over 8,000 times, and taught more than 15,000 pupils.</p><ul><li><a href=\"http://library.duke.edu/uarchives/history/histnotes/york_b.html\">Autobiographical article</a></li><li><em>The Autobiography of Brantley York</em>. Seeman Printery, 1910. (<a href=\"http://search.library.duke.edu/search?sugg=is&amp;source=duke&amp;Nty=1&amp;N=0&amp;Ntk=Title&amp;Ntt=the+autobiography+of+brantley+york\" target=\"_blank\">catalog record</a>) (<a href=\"http://docsouth.unc.edu/nc/york/york.html\">digital copy</a> via <a href=\"http://docsouth.unc.edu/index.html\" target=\"_blank\">Documenting the American South</a>).</li><li><a href=\"http://library.duke.edu/digitalcollections/rbmscl/uapresyork/inv/\">Collection guide</a> for Brantley York's records and papers at the Duke University Archives.</li></ul><hr><p></p><h4><strong>Braxton Craven</strong></h4><p><strong>Principal of Union Institute 1842-1851</strong></p><p><strong>President of Normal College, 1851-1859</strong></p><p><strong>President of Trinity College, 1859-1863 and 1866-1882</strong></p><p>Braxton Craven's (1822-1882) connection with the school began at age 19 when in 1841 he was asked to enroll both as a student and assistant teacher. He succeeded York as principal and until his death in 1882 the history of the institution is largely the biography of Braxton Craven. Well versed in educational theory, in 1851 he had the school chartered by the state as Normal College to train teachers for the state’s common schools. An ordained minister, he later turned to the Methodist Church for support with the resulting change of name to Trinity College in 1859. Under his leadership the school became well known, drawing its student body mostly from central Carolina, but it also drew consistently from all Southern states including some students from as far away as Arkansas and Missouri.</p><p>The break in Craven's presidency from 1863 to 1865 was caused by divisions in the Methodist Conference over his management of the school that led to his resignation. Professor William Trigg Gannaway was appointed president pro tempore. Unlike many Southern schools, Trinity managed to operate during the Civil War and Reconstruction. Classes were suspended for a few months in 1865 because of the disruption of college life when the campus was occupied by retreating troops, but there was little question that the college would reopen. Craven was persuaded to resume his office. A highly respected educator, though not an uncontroversial leader, Craven concurrently served as President, and Professor of Ancient Languages, Mental and Moral Science, Metaphysics, Rhetoric and Logic, National and Constitutional Law, and Biblical Literature.</p><ul><li><a href=\"http://library.duke.edu/uarchives/history/histnotes/b_craven.html\">Autobiographical article</a></li><li><em>Life of Braxton Craven</em> by Jerome Dowd. Duke University Press, 1939. (<a href=\"http://search.library.duke.edu/search?N=0&amp;Nty=1&amp;Ntk=Title&amp;Ntt=life+of+braxton+craven&amp;sugg=\" target=\"_blank\">catalog record</a>) (<a href=\"http://hdl.handle.net/2027/wu.89077014744\" target=\"_blank\">digital copy</a> via HathiTrust).</li><li><a href=\"http://library.duke.edu/digitalcollections/rbmscl/uaprescraven/inv/\">Collection guide</a> for Braxton Craven's records and papers at the Duke University Archives.</li></ul><hr><p></p><h4><strong>Marquis Lafayette Wood</strong></h4><p><b>President, Trinity College, 1883-1884</b></p><p>When Braxton Craven died in 1882, the Trustees turned to Marquis Lafayette Wood (1829-1893). Although he served only a year and a half, Duke might not be here today were it not for his leadership during the critical period following Craven's death. When 19th century institutions became closely identified with the personality of a long-time leader, they more often than not succumbed at the death of their president.</p><p>A minister and Craven's closest friend, Wood was a graduate of the school—the only president also an alumnus in our history. He worked diligently for the college, raised the first money ever for endowment, and remained on the Board of Trustees the rest of his life, even submitting the resolution in 1889 to move the college from his beloved native Randolph County. His one-sentence definition of the college presidency was that \"All great enterprises require time and patience and labor and suffering and money.\" After Wood left, the college was run for three years by a Committee of the Board of Trustees.</p><ul><li>\"The Life of Marquis Lafayette Wood as Shown by His Diary\" by Marquis Wood Lawrence. B.D. Thesis, Duke University, 1930 (<a href=\"http://search.library.duke.edu/search?id=DUKE000927484\" target=\"_blank\">catalog record</a>).</li><li><a href=\"http://library.duke.edu/digitalcollections/rbmscl/uapreswood/inv/\">Collection guide</a> for Marquis Wood's records and papers at the Duke University Archives.</li></ul><hr><p></p><h4><strong>John Franklin Crowell</strong></h4><p><strong>President, Trinity College, 1887-1894</strong></p><p>Even though he served in the late nineteenth century, Yale graduate John Franklin Crowell (1857-1931) was our first modern or \"twentieth century\" president. His most evident legacy was the move of the school to Durham. But equally significant was his replacement of the 19th century curriculum based on recitation with the then-developing German university practice of learning based on research in primary sources. Toward that end, Crowell persuaded the competing student literary societies to combine their libraries into a single college collection, where he personally catalogued the books and kept hours at a reference desk to encourage proper research methods. He also corrected the Latin in the college motto and coached the first football team, each fascinating stories in themselves. The relocation of the college to Durham succeeded beyond Crowell's wildest dreams as it allied Trinity closely with the interests of the spectacularly successful tobacconists and Methodist laymen, Julian Shakespeare Carr and Washington Duke.</p><ul><li><a href=\"http://library.duke.edu/uarchives/history/histnotes/j_f_crowell.html\">Autobiographical article</a></li><li><em>Personal Recollections of Trinity College, NC, 1887-1894</em> by John Franklin Crowell. Duke University Press, 1939 (<a href=\"http://search.library.duke.edu/search?id=DUKE000294965\" target=\"_blank\">catalog record</a>) (<a href=\"http://hdl.handle.net/2027/uc1.b17992\" target=\"_blank\">digital copy</a> via HathiTrust).</li><li><a href=\"http://library.duke.edu/digitalcollections/rbmscl/uaprescrowell/inv/\">Collection guide</a> for John Franklin Crowell's records and papers at the Duke University Archives.</li></ul><hr><p></p><p></p>",
            "delta" : 0,
            "body_summary" : "",
            "bundle" : "page",
            "entity_id" : 671
         },
         "sticky" : 0,
         "status" : 0,
         "timestamp" : 1506296471,
         "vuuid" : "620df13c-c8df-42fa-97fe-f9495974cfda",
         "uid" : 13,
         "log" : "",
         "promote" : 0,
         "title" : "Past Presidents of Duke University",
         "field_revision" : {
            "changed" : null,
            "status" : 0,
            "sticky" : 0,
            "revision_translation_affected" : 1,
            "created" : null,
            "uid" : 1,
            "default_langcode" : 1,
            "langcode" : null,
            "title" : "Past Presidents of Duke University"
         }
      }
   ],
   "nid" : "671"
}

