{
   "node__body" : {
      "body_value" : "<p>1. Log into your <a href=\"https://duke.aeon.atlas-sys.com/logon\">Rubenstein Library account</a>.</p><p>2. On the left hand side of the page, choose “Order Billing” under ORDERS</p><p><img src=\"/rubenstein/sites/default/files/rubenstein/users/kate.collins/Order%20Billing.png\" alt=\"location of &quot;Order Billing&quot; option in account menu\" width=\"450\" height=\"439\"><br><br>3. Reproduction requests from multiple items can be consolidated into a single invoice – just check the box next to the items you would like to include - and choose the pay by check or pay online now option.</p><p><img src=\"/rubenstein/sites/default/files/rubenstein/users/kate.collins/TN%20check%20and%20Pay%20online%20now_0.png\" alt=\"screenshot showing location of check boxes for items to be paid for and the location of the pay now button\" width=\"500\" height=\"218\"></p><p></p><p>If you choose the pay by check option, we will hold your order until we've received your payment. Checks can be sent to:</p><p>Reproductions<br>Rubenstein Library RM 166 <br>411 Chapel Drive<br>Box 90185<br>Durham, NC 27708<br><br>4. If you choose to pay online now, you will be directed to a PAYMENT DETAILS page. Please choose the Pay Now option.</p><p><img src=\"/rubenstein/sites/default/files/rubenstein/users/kate.collins/Pay%20Now.png\" alt=\"Screenshot indicating location of pay now button\" width=\"500\" height=\"154\"></p><p>5. Please enter your credit card information into the Billing information. The amount will appear on the upper right hand side of the screen. Once you enter your information, click pay.</p><p><img src=\"/rubenstein/sites/default/files/rubenstein/users/kate.collins/Credit%20card%20amount%20and%20pay%20button.png\" alt=\"location of credit card billing information and pay button\" width=\"450\" height=\"344\"></p><p></p><p>Once your payment has been accepted, your account will note that your payment has been accepted and give you a confirmation code.</p><p><img src=\"/rubenstein/sites/default/files/rubenstein/users/kate.collins/Payment%20accepted.png\" alt=\"showing the location of confirmation message\" width=\"500\" height=\"158\"><br><br>You will also receive an email confirmation from Duke University Libraries.</p><p><img src=\"/rubenstein/sites/default/files/rubenstein/users/kate.collins/receipt.png\" width=\"450\" height=\"360\"></p><p>Most reproduction requests are delivered 8-10 weeks after you have submitted payment.</p>",
      "revision_id" : 16998,
      "langcode" : "und",
      "body_format" : "full_html",
      "deleted" : 0,
      "bundle" : "page",
      "entity_id" : 767,
      "body_summary" : "",
      "delta" : 0
   },
   "langcode" : "und",
   "type" : "page",
   "field_tags" : [],
   "node_access" : null,
   "node_field_data" : {
      "title" : "Paying for Your Reproduction Order",
      "promote" : 0,
      "created" : 1572565495,
      "revision_translation_affected" : 1,
      "uid" : 1,
      "default_langcode" : 1,
      "langcode" : "und",
      "status" : 1,
      "type" : "page",
      "changed" : null,
      "sticky" : 0
   },
   "asidebox" : {
      "bid" : null,
      "body_title" : "",
      "nid" : 767,
      "body_format" : null,
      "vid" : 16998,
      "block_module" : null,
      "status" : "disabled",
      "body_value" : null,
      "block_delta" : null
   },
   "nid" : "767",
   "revisions" : [
      {
         "uid" : 159,
         "vuuid" : "277cf452-292e-470a-ae4f-5d36535b4129",
         "log" : "",
         "title" : "Paying for Your Reproduction Order",
         "promote" : 0,
         "field_revision" : {
            "created" : null,
            "revision_translation_affected" : 1,
            "uid" : 1,
            "default_langcode" : 1,
            "langcode" : null,
            "status" : 1,
            "changed" : null,
            "sticky" : 0,
            "title" : "Paying for Your Reproduction Order"
         },
         "comment" : 1,
         "status" : 1,
         "sticky" : 0,
         "node_revision__field_tags" : [],
         "node_revision__body" : {
            "langcode" : "und",
            "revision_id" : 16998,
            "body_format" : "full_html",
            "deleted" : 0,
            "body_value" : "<p>1. Log into your <a href=\"https://duke.aeon.atlas-sys.com/logon\">Rubenstein Library account</a>.</p><p>2. On the left hand side of the page, choose “Order Billing” under ORDERS</p><p><img src=\"/rubenstein/sites/default/files/rubenstein/users/kate.collins/Order%20Billing.png\" alt=\"location of &quot;Order Billing&quot; option in account menu\" width=\"450\" height=\"439\"><br><br>3. Reproduction requests from multiple items can be consolidated into a single invoice – just check the box next to the items you would like to include - and choose the pay by check or pay online now option.</p><p><img src=\"/rubenstein/sites/default/files/rubenstein/users/kate.collins/TN%20check%20and%20Pay%20online%20now_0.png\" alt=\"screenshot showing location of check boxes for items to be paid for and the location of the pay now button\" width=\"500\" height=\"218\"></p><p></p><p>If you choose the pay by check option, we will hold your order until we've received your payment. Checks can be sent to:</p><p>Reproductions<br>Rubenstein Library RM 166 <br>411 Chapel Drive<br>Box 90185<br>Durham, NC 27708<br><br>4. If you choose to pay online now, you will be directed to a PAYMENT DETAILS page. Please choose the Pay Now option.</p><p><img src=\"/rubenstein/sites/default/files/rubenstein/users/kate.collins/Pay%20Now.png\" alt=\"Screenshot indicating location of pay now button\" width=\"500\" height=\"154\"></p><p>5. Please enter your credit card information into the Billing information. The amount will appear on the upper right hand side of the screen. Once you enter your information, click pay.</p><p><img src=\"/rubenstein/sites/default/files/rubenstein/users/kate.collins/Credit%20card%20amount%20and%20pay%20button.png\" alt=\"location of credit card billing information and pay button\" width=\"450\" height=\"344\"></p><p></p><p>Once your payment has been accepted, your account will note that your payment has been accepted and give you a confirmation code.</p><p><img src=\"/rubenstein/sites/default/files/rubenstein/users/kate.collins/Payment%20accepted.png\" alt=\"showing the location of confirmation message\" width=\"500\" height=\"158\"><br><br>You will also receive an email confirmation from Duke University Libraries.</p><p><img src=\"/rubenstein/sites/default/files/rubenstein/users/kate.collins/receipt.png\" width=\"450\" height=\"360\"></p><p>Most reproduction requests are delivered 8-10 weeks after you have submitted payment.</p>",
            "body_summary" : "",
            "delta" : 0,
            "entity_id" : 767,
            "bundle" : "page"
         },
         "timestamp" : 1617896735
      }
   ],
   "uuid" : "489f5431-b1af-44a0-b853-d1472ceed123",
   "path_alias" : {
      "langcode" : "und",
      "pid" : 915,
      "alias" : "/research/reproductions/payment",
      "language" : "und",
      "status" : 0
   },
   "vid" : 16998,
   "field_image" : null
}

