{
   "uuid" : "4aac349f-23a1-4f94-95e0-265e9587f1f1",
   "path_alias" : {
      "language" : "und",
      "status" : 0,
      "langcode" : "und",
      "alias" : "/uarchives/history/exhibits/building-names/east/east-residence-hall",
      "pid" : 423
   },
   "vid" : 13921,
   "field_image" : null,
   "asidebox" : {
      "body_title" : "",
      "bid" : null,
      "nid" : 345,
      "block_module" : null,
      "vid" : 13921,
      "body_format" : null,
      "block_delta" : null,
      "body_value" : null,
      "status" : "disabled"
   },
   "node_field_data" : {
      "title" : "East Residence Hall (formerly Aycock Residence Hall)",
      "promote" : 0,
      "uid" : 1,
      "revision_translation_affected" : 1,
      "created" : 1392931544,
      "langcode" : "und",
      "default_langcode" : 1,
      "type" : "page",
      "status" : 1,
      "changed" : null,
      "sticky" : 0
   },
   "revisions" : [
      {
         "node_revision__field_tags" : [],
         "node_revision__body" : {
            "body_summary" : "",
            "delta" : 0,
            "entity_id" : 345,
            "bundle" : "page",
            "langcode" : "und",
            "revision_id" : 13921,
            "deleted" : 0,
            "body_format" : "full_html",
            "body_value" : "<h3>Completed: 1911</h3><h3>Architect: C. C. Hook</h3><p style=\"text-align: center;\"><img src=\"/rubenstein/sites/default/files/rubenstein/users/MatthewSchaefer/Aycock_B1_500px.jpg\" alt=\"Aycock Residence Hall\" title=\"Aycock Residence Hall\" height=\"300\" class=\"img-responsive\"></p><p>East Residence Hall is a three-story building of white pressed brick and Indiana sandstone, roofed with green tile; it complements Jarvis Residence Hall architecturally. Its construction began January 4<sup>th</sup>, 1911, <a href=\"http://blogs.library.duke.edu/rubenstein/2011/01/04/duke-fire/\">the same day the original Washington Duke Building was destroyed in a fire.</a> It was known as the East Dormitory until 1912, when it was named in honor of former North Carolina Governor Charles Brantley Aycock (1859-1912). The building initially served as a men's dorm until the opening of West Campus and the creation of the Woman’s College in 1930.</p><p><a href=\"http://www.dukechronicle.com/articles/2013/02/25/time-end-silence-aycock\">After significant controversy</a>, the building's name was <a href=\"http://today.duke.edu/2014/06/aycockphoto\" target=\"_blank\">restored to \"East Residence Hall\"</a> in June 2014.</p><h3 style=\"text-align: left;\">For Further Research:</h3><ul><li><a href=\"http://library.duke.edu/rubenstein/findingaids/uabuilding/\" title=\"Building Reference Collection\">Building Reference Collection</a>: Contains historical building information.</li><li><a href=\"http://library.duke.edu/rubenstein/findingaids/uapreskilgo/\">John C. Kilgo Records and Papers</a>: Contains a eulogy for Charles Brantley Aycock.</li><li><a href=\"http://library.duke.edu/rubenstein/findingaids/ualivinggroups/\">Living Groups Reference Collection</a>: Contains information about Duke living groups that have historically occupied East Residence Hall.</li><li><a href=\"https://www.flickr.com/search/?w=19219926@N04&amp;q=aycock\">Flickr Photographs of East Residence Hall</a></li></ul>"
         },
         "sticky" : 0,
         "status" : 1,
         "comment" : 1,
         "timestamp" : 1543848758,
         "log" : "",
         "vuuid" : "0adf1e4a-15d3-4420-8401-fe693fd31d2b",
         "uid" : 13,
         "field_revision" : {
            "title" : "East Residence Hall (formerly Aycock Residence Hall)",
            "status" : 1,
            "changed" : null,
            "sticky" : 0,
            "revision_translation_affected" : 1,
            "created" : null,
            "uid" : 1,
            "default_langcode" : 1,
            "langcode" : null
         },
         "promote" : 0,
         "title" : "East Residence Hall (formerly Aycock Residence Hall)"
      }
   ],
   "nid" : "345",
   "node__body" : {
      "body_value" : "<h3>Completed: 1911</h3><h3>Architect: C. C. Hook</h3><p style=\"text-align: center;\"><img src=\"/rubenstein/sites/default/files/rubenstein/users/MatthewSchaefer/Aycock_B1_500px.jpg\" alt=\"Aycock Residence Hall\" title=\"Aycock Residence Hall\" height=\"300\" class=\"img-responsive\"></p><p>East Residence Hall is a three-story building of white pressed brick and Indiana sandstone, roofed with green tile; it complements Jarvis Residence Hall architecturally. Its construction began January 4<sup>th</sup>, 1911, <a href=\"http://blogs.library.duke.edu/rubenstein/2011/01/04/duke-fire/\">the same day the original Washington Duke Building was destroyed in a fire.</a> It was known as the East Dormitory until 1912, when it was named in honor of former North Carolina Governor Charles Brantley Aycock (1859-1912). The building initially served as a men's dorm until the opening of West Campus and the creation of the Woman’s College in 1930.</p><p><a href=\"http://www.dukechronicle.com/articles/2013/02/25/time-end-silence-aycock\">After significant controversy</a>, the building's name was <a href=\"http://today.duke.edu/2014/06/aycockphoto\" target=\"_blank\">restored to \"East Residence Hall\"</a> in June 2014.</p><h3 style=\"text-align: left;\">For Further Research:</h3><ul><li><a href=\"http://library.duke.edu/rubenstein/findingaids/uabuilding/\" title=\"Building Reference Collection\">Building Reference Collection</a>: Contains historical building information.</li><li><a href=\"http://library.duke.edu/rubenstein/findingaids/uapreskilgo/\">John C. Kilgo Records and Papers</a>: Contains a eulogy for Charles Brantley Aycock.</li><li><a href=\"http://library.duke.edu/rubenstein/findingaids/ualivinggroups/\">Living Groups Reference Collection</a>: Contains information about Duke living groups that have historically occupied East Residence Hall.</li><li><a href=\"https://www.flickr.com/search/?w=19219926@N04&amp;q=aycock\">Flickr Photographs of East Residence Hall</a></li></ul>",
      "body_format" : "full_html",
      "deleted" : 0,
      "revision_id" : 13921,
      "langcode" : "und",
      "bundle" : "page",
      "entity_id" : 345,
      "delta" : 0,
      "body_summary" : ""
   },
   "langcode" : "und",
   "field_tags" : [],
   "type" : "page",
   "node_access" : null
}

