{
   "node_access" : null,
   "field_tags" : [],
   "type" : "page",
   "langcode" : "und",
   "node__body" : {
      "revision_id" : 11331,
      "langcode" : "und",
      "deleted" : 0,
      "body_format" : "full_html",
      "body_value" : "<p><img src=\"/rubenstein/sites/default/files/rubenstein/users/MatthewSchaefer/2117-Campus-Drive-500px.jpg\" alt=\"Faculty House 11, 2117 Campus Drive\" title=\"Faculty House 11, 2117 Campus Drive\" width=\"500\" height=\"376\" class=\"image-left img-responsive\"></p><p><img src=\"/rubenstein/sites/default/files/rubenstein/users/MatthewSchaefer/garber_p-300px.jpg\" alt=\"Professor Paul N. Garber\" title=\"Professor Paul N. Garber\" width=\"259\" height=\"374\" class=\"image-left img-responsive\"><br clear=\"all\">Professor Paul N. Garber (above), Department of Religion, was the first occupant of this frame structure, and he lived here until 1945. That same year, Dr. James Cleland, Professor of Preaching and Dean of the Chapel moved in. He resided in the house until 1972. During this tenancy, there were sometimes other professors who briefly lived here at the same time. For example, John W. Carlton of the Divinity School resided here in the fall of 1951.</p><p>Occupancy between 1972 and early 1975 is unclear, although it was still considered a private residence. The Center for Demographic Studies occupied the house from 1975 until 2006.</p><p>It is presently occupied by the <a href=\"http://nicholasinstitute.duke.edu/\" target=\"_blank\">Nicholas Institute for Environmental Policy Solutions</a>.</p><p></p><h3 style=\"text-align: center;\" class=\"MsoNormal\"><a href=\"/rubenstein/uarchives/history/exhibits/faculty-houses-list\">Return to Faculty Houses List »</a></h3>",
      "body_summary" : "",
      "delta" : 0,
      "bundle" : "page",
      "entity_id" : 228
   },
   "field_image" : null,
   "path_alias" : {
      "status" : 0,
      "language" : "und",
      "pid" : 293,
      "alias" : "/uarchives/history/exhibits/faculty-houses-11",
      "langcode" : "und"
   },
   "vid" : 11331,
   "uuid" : "4e819ba3-bf60-4576-901b-00214d33952a",
   "revisions" : [
      {
         "field_revision" : {
            "title" : "Faculty House 11, 2117 Campus Drive",
            "langcode" : null,
            "default_langcode" : 1,
            "uid" : 1,
            "revision_translation_affected" : 1,
            "created" : null,
            "sticky" : 0,
            "changed" : null,
            "status" : 1
         },
         "title" : "Faculty House 11, 2117 Campus Drive",
         "promote" : 0,
         "log" : "",
         "uid" : 7,
         "vuuid" : "0a2b8144-dfc6-464c-9076-658ead93d32a",
         "timestamp" : 1488490489,
         "status" : 1,
         "node_revision__body" : {
            "body_summary" : "",
            "delta" : 0,
            "bundle" : "page",
            "entity_id" : 228,
            "revision_id" : 11331,
            "langcode" : "und",
            "deleted" : 0,
            "body_format" : "full_html",
            "body_value" : "<p><img src=\"/rubenstein/sites/default/files/rubenstein/users/MatthewSchaefer/2117-Campus-Drive-500px.jpg\" alt=\"Faculty House 11, 2117 Campus Drive\" title=\"Faculty House 11, 2117 Campus Drive\" width=\"500\" height=\"376\" class=\"image-left img-responsive\"></p><p><img src=\"/rubenstein/sites/default/files/rubenstein/users/MatthewSchaefer/garber_p-300px.jpg\" alt=\"Professor Paul N. Garber\" title=\"Professor Paul N. Garber\" width=\"259\" height=\"374\" class=\"image-left img-responsive\"><br clear=\"all\">Professor Paul N. Garber (above), Department of Religion, was the first occupant of this frame structure, and he lived here until 1945. That same year, Dr. James Cleland, Professor of Preaching and Dean of the Chapel moved in. He resided in the house until 1972. During this tenancy, there were sometimes other professors who briefly lived here at the same time. For example, John W. Carlton of the Divinity School resided here in the fall of 1951.</p><p>Occupancy between 1972 and early 1975 is unclear, although it was still considered a private residence. The Center for Demographic Studies occupied the house from 1975 until 2006.</p><p>It is presently occupied by the <a href=\"http://nicholasinstitute.duke.edu/\" target=\"_blank\">Nicholas Institute for Environmental Policy Solutions</a>.</p><p></p><h3 style=\"text-align: center;\" class=\"MsoNormal\"><a href=\"/rubenstein/uarchives/history/exhibits/faculty-houses-list\">Return to Faculty Houses List »</a></h3>"
         },
         "node_revision__field_tags" : [],
         "sticky" : 0,
         "comment" : 1
      }
   ],
   "nid" : "228",
   "asidebox" : {
      "nid" : 228,
      "bid" : null,
      "body_title" : "",
      "status" : "disabled",
      "body_value" : null,
      "block_delta" : null,
      "body_format" : null,
      "vid" : 11331,
      "block_module" : null
   },
   "node_field_data" : {
      "title" : "Faculty House 11, 2117 Campus Drive",
      "promote" : 0,
      "created" : 1378237704,
      "revision_translation_affected" : 1,
      "uid" : 1,
      "default_langcode" : 1,
      "langcode" : "und",
      "status" : 1,
      "type" : "page",
      "changed" : null,
      "sticky" : 0
   }
}

