{
   "nid" : "145",
   "revisions" : [
      {
         "node_revision__field_tags" : [],
         "node_revision__body" : {
            "revision_id" : 11819,
            "langcode" : "und",
            "body_format" : "full_html_no_wysiwyg",
            "deleted" : 0,
            "body_value" : "<div><img src=\"/rubenstein/sites/default/files/rubenstein/carousel_images/1-flapanatomy-crop_0.jpg\" alt=\"Flap Anatomy\" width=\"100%\" /></div>\r\n\r\n<h2>Support</h2><p><img src=\"/rubenstein/sites/default/files/rubenstein/users/rachel.ingold/Picture1_0_0.png\" alt=\"Memento Mori\" title=\"Memento Mori\" width=\"200\" height=\"250\" class=\"image-right img-responsive\">The History of Medicine Collections depends on the generosity of donors.&nbsp; Support from our donors upholds our mission to acquire, preserve, interpret, and make available for research and instruction materials documenting the history of </p><ul><li>medicine</li><li>biomedical science</li><li>health and disease</li></ul><h3>Financial Contribution</h3><p>Your financial contribution will support strengthening our unique collections, programming and access to materials.</p><p><a href=\"https://www.gifts.duke.edu/new?designation=3940006\" class=\"btn btn-large btn-primary\">Make a Gift to the History of Medicine Collections</a></p><h3>Collection Donation</h3><p>To find out if your collection, books or other materials are appropriate gifts for the History of Medicine Collections, contact the<a href=\"http://library.duke.edu/rubenstein/history-of-medicine/contact-us\"> History of Medicine Collections Curator</a>.<br><br></p>",
            "body_summary" : "",
            "delta" : 0,
            "bundle" : "page",
            "entity_id" : 145
         },
         "sticky" : 0,
         "status" : 1,
         "comment" : 1,
         "timestamp" : 1493321844,
         "log" : "",
         "vuuid" : "1be38887-abb4-44f5-8a55-0853f5dfdca9",
         "uid" : 7,
         "field_revision" : {
            "title" : "Donate",
            "default_langcode" : 1,
            "langcode" : null,
            "revision_translation_affected" : 1,
            "created" : null,
            "uid" : 1,
            "sticky" : 0,
            "status" : 1,
            "changed" : null
         },
         "promote" : 0,
         "title" : "Donate"
      }
   ],
   "node_field_data" : {
      "title" : "Donate",
      "promote" : 0,
      "uid" : 1,
      "revision_translation_affected" : 1,
      "created" : 1376679219,
      "langcode" : "und",
      "default_langcode" : 1,
      "status" : 1,
      "type" : "page",
      "changed" : null,
      "sticky" : 0
   },
   "asidebox" : {
      "body_value" : null,
      "status" : "disabled",
      "block_delta" : null,
      "body_format" : null,
      "block_module" : null,
      "vid" : 11819,
      "nid" : 145,
      "body_title" : "",
      "bid" : null
   },
   "path_alias" : {
      "langcode" : "und",
      "alias" : "/history-of-medicine/donate",
      "pid" : 209,
      "language" : "und",
      "status" : 0
   },
   "vid" : 11819,
   "field_image" : null,
   "uuid" : "546e88a9-284d-4a5b-b230-227dbf8e1a68",
   "node_access" : null,
   "type" : "page",
   "field_tags" : [],
   "langcode" : "und",
   "node__body" : {
      "body_value" : "<div><img src=\"/rubenstein/sites/default/files/rubenstein/carousel_images/1-flapanatomy-crop_0.jpg\" alt=\"Flap Anatomy\" width=\"100%\" /></div>\r\n\r\n<h2>Support</h2><p><img src=\"/rubenstein/sites/default/files/rubenstein/users/rachel.ingold/Picture1_0_0.png\" alt=\"Memento Mori\" title=\"Memento Mori\" width=\"200\" height=\"250\" class=\"image-right img-responsive\">The History of Medicine Collections depends on the generosity of donors.&nbsp; Support from our donors upholds our mission to acquire, preserve, interpret, and make available for research and instruction materials documenting the history of </p><ul><li>medicine</li><li>biomedical science</li><li>health and disease</li></ul><h3>Financial Contribution</h3><p>Your financial contribution will support strengthening our unique collections, programming and access to materials.</p><p><a href=\"https://www.gifts.duke.edu/new?designation=3940006\" class=\"btn btn-large btn-primary\">Make a Gift to the History of Medicine Collections</a></p><h3>Collection Donation</h3><p>To find out if your collection, books or other materials are appropriate gifts for the History of Medicine Collections, contact the<a href=\"http://library.duke.edu/rubenstein/history-of-medicine/contact-us\"> History of Medicine Collections Curator</a>.<br><br></p>",
      "revision_id" : 11819,
      "langcode" : "und",
      "deleted" : 0,
      "body_format" : "full_html_no_wysiwyg",
      "bundle" : "page",
      "entity_id" : 145,
      "body_summary" : "",
      "delta" : 0
   }
}

