{
   "node__body" : {
      "body_value" : "<p>The Human Rights Archive appreciates the generosity of individual benefactors for financial support. Most of its holdings have been received as gifts or acquired with support from donors. The Human Rights Archive welcomes inquiries from individuals or organizations interested in contributing to the Archive's holdings or supporting its programs in other ways.</p><h2>Collections</h2><p>To find out if your collection of personal papers, organizational records, books, or other materials documenting human rights history and activism are appropriate for the Human Rights Archive, please <a href=\"https://library.duke.edu/rubenstein/ask\">contact us</a>. You may also want to review the Rubenstein Rare Book &amp; Manuscript Library's <a href=\"https://library.duke.edu/rubenstein/about/donate/material\">Guide to Donating Materials</a>. We do not accept unsolicited donations without written gift agreements and cannot guarantee that materials will be added to our collections.</p><h2>Financial Gifts</h2><p>Your financial gift to the Human Rights Archive is greatly appreciated and will support our work to provide access to books, manuscripts, photographs, digital media, and other materials that document the history of human rights activism, as well as our innovative outreach programs that help connect our resources to a broader audience. Our general operating fund is the Marshall T. Meyer Memorial Fund. Thank you for supporting the Human Rights Archive.</p><p><a href=\"https://www.gifts.duke.edu/library?designation=6140030\" target=\"_blank\"><button class=\"btn btn-large btn-primary\">Make a gift to the Marshall T. Meyer Memorial Fund</button></a></p>",
      "revision_id" : 14163,
      "langcode" : "und",
      "deleted" : 0,
      "body_format" : "full_html",
      "bundle" : "page",
      "entity_id" : 739,
      "body_summary" : "",
      "delta" : 0
   },
   "langcode" : "und",
   "field_tags" : [],
   "type" : "page",
   "node_access" : null,
   "uuid" : "5d8ca450-362e-4d49-ae0d-8c7f719dcc21",
   "path_alias" : {
      "status" : 0,
      "language" : "und",
      "pid" : 879,
      "alias" : "/human-rights/donate",
      "langcode" : "und"
   },
   "field_image" : null,
   "vid" : 14163,
   "asidebox" : {
      "nid" : 739,
      "body_title" : "",
      "bid" : null,
      "body_value" : null,
      "status" : "disabled",
      "block_delta" : null,
      "body_format" : null,
      "block_module" : null,
      "vid" : 14163
   },
   "node_field_data" : {
      "title" : "Donate to the Human Rights Archive",
      "promote" : 0,
      "status" : 1,
      "type" : "page",
      "changed" : null,
      "sticky" : 0,
      "revision_translation_affected" : 1,
      "created" : 1551198478,
      "uid" : 1,
      "default_langcode" : 1,
      "langcode" : "und"
   },
   "revisions" : [
      {
         "field_revision" : {
            "status" : 1,
            "changed" : null,
            "sticky" : 0,
            "uid" : 1,
            "created" : null,
            "revision_translation_affected" : 1,
            "langcode" : null,
            "default_langcode" : 1,
            "title" : "Donate to the Human Rights Archive"
         },
         "promote" : 0,
         "title" : "Donate to the Human Rights Archive",
         "log" : "",
         "vuuid" : "e7383d2a-ee23-41d3-8295-546f7310aa3e",
         "uid" : 22,
         "timestamp" : 1551207305,
         "node_revision__field_tags" : [],
         "sticky" : 0,
         "node_revision__body" : {
            "bundle" : "page",
            "entity_id" : 739,
            "delta" : 0,
            "body_summary" : "",
            "body_value" : "<p>The Human Rights Archive appreciates the generosity of individual benefactors for financial support. Most of its holdings have been received as gifts or acquired with support from donors. The Human Rights Archive welcomes inquiries from individuals or organizations interested in contributing to the Archive's holdings or supporting its programs in other ways.</p><h2>Collections</h2><p>To find out if your collection of personal papers, organizational records, books, or other materials documenting human rights history and activism are appropriate for the Human Rights Archive, please <a href=\"https://library.duke.edu/rubenstein/ask\">contact us</a>. You may also want to review the Rubenstein Rare Book &amp; Manuscript Library's <a href=\"https://library.duke.edu/rubenstein/about/donate/material\">Guide to Donating Materials</a>. We do not accept unsolicited donations without written gift agreements and cannot guarantee that materials will be added to our collections.</p><h2>Financial Gifts</h2><p>Your financial gift to the Human Rights Archive is greatly appreciated and will support our work to provide access to books, manuscripts, photographs, digital media, and other materials that document the history of human rights activism, as well as our innovative outreach programs that help connect our resources to a broader audience. Our general operating fund is the Marshall T. Meyer Memorial Fund. Thank you for supporting the Human Rights Archive.</p><p><a href=\"https://www.gifts.duke.edu/library?designation=6140030\" target=\"_blank\"><button class=\"btn btn-large btn-primary\">Make a gift to the Marshall T. Meyer Memorial Fund</button></a></p>",
            "deleted" : 0,
            "body_format" : "full_html",
            "revision_id" : 14163,
            "langcode" : "und"
         },
         "status" : 1,
         "comment" : 1
      }
   ],
   "nid" : "739"
}

