{
   "langcode" : "und",
   "node__body" : {
      "body_summary" : "",
      "delta" : 0,
      "entity_id" : 46,
      "bundle" : "page",
      "langcode" : "und",
      "revision_id" : 12233,
      "body_format" : "full_html",
      "deleted" : 0,
      "body_value" : "<div id=\"pageContentBox\"><div id=\"pageContentProper\"><p>The Hartman Center depends upon the generosity of individual and corporate benefactors for financial support. Most of its holdings have been received as gifts or acquired with support from donors. &nbsp;<a href=\"http://library.duke.edu/rubenstein/hartman/contact\">Contact us</a> if you or your organization is interested in contributing to the center's holdings or supporting its programs in other ways.</p><h2>Collections</h2><p>To find out if your collection, books, or other materials are appropriate gifts for the Hartman Center, please <a href=\"http://library.duke.edu/about/directory/staff/1951\">contact the director</a>.</p><h2>Financial Gifts</h2><a href=\"https://www.gifts.duke.edu/fund?additional_designations=John%20W%20Hartman%20Center%203942975\" target=\"_blank\"><button class=\"btn btn-lg btn-primary\">Make a Gift to the Hartman Center</button></a><h2>Naming Opportunities</h2><p>Since the arrival of the J. Walter Thompson (JWT) Archives at Duke University in 1987 and the subsequent founding of the Hartman Center five years later, the center has grown by leaps and bounds with the addition of new collections, staff and researcher interest.&nbsp; In 1992, Duke alumnus John W. Hartman committed funding that made a reality out of the vision of a center dedicated to documenting advertising, sales and marketing.&nbsp; Building on these achievements, we have ambitious goals for acquiring new collections and promoting their use in a digital environment, all of which creates ongoing ways for donors to be a lasting part of the Hartman Center.</p><p>To recognize leadership gifts that help the Hartman Center achieve its goals and fulfill its mission, the center can name programs (including <a href=\"/rubenstein/hartman/travel-grants\" target=\"_blank\">travel grants and fellowships for researchers</a>), graduate student internships and staff positions in honor of corporate or individual donors or persons they wish to honor.&nbsp; Possibilities can be tailored to specific advertising themes related to Hartman Center collecting as well.&nbsp; To discuss these naming opportunities, contact Hartman Center Director Jacqueline Reid Wachholz&nbsp;at <a href=\"tel:9196605836\">(919) 660-5836</a> or <a href=\"mailto:j.reid@duke.edu\">j.reid@duke.edu</a>.</p><h2><a href=\"/rubenstein/hartman/donate/volunteer\">Volunteer</a><a href=\"/rubenstein/hartman/donate/volunteer\"></a></h2><p>The Hartman Center has been a training ground for numerous people who want to gain experience working with rare materials that focus on advertising. <a href=\"/rubenstein/hartman/donate/volunteer\">Learn more</a> about how you can help.</p></div></div>"
   },
   "node_access" : null,
   "type" : "page",
   "field_tags" : [],
   "vid" : 12233,
   "path_alias" : {
      "language" : "und",
      "status" : 0,
      "langcode" : "und",
      "alias" : "/hartman/donate",
      "pid" : 86
   },
   "field_image" : null,
   "uuid" : "5e4d03d9-f84c-421a-abdd-b150087f5e46",
   "node_field_data" : {
      "revision_translation_affected" : 1,
      "created" : 1374158113,
      "uid" : 1,
      "default_langcode" : 1,
      "langcode" : "und",
      "status" : 1,
      "type" : "page",
      "changed" : null,
      "sticky" : 0,
      "title" : "Donate to the Hartman Center for Sales, Advertising & Marketing History",
      "promote" : 0
   },
   "asidebox" : {
      "body_format" : null,
      "block_module" : null,
      "vid" : 12233,
      "body_value" : null,
      "status" : "disabled",
      "block_delta" : null,
      "body_title" : "",
      "bid" : null,
      "nid" : 46
   },
   "nid" : "46",
   "revisions" : [
      {
         "uid" : 3,
         "vuuid" : "230556b5-094a-4733-8627-05197f26faba",
         "log" : "",
         "title" : "Donate to the Hartman Center for Sales, Advertising & Marketing History",
         "promote" : 0,
         "field_revision" : {
            "title" : "Donate to the Hartman Center for Sales, Advertising & Marketing History",
            "langcode" : null,
            "default_langcode" : 1,
            "uid" : 1,
            "created" : null,
            "revision_translation_affected" : 1,
            "sticky" : 0,
            "changed" : null,
            "status" : 1
         },
         "comment" : 1,
         "status" : 1,
         "sticky" : 0,
         "node_revision__field_tags" : [],
         "node_revision__body" : {
            "body_format" : "full_html",
            "deleted" : 0,
            "revision_id" : 12233,
            "langcode" : "und",
            "body_value" : "<div id=\"pageContentBox\"><div id=\"pageContentProper\"><p>The Hartman Center depends upon the generosity of individual and corporate benefactors for financial support. Most of its holdings have been received as gifts or acquired with support from donors. &nbsp;<a href=\"http://library.duke.edu/rubenstein/hartman/contact\">Contact us</a> if you or your organization is interested in contributing to the center's holdings or supporting its programs in other ways.</p><h2>Collections</h2><p>To find out if your collection, books, or other materials are appropriate gifts for the Hartman Center, please <a href=\"http://library.duke.edu/about/directory/staff/1951\">contact the director</a>.</p><h2>Financial Gifts</h2><a href=\"https://www.gifts.duke.edu/fund?additional_designations=John%20W%20Hartman%20Center%203942975\" target=\"_blank\"><button class=\"btn btn-lg btn-primary\">Make a Gift to the Hartman Center</button></a><h2>Naming Opportunities</h2><p>Since the arrival of the J. Walter Thompson (JWT) Archives at Duke University in 1987 and the subsequent founding of the Hartman Center five years later, the center has grown by leaps and bounds with the addition of new collections, staff and researcher interest.&nbsp; In 1992, Duke alumnus John W. Hartman committed funding that made a reality out of the vision of a center dedicated to documenting advertising, sales and marketing.&nbsp; Building on these achievements, we have ambitious goals for acquiring new collections and promoting their use in a digital environment, all of which creates ongoing ways for donors to be a lasting part of the Hartman Center.</p><p>To recognize leadership gifts that help the Hartman Center achieve its goals and fulfill its mission, the center can name programs (including <a href=\"/rubenstein/hartman/travel-grants\" target=\"_blank\">travel grants and fellowships for researchers</a>), graduate student internships and staff positions in honor of corporate or individual donors or persons they wish to honor.&nbsp; Possibilities can be tailored to specific advertising themes related to Hartman Center collecting as well.&nbsp; To discuss these naming opportunities, contact Hartman Center Director Jacqueline Reid Wachholz&nbsp;at <a href=\"tel:9196605836\">(919) 660-5836</a> or <a href=\"mailto:j.reid@duke.edu\">j.reid@duke.edu</a>.</p><h2><a href=\"/rubenstein/hartman/donate/volunteer\">Volunteer</a><a href=\"/rubenstein/hartman/donate/volunteer\"></a></h2><p>The Hartman Center has been a training ground for numerous people who want to gain experience working with rare materials that focus on advertising. <a href=\"/rubenstein/hartman/donate/volunteer\">Learn more</a> about how you can help.</p></div></div>",
            "delta" : 0,
            "body_summary" : "",
            "bundle" : "page",
            "entity_id" : 46
         },
         "timestamp" : 1507746130
      }
   ]
}

