{
   "uuid" : "6a09a092-7181-4537-8713-4c9679dc4757",
   "path_alias" : {
      "pid" : 947,
      "alias" : "/research/reproductions",
      "langcode" : "und",
      "status" : 0,
      "language" : "und"
   },
   "vid" : 17001,
   "field_image" : null,
   "revisions" : [
      {
         "uid" : 159,
         "vuuid" : "2f43d042-2c10-4214-abc8-bc055a8a2210",
         "log" : "",
         "title" : "Ordering Reproductions in 2021",
         "promote" : 0,
         "field_revision" : {
            "title" : "Ordering Reproductions in 2021",
            "changed" : null,
            "status" : 1,
            "sticky" : 0,
            "uid" : 1,
            "revision_translation_affected" : 1,
            "created" : null,
            "langcode" : null,
            "default_langcode" : 1
         },
         "comment" : 1,
         "status" : 1,
         "node_revision__field_tags" : [],
         "node_revision__body" : {
            "langcode" : "und",
            "revision_id" : 17001,
            "deleted" : 0,
            "body_format" : "full_html",
            "body_value" : "<h2>Make a reproduction request</h2><p><a href=\"https://library.duke.edu/rubenstein/research/reproductions/request-remote\">Submit a reproduction request online</a> or <a href=\"https://library.duke.edu/rubenstein/research/reproductions/request-reading-room\">from our reading room</a>. You'll be able to tell us what materials you would like reproduced and any format or quality specifications you might have through the form. A staff member will confirm your request and send you an invoice. Please be as specific as possible with your request. If you require assistance identifying material, <a href=\"https://library.duke.edu/rubenstein/ask\">get in touch</a> and a librarian will assist you.</p><ul><li>Duke students, faculty, and staff orders will be prioritized in 2021 with an expected turnaround time of 2 weeks.</li><li>For all other researchers, your order will be delivered 8 to 10 weeks after we receive your payment.</li></ul><div class=\"underlined-li-links\"><h3>Paying for and receiving your order</h3><ul><ul><li>For reference quality scans (low-resolution), we offer one complimentary order of less than 50 scans per year at no charge.</li><li>For orders of more than 50 scans, high resolution images, or audiovisual material, digitization is done at a rate of $25/hour. Some fees are waived for Duke students, faculty, and staff.</li><li><a href=\"https://library.duke.edu/rubenstein/research/reproductions/payment\">You will be able to pay your invoice by Visa, Mastercard or check</a>. We do not accept cash.</li><li>We cannot produce photographic prints or slides, only digital scans. Your files will be delivered online.</li><li>Reproduction orders are non-refundable. However, we will work closely with you to ensure that the reproductions meet your needs.</li></ul></ul><h3>Limitations</h3><ul><ul><li>Reference quality scanning requests are limited to 250 pages. Limits on high-resolution scanning and digitization of audiovisual material will depend on the format and quality.</li><li>It may not be possible to copy some items in our collection due to donor restrictions, copyright issues, preservation concerns, or physical size.</li><li>The Rubenstein Library reserves the right to refuse a reproduction request if, in its judgment, fulfillment of the request would involve violation of copyright law.</li><li>Reproductions may not be made for or donated to other repositories.</li></ul></ul><p></p><h2>Reading room scanning options</h2><ul><li>Use one of our <a href=\"https://library.duke.edu/rubenstein/research/readingroom/hovercams\">HoverCams</a>, a&nbsp;high-resolution, standalone document camera.&nbsp;HoverCams attach to your Mac or Windows computer and allow you to save images directly to your laptop.&nbsp;</li><li>Bring your camera or camera phone into the Rubenstein reading room to snap digital photos of materials.</li></ul><p></p></div><p></p>",
            "body_summary" : "",
            "delta" : 0,
            "entity_id" : 795,
            "bundle" : "page"
         },
         "sticky" : 0,
         "timestamp" : 1617897018
      }
   ],
   "nid" : "795",
   "asidebox" : {
      "nid" : 795,
      "bid" : null,
      "body_title" : "",
      "status" : "disabled",
      "body_value" : null,
      "block_delta" : null,
      "body_format" : null,
      "vid" : 17001,
      "block_module" : null
   },
   "node_field_data" : {
      "uid" : 1,
      "revision_translation_affected" : 1,
      "created" : 1597325960,
      "langcode" : "und",
      "default_langcode" : 1,
      "status" : 1,
      "changed" : null,
      "type" : "page",
      "sticky" : 0,
      "title" : "Ordering Reproductions in 2021",
      "promote" : 0
   },
   "field_tags" : [],
   "type" : "page",
   "node_access" : null,
   "node__body" : {
      "body_value" : "<h2>Make a reproduction request</h2><p><a href=\"https://library.duke.edu/rubenstein/research/reproductions/request-remote\">Submit a reproduction request online</a> or <a href=\"https://library.duke.edu/rubenstein/research/reproductions/request-reading-room\">from our reading room</a>. You'll be able to tell us what materials you would like reproduced and any format or quality specifications you might have through the form. A staff member will confirm your request and send you an invoice. Please be as specific as possible with your request. If you require assistance identifying material, <a href=\"https://library.duke.edu/rubenstein/ask\">get in touch</a> and a librarian will assist you.</p><ul><li>Duke students, faculty, and staff orders will be prioritized in 2021 with an expected turnaround time of 2 weeks.</li><li>For all other researchers, your order will be delivered 8 to 10 weeks after we receive your payment.</li></ul><div class=\"underlined-li-links\"><h3>Paying for and receiving your order</h3><ul><ul><li>For reference quality scans (low-resolution), we offer one complimentary order of less than 50 scans per year at no charge.</li><li>For orders of more than 50 scans, high resolution images, or audiovisual material, digitization is done at a rate of $25/hour. Some fees are waived for Duke students, faculty, and staff.</li><li><a href=\"https://library.duke.edu/rubenstein/research/reproductions/payment\">You will be able to pay your invoice by Visa, Mastercard or check</a>. We do not accept cash.</li><li>We cannot produce photographic prints or slides, only digital scans. Your files will be delivered online.</li><li>Reproduction orders are non-refundable. However, we will work closely with you to ensure that the reproductions meet your needs.</li></ul></ul><h3>Limitations</h3><ul><ul><li>Reference quality scanning requests are limited to 250 pages. Limits on high-resolution scanning and digitization of audiovisual material will depend on the format and quality.</li><li>It may not be possible to copy some items in our collection due to donor restrictions, copyright issues, preservation concerns, or physical size.</li><li>The Rubenstein Library reserves the right to refuse a reproduction request if, in its judgment, fulfillment of the request would involve violation of copyright law.</li><li>Reproductions may not be made for or donated to other repositories.</li></ul></ul><p></p><h2>Reading room scanning options</h2><ul><li>Use one of our <a href=\"https://library.duke.edu/rubenstein/research/readingroom/hovercams\">HoverCams</a>, a&nbsp;high-resolution, standalone document camera.&nbsp;HoverCams attach to your Mac or Windows computer and allow you to save images directly to your laptop.&nbsp;</li><li>Bring your camera or camera phone into the Rubenstein reading room to snap digital photos of materials.</li></ul><p></p></div><p></p>",
      "revision_id" : 17001,
      "langcode" : "und",
      "deleted" : 0,
      "body_format" : "full_html",
      "bundle" : "page",
      "entity_id" : 795,
      "body_summary" : "",
      "delta" : 0
   },
   "langcode" : "und"
}

