{
   "langcode" : "und",
   "node__body" : {
      "body_value" : "<p><img src=\"/rubenstein/sites/default/files/rubenstein/hartman/switch-board-operators_1966.jpg\" alt=\"Switchboard Operators\" width=\"175\" height=\"226\" class=\"image-right img-responsive\">The Hartman Center welcomes queries from all users, regardless of academic affiliation. If you have a question of a general, historical nature, please consult the reference department of your college or university library or public library. We are able to answer questions related to the holdings of the Hartman Center for Sales, Advertising &amp; Marketing History. Due to our small staff and the high volume of questions received, there may be a short delay before you receive a response.</p>\r\n\r\n<hr>\r\n\r\n<form action=\"http://client.knowledgetrackerlib.com/public_form_handler.php\" id=\"askQuestion\" method=\"post\" name=\"askQuestion\">\r\n\r\n<input id=\"library\" name=\"library\" value=\"875920\" type=\"hidden\"> \r\n<input id=\"staff-assignment\" name=\"staff-assignment\" value=\"Eaton\" type=\"hidden\"> \r\n<input id=\"bypass_confirmation\" name=\"bypass_confirmation\" value=\"false\" type=\"hidden\"> \r\n<input name=\"form_custom_webform_redirect\" value=\"http://library.duke.edu/rubenstein/ask/thanks\" type=\"hidden\">\r\n\r\n\r\n<p>Important Questions marked with an asterisk (*) are required</p>\r\n\r\n<div class=\"form-group\">\r\n<label for=\"patron\">*Name:</label>\r\n<input required class=\"form-control\" id=\"patron\" name=\"patron\" type=\"text\">\r\n</div>\r\n\r\n<div class=\"form-group\">\r\n<label for=\"email\">*Email address:</label>\r\n<input required class=\"form-control\" type=\"email\" id=\"email\" name=\"email\" type=\"text\">\r\n</div>\r\n\r\n<div class=\"form-group\">\r\n<label for=\"phone\">Phone:</label>\r\n<input id=\"phone\" name=\"phone\" type=\"text\" class=\"form-control\">\r\n</div>\r\n\r\n<div class=\"form-group\">\r\n<label for=\"affiliation\">*Affiliation:</label></p>\r\n\r\n<div class=\"radio\">\r\n  <label><input required class=\"required\" id=\"affiliation1\" name=\"affiliation\" value=\"Duke Undergraduate\" type=\"radio\"> Duke Undergraduate</label>\r\n</div>\r\n<div class=\"radio\">\r\n  <label><input required class=\"required\" id=\"affiliation2\" name=\"affiliation\" value=\"Duke Graduate Student\" type=\"radio\"> Duke Graduate Student</label>\r\n</div>\r\n<div class=\"radio\">\r\n  <label><input required class=\"required\" id=\"affiliation3\" name=\"affiliation\" value=\"Duke Faculty\" type=\"radio\"> Duke Faculty</label>\r\n</div>\r\n<div class=\"radio\">\r\n  <label><input required class=\"required\" id=\"affiliation4\" name=\"affiliation\" value=\"Duke Alumna/us\" type=\"radio\"> Duke Alumna/us</label>\r\n</div>\r\n<div class=\"radio\">\r\n  <label><input required class=\"required\" id=\"affiliation5\" name=\"affiliation\" value=\"Duke Staff\" type=\"radio\"> Duke Staff</label>\r\n</div>\r\n<div class=\"radio\">\r\n  <label><input required class=\"required\" id=\"affiliation6\" name=\"affiliation\" value=\"Non-Duke Undergraduate\" type=\"radio\"> Non-Duke Undergraduate</label>\r\n</div>\r\n<div class=\"radio\">\r\n  <label><input required class=\"required\" id=\"affiliation7\" name=\"affiliation\" value=\"Non-Duke Graduate Student\" type=\"radio\"> Non-Duke Graduate Student</label>\r\n</div>\r\n<div class=\"radio\">\r\n  <label><input required class=\"required\" id=\"affiliation8\" name=\"affiliation\" value=\"Non-Duke Faculty\" type=\"radio\"> Non-Duke Faculty</label>\r\n</div>\r\n<div class=\"radio\">\r\n  <label><input required class=\"required\" id=\"affiliation9\" name=\"affiliation\" value=\"General Public\" type=\"radio\"> General Public</label>\r\n</div>\r\n\r\n</div>\r\n\r\n\r\n<div class=\"form-group\">\r\n<p><label for=\"question\">*What is your question? Be sure to include names, locations, and dates that particularly pertinent to your research. Please list manuscript collections or print materials in which you are or may be interested.</label></p>\r\n<textarea class=\"form-control\" required class=\"required\" id=\"question\" name=\"question\" rows=\"8\"></textarea>\r\n</div>\r\n\r\n<div class=\"form-group\">\r\n<input class=\"btn btn-primary\" id=\"submit\" name=\"submit\" value=\"Submit\" type=\"submit\">\r\n</div>\r\n\r\n</form>\r\n",
      "deleted" : 0,
      "body_format" : "full_html_no_wysiwyg",
      "langcode" : "und",
      "revision_id" : 14031,
      "entity_id" : 305,
      "bundle" : "page",
      "delta" : 0,
      "body_summary" : ""
   },
   "node_access" : null,
   "field_tags" : [],
   "type" : "page",
   "asidebox" : {
      "block_module" : null,
      "vid" : 14031,
      "body_format" : null,
      "block_delta" : null,
      "body_value" : null,
      "status" : "disabled",
      "body_title" : "",
      "bid" : null,
      "nid" : 305
   },
   "node_field_data" : {
      "promote" : 0,
      "title" : "Ask a Question",
      "sticky" : 0,
      "changed" : null,
      "status" : 1,
      "type" : "page",
      "langcode" : "und",
      "default_langcode" : 1,
      "uid" : 1,
      "created" : 1381419287,
      "revision_translation_affected" : 1
   },
   "revisions" : [
      {
         "log" : "",
         "vuuid" : "52982f6d-d93a-4fcd-866e-94015cab5cbe",
         "uid" : 7,
         "field_revision" : {
            "title" : "Ask a Question",
            "sticky" : 0,
            "status" : 1,
            "changed" : null,
            "default_langcode" : 1,
            "langcode" : null,
            "revision_translation_affected" : 1,
            "created" : null,
            "uid" : 1
         },
         "promote" : 0,
         "title" : "Ask a Question",
         "node_revision__field_tags" : [],
         "node_revision__body" : {
            "body_value" : "<p><img src=\"/rubenstein/sites/default/files/rubenstein/hartman/switch-board-operators_1966.jpg\" alt=\"Switchboard Operators\" width=\"175\" height=\"226\" class=\"image-right img-responsive\">The Hartman Center welcomes queries from all users, regardless of academic affiliation. If you have a question of a general, historical nature, please consult the reference department of your college or university library or public library. We are able to answer questions related to the holdings of the Hartman Center for Sales, Advertising &amp; Marketing History. Due to our small staff and the high volume of questions received, there may be a short delay before you receive a response.</p>\r\n\r\n<hr>\r\n\r\n<form action=\"http://client.knowledgetrackerlib.com/public_form_handler.php\" id=\"askQuestion\" method=\"post\" name=\"askQuestion\">\r\n\r\n<input id=\"library\" name=\"library\" value=\"875920\" type=\"hidden\"> \r\n<input id=\"staff-assignment\" name=\"staff-assignment\" value=\"Eaton\" type=\"hidden\"> \r\n<input id=\"bypass_confirmation\" name=\"bypass_confirmation\" value=\"false\" type=\"hidden\"> \r\n<input name=\"form_custom_webform_redirect\" value=\"http://library.duke.edu/rubenstein/ask/thanks\" type=\"hidden\">\r\n\r\n\r\n<p>Important Questions marked with an asterisk (*) are required</p>\r\n\r\n<div class=\"form-group\">\r\n<label for=\"patron\">*Name:</label>\r\n<input required class=\"form-control\" id=\"patron\" name=\"patron\" type=\"text\">\r\n</div>\r\n\r\n<div class=\"form-group\">\r\n<label for=\"email\">*Email address:</label>\r\n<input required class=\"form-control\" type=\"email\" id=\"email\" name=\"email\" type=\"text\">\r\n</div>\r\n\r\n<div class=\"form-group\">\r\n<label for=\"phone\">Phone:</label>\r\n<input id=\"phone\" name=\"phone\" type=\"text\" class=\"form-control\">\r\n</div>\r\n\r\n<div class=\"form-group\">\r\n<label for=\"affiliation\">*Affiliation:</label></p>\r\n\r\n<div class=\"radio\">\r\n  <label><input required class=\"required\" id=\"affiliation1\" name=\"affiliation\" value=\"Duke Undergraduate\" type=\"radio\"> Duke Undergraduate</label>\r\n</div>\r\n<div class=\"radio\">\r\n  <label><input required class=\"required\" id=\"affiliation2\" name=\"affiliation\" value=\"Duke Graduate Student\" type=\"radio\"> Duke Graduate Student</label>\r\n</div>\r\n<div class=\"radio\">\r\n  <label><input required class=\"required\" id=\"affiliation3\" name=\"affiliation\" value=\"Duke Faculty\" type=\"radio\"> Duke Faculty</label>\r\n</div>\r\n<div class=\"radio\">\r\n  <label><input required class=\"required\" id=\"affiliation4\" name=\"affiliation\" value=\"Duke Alumna/us\" type=\"radio\"> Duke Alumna/us</label>\r\n</div>\r\n<div class=\"radio\">\r\n  <label><input required class=\"required\" id=\"affiliation5\" name=\"affiliation\" value=\"Duke Staff\" type=\"radio\"> Duke Staff</label>\r\n</div>\r\n<div class=\"radio\">\r\n  <label><input required class=\"required\" id=\"affiliation6\" name=\"affiliation\" value=\"Non-Duke Undergraduate\" type=\"radio\"> Non-Duke Undergraduate</label>\r\n</div>\r\n<div class=\"radio\">\r\n  <label><input required class=\"required\" id=\"affiliation7\" name=\"affiliation\" value=\"Non-Duke Graduate Student\" type=\"radio\"> Non-Duke Graduate Student</label>\r\n</div>\r\n<div class=\"radio\">\r\n  <label><input required class=\"required\" id=\"affiliation8\" name=\"affiliation\" value=\"Non-Duke Faculty\" type=\"radio\"> Non-Duke Faculty</label>\r\n</div>\r\n<div class=\"radio\">\r\n  <label><input required class=\"required\" id=\"affiliation9\" name=\"affiliation\" value=\"General Public\" type=\"radio\"> General Public</label>\r\n</div>\r\n\r\n</div>\r\n\r\n\r\n<div class=\"form-group\">\r\n<p><label for=\"question\">*What is your question? Be sure to include names, locations, and dates that particularly pertinent to your research. Please list manuscript collections or print materials in which you are or may be interested.</label></p>\r\n<textarea class=\"form-control\" required class=\"required\" id=\"question\" name=\"question\" rows=\"8\"></textarea>\r\n</div>\r\n\r\n<div class=\"form-group\">\r\n<input class=\"btn btn-primary\" id=\"submit\" name=\"submit\" value=\"Submit\" type=\"submit\">\r\n</div>\r\n\r\n</form>\r\n",
            "body_format" : "full_html_no_wysiwyg",
            "deleted" : 0,
            "revision_id" : 14031,
            "langcode" : "und",
            "bundle" : "page",
            "entity_id" : 305,
            "delta" : 0,
            "body_summary" : ""
         },
         "sticky" : 0,
         "status" : 1,
         "comment" : 1,
         "timestamp" : 1546893917
      }
   ],
   "nid" : "305",
   "field_image" : null,
   "path_alias" : {
      "language" : "und",
      "status" : 0,
      "langcode" : "und",
      "alias" : "/hartman/ask",
      "pid" : 373
   },
   "vid" : 14031,
   "uuid" : "6f6b09ec-f8b7-4ce4-bb10-6ad565aaedaf"
}

