{
   "type" : "page",
   "field_tags" : [],
   "node_access" : null,
   "node__body" : {
      "body_format" : "full_html_no_wysiwyg",
      "deleted" : 0,
      "revision_id" : 6473,
      "langcode" : "und",
      "body_value" : "<style>\r\nli {color:gray};\r\nli a {color:black};\r\n</style>\r\n\r\n\r\n<h3>If you do not see a photographer in our alphabetized directory below, look in our <a href=\"#dc\"  data-toggle=\"tab\">Digital Collections</a>.</h3><br>\r\n\r\n<ul class=\"nav nav-tabs\" style=\"margin-bottom:0px !important;\">\r\n  <li class=\"active\"><a href=\"#a-b\" data-toggle=\"tab\">A - B</a></li>\r\n  <li><a href=\"#c-f\" data-toggle=\"tab\">C - F</a></li>\r\n  <li><a href=\"#g-h\" data-toggle=\"tab\">G - H</a></li>\r\n  <li><a href=\"#j-l\" data-toggle=\"tab\">J - L</a></li>\r\n  <li><a href=\"#m-p\" data-toggle=\"tab\">M - P</a></li>\r\n  <li><a href=\"#q-t\" data-toggle=\"tab\">Q - T</a></li>\r\n  <li><a href=\"#u-w\" data-toggle=\"tab\">U - W</a></li>\r\n  <li><a href=\"#dc\" data-toggle=\"tab\">Digital Collections</a></li>\r\n</ul>\r\n\r\n\r\n<div class=\"tab-content\" style=\"padding-top:0px !important;\" >\r\n  \r\n<div class=\"tab-pane fade in active\" id=\"a-b\"\">\r\n<h2>A</h2>\r\n<ul class=\"columnar-2\" >\r\n<li><a href=\"http://library.duke.edu/catalog/search/recordid/DUKE003309417\">Abbott, Berenice</a></li>\r\n<li><a href=\"http://library.duke.edu/catalog/search/recordid/DUKE002342979\">Albert, Paul</a></li>\r\n<li><a href=\"http://library.duke.edu/catalog/search/recordid/DUKE003818177\">Allen, Mariette Pathy</a></li>\r\n<li><a href=\"http://library.duke.edu/catalog/search/recordid/DUKE002342979\">Alphers, Joseph</a></li>\r\n<li><a href=\"http://library.duke.edu/catalog/search/recordid/DUKE003789049\">Amberg, Rob</a></li>\r\n<li><a href=\"http://library.duke.edu/catalog/search/recordid/DUKE003789049\">Anderson, Derek</a></li>\r\n<li><a href=\"http://library.duke.edu/catalog/search/recordid/DUKE003309383\">Andrews, Jesse Pyrant</a></li>\r\n<li><a href=\"http://library.duke.edu/catalog/search/recordid/DUKE003309417\">Atget, Eugène</a></li>\r\n</ul>\r\n\r\n<br><br><br><br><h2>B</h2>\r\n<ul class=\"columnar-2\">\r\n<li><a href=\"http://library.duke.edu/catalog/search/recordid/DUKE002342979\">Badsha, Omar</a></li>\r\n<li><a href=\"http://library.duke.edu/catalog/search/recordid/DUKE002648544\">Bamberger, Bill</a></li>\r\n<li><a href=\"http://library.duke.edu/catalog/search/recordid/DUKE002342979\">Barnett, Rodney</a></li>\r\n<li><a href=\"http://library.duke.edu/catalog/search/recordid/DUKE002342979\">Barry, Michael</a></li>\r\n<li><a href=\"http://library.duke.edu/catalog/search/recordid/DUKE003998276\">Barth, Petra</a></li>\r\n<li><a href=\"http://library.duke.edu/catalog/search/recordid/DUKE002793932\">Bartholomew, Jr., Ralph</a></li>\r\n<li><a href=\"http://library.duke.edu/catalog/search/recordid/DUKE002793932\">Beaton, Cecil Walter Hardy, Sir</a></li>\r\n<li><a href=\"http://library.duke.edu/catalog/search/recordid/DUKE002423875\">Belcher, Max</a></li>\r\n<li><a href=\"http://library.duke.edu/catalog/search/recordid/DUKE000868015\">Bell, Charles Milton</a></li>\r\n<li><a href=\"http://library.duke.edu/catalog/search/recordid/DUKE001616561\">Bell, William W.</a></li>\r\n<li><a href=\"http://library.duke.edu/catalog/search/recordid/DUKE002342979\">Berman, Bee</a></li>\r\n<li><a href=\"http://library.duke.edu/catalog/search/recordid/DUKE003144960\">Bey, Dawoud</a></li>\r\n<li><a href=\"http://library.duke.edu/catalog/search/recordid/DUKE000897854\">Blake, Michael Francis</a></li>\r\n<li><a href=\"http://library.duke.edu/catalog/search/recordid/DUKE002779192\">Blom, Gertrude Duby</a></li>\r\n<li><a href=\"http://library.duke.edu/catalog/search/recordid/DUKE002342979\">Bolton, Arthur</a></li>\r\n<li><a href=\"http://library.duke.edu/catalog/search/recordid/DUKE002569213\">Bonfils, Felix</a></li>\r\n<li><a href=\"http://search.library.duke.edu/search?id=DUKE000868015&output-format=search\">Boughton, Alice</a></li>\r\n<li><a href=\"http://catalog.library.duke.edu/F/Y2JFP4T1PEEYEDAIL8VNN8U6XJRMS1BJ2PFLGTKNI3QNIPFN3Y-16542?func=full-set-set&set_number=001288&set_entry=000001&format=999\">Bourne, Samuel</a></li>\r\n<li><a href=\"http://library.duke.edu/catalog/search/recordid/DUKE003167708\">Brady, Mathew B.</a></li>\r\n<li><a href=\"http://library.duke.edu/catalog/search/recordid/DUKE003309417\">Bravo, Manuel Alvarez</a></li>\r\n<li><a href=\"http://library.duke.edu/catalog/search/recordid/DUKE002342979\">Breakey, Basil</a></li>\r\n<li><a href=\"http://library.duke.edu/catalog/search/recordid/DUKE002226311\">Breitenbach, Eric</a></li>\r\n<li><a href=\"http://library.duke.edu/catalog/search/recordid/DUKE003144960\">Burke, Bill</a></li>\r\n<li><a href=\"http://catalog.library.duke.edu/F/XQIY8GTJDAY2KVHMINCFFE26HK2ME6YMS7DKBLR2DH747Y5JNG-05564?func=full-set-set&set_number=001427&set_entry=000002&format=999\">Buswell, Richard S.</a></li>\r\n</ul>\r\n</div>\r\n  \r\n<div class=\"tab-pane fade\" id=\"c-f\">\r\n<h2>C</h2>\r\n<ul class=\"columnar-2\">\r\n<li><a href=\"http://library.duke.edu/catalog/search/recordid/DUKE003144960\">Caffery, Debbie Fleming</a></li>\r\n<li><a href=\"http://library.duke.edu/catalog/search/recordid/DUKE001945010\">Cameron, Julia Margaret</a></li>\r\n<li><a href=\"http://library.duke.edu/catalog/search/recordid/DUKE003144960\">Capehart, Lucy</a></li>\r\n<li><a href=\"http://library.duke.edu/catalog/search/recordid/DUKE000865043\">Cartier-Bresson, Henri </a></li>\r\n<li><a href=\"http://library.duke.edu/catalog/search/recordid/DUKE002793932\">Cecil, Hugh</a></li>\r\n<li><a href=\"http://library.duke.edu/catalog/search/recordid/DUKE003957758\">Chatterley, Cedric</a></li>\r\n<li><a href=\"http://library.duke.edu/catalog/search/recordid/DUKE003868323\">Cianni, Vincent</a></li>\r\n<li><a href=\"http://library.duke.edu/catalog/search/recordid/DUKE002342979\">Cobbing, Julian</a></li>\r\n<li><a href=\"http://library.duke.edu/catalog/search/recordid/DUKE003309417\">Coburn, Alvin Langdon</a></li>\r\n<li><a href=\"http://catalog.library.duke.edu/F/65J5V41UNYUN1LF6X23H9716E3L58UK7P3YPRH6K34EGFJF49L-19828?func=full-set-set&set_number=001449&set_entry=000001&format=999\">Cousins, Frank</a></li>\r\n<li><a href=\"http://library.duke.edu/catalog/search/recordid/DUKE000435659\">Curtis, Edward S.</a></li>\r\n<li>Cutrell, David</li>\r\n</ul>\r\n\r\n<br><br><br><br><br><br><h2>D</h2>\r\n<ul class=\"columnar-2\">\r\n<li><a href=\"http://library.duke.edu/catalog/search/recordid/DUKE002793932\">Dahl-Wolfe, Louise</a></li>\r\n<li><a href=\"http://library.duke.edu/catalog/search/recordid/DUKE002342979\">Davies, Michael</a></li>\r\n<li><a href=\"http://library.duke.edu/catalog/search/recordid/DUKE002565777\">Davis, Griffith J.</a></li>\r\n<li><a href=\"http://library.duke.edu/catalog/search/recordid/DUKE003144960\">Davis, Lynn</a></li>\r\n<li><a href=\"http://library.duke.edu/catalog/search/recordid/DUKE003309417\">Day, F. Holland</a></li>\r\n<li><a href=\"http://library.duke.edu/catalog/search/recordid/DUKE002793932\">De Meyer, Adolf, Baron</a></li>\r\n<li><a href=\"http://catalog.library.duke.edu/F/STDXQBUAX17ULQF6P6NERETCDDR9S1NXNMHKRKHAMY55NURVXQ-21385?func=full-set-set&set_number=001491&set_entry=000001&format=999\">Deen Dayal, Lala Raja</a></li>\r\n<li><a href=\"http://library.duke.edu/catalog/search/recordid/DUKE001530661\">Dixon, Wyatt Thomas</a></li>\r\n</ul>\r\n\r\n<br><br><br><br><h2>E</h2>\r\n<ul class=\"columnar-2\">\r\n<li><a href=\"http://duke.summon.serialssolutions.com/link/0/eLvHCXMwY2BQME9NsjRNMzZJNTRKA7b208yTk1IszVLTUpJMDc3N08xQNoQhleZuogyybq4hzh66oBXN8dDxi3hQF84MdH23KR_PPunp2SoO1ssV9uT327Y3AACWhBxa\">Espada, Frank</a></li>\r\n<li><a href=\"http://library.duke.edu/catalog/search/recordid/DUKE003144960\">Evans, Terry</a></li>\r\n<li><a href=\"http://library.duke.edu/catalog/search/recordid/DUKE003309389\">Evans, Walker</a></li>\r\n<li><a href=\"http://catalog.library.duke.edu/F/9T7JSGRHXSJH9NYUBCEYC7X7QVKJHBVIFLP6C3UGT5JY4CSPLD-21997?func=full-set-set&set_number=001521&set_entry=000002&format=999\">E. & H.T. Anthony Company</a></li>\r\n</ul>\r\n\r\n<br><br><br><h2>F</h2>\r\n<ul class=\"columnar-2\">\r\n<li><a href=\"http://library.duke.edu/catalog/search/recordid/DUKE002342979\">Fischer, Anne</a></li>\r\n<li><a href=\"http://search.library.duke.edu/search?id=DUKE004445724\">Freeman, Roland L.</a></li>\r\n<li><a href=\"http://library.duke.edu/catalog/search/recordid/DUKE001705311\">Friedlander, Lee</a></li>\r\n<li><a href=\"http://library.duke.edu/catalog/search/recordid/DUKE003901963\">Frazier, Danny Wilcox</a></li>\r\n<li>Frith, Francis</li>\r\n</ul>\r\n</div>\r\n  \r\n<div class=\"tab-pane fade\" id=\"g-h\">\r\n<h2>G</h2>\r\n<ul class=\"columnar-2\" >\r\n<li><a href=\"http://library.duke.edu/catalog/search/recordid/DUKE000847157\">Gardner, Alexander</a></li>\r\n<li><a href=\"http://library.duke.edu/catalog/search/recordid/DUKE003833784\">Gamble, Sidney D.</a></li>\r\n<li><a href=\"http://library.duke.edu/catalog/search/recordid/DUKE001705311\">Gedney, William</a></li>\r\n<li><a href=\"http://library.duke.edu/catalog/search/recordid/DUKE000868015\">Genthe, Arnold</a></li>\r\n<li><a href=\"http://catalog.library.duke.edu/F/4UN82P8HMRSYTQFPCVCL63TLHSTEMEJ5CRNIM6LQ8ACMX26IKF-24346?func=full-set-set&set_number=001607&set_entry=000001&format=999\">Gillette, Ernest H.</a></li>\r\n<li><a href=\"http://library.duke.edu/catalog/search/recordid/DUKE002520503\">Goin, Peter</a></li>\r\n<li><a href=\"http://catalog.library.duke.edu/F/MQ8JFD1N6XATUKN6EPRL8A8YTCFILCYCEV5P7NHILVM3QBFSX1-25289?func=full-set-set&set_number=001620&set_entry=000004&format=999\">Goldblatt, David</a></li>\r\n<li><a href=\"http://library.duke.edu/catalog/search/recordid/DUKE002342979\">Gordon, Jenny</a></li>\r\n<li><a href=\"http://catalog.library.duke.edu/F/JLF39BJBEL7NXFVB5I8U4U2T8KVSD5VLINIX3548NSQES9KBQL-16927?func=full-set-set&set_number=000553&set_entry=000002&format=999\">Gowin, Emmet</a></li>\r\n<li><a href=\"http://library.duke.edu/catalog/search/recordid/DUKE003144960\">Greenfield, Lauren</a></li>\r\n<li><a href=\"http://library.duke.edu/catalog/search/recordid/DUKE002342979\">Grendon, Paul</a></li>\r\n<li><a href=\"http://search.library.duke.edu/search?id=DUKE005092419\">Grossman, Will</a></li>\r\n</ul>\r\n\r\n<br><br><br><br><br><br><h2>H</h2>\r\n<ul class=\"columnar-2\" >\r\n<li><a href=\"http://library.duke.edu/catalog/search/recordid/DUKE002342979\">Hallett, George</a></li>\r\n<li><a href=\"http://library.duke.edu/catalog/search/recordid/DUKE002793932\">Halsman, Philippe</a></li>\r\n<li><a href=\"http://library.duke.edu/catalog/search/recordid/DUKE002878442\">Harris, Alex</a></li>\r\n<li><a href=\"http://library.duke.edu/catalog/search/recordid/DUKE002342979\">Hartman, Dave</a></li>\r\n<li><a href=\"http://library.duke.edu/catalog/search/recordid/DUKE002342979\">Hemson, David</a></li>\r\n<li><a href=\"http://library.duke.edu/catalog/search/recordid/DUKE000868015\">Hill, Ira Lawrence</a></li>\r\n<li><a href=\"http://library.duke.edu/catalog/search/recordid/DUKE002683952\">Hillers, John K.</a></li>\r\n<li><a href=\"http://library.duke.edu/catalog/search/recordid/DUKE002342979\">Hilton-Barber, Steve</a></li>\r\n<li><a href=\"http://library.duke.edu/catalog/search/recordid/DUKE003309417\">Hine, Lewis W.</a></li>\r\n<li><a href=\"http://catalog.library.duke.edu/F/CVYK59S12STRI7AM3HPB9F87Y9FNE3QSP6VJYVQDD8XJVLJDFN-17092?func=full-set-set&set_number=000582&set_entry=000002&format=999\">Holmes, Randolph B.</a></li>\r\n<li><a href=\"http://library.duke.edu/catalog/search/recordid/DUKE002793932\">Horst, Paul</a></li>\r\n<li><a href=\"http://library.duke.edu/catalog/search/recordid/DUKE000845022\">Hughes, Cornelius Jabez</a></li>\r\n<li><a href=\"http://search.library.duke.edu/search?id=DUKE004347840\">Hunter, Frank</a></li>\r\n<li><a href=\"http://library.duke.edu/catalog/search/recordid/DUKE002793932\">Hurrell, George</a></li>\r\n<li><a href=\"http://catalog.library.duke.edu/F/9BSYVP44IIQPDMVTGY8URYBAT7V5X3T693M7A38VQ8QV6AL3BS-00149?func=full-set-set&set_number=000593&set_entry=000014&format=999\">Hyman, Jonathan</a></li>\r\n</ul>\r\n</div>\r\n  \r\n<div class=\"tab-pane fade\" id=\"j-l\">\r\n\r\n<h2>J</h2>\r\n<ul class=\"columnar-2\" >\r\n<li><a href=\"http://library.duke.edu/catalog/search/recordid/DUKE002613682\">Jackson, William Henry</a></li>\r\n</ul>\r\n\r\n<br><br><h2>K</h2>\r\n<ul class=\"columnar-2\" >\r\n<li><a href=\"http://library.duke.edu/catalog/search/recordid/DUKE001135244\">Karsh, Yousuf</a></li>\r\n<li><a href=\"http://library.duke.edu/catalog/search/recordid/DUKE003299128\">Karales, James H.</a></li>\r\n<li><a href=\"http://catalog.library.duke.edu/F/MVNDKRJBEB7HQRJ2UXV199T8HIL9R4PNGRA5A2PMY4YBQ24CJQ-02123?func=full-set-set&set_number=000625&set_entry=000001&format=999\">Kennedy, Clarence</a></li>\r\n<li><a href=\"http://library.duke.edu/catalog/search/recordid/DUKE003956498\">Kessel, Dmitri</a></li>\r\n<li><a href=\"http://library.duke.edu/catalog/search/recordid/DUKE000812441\">Keystone View Company</a></li>\r\n<li><a href=\"http://library.duke.edu/catalog/search/recordid/DUKE002342979\">Konings, Paul</a></li>\r\n<li><a href=\"http://search.library.duke.edu/search?id=DUKE002510132\">Kwilecki, Paul</a></li>\r\n</ul>\r\n\r\n\r\n<br><br><br><br><h2>L</h2>\r\n<ul class=\"columnar-2\" >\r\n<li><a href=\"http://library.duke.edu/catalog/search/recordid/DUKE003914553\">Lane, Bettye</a></li>\r\n<li><a href=\"http://library.duke.edu/catalog/search/recordid/DUKE002017203\">Leatherdale, Marcus</a></li>\r\n<li><a href=\"http://library.duke.edu/catalog/search/recordid/DUKE002342979\">Lawson, Lesley</a></li>\r\n<li><a href=\"http://library.duke.edu/catalog/search/recordid/DUKE002342979\">Ledechowski, Chris</a></li>\r\n<li><a href=\"http://library.duke.edu/catalog/search/recordid/DUKE003144960\">Liftin, Joan</a></li>\r\n<li><a href=\"http://library.duke.edu/catalog/search/recordid/DUKE002356540\">Lindsey & Brown</a></li>\r\n<li><a href=\"http://library.duke.edu/catalog/search/recordid/DUKE002342979\">Lombard, Rashid</a></li>\r\n<li><a href=\"http://library.duke.edu/catalog/search/recordid/DUKE003144960\">Louie, Reagan</a></li>\r\n<li><a href=\"http://catalog.library.duke.edu/F/X8QCD5FA4EC9A7NYDK85Y3UG3VNRASX4RI9XQHX9XN3273R5MM-02873?func=full-set-set&set_number=000641&set_entry=000001&format=999\">Lowy, Benjamin</a></li>\r\n<li><a href=\"http://library.duke.edu/catalog/search/recordid/DUKE003144960\">Lyon, Danny</a></li>\r\n</ul>\r\n</div>\r\n  \r\n<div class=\"tab-pane fade\" id=\"m-p\">\r\n<h2>M</h2>\r\n<ul class=\"columnar-2\" >\r\n<li><a href=\"http://library.duke.edu/catalog/search/recordid/DUKE002342979\">Maclennan, Ben</a></li>\r\n<li><a href=\"http://library.duke.edu/catalog/search/recordid/DUKE000851739\">Man, Ray</a></li>\r\n<li><a href=\"http://library.duke.edu/catalog/search/recordid/DUKE003440331\">Mann, Sally</a></li>\r\n<li><a href=\"http://library.duke.edu/catalog/search/recordid/DUKE002247848\">Mangum, Hugh</a></li>\r\n<li><a href=\"http://library.duke.edu/catalog/search/recordid/DUKE002017203\">Mapplethorpe, Robert</a></li>\r\n<li><a href=\"http://library.duke.edu/catalog/search/recordid/DUKE002342979\">Meintjies, Roger</a></li>\r\n<li><a href=\"http://library.duke.edu/catalog/search/recordid/DUKE002342979\">Mendel, Gideon</a></li>\r\n<li><a href=\"http://library.duke.edu/catalog/search/recordid/DUKE002342979\">Miller, Eric</a></li>\r\n<li><a href=\"http://library.duke.edu/catalog/search/recordid/DUKE002342979\">Mofokeng, Santu</a></li>\r\n<li><a href=\"http://library.duke.edu/catalog/search/recordid/DUKE004175683\">Monroe, Gary </a></li>\r\n<li><a href=\"http://library.duke.edu/catalog/search/recordid/DUKE002342979\">Morolong, Daniel</a></li>\r\n<li><a href=\"http://catalog.library.duke.edu/F/X9568NLA2YCCBD3618RXETCYX2XKYXN339DNBT5FU8R4GIUKF8-03961?func=full-set-set&set_number=000653&set_entry=000002&format=999\">Moses, John</a></li>\r\n<li><a href=\"http://catalog.library.duke.edu/F/X9568NLA2YCCBD3618RXETCYX2XKYXN339DNBT5FU8R4GIUKF8-04954?func=full-set-set&set_number=000689&set_entry=000001&format=999\">Moulton, George C.</a></li>\r\n<li><a href=\"http://library.duke.edu/catalog/search/recordid/DUKE002793932\">Muray, Nickolas</a></li>\r\n<li><a href=\"http://library.duke.edu/catalog/search/recordid/DUKE004285346\">Mydans, Carl</a></li>\r\n</ul>\r\n\r\n<br><br><br><br><br><br><br><br><h2>N</h2>\r\n<ul class=\"columnar-2\" >\r\n<li><a href=\"http://library.duke.edu/catalog/search/recordid/DUKE002342979\">Nkosi, Themba</a></li>\r\n<li><a href=\"http://library.duke.edu/catalog/search/recordid/DUKE002342979\">Nunn, Cedric</a></li>\r\n</ul>\r\n\r\n<br><br><h2>O</h2>\r\n<ul class=\"columnar-2\" >\r\n<li><a href=\"http://library.duke.edu/catalog/search/recordid/DUKE002613673\">O’Sullivan, Timothy H.</a></li>\r\n</ul>\r\n\r\n<br><br><h2>P</h2>\r\n<ul class=\"columnar-2\" >\r\n<li><a href=\"http://library.duke.edu/catalog/search/recordid/DUKE000868015\">Pach Brothers</a></li>\r\n<li><a href=\"http://library.duke.edu/catalog/search/recordid/DUKE002342979\">Paddock, Billy</a></li>\r\n<li><a href=\"http://library.duke.edu/catalog/search/recordid/DUKE002793932\">Parkinson, Norman</a></li>\r\n<li><a href=\"http://library.duke.edu/catalog/search/recordid/DUKE001767387\">Parnell, Alvin T.</a></li>\r\n<li><a href=\"http://library.duke.edu/catalog/search/recordid/DUKE000868015\">Peter A. Juley & Sons</a></li>\r\n<li><a href=\"http://library.duke.edu/catalog/search/recordid/DUKE002342979\">Peters, Myron</a></li>\r\n<li><a href=\"http://library.duke.edu/catalog/search/recordid/DUKE003462285\">Pierce, Olive</a></li>\r\n<li><a href=\"http://library.duke.edu/catalog/search/recordid/DUKE003133825\">Pitts, James Ware</a></li>\r\n</ul>\r\n</div>\r\n  \r\n<div class=\"tab-pane fade\" id=\"q-t\">\r\n\r\n<h2>Q</h2>\r\n<ul class=\"columnar-2\" >\r\n<li><a href=\"http://library.duke.edu/catalog/search/recordid/DUKE002342979\">Qwazi, Chris</a></li>\r\n</ul>\r\n\r\n<br><h2>R</h2>\r\n<ul class=\"columnar-2\" >\r\n<li><a href=\"http://library.duke.edu/catalog/search/recordid/DUKE002342979\">Rajgopaul, Jeeva</a></li>\r\n<li>Ram, Mela</li>\r\n<li><a href=\"http://library.duke.edu/catalog/search/recordid/DUKE003591201\">Rankin, Tom</a></li>\r\n<li><a href=\"http://library.duke.edu/catalog/search/recordid/DUKE003144960\">Reed, Eli</a></li>\r\n<li>Reis, Ronald</li>\r\n<li><a href=\"http://library.duke.edu/catalog/search/recordid/DUKE003456412\">Rosenthal, Mel</a></li>\r\n</ul>\r\n\r\n\r\n<br><br><br><h2>S</h2>\r\n<ul class=\"columnar-2\" >\r\n<li><a href=\"http://library.duke.edu/catalog/search/recordid/DUKE002569213\">Saboungi, Georges</a></li>\r\n<li><a href=\"http://library.duke.edu/catalog/search/recordid/DUKE003010582\">Sartor, Margaret</a></li>\r\n<li><a href=\"http://search.library.duke.edu/search?id=DUKE002639556\">Saunders, Henry S.</a></li>\r\n<li><a href=\"http://library.duke.edu/catalog/search/recordid/DUKE003067428\">Saville, Lynn</a></li>\r\n<li><a href=\"http://library.duke.edu/catalog/search/recordid/DUKE003309384\">Schwarm, Larry</a></li>\r\n<li><a href=\"http://library.duke.edu/catalog/search/recordid/DUKE002342979\">Schwegmann, Wendy</a></li>\r\n<li><a href=\"http://catalog.library.duke.edu/F/2A18AQQLGNBTRS5U2LC5HTA5F9YTKU3T7CR429UGTBTH5IQIJM-04418?func=full-set-set&set_number=001786&set_entry=000001&format=999\">Sebah, J. Pascal</a></li>\r\n<li>Shackelford, Walter E.</li>\r\n<li><a href=\"http://library.duke.edu/catalog/search/recordid/DUKE004346228\">Shockley, William Hillman</a></li>\r\n<li><a href=\"http://library.duke.edu/catalog/search/recordid/DUKE003309417\">Siskind, Aaron</a></li>\r\n<li><a href=\"http://catalog.library.duke.edu/F/RH9JR8L9T6KG634HMXVU5PF8V5CF59PABN9BB838DD15H9SF81-09244?func=full-set-set&set_number=000895&set_entry=000010&format=999\">Smith, Steven</a></li>\r\n<li><a href=\"http://library.duke.edu/catalog/search/recordid/DUKE002793932\">Steichen, Edward</a></li>\r\n<li><a href=\"http://library.duke.edu/catalog/search/recordid/DUKE003309417\">Steiner, Ralph</a></li>\r\n<li><a href=\"http://library.duke.edu/catalog/search/recordid/DUKE003309417\">Stieglitz, Alfred</a></li>\r\n<li><a href=\"http://catalog.library.duke.edu/F/DM6F3V2B7SK2BLTKQRS2U7UJPG29CPTACLB4QQIKL1SFYY9GBR-01657?func=full-set-set&set_number=001709&set_entry=000001&format=999\">Stryker, Deena</a></li>\r\n</ul>\r\n\r\n<br><br><br><br><br><br><br><br><h2>T</h2>\r\n<ul class=\"columnar-2\" >\r\n<li><a href=\"http://library.duke.edu/catalog/search/recordid/DUKE004146838\">Thomson, John</a></li>\r\n<li><a href=\"http://library.duke.edu/catalog/search/recordid/DUKE002356540\">Taylor, Nat W.</a></li>\r\n<li><a href=\"http://library.duke.edu/catalog/search/recordid/DUKE002342979\">Tillim, Guy</a></li>\r\n</ul>\r\n\r\n</div>\r\n  \r\n<div class=\"tab-pane fade\" id=\"u-w\">\r\n\r\n<h2>U</h2>\r\n<ul class=\"columnar-2\" >\r\n<li><a href=\"http://library.duke.edu/catalog/search/recordid/DUKE000812465\">Ulmann, Doris</a></li>\r\n</ul>\r\n\r\n<br><h2>V</h2>\r\n<ul class=\"columnar-2\" >\r\n<li><a href=\"http://library.duke.edu/catalog/search/recordid/DUKE002342979\">Vallie, Zubeida</a></li>\r\n<li><a href=\"http://library.duke.edu/catalog/search/recordid/DUKE002342979\">De Vlieg, Gill </a></li>\r\n<li><a href=\"http://library.duke.edu/rubenstein/findingaids/tuckermarysames/\">Van Vechten, Carl</a></li>\r\n<li><a href=\"http://library.duke.edu/catalog/search/recordid/DUKE001801057\">Vaughan, Caroline</a></li>\r\n<li><a href=\"http://library.duke.edu/catalog/search/recordid/DUKE002793932\">Veres, Thomas</a></li>\r\n<li><a href=\"http://catalog.library.duke.edu/F/I12TITNEQ1TV4VS4RF482IY4E63NV4GQU8C5NIL44CXV1YCFYL-10868?func=full-set-set&set_number=001040&set_entry=000001&format=999\">Vergara, Camilo José</a></li>\r\n</ul>\r\n\r\n\r\n<br><br><br><br><h2>W</h2>\r\n<ul class=\"columnar-2\" >\r\n<li><a href=\"http://catalog.library.duke.edu/F/I12TITNEQ1TV4VS4RF482IY4E63NV4GQU8C5NIL44CXV1YCFYL-11032?func=full-set-set&set_number=001048&set_entry=000003&format=999\">Watley, Louanne</a></li>\r\n<li><a href=\"http://library.duke.edu/catalog/search/recordid/DUKE002342979\">Weinberg, Paul</a></li>\r\n<li><a href=\"http://library.duke.edu/catalog/search/recordid/DUKE001740674\">Welty, Eudora</a></li>\r\n<li><a href=\"http://library.duke.edu/catalog/search/recordid/DUKE003309417\">White, Minor</a></li>\r\n<li><a href=\"http://library.duke.edu/catalog/search/recordid/DUKE002793932\">Wilding, Dorothy</a></li>\r\n<li><a href=\"http://library.duke.edu/catalog/search/recordid/DUKE002342979\">Williams, Graeme</a></li>\r\n<li><a href=\"http://library.duke.edu/catalog/search/recordid/DUKE004168792\">Williams, Jennette</a></li>\r\n<li><a href=\"http://library.duke.edu/catalog/search/recordid/DUKE002342979\">Wissema, Jansie</a></li>\r\n<li><a href=\"http://library.duke.edu/catalog/search/recordid/DUKE002342979\">Wulfsohn, Gisele</a></li>\r\n\r\n</ul>\r\n\r\n\r\n</div>\r\n  \r\n<div class=\"tab-pane fade\" id=\"dc\">\r\n<img src=\"/rubenstein/sites/default/files/rubenstein/pictures/4473571061_4961b5c342.jpg\" alt=\"Hugh Mangum\" class=\"image-right\" height=\"500\" width=\"363\"><h2>Digital Collections</h2>\r\n\r\n<ul>\r\n<li><a href=\"http://library.duke.edu/digitalcollections?facet=Creator%3DMichael+Francis+Blake\">Blake, Michael Francis</a></li>\r\n<li><a href=\"http://library.duke.edu/digitalcollections?facet=Creator%3DGedney%2C+William+Gale%2C+1932-1989\">Gedney, William Gale (1932-1989)</a></li>\r\n<li><a href=\"http://library.duke.edu/digitalcollections?facet=Creator%3DGamble%2C+Sidney+D.+%28Sidney+David%29%2C+1890-1968\">Gamble, Sidney D. (1890-1968)</a></li>\r\n<li><a href=\"http://library.duke.edu/digitalcollections?facet=Creator%3DKwilecki%2C+Paul%2C+1928-\">Kwilecki, Paul (1928-2009)</a></li>\r\n<li><a href=\"http://library.duke.edu/digitalcollections?facet=Creator%3DMangum%2C+Hugh%2C+1877-1922\">Mangum, Hugh (1877-1922)</a></li>\r\n<li><a href=\"http://library.duke.edu/digitalcollections?facet=Creator%3DMonroe%2C+Gary\">Monroe, Gary</a></li>\r\n</ul>\r\n\r\n\r\n</div>\r\n\r\n</div>\r\n",
      "delta" : 0,
      "body_summary" : "",
      "bundle" : "page",
      "entity_id" : 157
   },
   "langcode" : "und",
   "uuid" : "6fb0e10d-fa38-48a2-824d-d60c76df3ea8",
   "vid" : 6473,
   "path_alias" : {
      "langcode" : "und",
      "pid" : 222,
      "alias" : "/documentaryarts/photographers-collections",
      "language" : "und",
      "status" : 0
   },
   "field_image" : null,
   "nid" : "157",
   "revisions" : [
      {
         "comment" : 1,
         "status" : 1,
         "sticky" : 0,
         "node_revision__field_tags" : [],
         "node_revision__body" : {
            "body_value" : "<style>\r\nli {color:gray};\r\nli a {color:black};\r\n</style>\r\n\r\n\r\n<h3>If you do not see a photographer in our alphabetized directory below, look in our <a href=\"#dc\"  data-toggle=\"tab\">Digital Collections</a>.</h3><br>\r\n\r\n<ul class=\"nav nav-tabs\" style=\"margin-bottom:0px !important;\">\r\n  <li class=\"active\"><a href=\"#a-b\" data-toggle=\"tab\">A - B</a></li>\r\n  <li><a href=\"#c-f\" data-toggle=\"tab\">C - F</a></li>\r\n  <li><a href=\"#g-h\" data-toggle=\"tab\">G - H</a></li>\r\n  <li><a href=\"#j-l\" data-toggle=\"tab\">J - L</a></li>\r\n  <li><a href=\"#m-p\" data-toggle=\"tab\">M - P</a></li>\r\n  <li><a href=\"#q-t\" data-toggle=\"tab\">Q - T</a></li>\r\n  <li><a href=\"#u-w\" data-toggle=\"tab\">U - W</a></li>\r\n  <li><a href=\"#dc\" data-toggle=\"tab\">Digital Collections</a></li>\r\n</ul>\r\n\r\n\r\n<div class=\"tab-content\" style=\"padding-top:0px !important;\" >\r\n  \r\n<div class=\"tab-pane fade in active\" id=\"a-b\"\">\r\n<h2>A</h2>\r\n<ul class=\"columnar-2\" >\r\n<li><a href=\"http://library.duke.edu/catalog/search/recordid/DUKE003309417\">Abbott, Berenice</a></li>\r\n<li><a href=\"http://library.duke.edu/catalog/search/recordid/DUKE002342979\">Albert, Paul</a></li>\r\n<li><a href=\"http://library.duke.edu/catalog/search/recordid/DUKE003818177\">Allen, Mariette Pathy</a></li>\r\n<li><a href=\"http://library.duke.edu/catalog/search/recordid/DUKE002342979\">Alphers, Joseph</a></li>\r\n<li><a href=\"http://library.duke.edu/catalog/search/recordid/DUKE003789049\">Amberg, Rob</a></li>\r\n<li><a href=\"http://library.duke.edu/catalog/search/recordid/DUKE003789049\">Anderson, Derek</a></li>\r\n<li><a href=\"http://library.duke.edu/catalog/search/recordid/DUKE003309383\">Andrews, Jesse Pyrant</a></li>\r\n<li><a href=\"http://library.duke.edu/catalog/search/recordid/DUKE003309417\">Atget, Eugène</a></li>\r\n</ul>\r\n\r\n<br><br><br><br><h2>B</h2>\r\n<ul class=\"columnar-2\">\r\n<li><a href=\"http://library.duke.edu/catalog/search/recordid/DUKE002342979\">Badsha, Omar</a></li>\r\n<li><a href=\"http://library.duke.edu/catalog/search/recordid/DUKE002648544\">Bamberger, Bill</a></li>\r\n<li><a href=\"http://library.duke.edu/catalog/search/recordid/DUKE002342979\">Barnett, Rodney</a></li>\r\n<li><a href=\"http://library.duke.edu/catalog/search/recordid/DUKE002342979\">Barry, Michael</a></li>\r\n<li><a href=\"http://library.duke.edu/catalog/search/recordid/DUKE003998276\">Barth, Petra</a></li>\r\n<li><a href=\"http://library.duke.edu/catalog/search/recordid/DUKE002793932\">Bartholomew, Jr., Ralph</a></li>\r\n<li><a href=\"http://library.duke.edu/catalog/search/recordid/DUKE002793932\">Beaton, Cecil Walter Hardy, Sir</a></li>\r\n<li><a href=\"http://library.duke.edu/catalog/search/recordid/DUKE002423875\">Belcher, Max</a></li>\r\n<li><a href=\"http://library.duke.edu/catalog/search/recordid/DUKE000868015\">Bell, Charles Milton</a></li>\r\n<li><a href=\"http://library.duke.edu/catalog/search/recordid/DUKE001616561\">Bell, William W.</a></li>\r\n<li><a href=\"http://library.duke.edu/catalog/search/recordid/DUKE002342979\">Berman, Bee</a></li>\r\n<li><a href=\"http://library.duke.edu/catalog/search/recordid/DUKE003144960\">Bey, Dawoud</a></li>\r\n<li><a href=\"http://library.duke.edu/catalog/search/recordid/DUKE000897854\">Blake, Michael Francis</a></li>\r\n<li><a href=\"http://library.duke.edu/catalog/search/recordid/DUKE002779192\">Blom, Gertrude Duby</a></li>\r\n<li><a href=\"http://library.duke.edu/catalog/search/recordid/DUKE002342979\">Bolton, Arthur</a></li>\r\n<li><a href=\"http://library.duke.edu/catalog/search/recordid/DUKE002569213\">Bonfils, Felix</a></li>\r\n<li><a href=\"http://search.library.duke.edu/search?id=DUKE000868015&output-format=search\">Boughton, Alice</a></li>\r\n<li><a href=\"http://catalog.library.duke.edu/F/Y2JFP4T1PEEYEDAIL8VNN8U6XJRMS1BJ2PFLGTKNI3QNIPFN3Y-16542?func=full-set-set&set_number=001288&set_entry=000001&format=999\">Bourne, Samuel</a></li>\r\n<li><a href=\"http://library.duke.edu/catalog/search/recordid/DUKE003167708\">Brady, Mathew B.</a></li>\r\n<li><a href=\"http://library.duke.edu/catalog/search/recordid/DUKE003309417\">Bravo, Manuel Alvarez</a></li>\r\n<li><a href=\"http://library.duke.edu/catalog/search/recordid/DUKE002342979\">Breakey, Basil</a></li>\r\n<li><a href=\"http://library.duke.edu/catalog/search/recordid/DUKE002226311\">Breitenbach, Eric</a></li>\r\n<li><a href=\"http://library.duke.edu/catalog/search/recordid/DUKE003144960\">Burke, Bill</a></li>\r\n<li><a href=\"http://catalog.library.duke.edu/F/XQIY8GTJDAY2KVHMINCFFE26HK2ME6YMS7DKBLR2DH747Y5JNG-05564?func=full-set-set&set_number=001427&set_entry=000002&format=999\">Buswell, Richard S.</a></li>\r\n</ul>\r\n</div>\r\n  \r\n<div class=\"tab-pane fade\" id=\"c-f\">\r\n<h2>C</h2>\r\n<ul class=\"columnar-2\">\r\n<li><a href=\"http://library.duke.edu/catalog/search/recordid/DUKE003144960\">Caffery, Debbie Fleming</a></li>\r\n<li><a href=\"http://library.duke.edu/catalog/search/recordid/DUKE001945010\">Cameron, Julia Margaret</a></li>\r\n<li><a href=\"http://library.duke.edu/catalog/search/recordid/DUKE003144960\">Capehart, Lucy</a></li>\r\n<li><a href=\"http://library.duke.edu/catalog/search/recordid/DUKE000865043\">Cartier-Bresson, Henri </a></li>\r\n<li><a href=\"http://library.duke.edu/catalog/search/recordid/DUKE002793932\">Cecil, Hugh</a></li>\r\n<li><a href=\"http://library.duke.edu/catalog/search/recordid/DUKE003957758\">Chatterley, Cedric</a></li>\r\n<li><a href=\"http://library.duke.edu/catalog/search/recordid/DUKE003868323\">Cianni, Vincent</a></li>\r\n<li><a href=\"http://library.duke.edu/catalog/search/recordid/DUKE002342979\">Cobbing, Julian</a></li>\r\n<li><a href=\"http://library.duke.edu/catalog/search/recordid/DUKE003309417\">Coburn, Alvin Langdon</a></li>\r\n<li><a href=\"http://catalog.library.duke.edu/F/65J5V41UNYUN1LF6X23H9716E3L58UK7P3YPRH6K34EGFJF49L-19828?func=full-set-set&set_number=001449&set_entry=000001&format=999\">Cousins, Frank</a></li>\r\n<li><a href=\"http://library.duke.edu/catalog/search/recordid/DUKE000435659\">Curtis, Edward S.</a></li>\r\n<li>Cutrell, David</li>\r\n</ul>\r\n\r\n<br><br><br><br><br><br><h2>D</h2>\r\n<ul class=\"columnar-2\">\r\n<li><a href=\"http://library.duke.edu/catalog/search/recordid/DUKE002793932\">Dahl-Wolfe, Louise</a></li>\r\n<li><a href=\"http://library.duke.edu/catalog/search/recordid/DUKE002342979\">Davies, Michael</a></li>\r\n<li><a href=\"http://library.duke.edu/catalog/search/recordid/DUKE002565777\">Davis, Griffith J.</a></li>\r\n<li><a href=\"http://library.duke.edu/catalog/search/recordid/DUKE003144960\">Davis, Lynn</a></li>\r\n<li><a href=\"http://library.duke.edu/catalog/search/recordid/DUKE003309417\">Day, F. Holland</a></li>\r\n<li><a href=\"http://library.duke.edu/catalog/search/recordid/DUKE002793932\">De Meyer, Adolf, Baron</a></li>\r\n<li><a href=\"http://catalog.library.duke.edu/F/STDXQBUAX17ULQF6P6NERETCDDR9S1NXNMHKRKHAMY55NURVXQ-21385?func=full-set-set&set_number=001491&set_entry=000001&format=999\">Deen Dayal, Lala Raja</a></li>\r\n<li><a href=\"http://library.duke.edu/catalog/search/recordid/DUKE001530661\">Dixon, Wyatt Thomas</a></li>\r\n</ul>\r\n\r\n<br><br><br><br><h2>E</h2>\r\n<ul class=\"columnar-2\">\r\n<li><a href=\"http://duke.summon.serialssolutions.com/link/0/eLvHCXMwY2BQME9NsjRNMzZJNTRKA7b208yTk1IszVLTUpJMDc3N08xQNoQhleZuogyybq4hzh66oBXN8dDxi3hQF84MdH23KR_PPunp2SoO1ssV9uT327Y3AACWhBxa\">Espada, Frank</a></li>\r\n<li><a href=\"http://library.duke.edu/catalog/search/recordid/DUKE003144960\">Evans, Terry</a></li>\r\n<li><a href=\"http://library.duke.edu/catalog/search/recordid/DUKE003309389\">Evans, Walker</a></li>\r\n<li><a href=\"http://catalog.library.duke.edu/F/9T7JSGRHXSJH9NYUBCEYC7X7QVKJHBVIFLP6C3UGT5JY4CSPLD-21997?func=full-set-set&set_number=001521&set_entry=000002&format=999\">E. & H.T. Anthony Company</a></li>\r\n</ul>\r\n\r\n<br><br><br><h2>F</h2>\r\n<ul class=\"columnar-2\">\r\n<li><a href=\"http://library.duke.edu/catalog/search/recordid/DUKE002342979\">Fischer, Anne</a></li>\r\n<li><a href=\"http://search.library.duke.edu/search?id=DUKE004445724\">Freeman, Roland L.</a></li>\r\n<li><a href=\"http://library.duke.edu/catalog/search/recordid/DUKE001705311\">Friedlander, Lee</a></li>\r\n<li><a href=\"http://library.duke.edu/catalog/search/recordid/DUKE003901963\">Frazier, Danny Wilcox</a></li>\r\n<li>Frith, Francis</li>\r\n</ul>\r\n</div>\r\n  \r\n<div class=\"tab-pane fade\" id=\"g-h\">\r\n<h2>G</h2>\r\n<ul class=\"columnar-2\" >\r\n<li><a href=\"http://library.duke.edu/catalog/search/recordid/DUKE000847157\">Gardner, Alexander</a></li>\r\n<li><a href=\"http://library.duke.edu/catalog/search/recordid/DUKE003833784\">Gamble, Sidney D.</a></li>\r\n<li><a href=\"http://library.duke.edu/catalog/search/recordid/DUKE001705311\">Gedney, William</a></li>\r\n<li><a href=\"http://library.duke.edu/catalog/search/recordid/DUKE000868015\">Genthe, Arnold</a></li>\r\n<li><a href=\"http://catalog.library.duke.edu/F/4UN82P8HMRSYTQFPCVCL63TLHSTEMEJ5CRNIM6LQ8ACMX26IKF-24346?func=full-set-set&set_number=001607&set_entry=000001&format=999\">Gillette, Ernest H.</a></li>\r\n<li><a href=\"http://library.duke.edu/catalog/search/recordid/DUKE002520503\">Goin, Peter</a></li>\r\n<li><a href=\"http://catalog.library.duke.edu/F/MQ8JFD1N6XATUKN6EPRL8A8YTCFILCYCEV5P7NHILVM3QBFSX1-25289?func=full-set-set&set_number=001620&set_entry=000004&format=999\">Goldblatt, David</a></li>\r\n<li><a href=\"http://library.duke.edu/catalog/search/recordid/DUKE002342979\">Gordon, Jenny</a></li>\r\n<li><a href=\"http://catalog.library.duke.edu/F/JLF39BJBEL7NXFVB5I8U4U2T8KVSD5VLINIX3548NSQES9KBQL-16927?func=full-set-set&set_number=000553&set_entry=000002&format=999\">Gowin, Emmet</a></li>\r\n<li><a href=\"http://library.duke.edu/catalog/search/recordid/DUKE003144960\">Greenfield, Lauren</a></li>\r\n<li><a href=\"http://library.duke.edu/catalog/search/recordid/DUKE002342979\">Grendon, Paul</a></li>\r\n<li><a href=\"http://search.library.duke.edu/search?id=DUKE005092419\">Grossman, Will</a></li>\r\n</ul>\r\n\r\n<br><br><br><br><br><br><h2>H</h2>\r\n<ul class=\"columnar-2\" >\r\n<li><a href=\"http://library.duke.edu/catalog/search/recordid/DUKE002342979\">Hallett, George</a></li>\r\n<li><a href=\"http://library.duke.edu/catalog/search/recordid/DUKE002793932\">Halsman, Philippe</a></li>\r\n<li><a href=\"http://library.duke.edu/catalog/search/recordid/DUKE002878442\">Harris, Alex</a></li>\r\n<li><a href=\"http://library.duke.edu/catalog/search/recordid/DUKE002342979\">Hartman, Dave</a></li>\r\n<li><a href=\"http://library.duke.edu/catalog/search/recordid/DUKE002342979\">Hemson, David</a></li>\r\n<li><a href=\"http://library.duke.edu/catalog/search/recordid/DUKE000868015\">Hill, Ira Lawrence</a></li>\r\n<li><a href=\"http://library.duke.edu/catalog/search/recordid/DUKE002683952\">Hillers, John K.</a></li>\r\n<li><a href=\"http://library.duke.edu/catalog/search/recordid/DUKE002342979\">Hilton-Barber, Steve</a></li>\r\n<li><a href=\"http://library.duke.edu/catalog/search/recordid/DUKE003309417\">Hine, Lewis W.</a></li>\r\n<li><a href=\"http://catalog.library.duke.edu/F/CVYK59S12STRI7AM3HPB9F87Y9FNE3QSP6VJYVQDD8XJVLJDFN-17092?func=full-set-set&set_number=000582&set_entry=000002&format=999\">Holmes, Randolph B.</a></li>\r\n<li><a href=\"http://library.duke.edu/catalog/search/recordid/DUKE002793932\">Horst, Paul</a></li>\r\n<li><a href=\"http://library.duke.edu/catalog/search/recordid/DUKE000845022\">Hughes, Cornelius Jabez</a></li>\r\n<li><a href=\"http://search.library.duke.edu/search?id=DUKE004347840\">Hunter, Frank</a></li>\r\n<li><a href=\"http://library.duke.edu/catalog/search/recordid/DUKE002793932\">Hurrell, George</a></li>\r\n<li><a href=\"http://catalog.library.duke.edu/F/9BSYVP44IIQPDMVTGY8URYBAT7V5X3T693M7A38VQ8QV6AL3BS-00149?func=full-set-set&set_number=000593&set_entry=000014&format=999\">Hyman, Jonathan</a></li>\r\n</ul>\r\n</div>\r\n  \r\n<div class=\"tab-pane fade\" id=\"j-l\">\r\n\r\n<h2>J</h2>\r\n<ul class=\"columnar-2\" >\r\n<li><a href=\"http://library.duke.edu/catalog/search/recordid/DUKE002613682\">Jackson, William Henry</a></li>\r\n</ul>\r\n\r\n<br><br><h2>K</h2>\r\n<ul class=\"columnar-2\" >\r\n<li><a href=\"http://library.duke.edu/catalog/search/recordid/DUKE001135244\">Karsh, Yousuf</a></li>\r\n<li><a href=\"http://library.duke.edu/catalog/search/recordid/DUKE003299128\">Karales, James H.</a></li>\r\n<li><a href=\"http://catalog.library.duke.edu/F/MVNDKRJBEB7HQRJ2UXV199T8HIL9R4PNGRA5A2PMY4YBQ24CJQ-02123?func=full-set-set&set_number=000625&set_entry=000001&format=999\">Kennedy, Clarence</a></li>\r\n<li><a href=\"http://library.duke.edu/catalog/search/recordid/DUKE003956498\">Kessel, Dmitri</a></li>\r\n<li><a href=\"http://library.duke.edu/catalog/search/recordid/DUKE000812441\">Keystone View Company</a></li>\r\n<li><a href=\"http://library.duke.edu/catalog/search/recordid/DUKE002342979\">Konings, Paul</a></li>\r\n<li><a href=\"http://search.library.duke.edu/search?id=DUKE002510132\">Kwilecki, Paul</a></li>\r\n</ul>\r\n\r\n\r\n<br><br><br><br><h2>L</h2>\r\n<ul class=\"columnar-2\" >\r\n<li><a href=\"http://library.duke.edu/catalog/search/recordid/DUKE003914553\">Lane, Bettye</a></li>\r\n<li><a href=\"http://library.duke.edu/catalog/search/recordid/DUKE002017203\">Leatherdale, Marcus</a></li>\r\n<li><a href=\"http://library.duke.edu/catalog/search/recordid/DUKE002342979\">Lawson, Lesley</a></li>\r\n<li><a href=\"http://library.duke.edu/catalog/search/recordid/DUKE002342979\">Ledechowski, Chris</a></li>\r\n<li><a href=\"http://library.duke.edu/catalog/search/recordid/DUKE003144960\">Liftin, Joan</a></li>\r\n<li><a href=\"http://library.duke.edu/catalog/search/recordid/DUKE002356540\">Lindsey & Brown</a></li>\r\n<li><a href=\"http://library.duke.edu/catalog/search/recordid/DUKE002342979\">Lombard, Rashid</a></li>\r\n<li><a href=\"http://library.duke.edu/catalog/search/recordid/DUKE003144960\">Louie, Reagan</a></li>\r\n<li><a href=\"http://catalog.library.duke.edu/F/X8QCD5FA4EC9A7NYDK85Y3UG3VNRASX4RI9XQHX9XN3273R5MM-02873?func=full-set-set&set_number=000641&set_entry=000001&format=999\">Lowy, Benjamin</a></li>\r\n<li><a href=\"http://library.duke.edu/catalog/search/recordid/DUKE003144960\">Lyon, Danny</a></li>\r\n</ul>\r\n</div>\r\n  \r\n<div class=\"tab-pane fade\" id=\"m-p\">\r\n<h2>M</h2>\r\n<ul class=\"columnar-2\" >\r\n<li><a href=\"http://library.duke.edu/catalog/search/recordid/DUKE002342979\">Maclennan, Ben</a></li>\r\n<li><a href=\"http://library.duke.edu/catalog/search/recordid/DUKE000851739\">Man, Ray</a></li>\r\n<li><a href=\"http://library.duke.edu/catalog/search/recordid/DUKE003440331\">Mann, Sally</a></li>\r\n<li><a href=\"http://library.duke.edu/catalog/search/recordid/DUKE002247848\">Mangum, Hugh</a></li>\r\n<li><a href=\"http://library.duke.edu/catalog/search/recordid/DUKE002017203\">Mapplethorpe, Robert</a></li>\r\n<li><a href=\"http://library.duke.edu/catalog/search/recordid/DUKE002342979\">Meintjies, Roger</a></li>\r\n<li><a href=\"http://library.duke.edu/catalog/search/recordid/DUKE002342979\">Mendel, Gideon</a></li>\r\n<li><a href=\"http://library.duke.edu/catalog/search/recordid/DUKE002342979\">Miller, Eric</a></li>\r\n<li><a href=\"http://library.duke.edu/catalog/search/recordid/DUKE002342979\">Mofokeng, Santu</a></li>\r\n<li><a href=\"http://library.duke.edu/catalog/search/recordid/DUKE004175683\">Monroe, Gary </a></li>\r\n<li><a href=\"http://library.duke.edu/catalog/search/recordid/DUKE002342979\">Morolong, Daniel</a></li>\r\n<li><a href=\"http://catalog.library.duke.edu/F/X9568NLA2YCCBD3618RXETCYX2XKYXN339DNBT5FU8R4GIUKF8-03961?func=full-set-set&set_number=000653&set_entry=000002&format=999\">Moses, John</a></li>\r\n<li><a href=\"http://catalog.library.duke.edu/F/X9568NLA2YCCBD3618RXETCYX2XKYXN339DNBT5FU8R4GIUKF8-04954?func=full-set-set&set_number=000689&set_entry=000001&format=999\">Moulton, George C.</a></li>\r\n<li><a href=\"http://library.duke.edu/catalog/search/recordid/DUKE002793932\">Muray, Nickolas</a></li>\r\n<li><a href=\"http://library.duke.edu/catalog/search/recordid/DUKE004285346\">Mydans, Carl</a></li>\r\n</ul>\r\n\r\n<br><br><br><br><br><br><br><br><h2>N</h2>\r\n<ul class=\"columnar-2\" >\r\n<li><a href=\"http://library.duke.edu/catalog/search/recordid/DUKE002342979\">Nkosi, Themba</a></li>\r\n<li><a href=\"http://library.duke.edu/catalog/search/recordid/DUKE002342979\">Nunn, Cedric</a></li>\r\n</ul>\r\n\r\n<br><br><h2>O</h2>\r\n<ul class=\"columnar-2\" >\r\n<li><a href=\"http://library.duke.edu/catalog/search/recordid/DUKE002613673\">O’Sullivan, Timothy H.</a></li>\r\n</ul>\r\n\r\n<br><br><h2>P</h2>\r\n<ul class=\"columnar-2\" >\r\n<li><a href=\"http://library.duke.edu/catalog/search/recordid/DUKE000868015\">Pach Brothers</a></li>\r\n<li><a href=\"http://library.duke.edu/catalog/search/recordid/DUKE002342979\">Paddock, Billy</a></li>\r\n<li><a href=\"http://library.duke.edu/catalog/search/recordid/DUKE002793932\">Parkinson, Norman</a></li>\r\n<li><a href=\"http://library.duke.edu/catalog/search/recordid/DUKE001767387\">Parnell, Alvin T.</a></li>\r\n<li><a href=\"http://library.duke.edu/catalog/search/recordid/DUKE000868015\">Peter A. Juley & Sons</a></li>\r\n<li><a href=\"http://library.duke.edu/catalog/search/recordid/DUKE002342979\">Peters, Myron</a></li>\r\n<li><a href=\"http://library.duke.edu/catalog/search/recordid/DUKE003462285\">Pierce, Olive</a></li>\r\n<li><a href=\"http://library.duke.edu/catalog/search/recordid/DUKE003133825\">Pitts, James Ware</a></li>\r\n</ul>\r\n</div>\r\n  \r\n<div class=\"tab-pane fade\" id=\"q-t\">\r\n\r\n<h2>Q</h2>\r\n<ul class=\"columnar-2\" >\r\n<li><a href=\"http://library.duke.edu/catalog/search/recordid/DUKE002342979\">Qwazi, Chris</a></li>\r\n</ul>\r\n\r\n<br><h2>R</h2>\r\n<ul class=\"columnar-2\" >\r\n<li><a href=\"http://library.duke.edu/catalog/search/recordid/DUKE002342979\">Rajgopaul, Jeeva</a></li>\r\n<li>Ram, Mela</li>\r\n<li><a href=\"http://library.duke.edu/catalog/search/recordid/DUKE003591201\">Rankin, Tom</a></li>\r\n<li><a href=\"http://library.duke.edu/catalog/search/recordid/DUKE003144960\">Reed, Eli</a></li>\r\n<li>Reis, Ronald</li>\r\n<li><a href=\"http://library.duke.edu/catalog/search/recordid/DUKE003456412\">Rosenthal, Mel</a></li>\r\n</ul>\r\n\r\n\r\n<br><br><br><h2>S</h2>\r\n<ul class=\"columnar-2\" >\r\n<li><a href=\"http://library.duke.edu/catalog/search/recordid/DUKE002569213\">Saboungi, Georges</a></li>\r\n<li><a href=\"http://library.duke.edu/catalog/search/recordid/DUKE003010582\">Sartor, Margaret</a></li>\r\n<li><a href=\"http://search.library.duke.edu/search?id=DUKE002639556\">Saunders, Henry S.</a></li>\r\n<li><a href=\"http://library.duke.edu/catalog/search/recordid/DUKE003067428\">Saville, Lynn</a></li>\r\n<li><a href=\"http://library.duke.edu/catalog/search/recordid/DUKE003309384\">Schwarm, Larry</a></li>\r\n<li><a href=\"http://library.duke.edu/catalog/search/recordid/DUKE002342979\">Schwegmann, Wendy</a></li>\r\n<li><a href=\"http://catalog.library.duke.edu/F/2A18AQQLGNBTRS5U2LC5HTA5F9YTKU3T7CR429UGTBTH5IQIJM-04418?func=full-set-set&set_number=001786&set_entry=000001&format=999\">Sebah, J. Pascal</a></li>\r\n<li>Shackelford, Walter E.</li>\r\n<li><a href=\"http://library.duke.edu/catalog/search/recordid/DUKE004346228\">Shockley, William Hillman</a></li>\r\n<li><a href=\"http://library.duke.edu/catalog/search/recordid/DUKE003309417\">Siskind, Aaron</a></li>\r\n<li><a href=\"http://catalog.library.duke.edu/F/RH9JR8L9T6KG634HMXVU5PF8V5CF59PABN9BB838DD15H9SF81-09244?func=full-set-set&set_number=000895&set_entry=000010&format=999\">Smith, Steven</a></li>\r\n<li><a href=\"http://library.duke.edu/catalog/search/recordid/DUKE002793932\">Steichen, Edward</a></li>\r\n<li><a href=\"http://library.duke.edu/catalog/search/recordid/DUKE003309417\">Steiner, Ralph</a></li>\r\n<li><a href=\"http://library.duke.edu/catalog/search/recordid/DUKE003309417\">Stieglitz, Alfred</a></li>\r\n<li><a href=\"http://catalog.library.duke.edu/F/DM6F3V2B7SK2BLTKQRS2U7UJPG29CPTACLB4QQIKL1SFYY9GBR-01657?func=full-set-set&set_number=001709&set_entry=000001&format=999\">Stryker, Deena</a></li>\r\n</ul>\r\n\r\n<br><br><br><br><br><br><br><br><h2>T</h2>\r\n<ul class=\"columnar-2\" >\r\n<li><a href=\"http://library.duke.edu/catalog/search/recordid/DUKE004146838\">Thomson, John</a></li>\r\n<li><a href=\"http://library.duke.edu/catalog/search/recordid/DUKE002356540\">Taylor, Nat W.</a></li>\r\n<li><a href=\"http://library.duke.edu/catalog/search/recordid/DUKE002342979\">Tillim, Guy</a></li>\r\n</ul>\r\n\r\n</div>\r\n  \r\n<div class=\"tab-pane fade\" id=\"u-w\">\r\n\r\n<h2>U</h2>\r\n<ul class=\"columnar-2\" >\r\n<li><a href=\"http://library.duke.edu/catalog/search/recordid/DUKE000812465\">Ulmann, Doris</a></li>\r\n</ul>\r\n\r\n<br><h2>V</h2>\r\n<ul class=\"columnar-2\" >\r\n<li><a href=\"http://library.duke.edu/catalog/search/recordid/DUKE002342979\">Vallie, Zubeida</a></li>\r\n<li><a href=\"http://library.duke.edu/catalog/search/recordid/DUKE002342979\">De Vlieg, Gill </a></li>\r\n<li><a href=\"http://library.duke.edu/rubenstein/findingaids/tuckermarysames/\">Van Vechten, Carl</a></li>\r\n<li><a href=\"http://library.duke.edu/catalog/search/recordid/DUKE001801057\">Vaughan, Caroline</a></li>\r\n<li><a href=\"http://library.duke.edu/catalog/search/recordid/DUKE002793932\">Veres, Thomas</a></li>\r\n<li><a href=\"http://catalog.library.duke.edu/F/I12TITNEQ1TV4VS4RF482IY4E63NV4GQU8C5NIL44CXV1YCFYL-10868?func=full-set-set&set_number=001040&set_entry=000001&format=999\">Vergara, Camilo José</a></li>\r\n</ul>\r\n\r\n\r\n<br><br><br><br><h2>W</h2>\r\n<ul class=\"columnar-2\" >\r\n<li><a href=\"http://catalog.library.duke.edu/F/I12TITNEQ1TV4VS4RF482IY4E63NV4GQU8C5NIL44CXV1YCFYL-11032?func=full-set-set&set_number=001048&set_entry=000003&format=999\">Watley, Louanne</a></li>\r\n<li><a href=\"http://library.duke.edu/catalog/search/recordid/DUKE002342979\">Weinberg, Paul</a></li>\r\n<li><a href=\"http://library.duke.edu/catalog/search/recordid/DUKE001740674\">Welty, Eudora</a></li>\r\n<li><a href=\"http://library.duke.edu/catalog/search/recordid/DUKE003309417\">White, Minor</a></li>\r\n<li><a href=\"http://library.duke.edu/catalog/search/recordid/DUKE002793932\">Wilding, Dorothy</a></li>\r\n<li><a href=\"http://library.duke.edu/catalog/search/recordid/DUKE002342979\">Williams, Graeme</a></li>\r\n<li><a href=\"http://library.duke.edu/catalog/search/recordid/DUKE004168792\">Williams, Jennette</a></li>\r\n<li><a href=\"http://library.duke.edu/catalog/search/recordid/DUKE002342979\">Wissema, Jansie</a></li>\r\n<li><a href=\"http://library.duke.edu/catalog/search/recordid/DUKE002342979\">Wulfsohn, Gisele</a></li>\r\n\r\n</ul>\r\n\r\n\r\n</div>\r\n  \r\n<div class=\"tab-pane fade\" id=\"dc\">\r\n<img src=\"/rubenstein/sites/default/files/rubenstein/pictures/4473571061_4961b5c342.jpg\" alt=\"Hugh Mangum\" class=\"image-right\" height=\"500\" width=\"363\"><h2>Digital Collections</h2>\r\n\r\n<ul>\r\n<li><a href=\"http://library.duke.edu/digitalcollections?facet=Creator%3DMichael+Francis+Blake\">Blake, Michael Francis</a></li>\r\n<li><a href=\"http://library.duke.edu/digitalcollections?facet=Creator%3DGedney%2C+William+Gale%2C+1932-1989\">Gedney, William Gale (1932-1989)</a></li>\r\n<li><a href=\"http://library.duke.edu/digitalcollections?facet=Creator%3DGamble%2C+Sidney+D.+%28Sidney+David%29%2C+1890-1968\">Gamble, Sidney D. (1890-1968)</a></li>\r\n<li><a href=\"http://library.duke.edu/digitalcollections?facet=Creator%3DKwilecki%2C+Paul%2C+1928-\">Kwilecki, Paul (1928-2009)</a></li>\r\n<li><a href=\"http://library.duke.edu/digitalcollections?facet=Creator%3DMangum%2C+Hugh%2C+1877-1922\">Mangum, Hugh (1877-1922)</a></li>\r\n<li><a href=\"http://library.duke.edu/digitalcollections?facet=Creator%3DMonroe%2C+Gary\">Monroe, Gary</a></li>\r\n</ul>\r\n\r\n\r\n</div>\r\n\r\n</div>\r\n",
            "langcode" : "und",
            "revision_id" : 6473,
            "deleted" : 0,
            "body_format" : "full_html_no_wysiwyg",
            "entity_id" : 157,
            "bundle" : "page",
            "body_summary" : "",
            "delta" : 0
         },
         "timestamp" : 1409072948,
         "uid" : 11,
         "vuuid" : "75cbfb8a-34ba-448b-8745-02546c525b65",
         "log" : "",
         "title" : "Photographers in the Collections",
         "promote" : 0,
         "field_revision" : {
            "changed" : null,
            "status" : 1,
            "sticky" : 0,
            "revision_translation_affected" : 1,
            "created" : null,
            "uid" : 1,
            "default_langcode" : 1,
            "langcode" : null,
            "title" : "Photographers in the Collections"
         }
      }
   ],
   "node_field_data" : {
      "sticky" : 0,
      "changed" : null,
      "status" : 1,
      "type" : "page",
      "langcode" : "und",
      "default_langcode" : 1,
      "uid" : 1,
      "revision_translation_affected" : 1,
      "created" : 1377210919,
      "promote" : 0,
      "title" : "Photographers in the Collections"
   },
   "asidebox" : {
      "body_value" : null,
      "status" : "disabled",
      "block_delta" : null,
      "body_format" : null,
      "block_module" : null,
      "vid" : 6473,
      "nid" : 157,
      "body_title" : "",
      "bid" : null
   }
}

