{
   "langcode" : "und",
   "node__body" : {
      "body_value" : "<p>The Photography Galley in the Rubenstein Library exhibits photographs from Rubenstein Library collections, primarily from the Archive of Documentary Arts, in order to:</p><ul><li>Provide the Duke community and the general public opportunities to engage with photographs and the documentary arts outside of the reading room</li><li>Heighten awareness of individual documentary artists and collections as well as specific communities, cultures, customs, histories, people, places, and photographic traditions</li><li>Heighten awareness of and honor the documentary tradition</li><li>Inspire research, reflection, &amp; dialogue</li></ul><p>Exhibitions in the Photography Gallery in the Rubenstein Library are inclusive of a variety photographic mediums &amp; a variety of artists that reflect the multitude of viewpoints and communities from which work is being made in the documentary arts today.</p><p>Those in the Duke community interested in sumbitting an exhibition proposal for the Gallery may do so through the link below. Please keep in mind that the Gallery hosts only three exhibitions a year and is booked up to two years in advance. Proposals will be reviewed quarterly.</p><h3><a href=\"https://duke.qualtrics.com/SE/?SID=SV_d3XVUPzfDnveK3z\" target=\"_blank\">Exhibition Proposal Form</a></h3><p><img src=\"/rubenstein/sites/default/files/rubenstein/users/lisa.mccarty/RLPG.jpg\" alt=\"Rubenstein Library Photography Gallery\" title=\"Rubenstein Library Photography Gallery\" class=\"caption-left\" width=\"650\" height=\"434\"></p>",
      "langcode" : "und",
      "revision_id" : 13847,
      "deleted" : 0,
      "body_format" : "full_html",
      "entity_id" : 639,
      "bundle" : "page",
      "body_summary" : "",
      "delta" : 0
   },
   "node_access" : null,
   "field_tags" : [],
   "type" : "page",
   "asidebox" : {
      "block_delta" : null,
      "status" : "disabled",
      "body_value" : null,
      "vid" : 13847,
      "block_module" : null,
      "body_format" : null,
      "nid" : 639,
      "bid" : null,
      "body_title" : ""
   },
   "node_field_data" : {
      "title" : "Photography Gallery in the Rubenstein Library",
      "promote" : 0,
      "uid" : 1,
      "revision_translation_affected" : 1,
      "created" : 1467320994,
      "langcode" : "und",
      "default_langcode" : 1,
      "status" : 1,
      "type" : "page",
      "changed" : null,
      "sticky" : 0
   },
   "revisions" : [
      {
         "timestamp" : 1542661058,
         "comment" : 1,
         "status" : 1,
         "node_revision__field_tags" : [],
         "node_revision__body" : {
            "revision_id" : 13847,
            "langcode" : "und",
            "deleted" : 0,
            "body_format" : "full_html",
            "body_value" : "<p>The Photography Galley in the Rubenstein Library exhibits photographs from Rubenstein Library collections, primarily from the Archive of Documentary Arts, in order to:</p><ul><li>Provide the Duke community and the general public opportunities to engage with photographs and the documentary arts outside of the reading room</li><li>Heighten awareness of individual documentary artists and collections as well as specific communities, cultures, customs, histories, people, places, and photographic traditions</li><li>Heighten awareness of and honor the documentary tradition</li><li>Inspire research, reflection, &amp; dialogue</li></ul><p>Exhibitions in the Photography Gallery in the Rubenstein Library are inclusive of a variety photographic mediums &amp; a variety of artists that reflect the multitude of viewpoints and communities from which work is being made in the documentary arts today.</p><p>Those in the Duke community interested in sumbitting an exhibition proposal for the Gallery may do so through the link below. Please keep in mind that the Gallery hosts only three exhibitions a year and is booked up to two years in advance. Proposals will be reviewed quarterly.</p><h3><a href=\"https://duke.qualtrics.com/SE/?SID=SV_d3XVUPzfDnveK3z\" target=\"_blank\">Exhibition Proposal Form</a></h3><p><img src=\"/rubenstein/sites/default/files/rubenstein/users/lisa.mccarty/RLPG.jpg\" alt=\"Rubenstein Library Photography Gallery\" title=\"Rubenstein Library Photography Gallery\" class=\"caption-left\" width=\"650\" height=\"434\"></p>",
            "body_summary" : "",
            "delta" : 0,
            "bundle" : "page",
            "entity_id" : 639
         },
         "sticky" : 0,
         "title" : "Photography Gallery in the Rubenstein Library",
         "promote" : 0,
         "field_revision" : {
            "sticky" : 0,
            "changed" : null,
            "status" : 1,
            "default_langcode" : 1,
            "langcode" : null,
            "created" : null,
            "revision_translation_affected" : 1,
            "uid" : 1,
            "title" : "Photography Gallery in the Rubenstein Library"
         },
         "uid" : 81,
         "vuuid" : "01f7946e-9da3-47cf-9e85-ecdde20b2172",
         "log" : ""
      }
   ],
   "nid" : "639",
   "path_alias" : {
      "langcode" : "und",
      "alias" : "/documentaryarts/exhibits/PhotographyGallery",
      "pid" : 753,
      "language" : "und",
      "status" : 0
   },
   "vid" : 13847,
   "field_image" : null,
   "uuid" : "70458dd9-63d9-4e12-a5a9-08b1c9c454f9"
}

