{
   "node_access" : null,
   "type" : "page",
   "field_tags" : [],
   "langcode" : "und",
   "node__body" : {
      "body_summary" : "",
      "delta" : 0,
      "bundle" : "page",
      "entity_id" : 719,
      "revision_id" : 13891,
      "langcode" : "und",
      "deleted" : 0,
      "body_format" : "full_html",
      "body_value" : "<h3>Who was Julian Carr?</h3><p>Julian Shakespeare Carr (1845-1924) was a businessman who worked in a number of industries: tobacco, banking, mills, railroads, and utilities, among others. Born in Chapel Hill, he served as a private in the Confederate Army and briefly attended the University of North Carolina at Chapel Hill. Carr joined the W. T. Blackwell and Company in 1870, and soon held ownership. He spearheaded the Bull Durham brand and advertising campaign.</p><p>Carr’s relationship with Trinity began in 1880, when he financially assisted the struggling school. He served as a trustee from 1882 to 1895. During that period, the school faced serious financial problems, and Carr, along with James A. Gray and John W. Alspaugh, formed a Committee of Management to oversee the school from 1885 to 1887. Carr’s gift of $10,000 in stocks in 1887 was the largest gift ever received by the college at that time. In 1890, Carr <a href=\"https://library.duke.edu/rubenstein/uarchives/history/faqs/carr/carr-documents#1890-minutes\">offered 62 acres of land in Durham</a> as part of an offer, along with Washington Duke, to entice Trinity to move to the young city. That land is present day East Campus.</p><p>Carr was known for his philanthropy, and he supported numerous organizations and causes. He was a donor of a site for the Durham Public Library, the first publicly supported library in the state. In addition to his giving to Trinity, Carr also donated to the University of North Carolina (where he also served as a trustee), Davidson, Wake Forest, and many other colleges. He also donated funds to African-American institutions, such as the Training School for Colored People in Augusta, Georgia. Carr was also one of the financial sponsors of <a href=\"https://blogs.library.duke.edu/rubenstein/2014/05/22/charlie-soong-at-trinity-college/\" target=\"_blank\">Charlie Soong</a>, Trinity’s first international student, and stayed close with Soong and his family afterwards.</p><p>Although he only rose to the rank of private in the Civil War, Carr served as the commander of the United Confederate Veterans of North Carolina, and adopted and used the honorary title of General.</p><h3>When was Carr Building named for Julian Carr?</h3><p><img src=\"/rubenstein/sites/default/files/rubenstein/uarchives/carr-bldg-nd.jpg\" alt=\"Carr Building, undated\" title=\"Carr Building, undated\" width=\"500\" style=\"float: right;\" class=\"caption-right\"></p><p>The building itself was constructed in 1927 as part of the redesign and expansion of East Campus by Julian Abele and the Horace Trumbauer firm. For the first four years of its life, it was known as the Classroom Building; the other new buildings on East and West Campus also remained unnamed.</p><p>Just before the brand-new West Campus opened for the Fall 1930 semester, Carr Building, along with eleven of the other new buildings, was formally named during the September 12, 1930 Board of Trustees Executive Committee meeting. The Executive Committee’s <a href=\"https://library.duke.edu/rubenstein/uarchives/history/faqs/carr/carr-documents#1930-excomm\">meeting minutes</a> contain this brief note about the matter: “The President brought up the question of naming buildings on the two campuses and submitted a tentative list of names. The Committee approved the list of names suggested.”</p><p>A <a href=\"https://library.duke.edu/rubenstein/uarchives/history/faqs/carr/carr-documents#few-list\">list of possible building names</a> submitted by President William P. Few to the Executive Committee can be found in Few’s records. It’s not clear if this is the final list or a draft version.</p><p>About a month after the Executive Committee meeting, President Few presented the names of the buildings to the rest of the campus community in a speech. The October 1930 <em>Alumni Register</em> (<em>Duke Magazine</em>’s predecessor) carried an <a href=\"https://archive.org/stream/alumniregisterof16duke#page/316\" target=\"_blank\">article about the buildings’ new names</a>.</p><h3>Do we know why President Few and the trustees chose to name a building for Carr?</h3><p>President Few’s records contain several documents bearing the text for commemorative tablets he hoped to install in each of the newly-named buildings. The tablets, which were never created, would offer the reasoning behind each building's name. The <a href=\"https://library.duke.edu/rubenstein/uarchives/history/faqs/carr/carr-documents#bldg-statement\">document for Carr Building</a> states that the building was named “in memory of Julian S. Carr, who gave the land on which these buildings stand.”</p><h3>Why do some people object to the Carr name on a Duke building?</h3><p>Carr made a number of public speeches and statements advocating white supremacy. Carr, a committed Democrat, ran for a senate seat in 1900. At that time in North Carolina, the Democratic party spoke out strongly against what they termed “negro domination.” In a <a href=\"https://repository.duke.edu/dc/broadsides/bdsnc071879\" target=\"_blank\">document declaring his candidacy</a>, he made reference to the 1898 defeat of the African American-supported Republican party in North Carolina: “In the recent election—the great uprising of Anglo-Saxon manhood, we achieved a notable victory.\" <a href=\"https://finding-aids.lib.unc.edu/00141/#folder_26#1\" target=\"_blank\">Speaking in June 1913</a> at the dedication of the “Silent Sam” confederate monument at UNC, Carr remarked that Confederate soldiers had “saved the very life of the Anglo Saxon race in the South.” He went on to proclaim that he had “horse-whipped a negro wench until her skirts hung in shreds” following the war because she had insulted a white woman. The Southern Historical Collection at UNC-Chapel HIll has <a href=\"https://finding-aids.lib.unc.edu/00141/\" target=\"_blank\">digitized many of Carr’s speeches</a>, which address a number of subjects.</p><h3>What else is named for Carr?</h3><p>As far as the University Archives is aware, there are no other places on Duke’s campus named for Carr. There is a Carr Building at the University of North Carolina at Chapel Hill, streets in Durham named for Carr, and, of course, the town of Carrboro is named for Carr. The Durham School of the Arts formerly had a Julian S. Carr building. In 2017 the name was removed by unanimous agreement of Durham School Board.</p><h3>Learn more about Julian S. Carr:</h3><h4>Secondary Sources:&nbsp;</h4><ul><ul><ul><ul><li>Anderson, Jean Bradley. <em>Durham County: A History of Durham County, North Carolina</em>. 2nd ed. Durham: Duke University Press, 2011.&nbsp;(<a href=\"https://search.library.duke.edu/search?Nty=1&amp;Ntk=Title|Author&amp;Ntt=durham%20county|anderson&amp;Nf=PubDateSort|BTWN+2010+2012&amp;N=0&amp;local-filter=TRUE&amp;affiliation=DUKE\">link to Duke Libraries catalog record</a>)</li><li>Chaffin, Nora Campbell. <em>Trinity College, 1839-1892: The Beginnings of Duke University</em>. Durham: Duke University Press, 1950. (<a href=\"https://search.library.duke.edu/search?id=DUKE000257684\">link to Duke Libraries catalog record</a>)</li><li>Porter, Earl W. <em>Trinity and Duke, 1892-1924: Foundations of Duke University</em>. Durham: Duke University Press, 1964. (<a href=\"https://search.library.duke.edu/search?id=DUKE000020042\">link to Duke Libraries catalog record</a>)</li><li>Powell, William S. ed. <em>Dictionary of North Carolina Biography</em>. Chapel Hill: University of North Carolina Press, 1979-1986. (<a href=\"https://search.library.duke.edu/search?id=DUKE000334945\">link to Duke Libraries catalog record</a>)</li><li>Webb, Mena. <em>Jule Carr: General without an Army</em>. Chapel Hill: University of North Carolina Press, 1987. (<a href=\"https://search.library.duke.edu/search?id=DUKE000677468\">link to Duke Libraries catalog record</a>)</li></ul></ul></ul></ul><h4>Primary Sources:</h4><ul><ul><ul><ul><ul><li>Carr, Julian S. \"Gen. J. S. Carr's letter to ex-Confederates. The old soldiers will not be disfranchised. Their rights are secure. Extravagence and corruption follow Negro rule.\" N.p., n.d. (<a href=\"https://search.library.duke.edu/search?id=DUKE002507303\" target=\"_blank\">link to Duke Libraries catalog record</a>)</li><li>Carr, Julian S. “The Problem of the Hour: Will the Colored Race Save Itself from Ruin?: An Address Delivered before the Trustees, Faculty and Students of the North Carolina College of Agriculture and the Mechanic Arts, at Greensboro, May, 1899.” Durham: Seeman Printery, 1899. (<a href=\"https://search.library.duke.edu/search?id=DUKE002432401\">link to Duke Libraries catalog record</a>)</li><li>Carr, Julian S. “Unveiling Bennett House Memorial, November 8th, 1923: Peace with Honor, Durham, N.C.” Durham: Seeman Printery, [1923?]. (<a href=\"https://search.library.duke.edu/search?id=DUKE000541890\">link to Duke Libraries catalog record</a>; <a href=\"https://archive.org/details/unveilingbennett00carr\" target=\"_blank\">link to digitized copy</a>)</li><li>Julian Shakespeare Carr Papers, 1880-1982, Rubenstein Library, Duke University (<a href=\"https://library.duke.edu/rubenstein/findingaids/uacarrjulian/\">link to collection guide</a>)</li><li>Julian Shakespeare Carr Papers, 1892-1923, Southern Historical Collection, UNC-Chapel Hill (<a href=\"https://finding-aids.lib.unc.edu/00141/\">link to collection guide</a>)<ul><li>The section of that collection containing texts from Julian Carr’s many public addresses has been digitized, including the speech given at the 1913 dedication of the “Silent Sam” monument.</li></ul></li><li>John Franklin Heitman Papers, 1863-1911, University Archives, Rubenstein Library, Duke University (<a href=\"https://library.duke.edu/rubenstein/findingaids/uaheitman/\">link to collection guide</a>)<ul><li>Contains correspondence with Carr, primarily related to Carr’s role on the Committee of Management in the 1880s.</li></ul></li><li>John W. Alspaugh Papers, 1875-1898, University Archives, Rubenstein Library, Duke University (<a href=\"https://library.duke.edu/rubenstein/findingaids/uaalspaugh/\">link to collection guide</a>)<ul><li>Contains correspondence with Carr, as both Alspaugh and Carr served on the Committee of Management in the 1880s.</li></ul></li><li>William Preston Few Records and Papers, 1814 - 1971 and undated (bulk 1911-1940), University Archives, Rubenstein Library, Duke University (<a href=\"https://library.duke.edu/rubenstein/findingaids/uapresfew/\">link to collection guide</a>)<ul><li>Few, President of Trinity College and then Duke University from 1910 to 1940, corresponded with Carr up until Carr’s death in 1924. Few’s correspondence records are voluminous; University Archives has a card file to assist in locating correspondence with Carr.</li></ul></li></ul></ul></ul></ul></ul><p style=\"padding-left: 30px;\"></p>"
   },
   "vid" : 13891,
   "path_alias" : {
      "status" : 0,
      "language" : "und",
      "alias" : "/uarchives/history/faqs/carr",
      "pid" : 857,
      "langcode" : "und"
   },
   "field_image" : null,
   "uuid" : "7dc8318c-d0ee-4949-951a-dbeb60164e27",
   "nid" : "719",
   "revisions" : [
      {
         "uid" : 13,
         "vuuid" : "09875300-4f6e-46c6-bdb8-3b49ec97f657",
         "log" : "",
         "title" : "Julian S. Carr and the Carr Building",
         "promote" : 0,
         "field_revision" : {
            "uid" : 1,
            "revision_translation_affected" : 1,
            "created" : null,
            "langcode" : null,
            "default_langcode" : 1,
            "status" : 1,
            "changed" : null,
            "sticky" : 0,
            "title" : "Julian S. Carr and the Carr Building"
         },
         "comment" : 1,
         "status" : 1,
         "node_revision__body" : {
            "bundle" : "page",
            "entity_id" : 719,
            "delta" : 0,
            "body_summary" : "",
            "body_value" : "<h3>Who was Julian Carr?</h3><p>Julian Shakespeare Carr (1845-1924) was a businessman who worked in a number of industries: tobacco, banking, mills, railroads, and utilities, among others. Born in Chapel Hill, he served as a private in the Confederate Army and briefly attended the University of North Carolina at Chapel Hill. Carr joined the W. T. Blackwell and Company in 1870, and soon held ownership. He spearheaded the Bull Durham brand and advertising campaign.</p><p>Carr’s relationship with Trinity began in 1880, when he financially assisted the struggling school. He served as a trustee from 1882 to 1895. During that period, the school faced serious financial problems, and Carr, along with James A. Gray and John W. Alspaugh, formed a Committee of Management to oversee the school from 1885 to 1887. Carr’s gift of $10,000 in stocks in 1887 was the largest gift ever received by the college at that time. In 1890, Carr <a href=\"https://library.duke.edu/rubenstein/uarchives/history/faqs/carr/carr-documents#1890-minutes\">offered 62 acres of land in Durham</a> as part of an offer, along with Washington Duke, to entice Trinity to move to the young city. That land is present day East Campus.</p><p>Carr was known for his philanthropy, and he supported numerous organizations and causes. He was a donor of a site for the Durham Public Library, the first publicly supported library in the state. In addition to his giving to Trinity, Carr also donated to the University of North Carolina (where he also served as a trustee), Davidson, Wake Forest, and many other colleges. He also donated funds to African-American institutions, such as the Training School for Colored People in Augusta, Georgia. Carr was also one of the financial sponsors of <a href=\"https://blogs.library.duke.edu/rubenstein/2014/05/22/charlie-soong-at-trinity-college/\" target=\"_blank\">Charlie Soong</a>, Trinity’s first international student, and stayed close with Soong and his family afterwards.</p><p>Although he only rose to the rank of private in the Civil War, Carr served as the commander of the United Confederate Veterans of North Carolina, and adopted and used the honorary title of General.</p><h3>When was Carr Building named for Julian Carr?</h3><p><img src=\"/rubenstein/sites/default/files/rubenstein/uarchives/carr-bldg-nd.jpg\" alt=\"Carr Building, undated\" title=\"Carr Building, undated\" width=\"500\" style=\"float: right;\" class=\"caption-right\"></p><p>The building itself was constructed in 1927 as part of the redesign and expansion of East Campus by Julian Abele and the Horace Trumbauer firm. For the first four years of its life, it was known as the Classroom Building; the other new buildings on East and West Campus also remained unnamed.</p><p>Just before the brand-new West Campus opened for the Fall 1930 semester, Carr Building, along with eleven of the other new buildings, was formally named during the September 12, 1930 Board of Trustees Executive Committee meeting. The Executive Committee’s <a href=\"https://library.duke.edu/rubenstein/uarchives/history/faqs/carr/carr-documents#1930-excomm\">meeting minutes</a> contain this brief note about the matter: “The President brought up the question of naming buildings on the two campuses and submitted a tentative list of names. The Committee approved the list of names suggested.”</p><p>A <a href=\"https://library.duke.edu/rubenstein/uarchives/history/faqs/carr/carr-documents#few-list\">list of possible building names</a> submitted by President William P. Few to the Executive Committee can be found in Few’s records. It’s not clear if this is the final list or a draft version.</p><p>About a month after the Executive Committee meeting, President Few presented the names of the buildings to the rest of the campus community in a speech. The October 1930 <em>Alumni Register</em> (<em>Duke Magazine</em>’s predecessor) carried an <a href=\"https://archive.org/stream/alumniregisterof16duke#page/316\" target=\"_blank\">article about the buildings’ new names</a>.</p><h3>Do we know why President Few and the trustees chose to name a building for Carr?</h3><p>President Few’s records contain several documents bearing the text for commemorative tablets he hoped to install in each of the newly-named buildings. The tablets, which were never created, would offer the reasoning behind each building's name. The <a href=\"https://library.duke.edu/rubenstein/uarchives/history/faqs/carr/carr-documents#bldg-statement\">document for Carr Building</a> states that the building was named “in memory of Julian S. Carr, who gave the land on which these buildings stand.”</p><h3>Why do some people object to the Carr name on a Duke building?</h3><p>Carr made a number of public speeches and statements advocating white supremacy. Carr, a committed Democrat, ran for a senate seat in 1900. At that time in North Carolina, the Democratic party spoke out strongly against what they termed “negro domination.” In a <a href=\"https://repository.duke.edu/dc/broadsides/bdsnc071879\" target=\"_blank\">document declaring his candidacy</a>, he made reference to the 1898 defeat of the African American-supported Republican party in North Carolina: “In the recent election—the great uprising of Anglo-Saxon manhood, we achieved a notable victory.\" <a href=\"https://finding-aids.lib.unc.edu/00141/#folder_26#1\" target=\"_blank\">Speaking in June 1913</a> at the dedication of the “Silent Sam” confederate monument at UNC, Carr remarked that Confederate soldiers had “saved the very life of the Anglo Saxon race in the South.” He went on to proclaim that he had “horse-whipped a negro wench until her skirts hung in shreds” following the war because she had insulted a white woman. The Southern Historical Collection at UNC-Chapel HIll has <a href=\"https://finding-aids.lib.unc.edu/00141/\" target=\"_blank\">digitized many of Carr’s speeches</a>, which address a number of subjects.</p><h3>What else is named for Carr?</h3><p>As far as the University Archives is aware, there are no other places on Duke’s campus named for Carr. There is a Carr Building at the University of North Carolina at Chapel Hill, streets in Durham named for Carr, and, of course, the town of Carrboro is named for Carr. The Durham School of the Arts formerly had a Julian S. Carr building. In 2017 the name was removed by unanimous agreement of Durham School Board.</p><h3>Learn more about Julian S. Carr:</h3><h4>Secondary Sources:&nbsp;</h4><ul><ul><ul><ul><li>Anderson, Jean Bradley. <em>Durham County: A History of Durham County, North Carolina</em>. 2nd ed. Durham: Duke University Press, 2011.&nbsp;(<a href=\"https://search.library.duke.edu/search?Nty=1&amp;Ntk=Title|Author&amp;Ntt=durham%20county|anderson&amp;Nf=PubDateSort|BTWN+2010+2012&amp;N=0&amp;local-filter=TRUE&amp;affiliation=DUKE\">link to Duke Libraries catalog record</a>)</li><li>Chaffin, Nora Campbell. <em>Trinity College, 1839-1892: The Beginnings of Duke University</em>. Durham: Duke University Press, 1950. (<a href=\"https://search.library.duke.edu/search?id=DUKE000257684\">link to Duke Libraries catalog record</a>)</li><li>Porter, Earl W. <em>Trinity and Duke, 1892-1924: Foundations of Duke University</em>. Durham: Duke University Press, 1964. (<a href=\"https://search.library.duke.edu/search?id=DUKE000020042\">link to Duke Libraries catalog record</a>)</li><li>Powell, William S. ed. <em>Dictionary of North Carolina Biography</em>. Chapel Hill: University of North Carolina Press, 1979-1986. (<a href=\"https://search.library.duke.edu/search?id=DUKE000334945\">link to Duke Libraries catalog record</a>)</li><li>Webb, Mena. <em>Jule Carr: General without an Army</em>. Chapel Hill: University of North Carolina Press, 1987. (<a href=\"https://search.library.duke.edu/search?id=DUKE000677468\">link to Duke Libraries catalog record</a>)</li></ul></ul></ul></ul><h4>Primary Sources:</h4><ul><ul><ul><ul><ul><li>Carr, Julian S. \"Gen. J. S. Carr's letter to ex-Confederates. The old soldiers will not be disfranchised. Their rights are secure. Extravagence and corruption follow Negro rule.\" N.p., n.d. (<a href=\"https://search.library.duke.edu/search?id=DUKE002507303\" target=\"_blank\">link to Duke Libraries catalog record</a>)</li><li>Carr, Julian S. “The Problem of the Hour: Will the Colored Race Save Itself from Ruin?: An Address Delivered before the Trustees, Faculty and Students of the North Carolina College of Agriculture and the Mechanic Arts, at Greensboro, May, 1899.” Durham: Seeman Printery, 1899. (<a href=\"https://search.library.duke.edu/search?id=DUKE002432401\">link to Duke Libraries catalog record</a>)</li><li>Carr, Julian S. “Unveiling Bennett House Memorial, November 8th, 1923: Peace with Honor, Durham, N.C.” Durham: Seeman Printery, [1923?]. (<a href=\"https://search.library.duke.edu/search?id=DUKE000541890\">link to Duke Libraries catalog record</a>; <a href=\"https://archive.org/details/unveilingbennett00carr\" target=\"_blank\">link to digitized copy</a>)</li><li>Julian Shakespeare Carr Papers, 1880-1982, Rubenstein Library, Duke University (<a href=\"https://library.duke.edu/rubenstein/findingaids/uacarrjulian/\">link to collection guide</a>)</li><li>Julian Shakespeare Carr Papers, 1892-1923, Southern Historical Collection, UNC-Chapel Hill (<a href=\"https://finding-aids.lib.unc.edu/00141/\">link to collection guide</a>)<ul><li>The section of that collection containing texts from Julian Carr’s many public addresses has been digitized, including the speech given at the 1913 dedication of the “Silent Sam” monument.</li></ul></li><li>John Franklin Heitman Papers, 1863-1911, University Archives, Rubenstein Library, Duke University (<a href=\"https://library.duke.edu/rubenstein/findingaids/uaheitman/\">link to collection guide</a>)<ul><li>Contains correspondence with Carr, primarily related to Carr’s role on the Committee of Management in the 1880s.</li></ul></li><li>John W. Alspaugh Papers, 1875-1898, University Archives, Rubenstein Library, Duke University (<a href=\"https://library.duke.edu/rubenstein/findingaids/uaalspaugh/\">link to collection guide</a>)<ul><li>Contains correspondence with Carr, as both Alspaugh and Carr served on the Committee of Management in the 1880s.</li></ul></li><li>William Preston Few Records and Papers, 1814 - 1971 and undated (bulk 1911-1940), University Archives, Rubenstein Library, Duke University (<a href=\"https://library.duke.edu/rubenstein/findingaids/uapresfew/\">link to collection guide</a>)<ul><li>Few, President of Trinity College and then Duke University from 1910 to 1940, corresponded with Carr up until Carr’s death in 1924. Few’s correspondence records are voluminous; University Archives has a card file to assist in locating correspondence with Carr.</li></ul></li></ul></ul></ul></ul></ul><p style=\"padding-left: 30px;\"></p>",
            "deleted" : 0,
            "body_format" : "full_html",
            "revision_id" : 13891,
            "langcode" : "und"
         },
         "node_revision__field_tags" : [],
         "sticky" : 0,
         "timestamp" : 1543415710
      }
   ],
   "node_field_data" : {
      "promote" : 0,
      "title" : "Julian S. Carr and the Carr Building",
      "default_langcode" : 1,
      "langcode" : "und",
      "revision_translation_affected" : 1,
      "created" : 1535724031,
      "uid" : 1,
      "sticky" : 0,
      "status" : 1,
      "type" : "page",
      "changed" : null
   },
   "asidebox" : {
      "block_delta" : null,
      "body_value" : null,
      "status" : "disabled",
      "block_module" : null,
      "vid" : 13891,
      "body_format" : null,
      "nid" : 719,
      "body_title" : "",
      "bid" : null
   }
}

