{
   "field_image" : null,
   "path_alias" : {
      "langcode" : "und",
      "pid" : 959,
      "alias" : "/content/alumni-magazines",
      "language" : "und",
      "status" : 0
   },
   "vid" : 17026,
   "uuid" : "7efbafcd-51a9-4a70-a288-75a7458bedd7",
   "revisions" : [
      {
         "node_revision__field_tags" : [],
         "node_revision__body" : {
            "body_value" : "<h3>Trinity Alumni Register / Duke Alumni Register</h3><table border=\"0\"><tbody><tr><td></td><td><a href=\"https://archive.org/details/trinityalumnireg06trin\">1920 (Vol. 6)</a></td><td><a href=\"https://archive.org/details/alumniregisterof16duke/page/n7/mode/2up\">1930 (Vol. 16)</a></td><td><a href=\"https://archive.org/details/dukealumniregist26duke/page/n5/mode/2up\">1940 (Vol. 26)</a></td><td><a href=\"https://archive.org/details/dukealumniregist361950/page/n3/mode/2up\">1950 (Vol. 36)</a></td><td><a href=\"https://archive.org/details/dukealumniregist461960/page/n5/mode/2up\">1960 (Vol. 46)</a></td><td><a href=\"https://archive.org/details/dukealumniregist56577071/page/n3/mode/2up\">1970 (Vol. 56)</a></td><td></td></tr><tr><td></td><td><a href=\"https://archive.org/details/trinityalumnireg07trin\">1921 (Vol. 7)</a></td><td><a href=\"https://archive.org/details/alumniregisterof17duke/page/n3/mode/2up\">1931 (Vol. 17)</a></td><td><a href=\"https://archive.org/details/dukealumniregist27duke/page/n5/mode/2up\">1941 (Vol. 27)</a></td><td><a href=\"https://archive.org/details/dukealumniregist371951/page/n3/mode/2up\">1951 (Vol. 37)</a></td><td><a href=\"https://archive.org/details/dukealumniregist471961/page/n3/mode/2up\">1961 (Vol. 47)</a></td><td><a href=\"https://archive.org/details/dukealumniregist56577071/page/n251/mode/2up\">1971 (Vol. 57)</a></td><td><a href=\"https://archive.org/details/dukealumniregist00durh/page/n7/mode/2up\">1980-1981 (Vol. 67)</a></td></tr><tr><td></td><td><a href=\"https://archive.org/details/trinityalumnireg08trin\">1922 (Vol. 8)</a></td><td><a href=\"https://archive.org/details/alumniregisterof18duke/page/n3/mode/2up\">1932 (Vol. 18)</a></td><td><a href=\"https://archive.org/details/dukealumniregist28duke\">1942 (Vol. 28)</a></td><td><a href=\"https://archive.org/details/dukealumniregist381952/page/n5/mode/2up\">1952 (Vol. 38)</a></td><td></td><td><a href=\"https://archive.org/details/dukealumniregist58597273/page/n5/mode/2up\">1972 (Vol. 58)</a></td><td><a href=\"https://archive.org/details/dukealumniregist00durh/page/n151/mode/2up\">1981-1982 (Vol. 68)</a><a href=\"https://archive.org/details/dukealumniregist58597273/page/n5/mode/2up\"></a></td></tr><tr><td></td><td><a href=\"https://archive.org/details/trinityalumnireg09trin\">1923 (Vol. 9)</a></td><td><a href=\"https://archive.org/details/alumniregisterof19duke/page/n3/mode/2up\">1933 (Vol. 19)</a></td><td><a href=\"https://archive.org/details/dukealumniregist29duke/page/n5/mode/2up\">1943 (Vol. 29)</a></td><td><a href=\"https://archive.org/details/dukealumniregist391953/page/n5/mode/2up\">1953 (Vol. 39)</a></td><td><a href=\"https://archive.org/details/dukealumniregist491963/page/n5/mode/2up\">1963 (Vol. 49)</a></td><td><a href=\"https://archive.org/details/dukealumniregist58597273/page/n129/mode/2up\">1973 (Vol. 59)</a>&nbsp;3 issues</td><td><a href=\"https://archive.org/details/dukealumniregist00durh/page/n283/mode/2up\">1982-1983 (Vol. 69)</a><a href=\"https://archive.org/details/dukealumniregist58597273/page/n129/mode/2up\"></a></td></tr><tr><td></td><td><a href=\"https://archive.org/details/trinityalumnireg10trin/page/n5/mode/2up\">1924 (Vol. 10)</a></td><td><a href=\"https://archive.org/details/alumniregisterof20duke/page/n3/mode/2up\">1934 (Vol. 20)</a></td><td><a href=\"https://archive.org/details/dukealumniregist30duke/page/n5/mode/2up\">1944 (Vol. 30)</a></td><td><a href=\"https://archive.org/details/dukealumniregist401954/page/n3/mode/2up\">1954 (Vol. 40)</a></td><td><a href=\"https://archive.org/details/dukealumniregist501964/page/n7/mode/2up\">1964 (Vol. 50)</a></td><td><a href=\"https://archive.org/details/dukealumniregist60617475/page/n5/mode/2up\">1974 (Vol. 60)</a></td><td><a href=\"https://archive.org/details/dukealumniregist60617475/page/n5/mode/2up\"></a></td></tr><tr><td><a href=\"https://archive.org/details/trinityalumnireg01trin\">1915 (Vol. 1)</a></td><td><a href=\"https://archive.org/details/alumniregisterof11duke/page/n5/mode/2up\">1925 (Vol. 11)</a></td><td><a href=\"https://archive.org/details/alumniregisterof21duke/page/n3/mode/2up\">1935 (Vol. 21)</a></td><td><a href=\"https://archive.org/details/dukealumnireg31duke/page/n3/mode/2up\">1945 (Vol. 31)</a></td><td><a href=\"https://archive.org/details/dukealumniregist411955/page/n3/mode/2up\">1955 (Vol. 41)</a></td><td><a href=\"https://archive.org/details/dukealumniregist511965/page/n7/mode/2up\">1965 (Vol. 51)</a></td><td><p><a href=\"https://archive.org/details/dukealumniregist60617475/page/n185/mode/2up\">1975 (Vol. 61)</a>&nbsp;</p><p>only May</p></td><td><p></p></td></tr><tr><td><a href=\"https://archive.org/details/trinityalumnireg02trin\">1916 (Vol. 2)</a></td><td><a href=\"https://archive.org/details/alumniregisterof12duke/page/n5/mode/2up\">1926 (Vol. 12)</a></td><td><a href=\"https://archive.org/details/dukeuniversityal00duke/page/n3/mode/2up\">1936 (Vol. 22)</a></td><td><a href=\"https://archive.org/details/dukealumniregist32duke/page/n3/mode/2up\">1946 (Vol. 32)</a></td><td><a href=\"https://archive.org/details/dukealumniregist421956/page/n5/mode/2up\">1956 (Vol. 42)</a></td><td><a href=\"https://archive.org/details/dukealumniregist521966/page/n7/mode/2up\">1966 (Vol. 52)</a></td><td></td><td></td></tr><tr><td><a href=\"https://archive.org/details/trinityalumnireg03trin\">1917 (Vol. 3)</a></td><td><a href=\"https://archive.org/details/alumniregisterof13duke/page/n5/mode/2up\">1927 (Vol. 13)</a></td><td><a href=\"https://archive.org/details/dukeuniversityal01duke/page/n3/mode/2up\">1937 (Vol. 23)</a></td><td><a href=\"https://archive.org/details/dukealumniregist33duke/page/n3/mode/2up\">1947 (Vol. 33)</a></td><td><a href=\"https://archive.org/details/dukealumniregist431957/page/n5/mode/2up\">1957 (Vol. 43)</a></td><td><a href=\"https://archive.org/details/dukealumniregist531967/page/n7/mode/2up\">1967 (Vol. 53)</a></td><td></td><td></td></tr><tr><td><a href=\"https://archive.org/details/trinityalumnireg04trin\">1918 (Vol. 4)</a></td><td><a href=\"https://archive.org/details/alumniregisterof14duke/page/n7/mode/2up\">1928 (Vol. 14)</a></td><td><a href=\"https://archive.org/details/dukeuniversityal02duke/page/n3/mode/2up\">1938 (Vol. 24)</a></td><td><a href=\"https://archive.org/details/dukealumniregist34duke\">1948 (Vol. 34)</a></td><td><a href=\"https://archive.org/details/dukealumniregist441958/page/n5/mode/2up\">1958 (Vol. 44)</a></td><td><a href=\"https://archive.org/details/dukealumniregist541968/page/n7/mode/2up\">1968 (Vol. 54)</a></td><td></td><td></td></tr><tr><td><a href=\"https://archive.org/details/trinityalumnireg05trin\">1919 (Vol. 5)</a></td><td><a href=\"https://archive.org/details/alumniregisterof15duke/page/n3/mode/2up\">1929 (Vol. 15)</a></td><td><a href=\"https://archive.org/details/dukeuniversityal03duke/page/n5/mode/2up\">1939 (Vol. 25)</a></td><td><a href=\"https://archive.org/details/dukealumniregist35duke\">1949 (Vol. 35)</a></td><td><a href=\"https://archive.org/details/dukealumniregist451959\">1959 (Vol. 45)</a></td><td><a href=\"https://archive.org/details/dukealumniregist551969\">1969 (Vol. 55)</a></td><td></td><td></td></tr></tbody></table><h3>Duke Magazine</h3><table border=\"0\"><tbody><tr><td></td><td><a href=\"https://archive.org/details/dukemagfora76198990779091/page/n5/mode/2up\">1989-1990 (Vol. 76)</a></td><td><a href=\"https://archive.org/details/dukemagseri86992000/page/n5/mode/2up\">1999-2000 (Vol. 86)</a></td></tr><tr><td></td><td><a href=\"https://archive.org/details/dukemagfora76198990779091/page/n349/mode/2up\">1990-1991 (Vol. 77)</a></td><td><a href=\"https://archive.org/details/dukemagseri87200001/page/n5/mode/2up\">2000-2001 (Vol. 87)</a></td></tr><tr><td></td><td><a href=\"https://archive.org/details/dukemagseri78199192791993/page/n3/mode/2up\">1991-1992 (Vol. 78)</a></td><td><a href=\"https://archive.org/details/dukemagseri88200102/page/n5/mode/2up\">2001-2002 (Vol. 88)</a></td></tr><tr><td></td><td><a href=\"https://archive.org/details/dukemagseri78199192791993/page/n345/mode/2up\">1992-1993 (Vol. 79)</a></td><td></td></tr><tr><td><a href=\"https://archive.org/details/dukemagfora7084718485/page/n7/mode/2up\">May/June-July/August&nbsp;1984 (Vol. 70)</a></td><td><a href=\"https://archive.org/details/dukemagseri80199394819495/page/n5/mode/2up\">1993-1994 (Vol. 80)</a></td><td></td></tr><tr><td><a href=\"https://archive.org/details/dukemagfora7084718485/page/n112/mode/2up\">Sept./Oct. 1984-1985 (Vol. 71)</a></td><td><a href=\"https://archive.org/details/dukemagseri80199394819495/page/n341/mode/2up\">1994-1995 (Vol. 81)</a></td><td></td></tr><tr><td><a href=\"https://archive.org/details/dukemagfora72198586738687/page/n5/mode/2up\">1985-1986 (Vol. 72)</a></td><td><a href=\"https://archive.org/details/dukemagseri82199596839697/page/n5/mode/2up\">1995-1996 (Vol. 82)</a></td><td></td></tr><tr><td><a href=\"https://archive.org/details/dukemagfora72198586738687/page/n293/mode/2up\">1986-1987 (Vol. 73)</a></td><td><a href=\"https://archive.org/details/dukemagseri82199596839697/page/n349/mode/2up\">1996-1997 (Vol. 83)</a></td><td><a href=\"https://archive.org/details/dukemagseri9322007/mode/2up\">2007 (Vol. 93)</a> (no. 1 not included)</td></tr><tr><td><a href=\"https://archive.org/details/dukemagfora74198788758889/page/n5/mode/2up\">1987-1988 (Vol. 74)</a></td><td><a href=\"https://archive.org/details/dukemagseri84199798859899/page/n3/mode/2up\">1997-1998 (Vol. 84)</a></td><td><a href=\"https://archive.org/details/dukemagseri9322007/page/n413/mode/2up\">2008 (Vol. 94)</a></td></tr><tr><td><a href=\"https://archive.org/details/dukemagfora74198788758889/page/n297/mode/2up\">1988-1989 (Vol. 75)</a></td><td><a href=\"https://archive.org/details/dukemagseri84199798859899/page/n373/mode/2up\">1998-1999 (Vol. 85)</a></td><td><a href=\"https://archive.org/details/dukemagseri9322007/page/n917/mode/2up\">2009 (Vol. 95)</a></td></tr></tbody></table>",
            "revision_id" : 17026,
            "langcode" : "und",
            "body_format" : "full_html",
            "deleted" : 0,
            "bundle" : "page",
            "entity_id" : 806,
            "body_summary" : "",
            "delta" : 0
         },
         "sticky" : 0,
         "status" : 0,
         "comment" : 1,
         "timestamp" : 1619637401,
         "log" : "",
         "vuuid" : "f1a774c0-71a3-45d7-a4b6-04205fc2682d",
         "uid" : 13,
         "field_revision" : {
            "title" : "Alumni Magazines",
            "created" : null,
            "revision_translation_affected" : 1,
            "uid" : 1,
            "default_langcode" : 1,
            "langcode" : null,
            "changed" : null,
            "status" : 0,
            "sticky" : 0
         },
         "promote" : 0,
         "title" : "Alumni Magazines"
      }
   ],
   "nid" : "806",
   "asidebox" : null,
   "node_field_data" : {
      "default_langcode" : 1,
      "langcode" : "und",
      "revision_translation_affected" : 1,
      "created" : 1611698372,
      "uid" : 1,
      "sticky" : 0,
      "type" : "page",
      "changed" : null,
      "status" : 0,
      "promote" : 0,
      "title" : "Alumni Magazines"
   },
   "node_access" : null,
   "field_tags" : [],
   "type" : "page",
   "langcode" : "und",
   "node__body" : {
      "body_summary" : "",
      "delta" : 0,
      "bundle" : "page",
      "entity_id" : 806,
      "revision_id" : 17026,
      "langcode" : "und",
      "body_format" : "full_html",
      "deleted" : 0,
      "body_value" : "<h3>Trinity Alumni Register / Duke Alumni Register</h3><table border=\"0\"><tbody><tr><td></td><td><a href=\"https://archive.org/details/trinityalumnireg06trin\">1920 (Vol. 6)</a></td><td><a href=\"https://archive.org/details/alumniregisterof16duke/page/n7/mode/2up\">1930 (Vol. 16)</a></td><td><a href=\"https://archive.org/details/dukealumniregist26duke/page/n5/mode/2up\">1940 (Vol. 26)</a></td><td><a href=\"https://archive.org/details/dukealumniregist361950/page/n3/mode/2up\">1950 (Vol. 36)</a></td><td><a href=\"https://archive.org/details/dukealumniregist461960/page/n5/mode/2up\">1960 (Vol. 46)</a></td><td><a href=\"https://archive.org/details/dukealumniregist56577071/page/n3/mode/2up\">1970 (Vol. 56)</a></td><td></td></tr><tr><td></td><td><a href=\"https://archive.org/details/trinityalumnireg07trin\">1921 (Vol. 7)</a></td><td><a href=\"https://archive.org/details/alumniregisterof17duke/page/n3/mode/2up\">1931 (Vol. 17)</a></td><td><a href=\"https://archive.org/details/dukealumniregist27duke/page/n5/mode/2up\">1941 (Vol. 27)</a></td><td><a href=\"https://archive.org/details/dukealumniregist371951/page/n3/mode/2up\">1951 (Vol. 37)</a></td><td><a href=\"https://archive.org/details/dukealumniregist471961/page/n3/mode/2up\">1961 (Vol. 47)</a></td><td><a href=\"https://archive.org/details/dukealumniregist56577071/page/n251/mode/2up\">1971 (Vol. 57)</a></td><td><a href=\"https://archive.org/details/dukealumniregist00durh/page/n7/mode/2up\">1980-1981 (Vol. 67)</a></td></tr><tr><td></td><td><a href=\"https://archive.org/details/trinityalumnireg08trin\">1922 (Vol. 8)</a></td><td><a href=\"https://archive.org/details/alumniregisterof18duke/page/n3/mode/2up\">1932 (Vol. 18)</a></td><td><a href=\"https://archive.org/details/dukealumniregist28duke\">1942 (Vol. 28)</a></td><td><a href=\"https://archive.org/details/dukealumniregist381952/page/n5/mode/2up\">1952 (Vol. 38)</a></td><td></td><td><a href=\"https://archive.org/details/dukealumniregist58597273/page/n5/mode/2up\">1972 (Vol. 58)</a></td><td><a href=\"https://archive.org/details/dukealumniregist00durh/page/n151/mode/2up\">1981-1982 (Vol. 68)</a><a href=\"https://archive.org/details/dukealumniregist58597273/page/n5/mode/2up\"></a></td></tr><tr><td></td><td><a href=\"https://archive.org/details/trinityalumnireg09trin\">1923 (Vol. 9)</a></td><td><a href=\"https://archive.org/details/alumniregisterof19duke/page/n3/mode/2up\">1933 (Vol. 19)</a></td><td><a href=\"https://archive.org/details/dukealumniregist29duke/page/n5/mode/2up\">1943 (Vol. 29)</a></td><td><a href=\"https://archive.org/details/dukealumniregist391953/page/n5/mode/2up\">1953 (Vol. 39)</a></td><td><a href=\"https://archive.org/details/dukealumniregist491963/page/n5/mode/2up\">1963 (Vol. 49)</a></td><td><a href=\"https://archive.org/details/dukealumniregist58597273/page/n129/mode/2up\">1973 (Vol. 59)</a>&nbsp;3 issues</td><td><a href=\"https://archive.org/details/dukealumniregist00durh/page/n283/mode/2up\">1982-1983 (Vol. 69)</a><a href=\"https://archive.org/details/dukealumniregist58597273/page/n129/mode/2up\"></a></td></tr><tr><td></td><td><a href=\"https://archive.org/details/trinityalumnireg10trin/page/n5/mode/2up\">1924 (Vol. 10)</a></td><td><a href=\"https://archive.org/details/alumniregisterof20duke/page/n3/mode/2up\">1934 (Vol. 20)</a></td><td><a href=\"https://archive.org/details/dukealumniregist30duke/page/n5/mode/2up\">1944 (Vol. 30)</a></td><td><a href=\"https://archive.org/details/dukealumniregist401954/page/n3/mode/2up\">1954 (Vol. 40)</a></td><td><a href=\"https://archive.org/details/dukealumniregist501964/page/n7/mode/2up\">1964 (Vol. 50)</a></td><td><a href=\"https://archive.org/details/dukealumniregist60617475/page/n5/mode/2up\">1974 (Vol. 60)</a></td><td><a href=\"https://archive.org/details/dukealumniregist60617475/page/n5/mode/2up\"></a></td></tr><tr><td><a href=\"https://archive.org/details/trinityalumnireg01trin\">1915 (Vol. 1)</a></td><td><a href=\"https://archive.org/details/alumniregisterof11duke/page/n5/mode/2up\">1925 (Vol. 11)</a></td><td><a href=\"https://archive.org/details/alumniregisterof21duke/page/n3/mode/2up\">1935 (Vol. 21)</a></td><td><a href=\"https://archive.org/details/dukealumnireg31duke/page/n3/mode/2up\">1945 (Vol. 31)</a></td><td><a href=\"https://archive.org/details/dukealumniregist411955/page/n3/mode/2up\">1955 (Vol. 41)</a></td><td><a href=\"https://archive.org/details/dukealumniregist511965/page/n7/mode/2up\">1965 (Vol. 51)</a></td><td><p><a href=\"https://archive.org/details/dukealumniregist60617475/page/n185/mode/2up\">1975 (Vol. 61)</a>&nbsp;</p><p>only May</p></td><td><p></p></td></tr><tr><td><a href=\"https://archive.org/details/trinityalumnireg02trin\">1916 (Vol. 2)</a></td><td><a href=\"https://archive.org/details/alumniregisterof12duke/page/n5/mode/2up\">1926 (Vol. 12)</a></td><td><a href=\"https://archive.org/details/dukeuniversityal00duke/page/n3/mode/2up\">1936 (Vol. 22)</a></td><td><a href=\"https://archive.org/details/dukealumniregist32duke/page/n3/mode/2up\">1946 (Vol. 32)</a></td><td><a href=\"https://archive.org/details/dukealumniregist421956/page/n5/mode/2up\">1956 (Vol. 42)</a></td><td><a href=\"https://archive.org/details/dukealumniregist521966/page/n7/mode/2up\">1966 (Vol. 52)</a></td><td></td><td></td></tr><tr><td><a href=\"https://archive.org/details/trinityalumnireg03trin\">1917 (Vol. 3)</a></td><td><a href=\"https://archive.org/details/alumniregisterof13duke/page/n5/mode/2up\">1927 (Vol. 13)</a></td><td><a href=\"https://archive.org/details/dukeuniversityal01duke/page/n3/mode/2up\">1937 (Vol. 23)</a></td><td><a href=\"https://archive.org/details/dukealumniregist33duke/page/n3/mode/2up\">1947 (Vol. 33)</a></td><td><a href=\"https://archive.org/details/dukealumniregist431957/page/n5/mode/2up\">1957 (Vol. 43)</a></td><td><a href=\"https://archive.org/details/dukealumniregist531967/page/n7/mode/2up\">1967 (Vol. 53)</a></td><td></td><td></td></tr><tr><td><a href=\"https://archive.org/details/trinityalumnireg04trin\">1918 (Vol. 4)</a></td><td><a href=\"https://archive.org/details/alumniregisterof14duke/page/n7/mode/2up\">1928 (Vol. 14)</a></td><td><a href=\"https://archive.org/details/dukeuniversityal02duke/page/n3/mode/2up\">1938 (Vol. 24)</a></td><td><a href=\"https://archive.org/details/dukealumniregist34duke\">1948 (Vol. 34)</a></td><td><a href=\"https://archive.org/details/dukealumniregist441958/page/n5/mode/2up\">1958 (Vol. 44)</a></td><td><a href=\"https://archive.org/details/dukealumniregist541968/page/n7/mode/2up\">1968 (Vol. 54)</a></td><td></td><td></td></tr><tr><td><a href=\"https://archive.org/details/trinityalumnireg05trin\">1919 (Vol. 5)</a></td><td><a href=\"https://archive.org/details/alumniregisterof15duke/page/n3/mode/2up\">1929 (Vol. 15)</a></td><td><a href=\"https://archive.org/details/dukeuniversityal03duke/page/n5/mode/2up\">1939 (Vol. 25)</a></td><td><a href=\"https://archive.org/details/dukealumniregist35duke\">1949 (Vol. 35)</a></td><td><a href=\"https://archive.org/details/dukealumniregist451959\">1959 (Vol. 45)</a></td><td><a href=\"https://archive.org/details/dukealumniregist551969\">1969 (Vol. 55)</a></td><td></td><td></td></tr></tbody></table><h3>Duke Magazine</h3><table border=\"0\"><tbody><tr><td></td><td><a href=\"https://archive.org/details/dukemagfora76198990779091/page/n5/mode/2up\">1989-1990 (Vol. 76)</a></td><td><a href=\"https://archive.org/details/dukemagseri86992000/page/n5/mode/2up\">1999-2000 (Vol. 86)</a></td></tr><tr><td></td><td><a href=\"https://archive.org/details/dukemagfora76198990779091/page/n349/mode/2up\">1990-1991 (Vol. 77)</a></td><td><a href=\"https://archive.org/details/dukemagseri87200001/page/n5/mode/2up\">2000-2001 (Vol. 87)</a></td></tr><tr><td></td><td><a href=\"https://archive.org/details/dukemagseri78199192791993/page/n3/mode/2up\">1991-1992 (Vol. 78)</a></td><td><a href=\"https://archive.org/details/dukemagseri88200102/page/n5/mode/2up\">2001-2002 (Vol. 88)</a></td></tr><tr><td></td><td><a href=\"https://archive.org/details/dukemagseri78199192791993/page/n345/mode/2up\">1992-1993 (Vol. 79)</a></td><td></td></tr><tr><td><a href=\"https://archive.org/details/dukemagfora7084718485/page/n7/mode/2up\">May/June-July/August&nbsp;1984 (Vol. 70)</a></td><td><a href=\"https://archive.org/details/dukemagseri80199394819495/page/n5/mode/2up\">1993-1994 (Vol. 80)</a></td><td></td></tr><tr><td><a href=\"https://archive.org/details/dukemagfora7084718485/page/n112/mode/2up\">Sept./Oct. 1984-1985 (Vol. 71)</a></td><td><a href=\"https://archive.org/details/dukemagseri80199394819495/page/n341/mode/2up\">1994-1995 (Vol. 81)</a></td><td></td></tr><tr><td><a href=\"https://archive.org/details/dukemagfora72198586738687/page/n5/mode/2up\">1985-1986 (Vol. 72)</a></td><td><a href=\"https://archive.org/details/dukemagseri82199596839697/page/n5/mode/2up\">1995-1996 (Vol. 82)</a></td><td></td></tr><tr><td><a href=\"https://archive.org/details/dukemagfora72198586738687/page/n293/mode/2up\">1986-1987 (Vol. 73)</a></td><td><a href=\"https://archive.org/details/dukemagseri82199596839697/page/n349/mode/2up\">1996-1997 (Vol. 83)</a></td><td><a href=\"https://archive.org/details/dukemagseri9322007/mode/2up\">2007 (Vol. 93)</a> (no. 1 not included)</td></tr><tr><td><a href=\"https://archive.org/details/dukemagfora74198788758889/page/n5/mode/2up\">1987-1988 (Vol. 74)</a></td><td><a href=\"https://archive.org/details/dukemagseri84199798859899/page/n3/mode/2up\">1997-1998 (Vol. 84)</a></td><td><a href=\"https://archive.org/details/dukemagseri9322007/page/n413/mode/2up\">2008 (Vol. 94)</a></td></tr><tr><td><a href=\"https://archive.org/details/dukemagfora74198788758889/page/n297/mode/2up\">1988-1989 (Vol. 75)</a></td><td><a href=\"https://archive.org/details/dukemagseri84199798859899/page/n373/mode/2up\">1998-1999 (Vol. 85)</a></td><td><a href=\"https://archive.org/details/dukemagseri9322007/page/n917/mode/2up\">2009 (Vol. 95)</a></td></tr></tbody></table>"
   }
}

