{
   "node__body" : {
      "body_value" : "<h2>A few reminders as you wait for an answer:</h2><ul><li>We've sent your question to a member of our research services staff. They answer questions in the order they receive them. You can expect to hear from one of our librarians within two weeks.&nbsp;</li><li>If you are planning to visit, we encourage you to <a href=\"/rubenstein/research/register\">register as a researcher</a> and place <a href=\"/rubenstein/research/requesting-material\">request for materials you want to use</a>. Most of our collections are stored at our off-site storage facility, so you will need to make your requests 2 full business days before you visit.</li><li>If you need immediate assistance, please give us a call at&nbsp;<a href=\"tel:9196605822\">(919) 660-5822</a>.</li></ul>",
      "body_format" : "full_html",
      "deleted" : 0,
      "revision_id" : 15679,
      "langcode" : "und",
      "bundle" : "page",
      "entity_id" : 115,
      "delta" : 0,
      "body_summary" : ""
   },
   "langcode" : "und",
   "field_tags" : [],
   "type" : "page",
   "node_access" : null,
   "uuid" : "8736cfd3-eeb3-4a15-b2c4-65006059b61a",
   "path_alias" : {
      "alias" : "/ask/thanks",
      "pid" : 178,
      "langcode" : "und",
      "status" : 0,
      "language" : "und"
   },
   "field_image" : null,
   "vid" : 15679,
   "asidebox" : {
      "body_format" : null,
      "block_module" : null,
      "vid" : 15679,
      "body_value" : null,
      "status" : "disabled",
      "block_delta" : null,
      "body_title" : "",
      "bid" : null,
      "nid" : 115
   },
   "node_field_data" : {
      "title" : "Thanks for your question!",
      "promote" : 0,
      "uid" : 1,
      "revision_translation_affected" : 1,
      "created" : 1376247029,
      "langcode" : "und",
      "default_langcode" : 1,
      "changed" : null,
      "type" : "page",
      "status" : 1,
      "sticky" : 0
   },
   "revisions" : [
      {
         "timestamp" : 1586282489,
         "node_revision__field_tags" : [],
         "sticky" : 0,
         "node_revision__body" : {
            "langcode" : "und",
            "revision_id" : 15679,
            "deleted" : 0,
            "body_format" : "full_html",
            "body_value" : "<h2>A few reminders as you wait for an answer:</h2><ul><li>We've sent your question to a member of our research services staff. They answer questions in the order they receive them. You can expect to hear from one of our librarians within two weeks.&nbsp;</li><li>If you are planning to visit, we encourage you to <a href=\"/rubenstein/research/register\">register as a researcher</a> and place <a href=\"/rubenstein/research/requesting-material\">request for materials you want to use</a>. Most of our collections are stored at our off-site storage facility, so you will need to make your requests 2 full business days before you visit.</li><li>If you need immediate assistance, please give us a call at&nbsp;<a href=\"tel:9196605822\">(919) 660-5822</a>.</li></ul>",
            "body_summary" : "",
            "delta" : 0,
            "entity_id" : 115,
            "bundle" : "page"
         },
         "status" : 1,
         "comment" : 1,
         "field_revision" : {
            "title" : "Thanks for your question!",
            "created" : null,
            "revision_translation_affected" : 1,
            "uid" : 1,
            "default_langcode" : 1,
            "langcode" : null,
            "status" : 1,
            "changed" : null,
            "sticky" : 0
         },
         "promote" : 0,
         "title" : "Thanks for your question!",
         "log" : "",
         "vuuid" : "4e3e55ce-04a3-4299-a0c0-ed8ecdbc328b",
         "uid" : 11
      }
   ],
   "nid" : "115"
}

