{
   "node__body" : {
      "body_value" : "<h4 style=\"text-align: center;\">New Collections Spotlight</h4><h4 style=\"text-align: center;\">The Attica Prison Uprising: \"If we cannot live as people, then we will at least try to die like men\".</h4><p style=\"text-align: center;\">by Patrick Stawski, Human Rights Archivist</p><p><img src=\"/rubenstein/sites/default/files/rubenstein/users/patrick.stawski/Attica-cover.jpg\" alt=\"Attica\" width=\"400\" height=\"542\" style=\"float: left;\" class=\"image-left img-responsive\">The Human Rights Archive recently purchased two historical publications documenting the Attica Prison Uprising of 1971.&nbsp; The Rubenstein Library's Technical Services/Print Materials Cataloging Section has expertly cataloged these items and they are now available for consultation in the Rubenstein reading room.</p><p>In September of 1971 inmates at Attica Correctional Facility in Attica, New York, rebelled against prison authorities and took control&nbsp; of the facility.&nbsp; After four days of attempted negotiations the state police violently&nbsp; suppressed the rebellion leading to the death of 43 staff and inmates.&nbsp; The Attica Uprising was a watershed moment in the on-going fight to establish respect for human rights within the penitentiary system and to recognize and reform the racist practices and policies of the criminal justice system which feed the carceral machine.&nbsp; We can thus understand that Attica is a direct ancestor of social movements such as Black Lives Matter that continue this fight today.</p><p><a href=\"https://find.library.duke.edu/catalog/DUKE008737914\"><strong>Attica: slaughter at Attica : the complete inside story</strong></a>&nbsp;is written by journalist James A. Hudson and published in 1971, soon after the uprising.&nbsp; The publication begins with a quote from Attica inmate Charles Horatio Crowley who was also known as Brother Flip, \"If we cannot live as people, then we will at least try to die like men.\"</p><p>Hudson then sets out to provide the details of the actual events of the uprising and oppression, including first-hand accounts from those who were there, a map of the prison grounds noting key locations, and photographs of the rebellion, the negotiations, the state's attack on the inmates, and the horrifying aftermath. Hudson also explores what led up to the riot, investigates if the living conditions at Attica were as inhumane as the inmates claimed, and asks readers to consider what role racism played in the state's deadly response to the rebellion.&nbsp;</p><p>Another newly available item is <a href=\"https://find.library.duke.edu/catalog/DUKE008957157\">Attica, it is a right to rebel</a> authored by the Revolutionary Student Brigade, circa 1972.&nbsp; Printed in stark black and red, the pamphlet is a collaboration between the RSB, some of the Attica brothers, as well as their supporters.&nbsp; The pamphlet proclaims that \"ATTICA IS NOT A TRAGEDY, but a symbol of militant resistance of oppressed people against a system that tries to crush them.\"&nbsp; In contrast to Hudson's journalistic tone, The RBG invokes a clear call to solidarity and action with the Attica inmates by all people involved in resisting a racist system that terrorizes Black people.&nbsp; The back sheet of the pamphlet includes the 33 demands of the Attica rebels, many of which we today recognize as basic human rights,&nbsp; \"provide adequate food and water and shelter for this group\", \"allow true religious freedom\", \"Apply the New York State minimum wage law to all work done by inmates. STOP SLAVE LABOR.\"<img src=\"/rubenstein/sites/default/files/rubenstein/users/patrick.stawski/Attica%2C%20it%20is%20a%20right%20to%20rebel.png\" alt=\"Attica, it is a right to rebel\" width=\"400\" height=\"528\" style=\"float: right;\" class=\"image-right img-responsive\"></p><p>These new items join the Human Rights Archives extensive collections on the experiences of the incarcerated, and the impact detention and incarceration have on their families and communities.&nbsp; These include the papers of <a href=\"https://archives.lib.duke.edu/catalog/omowalejomo\">Jomo Joka Omowale</a>, one of the Attica Brothers who went on trial in the wake of the uprising, and the papers of <a href=\"https://archives.lib.duke.edu/catalog/finkelizabeth\">Elizabeth Fink</a>,&nbsp;a human rights lawyer who represented prisoners killed and injured during the Attica uprising.To learn more about these collections and how to access them please visit our&nbsp;<a href=\"https://guides.library.duke.edu/c.php?g=289375&amp;p=5433792\">research guide</a></p>",
      "langcode" : "und",
      "revision_id" : 16966,
      "body_format" : "full_html",
      "deleted" : 0,
      "entity_id" : 258,
      "bundle" : "page",
      "body_summary" : "",
      "delta" : 0
   },
   "langcode" : "und",
   "field_tags" : [],
   "type" : "page",
   "node_access" : null,
   "asidebox" : {
      "nid" : 258,
      "body_title" : "",
      "bid" : null,
      "block_delta" : null,
      "body_value" : null,
      "status" : "disabled",
      "block_module" : null,
      "vid" : 16966,
      "body_format" : null
   },
   "node_field_data" : {
      "title" : "News and Events",
      "promote" : 0,
      "status" : 1,
      "changed" : null,
      "type" : "page",
      "sticky" : 0,
      "revision_translation_affected" : 1,
      "created" : 1378759019,
      "uid" : 1,
      "default_langcode" : 1,
      "langcode" : "und"
   },
   "revisions" : [
      {
         "timestamp" : 1616018065,
         "status" : 1,
         "node_revision__field_tags" : [],
         "node_revision__body" : {
            "body_summary" : "",
            "delta" : 0,
            "bundle" : "page",
            "entity_id" : 258,
            "revision_id" : 16966,
            "langcode" : "und",
            "deleted" : 0,
            "body_format" : "full_html",
            "body_value" : "<h4 style=\"text-align: center;\">New Collections Spotlight</h4><h4 style=\"text-align: center;\">The Attica Prison Uprising: \"If we cannot live as people, then we will at least try to die like men\".</h4><p style=\"text-align: center;\">by Patrick Stawski, Human Rights Archivist</p><p><img src=\"/rubenstein/sites/default/files/rubenstein/users/patrick.stawski/Attica-cover.jpg\" alt=\"Attica\" width=\"400\" height=\"542\" style=\"float: left;\" class=\"image-left img-responsive\">The Human Rights Archive recently purchased two historical publications documenting the Attica Prison Uprising of 1971.&nbsp; The Rubenstein Library's Technical Services/Print Materials Cataloging Section has expertly cataloged these items and they are now available for consultation in the Rubenstein reading room.</p><p>In September of 1971 inmates at Attica Correctional Facility in Attica, New York, rebelled against prison authorities and took control&nbsp; of the facility.&nbsp; After four days of attempted negotiations the state police violently&nbsp; suppressed the rebellion leading to the death of 43 staff and inmates.&nbsp; The Attica Uprising was a watershed moment in the on-going fight to establish respect for human rights within the penitentiary system and to recognize and reform the racist practices and policies of the criminal justice system which feed the carceral machine.&nbsp; We can thus understand that Attica is a direct ancestor of social movements such as Black Lives Matter that continue this fight today.</p><p><a href=\"https://find.library.duke.edu/catalog/DUKE008737914\"><strong>Attica: slaughter at Attica : the complete inside story</strong></a>&nbsp;is written by journalist James A. Hudson and published in 1971, soon after the uprising.&nbsp; The publication begins with a quote from Attica inmate Charles Horatio Crowley who was also known as Brother Flip, \"If we cannot live as people, then we will at least try to die like men.\"</p><p>Hudson then sets out to provide the details of the actual events of the uprising and oppression, including first-hand accounts from those who were there, a map of the prison grounds noting key locations, and photographs of the rebellion, the negotiations, the state's attack on the inmates, and the horrifying aftermath. Hudson also explores what led up to the riot, investigates if the living conditions at Attica were as inhumane as the inmates claimed, and asks readers to consider what role racism played in the state's deadly response to the rebellion.&nbsp;</p><p>Another newly available item is <a href=\"https://find.library.duke.edu/catalog/DUKE008957157\">Attica, it is a right to rebel</a> authored by the Revolutionary Student Brigade, circa 1972.&nbsp; Printed in stark black and red, the pamphlet is a collaboration between the RSB, some of the Attica brothers, as well as their supporters.&nbsp; The pamphlet proclaims that \"ATTICA IS NOT A TRAGEDY, but a symbol of militant resistance of oppressed people against a system that tries to crush them.\"&nbsp; In contrast to Hudson's journalistic tone, The RBG invokes a clear call to solidarity and action with the Attica inmates by all people involved in resisting a racist system that terrorizes Black people.&nbsp; The back sheet of the pamphlet includes the 33 demands of the Attica rebels, many of which we today recognize as basic human rights,&nbsp; \"provide adequate food and water and shelter for this group\", \"allow true religious freedom\", \"Apply the New York State minimum wage law to all work done by inmates. STOP SLAVE LABOR.\"<img src=\"/rubenstein/sites/default/files/rubenstein/users/patrick.stawski/Attica%2C%20it%20is%20a%20right%20to%20rebel.png\" alt=\"Attica, it is a right to rebel\" width=\"400\" height=\"528\" style=\"float: right;\" class=\"image-right img-responsive\"></p><p>These new items join the Human Rights Archives extensive collections on the experiences of the incarcerated, and the impact detention and incarceration have on their families and communities.&nbsp; These include the papers of <a href=\"https://archives.lib.duke.edu/catalog/omowalejomo\">Jomo Joka Omowale</a>, one of the Attica Brothers who went on trial in the wake of the uprising, and the papers of <a href=\"https://archives.lib.duke.edu/catalog/finkelizabeth\">Elizabeth Fink</a>,&nbsp;a human rights lawyer who represented prisoners killed and injured during the Attica uprising.To learn more about these collections and how to access them please visit our&nbsp;<a href=\"https://guides.library.duke.edu/c.php?g=289375&amp;p=5433792\">research guide</a></p>"
         },
         "sticky" : 0,
         "comment" : 1,
         "field_revision" : {
            "sticky" : 0,
            "status" : 1,
            "changed" : null,
            "langcode" : null,
            "default_langcode" : 1,
            "uid" : 1,
            "revision_translation_affected" : 1,
            "created" : null,
            "title" : "News and Events"
         },
         "title" : "News and Events",
         "promote" : 0,
         "log" : "",
         "uid" : 22,
         "vuuid" : "d460e811-e66b-4bfd-83cc-6766e5f443b9"
      }
   ],
   "nid" : "258",
   "uuid" : "8a3b2808-4dca-4b3a-8118-40ea21c51304",
   "vid" : 16966,
   "path_alias" : {
      "pid" : 323,
      "alias" : "/human-rights/news",
      "langcode" : "und",
      "status" : 0,
      "language" : "und"
   },
   "field_image" : null
}

