{
   "langcode" : "und",
   "node__body" : {
      "body_value" : "<h3 style=\"text-align: left;\">Architect: Office of Horace Trumbauer</h3><h3 style=\"text-align: left;\">Completed: 1930</h3><table style=\"width: 100%;\" border=\"0\"><tbody><tr><td><img src=\"/rubenstein/sites/default/files/rubenstein/uarchives/craven.jpg\" alt=\"Braxton Craven\" title=\"Braxton Craven\" width=\"200\" height=\"300\" style=\"float: right;\"></td><td><p><img src=\"/rubenstein/sites/default/files/rubenstein/uarchives/craven-quad.jpg\" alt=\"Craven Quadrangle\" title=\"Craven Quadrangle\" width=\"386\" height=\"300\"></p></td></tr></tbody></table><p></p><p>BUILDING TEXT HERE</p><p></p><h3>For Further Research:&nbsp;</h3><ul><li><a href=\"http://library.duke.edu/rubenstein/findingaids/uabio/\">Biographical Reference Collection</a>: Contains biographical information on Braxton Craven.</li></ul><ul><li><a href=\"http://library.duke.edu/rubenstein/findingaids/uabuilding/\" title=\"Building Reference Collection\">Building Reference Collection</a>: Contains historical building information.</li></ul><ul><li>Braxton Craven</li></ul>",
      "langcode" : "und",
      "revision_id" : 15265,
      "deleted" : 0,
      "body_format" : "full_html",
      "entity_id" : 563,
      "bundle" : "page",
      "body_summary" : "",
      "delta" : 0
   },
   "node_access" : null,
   "field_tags" : [],
   "type" : "page",
   "asidebox" : null,
   "node_field_data" : {
      "title" : "Craven Quadrangle",
      "promote" : 0,
      "uid" : 1,
      "revision_translation_affected" : 1,
      "created" : 1436898408,
      "langcode" : "und",
      "default_langcode" : 1,
      "type" : "page",
      "changed" : null,
      "status" : 0,
      "sticky" : 0
   },
   "revisions" : [
      {
         "timestamp" : 1584557070,
         "status" : 0,
         "node_revision__field_tags" : [],
         "sticky" : 0,
         "node_revision__body" : {
            "body_value" : "<h3 style=\"text-align: left;\">Architect: Office of Horace Trumbauer</h3><h3 style=\"text-align: left;\">Completed: 1930</h3><table style=\"width: 100%;\" border=\"0\"><tbody><tr><td><img src=\"/rubenstein/sites/default/files/rubenstein/uarchives/craven.jpg\" alt=\"Braxton Craven\" title=\"Braxton Craven\" width=\"200\" height=\"300\" style=\"float: right;\"></td><td><p><img src=\"/rubenstein/sites/default/files/rubenstein/uarchives/craven-quad.jpg\" alt=\"Craven Quadrangle\" title=\"Craven Quadrangle\" width=\"386\" height=\"300\"></p></td></tr></tbody></table><p></p><p>BUILDING TEXT HERE</p><p></p><h3>For Further Research:&nbsp;</h3><ul><li><a href=\"http://library.duke.edu/rubenstein/findingaids/uabio/\">Biographical Reference Collection</a>: Contains biographical information on Braxton Craven.</li></ul><ul><li><a href=\"http://library.duke.edu/rubenstein/findingaids/uabuilding/\" title=\"Building Reference Collection\">Building Reference Collection</a>: Contains historical building information.</li></ul><ul><li>Braxton Craven</li></ul>",
            "body_format" : "full_html",
            "deleted" : 0,
            "revision_id" : 15265,
            "langcode" : "und",
            "bundle" : "page",
            "entity_id" : 563,
            "delta" : 0,
            "body_summary" : ""
         },
         "comment" : 1,
         "field_revision" : {
            "changed" : null,
            "status" : 0,
            "sticky" : 0,
            "uid" : 1,
            "revision_translation_affected" : 1,
            "created" : null,
            "langcode" : null,
            "default_langcode" : 1,
            "title" : "Craven Quadrangle"
         },
         "title" : "Craven Quadrangle",
         "promote" : 0,
         "log" : "",
         "uid" : 13,
         "vuuid" : "acf5c4cd-8c9d-4c80-92ea-8a723983bb25"
      }
   ],
   "nid" : "563",
   "vid" : 15265,
   "path_alias" : {
      "alias" : "/uarchives/history/exhibits/building-names/west/craven",
      "pid" : 669,
      "langcode" : "und",
      "status" : 0,
      "language" : "und"
   },
   "field_image" : null,
   "uuid" : "8f3d55ad-58e2-4991-b2be-25f133754aa2"
}

