{
   "node_field_data" : {
      "sticky" : 0,
      "status" : 0,
      "type" : "page",
      "changed" : null,
      "default_langcode" : 1,
      "langcode" : "und",
      "revision_translation_affected" : 1,
      "created" : 1437745670,
      "uid" : 1,
      "promote" : 0,
      "title" : "Wannamaker Residence Hall"
   },
   "asidebox" : null,
   "nid" : "601",
   "revisions" : [
      {
         "comment" : 1,
         "status" : 0,
         "node_revision__body" : {
            "delta" : 0,
            "body_summary" : "",
            "bundle" : "page",
            "entity_id" : 601,
            "deleted" : 0,
            "body_format" : "full_html",
            "revision_id" : 8835,
            "langcode" : "und",
            "body_value" : "<h2 style=\"text-align: left;\">Architect: Office of Horace Trumbauer</h2><h2 style=\"text-align: left;\">Completed: 1958</h2><table style=\"width: 100%;\" border=\"0\"><tbody><tr><td></td><td><p><img src=\"/rubenstein/sites/default/files/rubenstein/uarchives/wannamaker-dorm.jpg\" alt=\"Wannamaker Residence Hall\" title=\"Wannamaker Residence Hall\" style=\"float: left;\" height=\"300\" width=\"378\"></p></td></tr></tbody></table><p></p><p>BUILDING TEXT HERE</p><p></p><h2>For Further Research:&nbsp;</h2><ul><li><a href=\"http://library.duke.edu/rubenstein/findingaids/uabio/\">Biographical Reference Collection</a>: Contains biographical information on William H. Wannamaker.</li></ul><ul><li><a href=\"http://library.duke.edu/rubenstein/findingaids/uabuilding/\" title=\"Building Reference Collection\">Building Reference Collection</a>: Contains historical building information.</li></ul><ul><li><a href=\"http://library.duke.edu/rubenstein/findingaids/uawanna/\" target=\"_blank\">William Hane Wannamaker Papers</a></li></ul><ul><li>\"<a href=\"http://library.duke.edu/rubenstein/uarchives/history/articles/wannamaker\" target=\"_blank\">Wannamaker Knew How to Get Things Done</a>\": profile of William H. Wannamaker by Robert Durden.</li></ul><ul><li>\"<a href=\"http://dukemagazine.duke.edu/article/remembering-wannamaker\" target=\"_blank\">Remembering Wannamaker</a>\": profile of William H. Wannamaker in the July-August 2001 issue of <em>Duke Magazine</em>.</li></ul>"
         },
         "node_revision__field_tags" : [],
         "sticky" : 0,
         "timestamp" : 1437751356,
         "uid" : 13,
         "vuuid" : "0fbf5655-a021-49b4-bb90-5808000bd97f",
         "log" : "",
         "title" : "Wannamaker Residence Hall",
         "promote" : 0,
         "field_revision" : {
            "default_langcode" : 1,
            "langcode" : null,
            "created" : null,
            "revision_translation_affected" : 1,
            "uid" : 1,
            "sticky" : 0,
            "status" : 0,
            "changed" : null,
            "title" : "Wannamaker Residence Hall"
         }
      }
   ],
   "field_image" : null,
   "path_alias" : {
      "status" : 0,
      "language" : "und",
      "alias" : "/uarchives/history/exhibits/building-names/west/wannamaker",
      "pid" : 707,
      "langcode" : "und"
   },
   "vid" : 8835,
   "uuid" : "9190c22c-20c2-42d2-a2ed-b87612db2017",
   "langcode" : "und",
   "node__body" : {
      "body_value" : "<h2 style=\"text-align: left;\">Architect: Office of Horace Trumbauer</h2><h2 style=\"text-align: left;\">Completed: 1958</h2><table style=\"width: 100%;\" border=\"0\"><tbody><tr><td></td><td><p><img src=\"/rubenstein/sites/default/files/rubenstein/uarchives/wannamaker-dorm.jpg\" alt=\"Wannamaker Residence Hall\" title=\"Wannamaker Residence Hall\" style=\"float: left;\" height=\"300\" width=\"378\"></p></td></tr></tbody></table><p></p><p>BUILDING TEXT HERE</p><p></p><h2>For Further Research:&nbsp;</h2><ul><li><a href=\"http://library.duke.edu/rubenstein/findingaids/uabio/\">Biographical Reference Collection</a>: Contains biographical information on William H. Wannamaker.</li></ul><ul><li><a href=\"http://library.duke.edu/rubenstein/findingaids/uabuilding/\" title=\"Building Reference Collection\">Building Reference Collection</a>: Contains historical building information.</li></ul><ul><li><a href=\"http://library.duke.edu/rubenstein/findingaids/uawanna/\" target=\"_blank\">William Hane Wannamaker Papers</a></li></ul><ul><li>\"<a href=\"http://library.duke.edu/rubenstein/uarchives/history/articles/wannamaker\" target=\"_blank\">Wannamaker Knew How to Get Things Done</a>\": profile of William H. Wannamaker by Robert Durden.</li></ul><ul><li>\"<a href=\"http://dukemagazine.duke.edu/article/remembering-wannamaker\" target=\"_blank\">Remembering Wannamaker</a>\": profile of William H. Wannamaker in the July-August 2001 issue of <em>Duke Magazine</em>.</li></ul>",
      "deleted" : 0,
      "body_format" : "full_html",
      "langcode" : "und",
      "revision_id" : 8835,
      "entity_id" : 601,
      "bundle" : "page",
      "delta" : 0,
      "body_summary" : ""
   },
   "node_access" : null,
   "type" : "page",
   "field_tags" : []
}

