{
   "nid" : "253",
   "revisions" : [
      {
         "title" : "Rubenstein Library Grants & Fellowships",
         "promote" : 0,
         "field_revision" : {
            "title" : "Rubenstein Library Grants & Fellowships",
            "langcode" : null,
            "default_langcode" : 1,
            "uid" : 1,
            "revision_translation_affected" : 1,
            "created" : null,
            "sticky" : 0,
            "changed" : null,
            "status" : 1
         },
         "uid" : 15,
         "vuuid" : "13a07134-bb74-445b-8b0b-f2bd9609efcd",
         "log" : "",
         "timestamp" : 1606757351,
         "comment" : 1,
         "status" : 1,
         "sticky" : 0,
         "node_revision__field_tags" : [],
         "node_revision__body" : {
            "body_value" : "<h2>2021-2022 Grant Cycle Suspended</h2><p>The Rubenstein Library will not offer research travel grants for the 2021-2022 cycle due to ongoing travel restrictions at Duke University and many other academic institutions in order to reduce the spread of Covid-19. We continue to offer <a href=\"https://library.duke.edu/rubenstein/research/reproductions\" target=\"_blank\">reproduction services</a> to all researchers through our regular online request process to provide access to our collections. We are using this time period to assess our current travel grant program in relation to the Rubenstein Library’s commitment to our Racial Justice Roadmap.</p><h2>Rubenstein Library Grant Information</h2><p>In previous years, the Rubenstein Rare Book &amp; Manuscript Library has provided travel grants for researchers whose work would benefit from access to the following collections held at Duke. While our research travel grant program is on hiatus, you can find information about past offerings and grant recipients for these research areas:</p><ul><li><a href=\"/rubenstein/bingham/grants/\">Sallie Bingham Center for Women's History and Culture</a>&nbsp;(Mary Lily Research Grants)</li><li><a href=\"/rubenstein/franklin/grants/\">John Hope Franklin Research Center for African and African American History and Culture</a></li><li><a href=\"/rubenstein/hartman/travel-grants/\">John W. Hartman Center for Sales, Advertising &amp; Marketing History</a></li><li><a href=\"/rubenstein/history-of-medicine/grants\">History of Medicine</a></li><li><a href=\"https://libcms.oit.duke.edu/rubenstein/human-rights/grants-internships\">Human Rights Archive</a></li><li><a href=\"/rubenstein/research/grants-and-fellowships/harkins\">Harry H. Harkins T’73 Travel Grants for Lesbian, Gay, Bisexual, and Transgender History</a></li><li><a href=\"/rubenstein/research/grants-and-fellowships/jewish-studies\">Jewish Studies and the Hebrew Bible Research Fellowships</a>&nbsp;(The Jewish Studies Fellowship has a separate application process and is administered by Rachel Ariel, Librarian for Judaica/Hebraica, with support from the Center for Jewish Studies)</li></ul><!--\r\n<h2>Who is eligible?</h2><ul><li>Anyone who wishes to use materials from the designated collections for historical research may apply, regardless of academic status.</li><li>Visual and performing artists, writers, and filmmakers are encouraged to apply for the research travel grants.</li><li>All applicants must reside beyond a 100-mile radius of Durham, N.C., and may not be current Duke students or employees.</li></ul><h2>What projects are supported?</h2><p>Research Travel Grants support projects that present creative approaches, including historical research and documentation projects resulting in dissertations, publications, exhibitions, educational initiatives, documentary films, or other multimedia products and artistic works. The research topic and collections identified for research must be appropriate to the individual Centers offering travel grants (see Center travel grant details for additional criteria).&nbsp;</p><h2>What expenses does the grant cover?</h2><p>Expenses will be reimbursed once the grant recipient has completed the research visit(s) and has submitted&nbsp;original&nbsp;receipts. Grant money may be used for the following:</p><ul><li>transportation expenses (including air, train or bus ticket charges; car rental; mileage using a personal vehicle; parking fees)</li><li>accommodations</li><li>meals</li></ul><h2>How do I apply?</h2><p>Research topics should be strongly supported by the collections of the research center. We encourage each prospective grant applicant to discuss the research project and the collections that might support it with each Center's reference archivist&nbsp;before&nbsp;submitting an application.</p><ul><li>Complete the <a href=\"https://duke.qualtrics.com/jfe/form/SV_1H2MbyCwDY0VLet\"><p>online application form, which includes uploading a CV. (You may start the form and return to it later, but it must be completed within a week from the same computer and browser.)</p><ul><li>A sample application form is available as a&nbsp;<a href=\"/rubenstein/sites/default/files/rubenstein/pdf/Grant-Application-2020.docx\" title=\"2020 Grant Application (word)\">Word document&nbsp;</a>and&nbsp;<a href=\"/rubenstein/sites/default/files/rubenstein/pdf/Grant-Application-2020.pdf\" target=\"_blank\" title=\"2020 Grant Application (PDF)\">PDF</a>&nbsp;for reference purposes only. This version of the form is available so you can use it to save and edit your application before copying and pasting responses into <a href=\"https://duke.qualtrics.com/jfe/form/SV_1H2MbyCwDY0VLet\" target=\"_blank\">the online form.</li><li>Graduate students must ask a faculty advisor to write them a letter of recommendation. We will not consider an application complete until we receive the recommendation. Advisors may submit a letter of recommendation as an e-mail attachment to <a href=\"mailto:special-collections@duke.edu\">special-collections@duke.edu</a>.</li></ul><p style=\"text-align: center;\">a href=\"https://duke.qualtrics.com/jfe/form/SV_1H2MbyCwDY0VLet\" target=\"_blank\" class=\"btn btn-primary\"&gt;Apply Now »</p> -->",
            "revision_id" : 16677,
            "langcode" : "und",
            "body_format" : "full_html",
            "deleted" : 0,
            "bundle" : "page",
            "entity_id" : 253,
            "body_summary" : "",
            "delta" : 0
         }
      }
   ],
   "node_field_data" : {
      "langcode" : "und",
      "default_langcode" : 1,
      "uid" : 1,
      "revision_translation_affected" : 1,
      "created" : 1378750126,
      "sticky" : 0,
      "status" : 1,
      "type" : "page",
      "changed" : null,
      "promote" : 0,
      "title" : "Rubenstein Library Grants & Fellowships"
   },
   "asidebox" : {
      "nid" : 253,
      "bid" : null,
      "body_title" : "More Information ",
      "block_delta" : null,
      "status" : "disabled",
      "body_value" : "<!--This next does not display. Move \"button\" code here when grant applications are closed.\r\n<p style=\"text-align: center;\"><a href=\"INSERT QUALTRICS LINK\" target=\"_blank\" class=\"btn btn-primary\">Apply Now »</a></p> --><h3 style=\"text-align: -webkit-auto;\">Dates to Remember</h3><ul style=\"text-align: -webkit-auto;\"><li><span style=\"text-align: -webkit-auto;\" data-mce-mark=\"1\">Information about the next grant cycle will be posted by December 2020.</span></li><li><span style=\"text-align: -webkit-auto;\" data-mce-mark=\"1\">Grants awarded in 2020 must be used by December 2021.</span></li><li><span style=\"text-align: -webkit-auto;\"><strong>Notice</strong>: Recipients of 2019-2020 travel grants who have not completed travel as of March 2020 will have until June 2021 for their research visit due to widespread travel restrictions.&nbsp;</span></li></ul>",
      "vid" : 16677,
      "block_module" : null,
      "body_format" : "full_html"
   },
   "path_alias" : {
      "language" : "und",
      "status" : 0,
      "langcode" : "und",
      "pid" : 318,
      "alias" : "/research/grants-and-fellowships"
   },
   "vid" : 16677,
   "field_image" : null,
   "uuid" : "9b044326-841f-4ce6-be15-20e347f38d2a",
   "node_access" : null,
   "type" : "page",
   "field_tags" : [],
   "langcode" : "und",
   "node__body" : {
      "body_value" : "<h2>2021-2022 Grant Cycle Suspended</h2><p>The Rubenstein Library will not offer research travel grants for the 2021-2022 cycle due to ongoing travel restrictions at Duke University and many other academic institutions in order to reduce the spread of Covid-19. We continue to offer <a href=\"https://library.duke.edu/rubenstein/research/reproductions\" target=\"_blank\">reproduction services</a> to all researchers through our regular online request process to provide access to our collections. We are using this time period to assess our current travel grant program in relation to the Rubenstein Library’s commitment to our Racial Justice Roadmap.</p><h2>Rubenstein Library Grant Information</h2><p>In previous years, the Rubenstein Rare Book &amp; Manuscript Library has provided travel grants for researchers whose work would benefit from access to the following collections held at Duke. While our research travel grant program is on hiatus, you can find information about past offerings and grant recipients for these research areas:</p><ul><li><a href=\"/rubenstein/bingham/grants/\">Sallie Bingham Center for Women's History and Culture</a>&nbsp;(Mary Lily Research Grants)</li><li><a href=\"/rubenstein/franklin/grants/\">John Hope Franklin Research Center for African and African American History and Culture</a></li><li><a href=\"/rubenstein/hartman/travel-grants/\">John W. Hartman Center for Sales, Advertising &amp; Marketing History</a></li><li><a href=\"/rubenstein/history-of-medicine/grants\">History of Medicine</a></li><li><a href=\"https://libcms.oit.duke.edu/rubenstein/human-rights/grants-internships\">Human Rights Archive</a></li><li><a href=\"/rubenstein/research/grants-and-fellowships/harkins\">Harry H. Harkins T’73 Travel Grants for Lesbian, Gay, Bisexual, and Transgender History</a></li><li><a href=\"/rubenstein/research/grants-and-fellowships/jewish-studies\">Jewish Studies and the Hebrew Bible Research Fellowships</a>&nbsp;(The Jewish Studies Fellowship has a separate application process and is administered by Rachel Ariel, Librarian for Judaica/Hebraica, with support from the Center for Jewish Studies)</li></ul><!--\r\n<h2>Who is eligible?</h2><ul><li>Anyone who wishes to use materials from the designated collections for historical research may apply, regardless of academic status.</li><li>Visual and performing artists, writers, and filmmakers are encouraged to apply for the research travel grants.</li><li>All applicants must reside beyond a 100-mile radius of Durham, N.C., and may not be current Duke students or employees.</li></ul><h2>What projects are supported?</h2><p>Research Travel Grants support projects that present creative approaches, including historical research and documentation projects resulting in dissertations, publications, exhibitions, educational initiatives, documentary films, or other multimedia products and artistic works. The research topic and collections identified for research must be appropriate to the individual Centers offering travel grants (see Center travel grant details for additional criteria).&nbsp;</p><h2>What expenses does the grant cover?</h2><p>Expenses will be reimbursed once the grant recipient has completed the research visit(s) and has submitted&nbsp;original&nbsp;receipts. Grant money may be used for the following:</p><ul><li>transportation expenses (including air, train or bus ticket charges; car rental; mileage using a personal vehicle; parking fees)</li><li>accommodations</li><li>meals</li></ul><h2>How do I apply?</h2><p>Research topics should be strongly supported by the collections of the research center. We encourage each prospective grant applicant to discuss the research project and the collections that might support it with each Center's reference archivist&nbsp;before&nbsp;submitting an application.</p><ul><li>Complete the <a href=\"https://duke.qualtrics.com/jfe/form/SV_1H2MbyCwDY0VLet\"><p>online application form, which includes uploading a CV. (You may start the form and return to it later, but it must be completed within a week from the same computer and browser.)</p><ul><li>A sample application form is available as a&nbsp;<a href=\"/rubenstein/sites/default/files/rubenstein/pdf/Grant-Application-2020.docx\" title=\"2020 Grant Application (word)\">Word document&nbsp;</a>and&nbsp;<a href=\"/rubenstein/sites/default/files/rubenstein/pdf/Grant-Application-2020.pdf\" target=\"_blank\" title=\"2020 Grant Application (PDF)\">PDF</a>&nbsp;for reference purposes only. This version of the form is available so you can use it to save and edit your application before copying and pasting responses into <a href=\"https://duke.qualtrics.com/jfe/form/SV_1H2MbyCwDY0VLet\" target=\"_blank\">the online form.</li><li>Graduate students must ask a faculty advisor to write them a letter of recommendation. We will not consider an application complete until we receive the recommendation. Advisors may submit a letter of recommendation as an e-mail attachment to <a href=\"mailto:special-collections@duke.edu\">special-collections@duke.edu</a>.</li></ul><p style=\"text-align: center;\">a href=\"https://duke.qualtrics.com/jfe/form/SV_1H2MbyCwDY0VLet\" target=\"_blank\" class=\"btn btn-primary\"&gt;Apply Now »</p> -->",
      "body_format" : "full_html",
      "deleted" : 0,
      "revision_id" : 16677,
      "langcode" : "und",
      "bundle" : "page",
      "entity_id" : 253,
      "delta" : 0,
      "body_summary" : ""
   }
}

