{
   "node_field_data" : {
      "promote" : 0,
      "title" : "Harry H. Harkins, Jr. T'73 Travel Grants",
      "sticky" : 0,
      "type" : "about_page",
      "status" : 1,
      "changed" : null,
      "langcode" : "und",
      "default_langcode" : 1,
      "uid" : 1,
      "created" : 1522260906,
      "revision_translation_affected" : 1
   },
   "asidebox" : {
      "vid" : 16681,
      "block_module" : null,
      "body_format" : "full_html",
      "block_delta" : null,
      "status" : "html",
      "body_value" : "<p style=\"text-align: center;\"><!-- a href=\"https://duke.qualtrics.com/jfe/form/SV_1H2MbyCwDY0VLet\" target=\"_blank\" class=\"btn btn-primary\">Apply Now »</a><!-----></p><h3 style=\"text-align: -webkit-auto;\">Harkins Grant Recipients</h3><p><a href=\"https://library.duke.edu/rubenstein/research/grants-and-fellowships/harkins-recipients\">List of Grant Recipients, 2018-present</a></p>",
      "bid" : null,
      "body_title" : "",
      "nid" : 687
   },
   "nid" : "687",
   "revisions" : [
      {
         "log" : "",
         "vuuid" : "67a71d06-3733-4529-9217-8de7a4c90603",
         "uid" : 15,
         "field_revision" : {
            "revision_translation_affected" : 1,
            "created" : null,
            "uid" : 1,
            "default_langcode" : 1,
            "langcode" : null,
            "changed" : null,
            "status" : 1,
            "sticky" : 0,
            "title" : "Harry H. Harkins, Jr. T'73 Travel Grants"
         },
         "promote" : 0,
         "title" : "Harry H. Harkins, Jr. T'73 Travel Grants",
         "node_revision__field_tags" : [],
         "sticky" : 0,
         "node_revision__body" : {
            "body_format" : "full_html",
            "deleted" : 0,
            "langcode" : "und",
            "revision_id" : 16681,
            "body_value" : "<h2>2021-2022 Grant Cycle Suspended</h2><p>The Rubenstein Library will not offer research travel grants for the 2021-2022 cycle due to ongoing travel restrictions at Duke University and many other academic institutions in order to reduce the spread of Covid-19. We continue to offer reproduction services to all researchers through our regular online request process to provide access to our collections. We are using this time period to assess our current travel grant program in relation to the Rubenstein Library’s commitment to our Racial Justice Roadmap.</p><h2>What are the Harry H. Harkins, Jr. T'73 Travel Grants?</h2><p>In previous years, the Rubenstein Library has provided travel grants for researchers whose work would benefit from access to our gay, lesbian, bisexual, and transgender history collections. The grants are named in honor of Harry H. Harkins, Jr. T'73 for his generous support of this program and ongoing support of LGBT history and sexuality studies collections for Duke University Libraries.</p><p>For more information, please see the <a href=\"/rubenstein/research/grants-and-fellowships\">main travel grant page</a>.</p><!--\r\n<h2>What research projects and topics are appropriate?</h2><p>Harkins Travel Grants support projects that present creative approaches, including historical research and documentation projects resulting in dissertations, publications, exhibitions, educational initiatives, documentary films, or other multimedia products and artistic works. Research projects must use materials from the Rubenstein Library and must focus on&nbsp;gay, lesbian, bisexual, and transgender history.</p><p>Please inquire to Kelly Wooten if you are unsure whether your research project or the collections you wish to use are appropriate for this grant. Find more detailed information about our <a href=\"https://guides.library.duke.edu/lgbtstudies\">LGBT history collections in our research guide</a>. Inclusion of a collection on one of our research guides does not guarantee eligibility, and the guide is not comprehensive.</p>\r\n-->",
            "delta" : 0,
            "body_summary" : "",
            "entity_id" : 687,
            "bundle" : "about_page"
         },
         "status" : 1,
         "comment" : 1,
         "timestamp" : 1606759511
      }
   ],
   "uuid" : "9d7386ea-6cfc-45f0-8d70-92ca0ed8b058",
   "path_alias" : {
      "language" : "und",
      "status" : 0,
      "langcode" : "und",
      "alias" : "/research/grants-and-fellowships/harkins",
      "pid" : 817
   },
   "field_image" : null,
   "vid" : 16681,
   "node__body" : {
      "bundle" : "about_page",
      "entity_id" : 687,
      "body_summary" : "",
      "delta" : 0,
      "body_value" : "<h2>2021-2022 Grant Cycle Suspended</h2><p>The Rubenstein Library will not offer research travel grants for the 2021-2022 cycle due to ongoing travel restrictions at Duke University and many other academic institutions in order to reduce the spread of Covid-19. We continue to offer reproduction services to all researchers through our regular online request process to provide access to our collections. We are using this time period to assess our current travel grant program in relation to the Rubenstein Library’s commitment to our Racial Justice Roadmap.</p><h2>What are the Harry H. Harkins, Jr. T'73 Travel Grants?</h2><p>In previous years, the Rubenstein Library has provided travel grants for researchers whose work would benefit from access to our gay, lesbian, bisexual, and transgender history collections. The grants are named in honor of Harry H. Harkins, Jr. T'73 for his generous support of this program and ongoing support of LGBT history and sexuality studies collections for Duke University Libraries.</p><p>For more information, please see the <a href=\"/rubenstein/research/grants-and-fellowships\">main travel grant page</a>.</p><!--\r\n<h2>What research projects and topics are appropriate?</h2><p>Harkins Travel Grants support projects that present creative approaches, including historical research and documentation projects resulting in dissertations, publications, exhibitions, educational initiatives, documentary films, or other multimedia products and artistic works. Research projects must use materials from the Rubenstein Library and must focus on&nbsp;gay, lesbian, bisexual, and transgender history.</p><p>Please inquire to Kelly Wooten if you are unsure whether your research project or the collections you wish to use are appropriate for this grant. Find more detailed information about our <a href=\"https://guides.library.duke.edu/lgbtstudies\">LGBT history collections in our research guide</a>. Inclusion of a collection on one of our research guides does not guarantee eligibility, and the guide is not comprehensive.</p>\r\n-->",
      "revision_id" : 16681,
      "langcode" : "und",
      "body_format" : "full_html",
      "deleted" : 0
   },
   "langcode" : "und",
   "type" : "about_page",
   "field_tags" : [],
   "node_access" : null
}

