{
   "node__body" : {
      "entity_id" : 108,
      "bundle" : "page",
      "delta" : 0,
      "body_summary" : "",
      "body_value" : "<h2>Our mission</h2><p>The Duke University Archives identifies and preserves administrative, fiscal, historical and legal records that have enduring value for the Duke community and makes those records available in accordance with policies approved by the university's administration, board of trustees and faculty.</p><h2>Our history</h2><p>Although the need for a university archives was recognized in the late 1940s, Duke University did not establish one until 1972. At that time Duke University President Terry Sanford established the Duke University Archives as the official repository for university records of enduring value. The <a href=\"http://archives.mc.duke.edu/\" target=\"_blank\">Duke University Medical Center Archives</a> was established in 1977 to manage the archival records of the Duke University Medical Center.<br><br>In 2002, after 30 years of operating as a department of the general administration, the Duke University Archives became part of the university's library system. In 2006, the University Archives merged with the Rare Book, Manuscript, and Special Collections Library, now the David M. Rubenstein Rare Book &amp; Manuscript Library.</p><h2>Our holdings</h2><p>The University Archives has 11,000 linear feet of records (including electronic records) dating from 1838 to the present, organized into <a href=\"about/record-groups\" target=\"_blank\">record groups</a>. Read our <strong><a href=\"about/collecting-policy\">Collecting Policy</a>.</strong></p><h2>Research at the University Archives</h2><ul><li><a href=\"about/access-policies\">Read our policies for accessing university records</a>.</li><li><a href=\"about/record-groups\" target=\"_blank\">Learn more about and browse University Archives record groups</a>.</li><li><a href=\"https://library.duke.edu/rubenstein/uarchives/research-guides\" target=\"_blank\">View topical research guides for exploring University Archives collections</a>.</li><li><a href=\"/rubenstein/research/citations-and-permissions\" target=\"_blank\">Learn how to cite University Archives materials</a>.</li></ul>",
      "body_format" : "full_html",
      "deleted" : 0,
      "langcode" : "und",
      "revision_id" : 16243
   },
   "langcode" : "und",
   "type" : "page",
   "field_tags" : [],
   "node_access" : null,
   "uuid" : "a046d1f8-7545-41d9-9ef4-74658a9ee6d0",
   "vid" : 16243,
   "path_alias" : {
      "langcode" : "und",
      "alias" : "/uarchives/about",
      "pid" : 156,
      "language" : "und",
      "status" : 0
   },
   "field_image" : null,
   "node_field_data" : {
      "langcode" : "und",
      "default_langcode" : 1,
      "uid" : 1,
      "revision_translation_affected" : 1,
      "created" : 1376010911,
      "sticky" : 0,
      "status" : 1,
      "type" : "page",
      "changed" : null,
      "promote" : 0,
      "title" : "About the Duke University Archives"
   },
   "asidebox" : {
      "nid" : 108,
      "body_title" : "",
      "bid" : null,
      "block_delta" : null,
      "body_value" : null,
      "status" : "disabled",
      "block_module" : null,
      "vid" : 16243,
      "body_format" : null
   },
   "nid" : "108",
   "revisions" : [
      {
         "timestamp" : 1593530526,
         "comment" : 1,
         "status" : 1,
         "node_revision__field_tags" : [],
         "node_revision__body" : {
            "entity_id" : 108,
            "bundle" : "page",
            "body_summary" : "",
            "delta" : 0,
            "body_value" : "<h2>Our mission</h2><p>The Duke University Archives identifies and preserves administrative, fiscal, historical and legal records that have enduring value for the Duke community and makes those records available in accordance with policies approved by the university's administration, board of trustees and faculty.</p><h2>Our history</h2><p>Although the need for a university archives was recognized in the late 1940s, Duke University did not establish one until 1972. At that time Duke University President Terry Sanford established the Duke University Archives as the official repository for university records of enduring value. The <a href=\"http://archives.mc.duke.edu/\" target=\"_blank\">Duke University Medical Center Archives</a> was established in 1977 to manage the archival records of the Duke University Medical Center.<br><br>In 2002, after 30 years of operating as a department of the general administration, the Duke University Archives became part of the university's library system. In 2006, the University Archives merged with the Rare Book, Manuscript, and Special Collections Library, now the David M. Rubenstein Rare Book &amp; Manuscript Library.</p><h2>Our holdings</h2><p>The University Archives has 11,000 linear feet of records (including electronic records) dating from 1838 to the present, organized into <a href=\"about/record-groups\" target=\"_blank\">record groups</a>. Read our <strong><a href=\"about/collecting-policy\">Collecting Policy</a>.</strong></p><h2>Research at the University Archives</h2><ul><li><a href=\"about/access-policies\">Read our policies for accessing university records</a>.</li><li><a href=\"about/record-groups\" target=\"_blank\">Learn more about and browse University Archives record groups</a>.</li><li><a href=\"https://library.duke.edu/rubenstein/uarchives/research-guides\" target=\"_blank\">View topical research guides for exploring University Archives collections</a>.</li><li><a href=\"/rubenstein/research/citations-and-permissions\" target=\"_blank\">Learn how to cite University Archives materials</a>.</li></ul>",
            "langcode" : "und",
            "revision_id" : 16243,
            "deleted" : 0,
            "body_format" : "full_html"
         },
         "sticky" : 0,
         "title" : "About the Duke University Archives",
         "promote" : 0,
         "field_revision" : {
            "uid" : 1,
            "revision_translation_affected" : 1,
            "created" : null,
            "langcode" : null,
            "default_langcode" : 1,
            "changed" : null,
            "status" : 1,
            "sticky" : 0,
            "title" : "About the Duke University Archives"
         },
         "uid" : 13,
         "vuuid" : "828a1fe6-8bce-4841-b118-76eccf58c3bd",
         "log" : ""
      }
   ]
}

