{
   "node_access" : null,
   "field_tags" : [],
   "type" : "page",
   "langcode" : "und",
   "node__body" : {
      "entity_id" : 95,
      "bundle" : "page",
      "delta" : 0,
      "body_summary" : "",
      "body_value" : "<div id=\"pageContentBox\"><div id=\"pageContentProper\"><p><img src=\"/rubenstein/sites/default/files/rubenstein/hartman/pitch-in.jpg\" alt=\"Pitch In, Ad*Access WWII ad\" width=\"175\" height=\"171\" class=\"image-right img-responsive\">The Hartman Center has been a training ground for numerous people who want to gain experience working with rare materials that focus on advertising. We create &nbsp;student volunteer positions on a case-by-case basis and assign meaningful projects to students that capitalize on and complement their academic interests while providing them with valuable work experience.</p><h2>Possible volunteer duties include:</h2><ul class=\"smallSpacedItems\"><li>processing historical collections</li><li>public relations projects</li><li>special event planning, set up &amp; management</li><li>clerical work</li></ul><p>These projects, requiring many different talents and skills, are essential to the operation of the Hartman Center. We prefer our student volunteers to have an interest in archives and/or advertising.</p><p></p><p></p></div></div>",
      "body_format" : "full_html",
      "deleted" : 0,
      "langcode" : "und",
      "revision_id" : 11117
   },
   "vid" : 11117,
   "path_alias" : {
      "status" : 0,
      "language" : "und",
      "alias" : "/hartman/donate/volunteer",
      "pid" : 141,
      "langcode" : "und"
   },
   "field_image" : null,
   "uuid" : "a6aaf1ad-dd9f-4960-a198-aaac61e9f120",
   "revisions" : [
      {
         "log" : "",
         "vuuid" : "64fb1976-a4b3-4b2b-b450-744e7e717e10",
         "uid" : 7,
         "field_revision" : {
            "status" : 1,
            "changed" : null,
            "sticky" : 0,
            "revision_translation_affected" : 1,
            "created" : null,
            "uid" : 1,
            "default_langcode" : 1,
            "langcode" : null,
            "title" : "Volunteer at the Hartman Center"
         },
         "promote" : 0,
         "title" : "Volunteer at the Hartman Center",
         "node_revision__field_tags" : [],
         "sticky" : 0,
         "node_revision__body" : {
            "deleted" : 0,
            "body_format" : "full_html",
            "langcode" : "und",
            "revision_id" : 11117,
            "body_value" : "<div id=\"pageContentBox\"><div id=\"pageContentProper\"><p><img src=\"/rubenstein/sites/default/files/rubenstein/hartman/pitch-in.jpg\" alt=\"Pitch In, Ad*Access WWII ad\" width=\"175\" height=\"171\" class=\"image-right img-responsive\">The Hartman Center has been a training ground for numerous people who want to gain experience working with rare materials that focus on advertising. We create &nbsp;student volunteer positions on a case-by-case basis and assign meaningful projects to students that capitalize on and complement their academic interests while providing them with valuable work experience.</p><h2>Possible volunteer duties include:</h2><ul class=\"smallSpacedItems\"><li>processing historical collections</li><li>public relations projects</li><li>special event planning, set up &amp; management</li><li>clerical work</li></ul><p>These projects, requiring many different talents and skills, are essential to the operation of the Hartman Center. We prefer our student volunteers to have an interest in archives and/or advertising.</p><p></p><p></p></div></div>",
            "delta" : 0,
            "body_summary" : "",
            "entity_id" : 95,
            "bundle" : "page"
         },
         "status" : 1,
         "comment" : 1,
         "timestamp" : 1488393781
      }
   ],
   "nid" : "95",
   "asidebox" : {
      "body_format" : "full_html",
      "block_module" : null,
      "vid" : 11117,
      "body_value" : "<p>Please contact&nbsp;<a href=\"mailto:j.reid@duke.edu\">Hartman Center Director Jacqueline Reid Wachholz</a>.</p>",
      "status" : "html",
      "block_delta" : null,
      "body_title" : "More Information ",
      "bid" : null,
      "nid" : 95
   },
   "node_field_data" : {
      "promote" : 0,
      "title" : "Volunteer at the Hartman Center",
      "default_langcode" : 1,
      "langcode" : "und",
      "revision_translation_affected" : 1,
      "created" : 1375390882,
      "uid" : 1,
      "sticky" : 0,
      "status" : 1,
      "changed" : null,
      "type" : "page"
   }
}

