{
   "uuid" : "ae11a104-8286-496c-829f-a809464e5ade",
   "path_alias" : {
      "pid" : 377,
      "alias" : "/uarchives/history/articles/uisc-transcript",
      "langcode" : "und",
      "status" : 0,
      "language" : "und"
   },
   "field_image" : null,
   "vid" : 2519,
   "asidebox" : {
      "block_delta" : null,
      "body_value" : null,
      "status" : "disabled",
      "block_module" : null,
      "vid" : 2519,
      "body_format" : null,
      "nid" : 308,
      "body_title" : "",
      "bid" : null
   },
   "node_field_data" : {
      "langcode" : "und",
      "default_langcode" : 1,
      "uid" : 1,
      "revision_translation_affected" : 1,
      "created" : 1381621963,
      "sticky" : 0,
      "changed" : null,
      "status" : 1,
      "type" : "page",
      "promote" : 0,
      "title" : "Transcript of the Constitution of the Union Institute Society"
   },
   "revisions" : [
      {
         "timestamp" : 1381622051,
         "comment" : 1,
         "status" : 1,
         "sticky" : 0,
         "node_revision__field_tags" : [],
         "node_revision__body" : {
            "body_summary" : "",
            "delta" : 0,
            "bundle" : "page",
            "entity_id" : 308,
            "revision_id" : 2519,
            "langcode" : "und",
            "body_format" : "full_html",
            "deleted" : 0,
            "body_value" : "<div id=\"UIConstitution\"><p>(Note: This constitution was drawn up in February 1839. The text has been altered in matters of punctuation and spelling.)</p><h3>Preamble</h3><p>We the people of Randolph &amp; the adjacent Counties, living in the vicinity of the Union Institute Academy, possessing no small share of philanthropy &amp; patriotism; believing that ignorance &amp; error are not only the bane of religious but also of civil society; that they oppose a formidable front to the march of internal improvement, as well as to all the arts and sciences &amp; rear up almost an impregnable wall between man and the happiness he so ardently pants after; that we may more effectually contribute our quota in dispelling that dismal gloom which has, with raven pinions, brooded over our country for ages, eclipsing the brilliant sun of science, and casting a deep shadow upon the whole mental region &amp; knowing the great advantages that bodies compact possess above individuals; we therefore ordain &amp; adopt the following articles &amp; resolutions.</p><h3>Article 1st.</h3><p>This Society shall be known &amp; distinguished by the name of the Union Institute Society.</p><h3>Article 2nd.</h3><p>All parents or guardians, who may send children or wards to this Institution &amp; all Students in the same, of the age of eighteen years, shall be considered as regular members of this Society. Each auxiliary Society which shall contribute fifteen dollars for the use of this institution shall be entitled to send one Delegate to this society &amp; other persons who shall be approved of by a majority of the regular members, on contributing the sum of five dollars, shall be received and entitled to all the privileges common to other members.</p><h3>Article 3rd.</h3><p>The Officers of this Society shall consist of a President, two Vice Presidents, one Secretary, one Secretary's assistant and Treasurer, who shall be elected annually and hold their respective offices for the term of twelve months.</p><h3>Article 4th.</h3><p>The President shall preside at all the meetings he may attend, but in case of his absence or inability, one of the Vice Presidents shall discharge that duty.</p><h3>Article 5th.</h3><p>The Secretary shall keep a list of all the names of the officers of this Society &amp; a journal of their proceedings &amp; he shall prepare for the press all the pieces the Society may order to be published.</p><h3>Article 6th.</h3><p>The Treasurer shall keep a true account of all monies received &amp; paid out by order of the Society, with a statement of the purpose to which it has been applied; but shall not be at liberty to apply any of the monies other ways than the Society shall direct.</p><h3>Article 7th.</h3><p>Nine members of the Society shall constitute a quorum for the transaction of all business that may come before the house.</p><h3>Article 8th.</h3><p>It shall be the duty of this Society to fill all vacancies which may occur in consequence of death, removal or resignation, of any of the Officers or Trustees.</p><h3>Article 9th.</h3><p>This Society shall be vested with the power to appoint Agents, from time to time, to apply for and receive donations for the use of the Academy &amp; it shall further be their duty to pay into the Treasury all monies so received, as soon as given in into their hands.</p><h3>Article 10th.</h3><p>As the object of the Society is liberal and for the general dissemination of learning and science to all classes, no foreign influence shall be admitted, nor shall the Academy come under any other government than that of this Society.</p><h3>Article 11th.</h3><p>Any article of this constitution may be altered or amended provided a majority of this Society shall be present &amp; shall concur in such amendment or alteration.</p><p>William English</p><p>Jabez Leach</p><p>Kelly Johnson</p><p>Saml W. Blair</p><p>John S. Brown</p><p>Lewis Leach</p><p>Enos Elder</p><p>Zebadee Johnson</p><p>Ahijah Smith</p><p>J. M. B. Leach</p><p>Hugh Leach</p><p>James Leach</p><p>Brantley York</p><p>Joseph Johnson</p><p>John English</p><p>Lindsay Lamar</p><p>Ahi Robbins</p><p>Joseph Mendenhall</p><p>John W. Russom</p><p>Absalom Leach</p><p>Alexander Robbins</p><p>Val Hoover</p><p>Pleasant Ruddeck</p></div>"
         },
         "title" : "Transcript of the Constitution of the Union Institute Society",
         "promote" : 0,
         "field_revision" : {
            "title" : "Transcript of the Constitution of the Union Institute Society",
            "sticky" : 0,
            "changed" : null,
            "status" : 1,
            "langcode" : null,
            "default_langcode" : 1,
            "uid" : 1,
            "revision_translation_affected" : 1,
            "created" : null
         },
         "uid" : 13,
         "vuuid" : "e3151a9f-3965-4de6-ad15-b4b9cd505596",
         "log" : ""
      }
   ],
   "nid" : "308",
   "node__body" : {
      "body_value" : "<div id=\"UIConstitution\"><p>(Note: This constitution was drawn up in February 1839. The text has been altered in matters of punctuation and spelling.)</p><h3>Preamble</h3><p>We the people of Randolph &amp; the adjacent Counties, living in the vicinity of the Union Institute Academy, possessing no small share of philanthropy &amp; patriotism; believing that ignorance &amp; error are not only the bane of religious but also of civil society; that they oppose a formidable front to the march of internal improvement, as well as to all the arts and sciences &amp; rear up almost an impregnable wall between man and the happiness he so ardently pants after; that we may more effectually contribute our quota in dispelling that dismal gloom which has, with raven pinions, brooded over our country for ages, eclipsing the brilliant sun of science, and casting a deep shadow upon the whole mental region &amp; knowing the great advantages that bodies compact possess above individuals; we therefore ordain &amp; adopt the following articles &amp; resolutions.</p><h3>Article 1st.</h3><p>This Society shall be known &amp; distinguished by the name of the Union Institute Society.</p><h3>Article 2nd.</h3><p>All parents or guardians, who may send children or wards to this Institution &amp; all Students in the same, of the age of eighteen years, shall be considered as regular members of this Society. Each auxiliary Society which shall contribute fifteen dollars for the use of this institution shall be entitled to send one Delegate to this society &amp; other persons who shall be approved of by a majority of the regular members, on contributing the sum of five dollars, shall be received and entitled to all the privileges common to other members.</p><h3>Article 3rd.</h3><p>The Officers of this Society shall consist of a President, two Vice Presidents, one Secretary, one Secretary's assistant and Treasurer, who shall be elected annually and hold their respective offices for the term of twelve months.</p><h3>Article 4th.</h3><p>The President shall preside at all the meetings he may attend, but in case of his absence or inability, one of the Vice Presidents shall discharge that duty.</p><h3>Article 5th.</h3><p>The Secretary shall keep a list of all the names of the officers of this Society &amp; a journal of their proceedings &amp; he shall prepare for the press all the pieces the Society may order to be published.</p><h3>Article 6th.</h3><p>The Treasurer shall keep a true account of all monies received &amp; paid out by order of the Society, with a statement of the purpose to which it has been applied; but shall not be at liberty to apply any of the monies other ways than the Society shall direct.</p><h3>Article 7th.</h3><p>Nine members of the Society shall constitute a quorum for the transaction of all business that may come before the house.</p><h3>Article 8th.</h3><p>It shall be the duty of this Society to fill all vacancies which may occur in consequence of death, removal or resignation, of any of the Officers or Trustees.</p><h3>Article 9th.</h3><p>This Society shall be vested with the power to appoint Agents, from time to time, to apply for and receive donations for the use of the Academy &amp; it shall further be their duty to pay into the Treasury all monies so received, as soon as given in into their hands.</p><h3>Article 10th.</h3><p>As the object of the Society is liberal and for the general dissemination of learning and science to all classes, no foreign influence shall be admitted, nor shall the Academy come under any other government than that of this Society.</p><h3>Article 11th.</h3><p>Any article of this constitution may be altered or amended provided a majority of this Society shall be present &amp; shall concur in such amendment or alteration.</p><p>William English</p><p>Jabez Leach</p><p>Kelly Johnson</p><p>Saml W. Blair</p><p>John S. Brown</p><p>Lewis Leach</p><p>Enos Elder</p><p>Zebadee Johnson</p><p>Ahijah Smith</p><p>J. M. B. Leach</p><p>Hugh Leach</p><p>James Leach</p><p>Brantley York</p><p>Joseph Johnson</p><p>John English</p><p>Lindsay Lamar</p><p>Ahi Robbins</p><p>Joseph Mendenhall</p><p>John W. Russom</p><p>Absalom Leach</p><p>Alexander Robbins</p><p>Val Hoover</p><p>Pleasant Ruddeck</p></div>",
      "deleted" : 0,
      "body_format" : "full_html",
      "langcode" : "und",
      "revision_id" : 2519,
      "entity_id" : 308,
      "bundle" : "page",
      "delta" : 0,
      "body_summary" : ""
   },
   "langcode" : "und",
   "field_tags" : [],
   "type" : "page",
   "node_access" : null
}

