{
   "node__body" : {
      "body_summary" : "",
      "delta" : 0,
      "bundle" : "page",
      "entity_id" : 773,
      "revision_id" : 15333,
      "langcode" : "und",
      "deleted" : 0,
      "body_format" : "full_html",
      "body_value" : "<h3>Architect:</h3><h3>Date completed:</h3><table border=\"0\"><tbody><tr><td></td><td><img src=\"/rubenstein/sites/default/files/rubenstein/uarchives/rubenstein-library-1999.jpg\" alt=\"David M. Rubenstein Rare Book &amp; Manuscript Library, 1999\" title=\"David M. Rubenstein Rare Book &amp; Manuscript Library, 1999\" width=\"462\" height=\"300\" class=\"image-left img-responsive\"></td></tr></tbody></table><p>TEXT GO HERE</p><h3>For Further Research:</h3><p></p>"
   },
   "langcode" : "und",
   "field_tags" : [],
   "type" : "page",
   "node_access" : null,
   "asidebox" : null,
   "node_field_data" : {
      "sticky" : 0,
      "status" : 0,
      "type" : "page",
      "changed" : null,
      "default_langcode" : 1,
      "langcode" : "und",
      "created" : 1584629713,
      "revision_translation_affected" : 1,
      "uid" : 1,
      "promote" : 0,
      "title" : "David M. Rubenstein Library"
   },
   "revisions" : [
      {
         "timestamp" : 1584634343,
         "node_revision__body" : {
            "body_format" : "full_html",
            "deleted" : 0,
            "revision_id" : 15333,
            "langcode" : "und",
            "body_value" : "<h3>Architect:</h3><h3>Date completed:</h3><table border=\"0\"><tbody><tr><td></td><td><img src=\"/rubenstein/sites/default/files/rubenstein/uarchives/rubenstein-library-1999.jpg\" alt=\"David M. Rubenstein Rare Book &amp; Manuscript Library, 1999\" title=\"David M. Rubenstein Rare Book &amp; Manuscript Library, 1999\" width=\"462\" height=\"300\" class=\"image-left img-responsive\"></td></tr></tbody></table><p>TEXT GO HERE</p><h3>For Further Research:</h3><p></p>",
            "delta" : 0,
            "body_summary" : "",
            "bundle" : "page",
            "entity_id" : 773
         },
         "node_revision__field_tags" : [],
         "sticky" : 0,
         "status" : 0,
         "comment" : 1,
         "field_revision" : {
            "title" : "David M. Rubenstein Library",
            "status" : 0,
            "changed" : null,
            "sticky" : 0,
            "uid" : 1,
            "created" : null,
            "revision_translation_affected" : 1,
            "langcode" : null,
            "default_langcode" : 1
         },
         "promote" : 0,
         "title" : "David M. Rubenstein Library",
         "log" : "",
         "vuuid" : "436e2918-653f-40c9-93e5-19167a1adda6",
         "uid" : 13
      }
   ],
   "nid" : "773",
   "uuid" : "b23f221e-7323-490d-9d99-1606409acabf",
   "path_alias" : {
      "pid" : 921,
      "alias" : "/uarchives/history/exhibits/building-names/west/rubenstein-library",
      "langcode" : "und",
      "status" : 0,
      "language" : "und"
   },
   "field_image" : null,
   "vid" : 15333
}

