{
   "uuid" : "bed6819e-f2e5-40f9-8b22-c8fc91ac2456",
   "path_alias" : {
      "status" : 0,
      "language" : "und",
      "alias" : "/uarchives/history/exhibits/building-names/east/brodie",
      "pid" : 477,
      "langcode" : "und"
   },
   "vid" : 12473,
   "field_image" : null,
   "revisions" : [
      {
         "log" : "",
         "uid" : 13,
         "vuuid" : "a3a5079d-76b7-4a8d-82f0-eb7119a32320",
         "field_revision" : {
            "title" : "Brodie Recreation Center",
            "changed" : null,
            "status" : 1,
            "sticky" : 0,
            "uid" : 1,
            "revision_translation_affected" : 1,
            "created" : null,
            "langcode" : null,
            "default_langcode" : 1
         },
         "title" : "Brodie Recreation Center",
         "promote" : 0,
         "status" : 1,
         "node_revision__field_tags" : [],
         "node_revision__body" : {
            "bundle" : "page",
            "entity_id" : 397,
            "delta" : 0,
            "body_summary" : "",
            "body_value" : "<h3>Completed: 1996</h3><h3>Architect: Hastings &amp; Chivetta</h3><p><img src=\"/rubenstein/sites/default/files/rubenstein/users/MatthewSchaefer/Brodies_P1_300px.jpg\" alt=\"Brenda and H. Keith H. Brodie\" title=\"Brenda and H. Keith H. Brodie\" height=\"450\" style=\"float: right; margin-left: 5px;\">H. Keith H. Brodie (1939-2016) came to Duke in 1974 as chair of the department of psychiatry. In 1982, he became Chancellor of the University, and went on to become the seventh president of Duke University, serving from 1984-1993. He retained his professorship, and continued to teach classes in psychobiology after his tenure as president.</p><p>Brenda Barrowclough Brodie (1942- ) earned her bachelor’s in nursing from Columbia University in 1965. She is a former president of the Durham Arts Council, and served on the Duke Women's Studies Council, the Duke drama program advisory board, and the Friends of Duke Chapel.</p><p>The Brodie Recreation Center is a 31,000 square foot addition to the original East Campus Gymnasium, formerly known as the Alumni Memorial Gymnasium. Built in 1996, the entire complex was renamed after the Brodies.</p><p>The original building, Alumni Memorial Gymnasium, was erected in 1922-1923 with funds from alumni and friends of the college as a memorial to the Trinity men killed in World War I. The building featured a gymnasium and swimming pool, and was also used for dances and other social functions.</p><h2>For Further Research:</h2><ul><li><a href=\"http://library.duke.edu/rubenstein/findingaids/uabio/\">Biographical Reference Collection</a>&nbsp;- Contains biographical information on the Brodies.</li><li><a href=\"http://library.duke.edu/rubenstein/findingaids/uabuilding/\">Building Reference Collection</a>&nbsp;-&nbsp;Contains historical building information.</li></ul>",
            "body_format" : "full_html",
            "deleted" : 0,
            "revision_id" : 12473,
            "langcode" : "und"
         },
         "sticky" : 0,
         "comment" : 1,
         "timestamp" : 1511834630
      }
   ],
   "nid" : "397",
   "asidebox" : {
      "nid" : 397,
      "bid" : null,
      "body_title" : "",
      "block_delta" : null,
      "status" : "disabled",
      "body_value" : null,
      "vid" : 12473,
      "block_module" : null,
      "body_format" : null
   },
   "node_field_data" : {
      "sticky" : 0,
      "changed" : null,
      "status" : 1,
      "type" : "page",
      "default_langcode" : 1,
      "langcode" : "und",
      "revision_translation_affected" : 1,
      "created" : 1395339342,
      "uid" : 1,
      "promote" : 0,
      "title" : "Brodie Recreation Center"
   },
   "field_tags" : [],
   "type" : "page",
   "node_access" : null,
   "node__body" : {
      "revision_id" : 12473,
      "langcode" : "und",
      "body_format" : "full_html",
      "deleted" : 0,
      "body_value" : "<h3>Completed: 1996</h3><h3>Architect: Hastings &amp; Chivetta</h3><p><img src=\"/rubenstein/sites/default/files/rubenstein/users/MatthewSchaefer/Brodies_P1_300px.jpg\" alt=\"Brenda and H. Keith H. Brodie\" title=\"Brenda and H. Keith H. Brodie\" height=\"450\" style=\"float: right; margin-left: 5px;\">H. Keith H. Brodie (1939-2016) came to Duke in 1974 as chair of the department of psychiatry. In 1982, he became Chancellor of the University, and went on to become the seventh president of Duke University, serving from 1984-1993. He retained his professorship, and continued to teach classes in psychobiology after his tenure as president.</p><p>Brenda Barrowclough Brodie (1942- ) earned her bachelor’s in nursing from Columbia University in 1965. She is a former president of the Durham Arts Council, and served on the Duke Women's Studies Council, the Duke drama program advisory board, and the Friends of Duke Chapel.</p><p>The Brodie Recreation Center is a 31,000 square foot addition to the original East Campus Gymnasium, formerly known as the Alumni Memorial Gymnasium. Built in 1996, the entire complex was renamed after the Brodies.</p><p>The original building, Alumni Memorial Gymnasium, was erected in 1922-1923 with funds from alumni and friends of the college as a memorial to the Trinity men killed in World War I. The building featured a gymnasium and swimming pool, and was also used for dances and other social functions.</p><h2>For Further Research:</h2><ul><li><a href=\"http://library.duke.edu/rubenstein/findingaids/uabio/\">Biographical Reference Collection</a>&nbsp;- Contains biographical information on the Brodies.</li><li><a href=\"http://library.duke.edu/rubenstein/findingaids/uabuilding/\">Building Reference Collection</a>&nbsp;-&nbsp;Contains historical building information.</li></ul>",
      "body_summary" : "",
      "delta" : 0,
      "bundle" : "page",
      "entity_id" : 397
   },
   "langcode" : "und"
}

