{
   "node_field_data" : {
      "title" : "The History of the Duke University Library",
      "promote" : 0,
      "changed" : null,
      "status" : 1,
      "type" : "page",
      "sticky" : 0,
      "created" : 1375909799,
      "revision_translation_affected" : 1,
      "uid" : 1,
      "default_langcode" : 1,
      "langcode" : "und"
   },
   "asidebox" : {
      "bid" : null,
      "body_title" : "",
      "nid" : 102,
      "vid" : 11123,
      "block_module" : null,
      "body_format" : null,
      "block_delta" : null,
      "status" : "disabled",
      "body_value" : null
   },
   "nid" : "102",
   "revisions" : [
      {
         "comment" : 1,
         "status" : 1,
         "node_revision__body" : {
            "body_value" : "<div id=\"pageContentProper\"><p class=\"pageSection\">Duke University's modern library traces its roots to the libraries maintained by the campus literary societies. The Columbian Society, founded in 1846, and the Hesperian Society, founded in 1851, competed for members and in acquiring books for their collections. According to the <em>Trinity College Catalogue</em>, each society held 2,200 volumes by 1860, while the school itself held only 650. By 1876, the four campus library collections — Columbian, Hesperian, Theological and College — totaled more than 10,000 volumes. In 1887, new Trinity College president John Franklin Crowell persuaded the two campus literacy societies to merge their collections with that of the college, creating the Trinity College Library.&nbsp;</p><div class=\"pageSection\"><h2>The Trinity College Library</h2>After Trinity moved to Durham in 1892, the library occupied a large single room in the Washington Duke Building, the main building of the campus. One student from each of the two literary societies served as librarians. In 1900, James B. Duke donated funds for a library building. Ground was broken in 1901, and the building was completed in December 1902. The formal opening took place the following February. During construction, Duke donated an additional $10,000 for the purchase of books.</div><div class=\"pageSection\"><h2>Library Expansion</h2><img src=\"/rubenstein/sites/default/files/rubenstein/archives-other/general-library-postcard-400px.jpg\" alt=\"Postcard of General Library\" title=\"Postcard of General Library\" width=\"400\" height=\"241\" class=\"image-right img-responsive\">After the creation of the Duke Endowment in December 1924, a new building was constructed 75 yards northwest of the old library to serve as the institution's library during the transformation of Trinity College into Duke University. More than 100,000 books were moved to the new library after its completion in 1927.<br> <br> Upon the opening of West Campus in 1930, the university's books were moved from the library on East campus to the new General Library as well as to the newly established libraries for Biology, Chemistry, Divinity, Forestry, Law and Medicine. The East Campus library became the Woman's College Library. A new collection of 4,000 books had been purchased specifically for the Woman's College, although many women students complained that the collection was inadequate and traveled to West Campus to use the General Library. When the Woman's College merged with Trinity College in 1972, the library became the East Campus Library. In 1990, it was renamed Lilly Library in recognition of a generous gift from Miss Ruth Lilly.<br> <br> In 1949, the General Library on West Campus doubled its size through a contribution of Mrs. Mary Duke Biddle, daughter of Benjamin Newton Duke. The expansion included a new stack area, entry and the Treasure Room, now known as the Rare Book Room. Even with this expansion, the library quickly grew past its capacity due to its expanding acquisitions program.</div><div class=\"pageSection\"><h2>The Library Becomes a Major Research Institution</h2>A second expansion project was undertaken in 1966, and the General Library was named for William R. Perkins, a trustee of the Duke Endowment and friend and legal counsel to James B. Duke. When the project was completed in 1970, the newly enlarged Perkins Library had the capacity for 2.5 million volumes.</div><div class=\"pageSection\">&nbsp;</div><div class=\"pageSection\">By the late 1990s, it was clear that the library needed to expand again. In August 2000, the Perkins Library Renovation Committee began thinking creatively about the nature of library services and making recommendations regarding the design and function of Perkins Library. A new addition named after Duke graduates Roy and Merilee Bostock and their three children opened on October 12, 2005. The Bostock Library housed most of the library's services while the 1960s Perkins addition was renovated to house the newly created Information Commons.</div></div>",
            "deleted" : 0,
            "body_format" : "full_html",
            "langcode" : "und",
            "revision_id" : 11123,
            "entity_id" : 102,
            "bundle" : "page",
            "delta" : 0,
            "body_summary" : ""
         },
         "node_revision__field_tags" : [],
         "sticky" : 0,
         "timestamp" : 1488394559,
         "uid" : 7,
         "vuuid" : "eafef17b-2e80-4078-bac6-21cd0c774b83",
         "log" : "",
         "title" : "The History of the Duke University Library",
         "promote" : 0,
         "field_revision" : {
            "title" : "The History of the Duke University Library",
            "default_langcode" : 1,
            "langcode" : null,
            "created" : null,
            "revision_translation_affected" : 1,
            "uid" : 1,
            "sticky" : 0,
            "status" : 1,
            "changed" : null
         }
      }
   ],
   "uuid" : "c2591b50-0742-4098-93b2-35c3051516aa",
   "path_alias" : {
      "language" : "und",
      "status" : 0,
      "langcode" : "und",
      "alias" : "/uarchives/history/articles/library-history",
      "pid" : 149
   },
   "field_image" : null,
   "vid" : 11123,
   "node__body" : {
      "entity_id" : 102,
      "bundle" : "page",
      "body_summary" : "",
      "delta" : 0,
      "body_value" : "<div id=\"pageContentProper\"><p class=\"pageSection\">Duke University's modern library traces its roots to the libraries maintained by the campus literary societies. The Columbian Society, founded in 1846, and the Hesperian Society, founded in 1851, competed for members and in acquiring books for their collections. According to the <em>Trinity College Catalogue</em>, each society held 2,200 volumes by 1860, while the school itself held only 650. By 1876, the four campus library collections — Columbian, Hesperian, Theological and College — totaled more than 10,000 volumes. In 1887, new Trinity College president John Franklin Crowell persuaded the two campus literacy societies to merge their collections with that of the college, creating the Trinity College Library.&nbsp;</p><div class=\"pageSection\"><h2>The Trinity College Library</h2>After Trinity moved to Durham in 1892, the library occupied a large single room in the Washington Duke Building, the main building of the campus. One student from each of the two literary societies served as librarians. In 1900, James B. Duke donated funds for a library building. Ground was broken in 1901, and the building was completed in December 1902. The formal opening took place the following February. During construction, Duke donated an additional $10,000 for the purchase of books.</div><div class=\"pageSection\"><h2>Library Expansion</h2><img src=\"/rubenstein/sites/default/files/rubenstein/archives-other/general-library-postcard-400px.jpg\" alt=\"Postcard of General Library\" title=\"Postcard of General Library\" width=\"400\" height=\"241\" class=\"image-right img-responsive\">After the creation of the Duke Endowment in December 1924, a new building was constructed 75 yards northwest of the old library to serve as the institution's library during the transformation of Trinity College into Duke University. More than 100,000 books were moved to the new library after its completion in 1927.<br> <br> Upon the opening of West Campus in 1930, the university's books were moved from the library on East campus to the new General Library as well as to the newly established libraries for Biology, Chemistry, Divinity, Forestry, Law and Medicine. The East Campus library became the Woman's College Library. A new collection of 4,000 books had been purchased specifically for the Woman's College, although many women students complained that the collection was inadequate and traveled to West Campus to use the General Library. When the Woman's College merged with Trinity College in 1972, the library became the East Campus Library. In 1990, it was renamed Lilly Library in recognition of a generous gift from Miss Ruth Lilly.<br> <br> In 1949, the General Library on West Campus doubled its size through a contribution of Mrs. Mary Duke Biddle, daughter of Benjamin Newton Duke. The expansion included a new stack area, entry and the Treasure Room, now known as the Rare Book Room. Even with this expansion, the library quickly grew past its capacity due to its expanding acquisitions program.</div><div class=\"pageSection\"><h2>The Library Becomes a Major Research Institution</h2>A second expansion project was undertaken in 1966, and the General Library was named for William R. Perkins, a trustee of the Duke Endowment and friend and legal counsel to James B. Duke. When the project was completed in 1970, the newly enlarged Perkins Library had the capacity for 2.5 million volumes.</div><div class=\"pageSection\">&nbsp;</div><div class=\"pageSection\">By the late 1990s, it was clear that the library needed to expand again. In August 2000, the Perkins Library Renovation Committee began thinking creatively about the nature of library services and making recommendations regarding the design and function of Perkins Library. A new addition named after Duke graduates Roy and Merilee Bostock and their three children opened on October 12, 2005. The Bostock Library housed most of the library's services while the 1960s Perkins addition was renovated to house the newly created Information Commons.</div></div>",
      "langcode" : "und",
      "revision_id" : 11123,
      "body_format" : "full_html",
      "deleted" : 0
   },
   "langcode" : "und",
   "type" : "page",
   "field_tags" : [],
   "node_access" : null
}

