{
   "nid" : "789",
   "revisions" : [
      {
         "status" : 1,
         "node_revision__field_tags" : [],
         "node_revision__body" : {
            "entity_id" : 789,
            "bundle" : "page",
            "delta" : 0,
            "body_summary" : "",
            "body_value" : "<p>A <strong><em>record group</em></strong> is a designation given to University Archives’ materials by Archives staff. These artificial designations are primarily based on the structure of Duke University and are intended to organize the collections by organizational area and function. For example, all of records of the Presidents, including the Office of the President, as well as individual President’s records, are grouped together in RG 3. Each record group also has subgroups. Subgroups are assigned to collections by Archives staff.</p><p>Record groups are regularly updated based on organizational changes at the university. Record group and subgroup names are based on the current name of the office, center, or department; previous names are also listed if known.&nbsp;</p><p>Researchers may see “gaps” in the numbers of subgroups; these gaps are based on internal archival practices and are not indicative of gaps in the collections.&nbsp;</p><p>These record groups are designed to show researchers the scope of collections and allow them to orient themselves within organizational collecting areas. Researchers may use these record groups as another tool to search and explore University Archives’ collections. Researchers should note that they may need to review collections within multiple record groups to explore the full extent of the Duke University Archives’ collections. For example, if you are looking for information on the Department of English, you may need to search the Trinity College of Arts and Sciences (RG 25), the Papers of Faculty, Staff, and Associates (RG 29), and the Office of the Provost (RG 5) as well.&nbsp;&nbsp;</p><p>Please also note that the collections displayed through the record groups below are limited to those which currently have published collection guides. Additional Archives collections without published collection guides are available through the <a href=\"https://library.duke.edu/rubenstein/\" target=\"_blank\">Duke University Libraries catalog</a>.&nbsp;</p><p>Questions about these record groups? Contact the University Archives via this <a href=\"https://library.duke.edu/rubenstein/uarchives/ask\" target=\"_blank\">inquiry form</a>.</p>",
            "deleted" : 0,
            "body_format" : "full_html",
            "langcode" : "und",
            "revision_id" : 16263
         },
         "sticky" : 0,
         "comment" : 1,
         "timestamp" : 1594153507,
         "log" : "",
         "uid" : 13,
         "vuuid" : "2057cb55-2ead-4448-ba43-dd5e62398a3b",
         "field_revision" : {
            "title" : "What is a Record Group?",
            "sticky" : 0,
            "changed" : null,
            "status" : 1,
            "langcode" : null,
            "default_langcode" : 1,
            "uid" : 1,
            "revision_translation_affected" : 1,
            "created" : null
         },
         "title" : "What is a Record Group?",
         "promote" : 0
      }
   ],
   "node_field_data" : {
      "promote" : 0,
      "title" : "What is a Record Group?",
      "sticky" : 0,
      "type" : "page",
      "status" : 1,
      "changed" : null,
      "default_langcode" : 1,
      "langcode" : "und",
      "revision_translation_affected" : 1,
      "created" : 1593530183,
      "uid" : 1
   },
   "asidebox" : {
      "body_format" : "full_html",
      "vid" : 16263,
      "block_module" : null,
      "status" : "html",
      "body_value" : "<p><a href=\"https://archives.lib.duke.edu/collections/ua-record-groups\" target=\"_blank\">Browse University Archives record groups</a>.</p>",
      "block_delta" : null,
      "bid" : null,
      "body_title" : "",
      "nid" : 789
   },
   "uuid" : "c2f5c6de-c631-4579-aad4-ff85361fff28",
   "path_alias" : {
      "status" : 0,
      "language" : "und",
      "alias" : "/uarchives/about/record-groups",
      "pid" : 939,
      "langcode" : "und"
   },
   "field_image" : null,
   "vid" : 16263,
   "type" : "page",
   "field_tags" : [],
   "node_access" : null,
   "node__body" : {
      "deleted" : 0,
      "body_format" : "full_html",
      "revision_id" : 16263,
      "langcode" : "und",
      "body_value" : "<p>A <strong><em>record group</em></strong> is a designation given to University Archives’ materials by Archives staff. These artificial designations are primarily based on the structure of Duke University and are intended to organize the collections by organizational area and function. For example, all of records of the Presidents, including the Office of the President, as well as individual President’s records, are grouped together in RG 3. Each record group also has subgroups. Subgroups are assigned to collections by Archives staff.</p><p>Record groups are regularly updated based on organizational changes at the university. Record group and subgroup names are based on the current name of the office, center, or department; previous names are also listed if known.&nbsp;</p><p>Researchers may see “gaps” in the numbers of subgroups; these gaps are based on internal archival practices and are not indicative of gaps in the collections.&nbsp;</p><p>These record groups are designed to show researchers the scope of collections and allow them to orient themselves within organizational collecting areas. Researchers may use these record groups as another tool to search and explore University Archives’ collections. Researchers should note that they may need to review collections within multiple record groups to explore the full extent of the Duke University Archives’ collections. For example, if you are looking for information on the Department of English, you may need to search the Trinity College of Arts and Sciences (RG 25), the Papers of Faculty, Staff, and Associates (RG 29), and the Office of the Provost (RG 5) as well.&nbsp;&nbsp;</p><p>Please also note that the collections displayed through the record groups below are limited to those which currently have published collection guides. Additional Archives collections without published collection guides are available through the <a href=\"https://library.duke.edu/rubenstein/\" target=\"_blank\">Duke University Libraries catalog</a>.&nbsp;</p><p>Questions about these record groups? Contact the University Archives via this <a href=\"https://library.duke.edu/rubenstein/uarchives/ask\" target=\"_blank\">inquiry form</a>.</p>",
      "delta" : 0,
      "body_summary" : "",
      "bundle" : "page",
      "entity_id" : 789
   },
   "langcode" : "und"
}

