{
   "node__body" : {
      "body_summary" : "",
      "delta" : 0,
      "bundle" : "about_page",
      "entity_id" : 759,
      "revision_id" : 14661,
      "langcode" : "und",
      "body_format" : "full_html",
      "deleted" : 0,
      "body_value" : "<p>The David M. Rubenstein Rare Book &amp; Manuscript Library (RL) collects materials related to its research centers and other areas of collecting strength, and to that end we selectively add captures of websites and social media content to our collections. Social media may include services such as Twitter, Facebook, and Instagram. The following principles guide our collecting decisions.</p><ul><li>We gather websites and social media related to organizations and individuals whose archives, manuscripts, and print materials we collect in the Rubenstein Library. This is done in consultation with the donor, donating organization, or transferring office to determine the appropriate scope of the web and social media collection.</li><li>We will occasionally collect materials through shared hashtags or other means of aggregation, in order to preserve conversations on topics of importance to Rubenstein Library collections.</li><li>Some social media platforms are difficult or impossible to collect due to the structure of the service. Because social media services are changing constantly, we cannot guarantee we will be able to collect all materials on any social media platform on an ongoing basis.</li><li>We collect social media in compliance with the terms of service of the individual platforms.</li><li>We collect social media in accordance with industry best practices.</li><li>We respect the privacy of individuals who have contributed to social media accounts or used hashtags but did not or could not expect their contributions to be collected and shared by an archival repository. To that end, we will make attempts to obscure contributors or restrict access to collections where we believe privacy may be a concern of contributors.</li><li>Individuals who have concerns about the collection of social media or websites for the Rubenstein Library should <a href=\"https://library.duke.edu/rubenstein/ask\" title=\"Ask a Question\">contact us</a>.</li></ul><h2>Tools Used</h2><p class=\"MsoNormal\"></p><ul><li>We use Archive-It (a service of the Internet Archive), twarc, and Twitter Archive Google Service (TAGS) to collect websites and social media.</li><li>For social media services, we primarily attempt to collect content, and may not be able to capture the original look and feel of individual services.</li><li>As web content and social media platforms change, we will investigate new ways of collecting this content.</li></ul><h2>Researcher Access</h2><ul><li>Web content collected by Rubenstein Library via Archive-It is publicly available at https://archive-it.org/organizations/419 and described via the collection guides or catalog records for the relevant collection.</li><li>Websites and social media content acquired via other tools may be requested for use in the Rubenstein Library reading room. Some of this content may also be available via the Duke Digital Repository, if allowed by the platform’s terms of service. Description of these records will be added to collection guides and/or catalog records, akin to other born-digital records held in the Rubenstein.</li><li>Due to changes and variation in the terms of service of individual platforms, access to collected social media may be restricted.</li><li>Due to donor request or privacy concerns, some collections may be restricted for a period of time, or have contributor names obscured.</li></ul><p></p><p class=\"MsoNormal\" style=\"margin: 1em 0px; padding: 0px; border: 0px; vertical-align: baseline; color: #000000; font-family: 'Lucida Grande', 'Lucida Sans Unicode', sans-serif; font-size: 13.008px; font-style: normal; font-variant-ligatures: normal; font-variant-caps: normal; font-weight: 400; letter-spacing: normal; orphans: 2; text-align: start; text-indent: 0px; text-transform: none; white-space: normal; widows: 2; word-spacing: 0px; -webkit-text-stroke-width: 0px; text-decoration-style: initial; text-decoration-color: initial;\"></p>"
   },
   "langcode" : "und",
   "field_tags" : [],
   "type" : "about_page",
   "node_access" : null,
   "asidebox" : {
      "body_format" : null,
      "vid" : 14661,
      "block_module" : null,
      "status" : "disabled",
      "body_value" : null,
      "block_delta" : null,
      "bid" : null,
      "body_title" : "",
      "nid" : 759
   },
   "node_field_data" : {
      "promote" : 0,
      "title" : "Website and Social Media Collecting Policy",
      "langcode" : "und",
      "default_langcode" : 1,
      "uid" : 1,
      "created" : 1567612441,
      "revision_translation_affected" : 1,
      "sticky" : 0,
      "status" : 1,
      "changed" : null,
      "type" : "about_page"
   },
   "revisions" : [
      {
         "status" : 1,
         "node_revision__field_tags" : [],
         "sticky" : 0,
         "node_revision__body" : {
            "body_value" : "<p>The David M. Rubenstein Rare Book &amp; Manuscript Library (RL) collects materials related to its research centers and other areas of collecting strength, and to that end we selectively add captures of websites and social media content to our collections. Social media may include services such as Twitter, Facebook, and Instagram. The following principles guide our collecting decisions.</p><ul><li>We gather websites and social media related to organizations and individuals whose archives, manuscripts, and print materials we collect in the Rubenstein Library. This is done in consultation with the donor, donating organization, or transferring office to determine the appropriate scope of the web and social media collection.</li><li>We will occasionally collect materials through shared hashtags or other means of aggregation, in order to preserve conversations on topics of importance to Rubenstein Library collections.</li><li>Some social media platforms are difficult or impossible to collect due to the structure of the service. Because social media services are changing constantly, we cannot guarantee we will be able to collect all materials on any social media platform on an ongoing basis.</li><li>We collect social media in compliance with the terms of service of the individual platforms.</li><li>We collect social media in accordance with industry best practices.</li><li>We respect the privacy of individuals who have contributed to social media accounts or used hashtags but did not or could not expect their contributions to be collected and shared by an archival repository. To that end, we will make attempts to obscure contributors or restrict access to collections where we believe privacy may be a concern of contributors.</li><li>Individuals who have concerns about the collection of social media or websites for the Rubenstein Library should <a href=\"https://library.duke.edu/rubenstein/ask\" title=\"Ask a Question\">contact us</a>.</li></ul><h2>Tools Used</h2><p class=\"MsoNormal\"></p><ul><li>We use Archive-It (a service of the Internet Archive), twarc, and Twitter Archive Google Service (TAGS) to collect websites and social media.</li><li>For social media services, we primarily attempt to collect content, and may not be able to capture the original look and feel of individual services.</li><li>As web content and social media platforms change, we will investigate new ways of collecting this content.</li></ul><h2>Researcher Access</h2><ul><li>Web content collected by Rubenstein Library via Archive-It is publicly available at https://archive-it.org/organizations/419 and described via the collection guides or catalog records for the relevant collection.</li><li>Websites and social media content acquired via other tools may be requested for use in the Rubenstein Library reading room. Some of this content may also be available via the Duke Digital Repository, if allowed by the platform’s terms of service. Description of these records will be added to collection guides and/or catalog records, akin to other born-digital records held in the Rubenstein.</li><li>Due to changes and variation in the terms of service of individual platforms, access to collected social media may be restricted.</li><li>Due to donor request or privacy concerns, some collections may be restricted for a period of time, or have contributor names obscured.</li></ul><p></p><p class=\"MsoNormal\" style=\"margin: 1em 0px; padding: 0px; border: 0px; vertical-align: baseline; color: #000000; font-family: 'Lucida Grande', 'Lucida Sans Unicode', sans-serif; font-size: 13.008px; font-style: normal; font-variant-ligatures: normal; font-variant-caps: normal; font-weight: 400; letter-spacing: normal; orphans: 2; text-align: start; text-indent: 0px; text-transform: none; white-space: normal; widows: 2; word-spacing: 0px; -webkit-text-stroke-width: 0px; text-decoration-style: initial; text-decoration-color: initial;\"></p>",
            "deleted" : 0,
            "body_format" : "full_html",
            "langcode" : "und",
            "revision_id" : 14661,
            "entity_id" : 759,
            "bundle" : "about_page",
            "delta" : 0,
            "body_summary" : ""
         },
         "comment" : 1,
         "timestamp" : 1567612791,
         "log" : "",
         "uid" : 59,
         "vuuid" : "8e80ae5f-7c01-4065-b920-382c80bc70bb",
         "field_revision" : {
            "title" : "Website and Social Media Collecting Policy",
            "sticky" : 0,
            "status" : 1,
            "changed" : null,
            "default_langcode" : 1,
            "langcode" : null,
            "revision_translation_affected" : 1,
            "created" : null,
            "uid" : 1
         },
         "title" : "Website and Social Media Collecting Policy",
         "promote" : 0
      }
   ],
   "nid" : "759",
   "uuid" : "c88b1452-321b-481c-9ab4-642aef071d40",
   "path_alias" : {
      "alias" : "/content/website-and-social-media-collecting-policy",
      "pid" : 901,
      "langcode" : "und",
      "status" : 0,
      "language" : "und"
   },
   "vid" : 14661,
   "field_image" : null
}

