{
   "uuid" : "d69800f0-a67a-4660-9b44-97e2229a36e1",
   "path_alias" : {
      "language" : "und",
      "status" : 0,
      "langcode" : "und",
      "alias" : "/documentaryarts/acquisitions",
      "pid" : 629
   },
   "vid" : 16345,
   "field_image" : null,
   "asidebox" : {
      "bid" : null,
      "body_title" : "",
      "nid" : 527,
      "body_format" : null,
      "vid" : 16345,
      "block_module" : null,
      "status" : "disabled",
      "body_value" : null,
      "block_delta" : null
   },
   "node_field_data" : {
      "status" : 1,
      "changed" : null,
      "type" : "page",
      "sticky" : 0,
      "revision_translation_affected" : 1,
      "created" : 1423155284,
      "uid" : 1,
      "default_langcode" : 1,
      "langcode" : "und",
      "title" : "Acquisitions",
      "promote" : 0
   },
   "revisions" : [
      {
         "timestamp" : 1596825249,
         "status" : 1,
         "node_revision__body" : {
            "body_value" : "<p>The Archive of Documentary Arts actively acquires historical and contemporary documentary projects directly from artists and collectors through purchases and donations. Before submitting your work or collection for consideration, acquaint yourself with our <a href=\"http://library.duke.edu/rubenstein/documentaryarts/about\">history</a> and <a href=\"http://library.duke.edu/rubenstein/documentaryarts/collection-guides\">collections</a> to determine whether your project is a good match for us. We are most interested in cohesive bodies of work in the final stages of completion. Our staff is small and we receive a large number of inquiries, so it may take time for us to respond to your submission.</p>\r\n\r\n<p>We look forward to becoming acquainted with you and your work! <a href=\"https://lists.duke.edu/sympa/subscribe/archive_of_documentary_arts\">Subscribe to our mailing list</a> for future acquisition opportunities and news from the Archive of Documentary Arts.</p>",
            "body_format" : "full_html_no_wysiwyg",
            "deleted" : 0,
            "langcode" : "und",
            "revision_id" : 16345,
            "entity_id" : 527,
            "bundle" : "page",
            "delta" : 0,
            "body_summary" : ""
         },
         "node_revision__field_tags" : [],
         "sticky" : 0,
         "comment" : 1,
         "field_revision" : {
            "title" : "Acquisitions",
            "default_langcode" : 1,
            "langcode" : null,
            "created" : null,
            "revision_translation_affected" : 1,
            "uid" : 1,
            "sticky" : 0,
            "changed" : null,
            "status" : 1
         },
         "title" : "Acquisitions",
         "promote" : 0,
         "log" : "",
         "uid" : 183,
         "vuuid" : "4a5f7da3-e43e-4872-91bd-8cb427b38842"
      }
   ],
   "nid" : "527",
   "node__body" : {
      "body_value" : "<p>The Archive of Documentary Arts actively acquires historical and contemporary documentary projects directly from artists and collectors through purchases and donations. Before submitting your work or collection for consideration, acquaint yourself with our <a href=\"http://library.duke.edu/rubenstein/documentaryarts/about\">history</a> and <a href=\"http://library.duke.edu/rubenstein/documentaryarts/collection-guides\">collections</a> to determine whether your project is a good match for us. We are most interested in cohesive bodies of work in the final stages of completion. Our staff is small and we receive a large number of inquiries, so it may take time for us to respond to your submission.</p>\r\n\r\n<p>We look forward to becoming acquainted with you and your work! <a href=\"https://lists.duke.edu/sympa/subscribe/archive_of_documentary_arts\">Subscribe to our mailing list</a> for future acquisition opportunities and news from the Archive of Documentary Arts.</p>",
      "body_format" : "full_html_no_wysiwyg",
      "deleted" : 0,
      "revision_id" : 16345,
      "langcode" : "und",
      "bundle" : "page",
      "entity_id" : 527,
      "delta" : 0,
      "body_summary" : ""
   },
   "langcode" : "und",
   "field_tags" : [],
   "type" : "page",
   "node_access" : null
}

