{
   "uuid" : "d88fc93d-b167-45ef-83d7-82af5553febf",
   "path_alias" : {
      "language" : "und",
      "status" : 0,
      "langcode" : "und",
      "pid" : 927,
      "alias" : "/uarchives/transfer/documenting-covid19"
   },
   "vid" : 16205,
   "field_image" : null,
   "node_field_data" : {
      "promote" : 0,
      "title" : "Share Your COVID-19 Story",
      "sticky" : 0,
      "type" : "page",
      "status" : 1,
      "changed" : null,
      "default_langcode" : 1,
      "langcode" : "und",
      "created" : 1586789072,
      "revision_translation_affected" : 1,
      "uid" : 1
   },
   "asidebox" : {
      "status" : "html",
      "body_value" : "<p><a href=\"https://duke.qualtrics.com/jfe/form/SV_291jLKh9KVp3Lwh\" target=\"_blank\">Sign up to receive reminders and news about submitting your COVID-19 story!</a></p><p><a href=\"https://duke.qualtrics.com/jfe/form/SV_6ukci0IXQwYOYWV\">Submit your COVID-19 story now!</a></p><p><a href=\"https://library.duke.edu/rubenstein/uarchives/transfer/documenting-covid19/faq\">\"Share Your COVID-19 Story\" FAQs</a></p><p><a href=\"https://library.duke.edu/rubenstein/uarchives/transfer/documenting-covid19/prompts\">\"Share Your COVID-19 Story\" Prompts</a></p>",
      "block_delta" : null,
      "body_format" : "full_html",
      "vid" : 16205,
      "block_module" : null,
      "nid" : 779,
      "bid" : null,
      "body_title" : "Quick Links"
   },
   "nid" : "779",
   "revisions" : [
      {
         "uid" : 13,
         "vuuid" : "380a4a70-3c82-467f-9425-71998f1d06c8",
         "log" : "",
         "title" : "Share Your COVID-19 Story",
         "promote" : 0,
         "field_revision" : {
            "changed" : null,
            "status" : 1,
            "sticky" : 0,
            "uid" : 1,
            "revision_translation_affected" : 1,
            "created" : null,
            "langcode" : null,
            "default_langcode" : 1,
            "title" : "Share Your COVID-19 Story"
         },
         "comment" : 1,
         "status" : 1,
         "node_revision__body" : {
            "deleted" : 0,
            "body_format" : "full_html",
            "revision_id" : 16205,
            "langcode" : "und",
            "body_value" : "<div class=\"striped-back\"><p>If you are a member of the <strong>School of Medicine, School of Nursing, or Duke Health communities</strong>, the Medical Center Archives and Library are collecting your stories.</p><p>Please visit their <a href=\"https://archives.mc.duke.edu/documenting-covid19\">collecting project website</a> for more information.</p></div><p>COVID-19 has changed and disrupted our lives, at Duke and around the world. On campus, most students have returned home, classes are online, and all events are cancelled. Many staff are working from home; others that are deemed essential continue to work on campus. The hospital is preparing for an influx of people infected with COVID-19. Duke researchers are trying to find ways to fight the disease, from identifying treatments to creating better protective equipment.</p><p>And we all live with the fear of the impact of the virus, both for ourselves and our loved ones.</p><p>The Duke University Archives and the Duke University Medical Center Archives have been hard at work to document this unique time in history. We have been capturing all of the news alerts, email updates, Duke COVID-19 websites, and online research symposiums. As much as we are able to gather online, these materials only tell a part of the story.</p><p>We would like to hear from students, staff, faculty, and other people who live, work, or study at Duke. You may tell your story through writing, photographs, film, or other means. We've also created a <a href=\"https://library.duke.edu/rubenstein/uarchives/transfer/documenting-covid19/prompts\">list of optional prompts</a>, if you're not certain where to begin your story. (Durham community members,&nbsp;<a href=\"https://www.museumofdurhamhistory.org/blog/keep-engaged-w-durham-stories-during-covid-19-activities-to-help-keep-your-spirits-up/\" target=\"_blank\">connect with the Museum of Durham History</a>&nbsp;to share your stories!)</p><ul><li><strong>Interested?</strong> If you are interested in sharing your story at some point in the future, please fill out this <strong><a href=\"https://duke.qualtrics.com/jfe/form/SV_291jLKh9KVp3Lwh\">online form</a></strong>. Signing up won't obligate you to submit anything; it simply permits Archives staff to reach out to you periodically to let you know about options for submission. You can opt out of receiving these notices at any time.</li></ul><ul><li><strong>Ready to share?</strong> If you would like to share your story now, you can send it to us using this <strong><a href=\"https://duke.qualtrics.com/jfe/form/SV_6ukci0IXQwYOYWV\">submission form</a></strong>.</li></ul><p>Your story will be submitted to the University Archives or the Medical Center Archives, where it will be permanently preserved and made available for research. We recognize that you may want time to reflect on your experiences and will continue to collect stories on an ongoing basis. The submission process will include options for keeping your name anonymous; in that case, your contact information would be known only to the staff of the University Archives and Medical Center Archives.</p><p>Most importantly, please know that your story matters. We want to hear yours. Please <a href=\"https://library.duke.edu/rubenstein/uarchives/ask\" target=\"_blank\">contact us with any questions</a>&nbsp;or <a href=\"https://library.duke.edu/rubenstein/uarchives/transfer/documenting-covid19/faq\">take a look at our FAQ page</a> for more detailed information.</p>",
            "delta" : 0,
            "body_summary" : "",
            "bundle" : "page",
            "entity_id" : 779
         },
         "node_revision__field_tags" : [],
         "sticky" : 0,
         "timestamp" : 1591712587
      }
   ],
   "node__body" : {
      "body_value" : "<div class=\"striped-back\"><p>If you are a member of the <strong>School of Medicine, School of Nursing, or Duke Health communities</strong>, the Medical Center Archives and Library are collecting your stories.</p><p>Please visit their <a href=\"https://archives.mc.duke.edu/documenting-covid19\">collecting project website</a> for more information.</p></div><p>COVID-19 has changed and disrupted our lives, at Duke and around the world. On campus, most students have returned home, classes are online, and all events are cancelled. Many staff are working from home; others that are deemed essential continue to work on campus. The hospital is preparing for an influx of people infected with COVID-19. Duke researchers are trying to find ways to fight the disease, from identifying treatments to creating better protective equipment.</p><p>And we all live with the fear of the impact of the virus, both for ourselves and our loved ones.</p><p>The Duke University Archives and the Duke University Medical Center Archives have been hard at work to document this unique time in history. We have been capturing all of the news alerts, email updates, Duke COVID-19 websites, and online research symposiums. As much as we are able to gather online, these materials only tell a part of the story.</p><p>We would like to hear from students, staff, faculty, and other people who live, work, or study at Duke. You may tell your story through writing, photographs, film, or other means. We've also created a <a href=\"https://library.duke.edu/rubenstein/uarchives/transfer/documenting-covid19/prompts\">list of optional prompts</a>, if you're not certain where to begin your story. (Durham community members,&nbsp;<a href=\"https://www.museumofdurhamhistory.org/blog/keep-engaged-w-durham-stories-during-covid-19-activities-to-help-keep-your-spirits-up/\" target=\"_blank\">connect with the Museum of Durham History</a>&nbsp;to share your stories!)</p><ul><li><strong>Interested?</strong> If you are interested in sharing your story at some point in the future, please fill out this <strong><a href=\"https://duke.qualtrics.com/jfe/form/SV_291jLKh9KVp3Lwh\">online form</a></strong>. Signing up won't obligate you to submit anything; it simply permits Archives staff to reach out to you periodically to let you know about options for submission. You can opt out of receiving these notices at any time.</li></ul><ul><li><strong>Ready to share?</strong> If you would like to share your story now, you can send it to us using this <strong><a href=\"https://duke.qualtrics.com/jfe/form/SV_6ukci0IXQwYOYWV\">submission form</a></strong>.</li></ul><p>Your story will be submitted to the University Archives or the Medical Center Archives, where it will be permanently preserved and made available for research. We recognize that you may want time to reflect on your experiences and will continue to collect stories on an ongoing basis. The submission process will include options for keeping your name anonymous; in that case, your contact information would be known only to the staff of the University Archives and Medical Center Archives.</p><p>Most importantly, please know that your story matters. We want to hear yours. Please <a href=\"https://library.duke.edu/rubenstein/uarchives/ask\" target=\"_blank\">contact us with any questions</a>&nbsp;or <a href=\"https://library.duke.edu/rubenstein/uarchives/transfer/documenting-covid19/faq\">take a look at our FAQ page</a> for more detailed information.</p>",
      "revision_id" : 16205,
      "langcode" : "und",
      "deleted" : 0,
      "body_format" : "full_html",
      "bundle" : "page",
      "entity_id" : 779,
      "body_summary" : "",
      "delta" : 0
   },
   "langcode" : "und",
   "type" : "page",
   "field_tags" : [],
   "node_access" : null
}

