{
   "nid" : "302",
   "revisions" : [
      {
         "timestamp" : 1617060587,
         "comment" : 1,
         "status" : 1,
         "sticky" : 0,
         "node_revision__field_tags" : [],
         "node_revision__body" : {
            "body_value" : "<h2><a name=\"general\">General Duke University History</a></h2>\r\n<h3 class=\"accordion\">How can I learn more about the Duke family?</h3>\r\n\r\n<div class=\"panel\">\r\n  <p>After the Civil War, as Durham became nationally known for brightleaf tobacco, Washington Duke, along with children Mary, Benjamin, and James, established a small business producing smoking tobacco on their farm, now known as <a href=\"https://dukehomestead.org/\">Duke Homestead</a>, a North Carolina State Historic Site. The business was founded as W. Duke, Sons, and Company in 1878 and would eventually develop into the American Tobacco Company. The family also had interests in Durham real estate, textiles, and later hydroelectric power, the foundation of today’s Duke Energy.</p>\r\n  \r\n  <p>In 1890, Washington Duke provided $85,000 to Randolph County’s Trinity College to finance its move to Durham, beginning the family’s support for the school. Son James B. Duke’s creation of The Duke Endowment in 1924 provided ongoing funding for Trinity College (which changed its name to Duke University), Johnson C. Smith University, Furman University, and Davidson College, along with organizations supporting child care, churches, higher education, and hospitals throughout North and South Carolina.</p>\r\n  \r\n  <p>Doris Duke, James B. Duke's only child, continued the family’s philanthropic work by setting up the <a href=\"http://fdncenter.org/grantmaker/dorisduke/index.html\">Doris Duke Charitable Foundation</a>. The foundation supports the arts, child care, the environment and medical research. Another family philanthropy is Durham's <a href=\"http://www.marydukebiddlefoundation.org/\">Mary Duke Biddle Foundation</a>, established by Benjamin N. Duke's daughter, Mary Duke Biddle.</p>\r\n  \r\n  <p>You’ll find a number of resources about the Duke family on the University Archives’ website, including:</p>\r\n  \r\n  <ul>\r\n\r\n    <li><a href=\"https://library.duke.edu/rubenstein/uarchives/history/articles/duke-family\">Historical articles</a> about Washington, Benjamin N., and James B. Duke</li>\r\n    \r\n    <li>A <a href=\"https://guides.library.duke.edu/dukefamily\">research guide</a> about the Duke family</li>\r\n    \r\n    <li>A <a href=\"https://library.duke.edu/rubenstein/sites/default/files/rubenstein/uarchives/WDuke_family_chart_0.pdf\">genealogy</a> of Washington Duke and his descendants</li>\r\n    \r\n    </ul>\r\n\r\n</div>\r\n\r\n\r\n\r\n<h3 class=\"accordion\">Who has served as Duke University's presidents?</h3>\r\n\r\n<div class=\"panel\">\r\n  \r\n<ul><li>1838-1842: Brantley York (b. 1805, d. 1891)\r\n<ul><li>Principal of Brown's Schoolhouse (1838-1841)</li>\r\n<li>Principal of Union Institute Academy (1839-1842)</li></ul></li>\r\n<li>1842-1863: Braxton Craven (b. 1822, d. 1882)\r\n<ul><li>Principal of Union Institute Academy (1842-1851)</li>\r\n<li>President of Normal College (1851-1859)</li>\r\n<li>President of Trinity College (1859-1863; 1865-1882)</li></ul></li>\r\n<li>1863-1865: William Trigg Gannaway (b. 1825, d. 1910)</li>\r\n<li>1883-1884: Marquis Lafayette Wood (b. 1829 , d. 1893)</li>\r\n<li>1884-1887: Trinity College governed by a committee of the Board of Trustees</li>\r\n<li>1887-1894: John Franklin Crowell (b. 1857, d. 1931), oversaw the move from Randolph County to Durham, NC in 1892</li>\r\n<li>1894-1910: John Carlisle Kilgo (b. 1861, d. 1922)</li>\r\n<li>1910-1940: William Preston Few (b. 1867, d. 1940), oversaw the transition from Trinity College to Duke University in 1924</li>\r\n<li>1941-1948: Robert Lee Flowers (b. 1870, d. 1951)</li>\r\n<li>1949-1960: Arthur Hollis Edens (b. 1901, d. 1968)</li>\r\n<li>1960-1963: Julian Deryl Hart (b. 1894, d. 1980)</li>\r\n<li>1963-1969: Douglas Maitland Knight (b. 1921, d. 2005)</li>\r\n<li>1970-1985: Terry Sanford (b. 1917, d. 1998)</li>\r\n<li>1985-1993:  H. Keith H. Brodie (b. 1939, d. 2016)</li>\r\n<li>1993-2004: Nannerl O. Keohane (b. 1940)</li>\r\n<li>2004-2017: Richard H. Brodhead (b. 1947)</li>\r\n<li>2017-present: Vincent E. Price (b. 1957)</li></ul></p>\r\n\r\nVisit our <a href=\"https://library.duke.edu/rubenstein/collections/creators/corporations/duke-presidents\">timeline of Duke's presidential history</a> to learn more!\r\n  \r\n</div>\r\n\r\n<h3 class=\"accordion\">What was the cost of tuition at Duke University in a particular year?</h3>\r\n\r\n<div class=\"panel\">\r\n  \r\n<p>View yearly figures for Duke University tuition <a href=\"https://library.duke.edu/rubenstein/uarchives/history/articles/statistics\">here</a>. For the current academic year, tuition figures are available on the <a href=\"https://facts.duke.edu/\">Duke Facts website</a>.</p>\r\n</div>\r\n\r\n<h3 class=\"accordion\">Where can I find Duke University's mission statement, charter, and bylaws?</h3>\r\n\r\n<div class=\"panel\">\r\n  \r\n  <p>The University's current charter, bylaws, and mission statement can be found on the \"<a href=\"https://trustees.duke.edu/governing-documents\">Governing Documents</a>\" page at the Duke University Board of Trustees website. These documents, including sections of James B. Duke's Indenture of Trust that concern the University, may also be found in Appendix A of the <i><a href=\"http://www.provost.duke.edu/policies/fhb.html\">Duke University Faculty Handbook</a></i>, which is distributed by the Office of the Provost.</p>\r\n<p>Duke University Archives holds the Constitution of the Union Institute Society, dated February 1839. This is the first governing document of the university and the oldest official record in the Duke University Archives. To view a digitized copy of this document, please visit our <a href=\"https://library.duke.edu/rubenstein/uarchives/history/articles/charter-bylaws-aims-mission\">webpage</a>.</p>\r\n  \r\n</div>\r\n\r\n<h3 class=\"accordion\">What is Duke University's motto, shield, and seal?</h3>\r\n\r\n<div class=\"panel\">\r\n  \r\n<p>Duke's Latin motto, Eruditio et Religio, translates to English as Knowledge and Religion, and is perhaps a reference to a hymn written by Charles Wesley, brother to John Wesley, the founder of Methodism. The motto appears in both the University's shield and seal.</p>\r\n<p>The shield was commissioned in 1964 and decommissioned in 2009. While no longer used as part of the Duke brand, one may find the shield on street light signage throughout campus.</p>\r\n<p>The seal also includes the Latin motto. As it is the legal signature of Duke University, it appears on diplomas and other official documents.</p>\r\n  \r\n</div>\r\n<h3 class=\"accordion\">When did Trinity College move to Durham?</h3>\r\n\r\n<div class=\"panel\">\r\n\r\n  <p>In March of 1890, after a lobbying effort and pledges of money and land from Durham leaders, the Trinity College Board of Trustees approved Trinity College’s move from Randolph County to Durham. It took two years for the school to complete its move and Trinity College officially reopened in Durham on September 1, 1892.</p>\r\n\r\n</div>\r\n\r\n<h3 class=\"accordion\">What is Duke University's relationship to the Methodist Church?</h3>\r\n\r\n<div class=\"panel\">\r\n  \r\n<p>Union Institute was founded in 1838 by Methodist and Quaker parents, but had no formal denominational connection. Over time, most of the leaders of the school wereMethodists. When the school was chartered as Normal College in 1851, the Methodists were intimately but informally involved. The rechartering of Normal as Trinity College in 1859 led to an allMethodist board, although that was not mandated by the charter. However, the new charter of 1891 specified that 12 trustees each--out of thirty-six trustees total--be selected from the two Conferences of North Carolina. It was during this period that the Methodist Church was most closely tied to the institution. At no time did the school require that students enrolled be Methodist.</p> \r\n<p>In 1903, President John C. Kilgo led an effort to change the charter to ensure that new trustees were recommended by a majority of current trustees, rather than simply having the individual conferences elect replacements. In this way, the role of the Methodist Conferences was reduced. As the College grew and became Duke University, President William P. Few saw the Divinity School (established in 1926) as being the appropriate place for a close tie between Methodism and Duke. Today, the Divinity School retains a connection and receives part of its funding from the North Carolina Conference of the Methodist Church. Trustees are no longer selected or recommended by the church.</p>\r\n  \r\n</div>\r\n\r\n<h3 class=\"accordion\">I’ve heard that James B. Duke initially pledged his fortune to Princeton University, if the school would change its name to Duke University. When Princeton declined, Duke approached Trinity College. Is this true?</h3>\r\n\r\n<div class=\"panel\">\r\n  \r\n<p>We hear this myth about Duke University frequently! Records in the University Archives show that Trinity College President William Preston Few initially proposed the idea of building Trinity College into a university to the Dukes several years before James B. Duke included Trinity College in the 1924 Duke Endowment Indenture.</p>\r\n<p>Why Princeton became the university connected with this myth is a matter of speculation, but there are some connections: James B. Duke’s Duke Farms is located in Somerville, NJ, less than 20 miles from Princeton, and Princeton’s Holder Hall is often seen as a possible inspiration for the Duke Chapel’s architecture.</p>\r\n  \r\n</div>\r\n\r\n<h3 class=\"accordion\">What are Duke University's school colors?</h3>\r\n\r\n<div class=\"panel\">\r\n  \r\n<p>In the late 1880s, the student body of Trinity College, the institution that preceded Duke University, chose dark blue for its school color. By 1910, blue and white were often paired together in the college's songs and cheers and were regarded as the school's colors. The color known as Duke blue came about in 1961, when President J. Deryl Hart appointed a committee to develop a distinctive doctoral robe for the university. In 1965, the committee recommended to Douglas Knight, Hart's successor, that \"an official University blue be accepted and approved. The color we recommend is neither royal nor Yale, but Prussian blue.\" Prussian blue is neither as dark as navy blue nor as light as royal blue&#8212;two colors often compared to Duke Blue. At its meeting on Sept. 23, 1965, the Executive Committee of Duke's Board of Trustees \"unanimously adopted the recommendations of the subcommittee that Prussian blue be officially adopted as Duke blue.\"</p>\r\n<p>Additional information about Duke blue can e found in the <a href=\"https://brand.duke.edu/colors/\">Duke University Brand Guide</a>.</p>\r\n  \r\n</div>\r\n\r\n<h3 class=\"accordion\">Tell me about the Duke University Wedgwood Plates.</h3>\r\n\r\n<div class=\"panel\">\r\n  \r\n<p></p>\r\n\r\n  \r\n</div>\r\n<h3 class=\"accordion\">Why is the yearbook called \"The Chanticleer\"?</h3>\r\n\r\n<div class=\"panel\">\r\n  \r\n<p>In the fall of 1911, members of the Trinity College Class of 1912 began a movement for a yearbook. The student newspaper <i>The Chronicle</i> reported that over 100 names for the proposed book had been submitted by the students, and that the name would be selected on January 15. The paper did not report on the selection procedure or the results, but the first use of the name in <i>The Chronicle</i> was on February 21, 1912. The <a href=\"https://archive.org/details/chanticleerseria1912duke\">first issue of the yearbook</a> came out in May 1912.</p>\r\n<p>While we don’t know exactly why the name was chosen, when used as a verb, \"to chanticleer\" means \"to crow\" and the rooster was a symbol of “crowing.” The 1912 yearbook, as well as subsequent issues, featured rooster icons on the title page, endpapers, and throughout the illustrations of the yearbook. It has also been suggested that a rooster was Trinity's mascot before the Blue Devil was adopted in 1922.</p>\r\n<p>You'll find digitized copies of <i>The Chanticleer</i> <a href=\"https://library.duke.edu/rubenstein/uarchives/collections-guides/digitized/chanticleer\">here</a>.</p>\r\n</div>\r\n\r\n<h2><a name=\"athletics\">Athletics</a></h2>\r\n<h3 class=\"accordion\">What is the history of Duke and UNC’s football rivalry?</h3>\r\n\r\n<div class=\"panel\">\r\n  \r\n<p>In addition to the legendary Duke-UNC basketball rivalry, both schools have historically had a long standing football rivalry as well. The first game between UNC and what was then Trinity College took place on Thanksgiving Day, 1888. Trinity won, 16-0.</p>\r\n<p>The football rivalry was especially prominent in the 1920s, and UNC and Duke built new stadiums in 1927 and 1929, respectively. In 1931, Duke hired Wallace Wade, a successful University of Alabama coach who had led two teams to the Rose Bowl. He repeated that success at Duke, as the Blue Devils played in the Rose Bowl in 1939 and 1942. Wade’s assistant, Eddie Cameron, also took a Duke team to the Sugar Bowl in 1945 while Wade was in the Army during World War II. From 1931 through 1945, Wade and Cameron compiled an 11-3-2 record against the Tar Heels, avenging a series of seven losses and one tie in the 1920s.</p>\r\n<p>Duke has had a number of traditions relating to its football rivalry with UNC, including bonfires, parades, and the exchanging of the Victory Bell, which was created in 1948 by cheerleaders from both Duke and UNC. Duke and UNC continue to regularly play each other as part of the Atlantic Coast Conference.</p>\r\n</div>\r\n\r\n<h3 class=\"accordion\">Is it true that the 1942 Rose Bowl was played in Durham?</h3>\r\n\r\n<div class=\"panel\">\r\n  \r\n<p>Yes. The 1942 Rose Bowl was held in Durham on January 1, 1942. The Rose Bowl was moved from its traditional home in Pasadena due to security concerns after the bombing of Pearl Harbor on December 7, 1941. Over 55,000 spectators watched the game at Duke  Stadium (now called the Wallace Wade Stadium). Duke faced Oregon State in the Rose Bowl and lost 20-16.</p>\r\n</div>\r\n\r\n<h3 class=\"accordion\">What is the early history of Duke basketball?</h3>\r\n\r\n<div class=\"panel\">\r\n  \r\n<p>Trinity College fielded its first men’s basketball team in 1906, coached by Wilbur Wade \"Cap\" Card (namesake of the Card Gymnasium). An alumnus of Trinity (Class of 1900), Card had returned to serve as Director of a new Physical Education program. Trinity put together a team, using the Angier B. Duke Gymnasium (also known as the Ark). Held on March 2, 1906, the Wake-Trinity game resulted in a Trinity loss 24-10 but is notable as the beginning of the \"Big Four\" Tobacco Road Rivalry. Even though the Duke-UNC rivalry is the better-known Tobacco Road matchup today, UNC did not play Trinity until the 1922 season.</p>\r\n<p>Edmund Cameron took over coaching duties in 1929, bringing stability to a program that had seen ten coaches in fifteen years after Card left the basketball program. Later Duke's football coach, Cameron's tenure as basketball coach started a tradition of winning seasons at the collegiate level. </p>\r\n</div>\r\n\r\n<h3 class=\"accordion\">Why is Duke University's mascot a Blue Devil?</h3>\r\n\r\n<div class=\"panel\">\r\n<p>First adopted in the early 1920s, Duke’s Blue Devil mascot originated with the Chasseurs Alpins—nicknamed \"les Diables Bleus\"— well-known French soldiers during World War I. The soldiers' distinctive blue uniform with flowing cape and jaunty beret captured public imagination in the United States. Soon after the war ended, the Trinity College Board of Trustees lifted its quarter-century ban of football on campus and, in September of 1921, the <i>Trinity Chronicle</i>, launched a campaign to select a school mascot. Believing that the choice should incorporate the school color of dark blue, the newspaper editors urged a selection from among the nominations of Blue Titans, Blue Eagles, Polar Bears, Blue Devils, Royal Blazes, or Blue Warriors. However, there was no clear winner and no selection was made that year.</p> <p>The following year, student leaders from the Class of 1923 decided to select a name and agreed that the newspaper staff should make the choice. William H. Lander, as editor-in-chief, and Mike Bradshaw, as managing editor, of the <i>Trinity Chronicle</i> began referring to the athletic teams as the Blue Devils in October 1922. Surprisingly, no opposition materialized, not even from the college administration. The newspaper staff continued its use and, through repetition, Blue Devils eventually caught on.</p></div>\r\n\r\n<h2><a name=\"campus\">The Campus and its Architecture</a></h2>\r\n<h3 class=\"accordion\">Who designed Duke University's campus?</h3>\r\n\r\n<div class=\"panel\">\r\n  \r\n<p><a href=\"https://library.duke.edu/rubenstein/uarchives/history/articles/abele\">Read more about African-American architect <b>Julian Abele</b> (1881-1950)</a>.</p>\r\n</div>\r\n\r\n<h3 class=\"accordion\">How much did the 1925-1932 campus building project cost?</h3>\r\n\r\n<div class=\"panel\">\r\n  \r\n<p>According to the final report of the Duke Endowment’s Duke University Building Committee, dated June 28, 1932:\r\n<ul><li><b>$4,782,710.57</b> for the expansion and reconstruction of East Campus (then known as the Woman’s College).</li>\r\n<li><b>$16,373,421.84</b> for the brand-new West Campus, including the purchase of 5,080 acres of land.</li></ul>\r\nA November 1932 addendum to the Building Committee’s report offers detailed figures for the Duke Chapel. The most expensive building on the campus (at the time), the final cost was <b>$2,285,742.54</b>. The stained glass windows accounted for 9% of the building cost, while 8.5% of the total cost was for the hand-carved woodwork and paneling. The Aeolian organ ($65,300; now known as the Kathleen Upton Byrns McClendon Organ) and carillon ($54,500) totalled 5% of the cost.</p>\r\n<p>The university spent an additional <b>$1,124,195.75</b> of its own funds for a gymnasium, football stadium, athletic practice fields, and twelve residences for administrators and faculty members.</p>\r\n</div>\r\n\r\n<h3 class=\"accordion\">What statues are located on Duke University's campus?</h3>\r\n\r\n<div class=\"panel\">\r\n  \r\n<ul><li><img src=\"/rubenstein/sites/default/files/rubenstein/users/maureen.mccormick/duke%20w-250px.jpg\" alt=\"Washington Duke Statue\" title=\"Washington Duke Statue\" width=\"250\" height=\"154\" class=\"image-right img-responsive\">On East Campus, <b>Washington Duke</b>, who began the family's tie to Trinity College with a donation of money for buildings and endowment in 1890, is memorialized by a unique seated statue near the main entrance to East Campus.</li>\r\n<li>Also on East Campus is Washington Duke’s son, <b>Benjamin Newton Duke</b>, whose statue is in front of Baldwin Auditorium.</li>\r\n<li>Another East Campus statue, <b>The Sower</b>, depicts a passage from the Bible. The Sower was a gift of James B. Duke in 1914.</li> \r\n<li>On West Campus, a large statue of <b>James B. Duke</b>, another son of Washington Duke and founder of The Duke Endowment, is located in front of Duke Chapel.</li>\r\n<li>Near the French Family Science Center, there is an unusual pair of statues, one depicting <b>Knut Schmidt-Nielsen</b> and the other a <b>camel</b>. Schmidt-Nielsen, a longtime professor of biology, did some of his most important research with camels.</li>\r\n<li>Within the athletics area of West Campus, there are mounted busts of <b>Coaches Wallace Wade, William D. \"Bill\" Murray, Edmund M. \"Eddie\" Cameron, and John Wesley \"Jack\" Coombs</b> marking athletic facilities named in their honor.</li>\r\n</ul>\r\n</div>\r\n\r\n<h3 class=\"accordion\">What is the Duke University Chapel Carillon?</h3>\r\n\r\n<div class=\"panel\">\r\n  \r\n<p>The Duke University Chapel Carillon refers to the set of bells installed in the top of Duke Chapel. The carillon was donated by George G. Allen and William R. Perkins of the Duke Endowment in April 1930. The Duke carillon was cast by the Taylor Bell Foundry of Loughborough, England. The carillon was installed in 1932, and the playing mechanism was completely renovated by the same foundry in the summer of 1992. The Duke carillon has 50 bells ranging over four chromatic octaves varying in weight from 10 to 11,200 pounds and in size from 8 inches to 6 feet, 9 inches in diameter. Traditionally, the Duke carillon is played on weekdays at 5:00, as well as on special university occasions.</p> \r\n<p>The Duke carillon is played by the University Carillonneur. Previous carillonneurs include Anton Brees, who played the first recital in June 1932, and J. Samuel Hammond, who began playing the carillon in 1965 and was named University Carillonneur emeritus in 2018. The Board of Trustees named the carillon for J. Samuel Hammond in December 2018.</p>\r\n<p><a href=\"https://chapel.duke.edu/carillon\">Read more</a> about the Carillon on the Duke University Chapel's website.</p>\r\n</div>\r\n\r\n<h3 class=\"accordion\">Why is there a cemetery on Duke University's West Campus?</h3>\r\n\r\n<div class=\"panel\">\r\n  \r\n<p>Found near Wade Stadium in the Blue Zone parking lot, this is the privately-owned cemetery of the Rigsbee family. Brothers Jesse and T. J., along with their families, lived on and farmed a large portion of the land that is now Duke’s West Campus. The family sold their land to Duke University in 1925, with the exception of the cemetery, which the family still maintains.</p>\r\n</div>\r\n\r\n<h3 class=\"accordion\">Where does the stone used on West Campus come from?</h3>\r\n\r\n<div class=\"panel\">\r\n  \r\n<p>\r\nStone from a Duke University-owned quarry in Hillsborough, North Carolina lends a unique look to the buildings of West Campus. Selected in 1925 for its attractive variant colors and the low cost of transporting a local resource, the stone&#8212;sometimes called “bluestone” or “Hillsborough stone”&#8212;was brought directly to West Campus by train in the late 1920s, with a railroad spur running down what is now Abele Quad. The stone continues to be quarried for campus building projects today.</p>\r\n</div>\r\n\r\n<h3 class=\"accordion\">What information do you have about the stone figures flanking the portal to the Duke University Chapel?</h3>\r\n<div class=\"panel\">\r\n  \r\n<p><a href=\"https://library.duke.edu/rubenstein/uarchives/history/faqs/chapel-figures\">Read more</a> about the Chapel's stone figures.</p></div>\r\n\r\n<h3 class=\"accordion\">What was the first West Campus building to be used?</h3>\r\n<div class=\"panel\">\r\n  \r\n<p>Duke University's football stadium (named for Coach Wallace Wade in 1967) became the first building on Duke University's West Campus to see official use, when the Blue Devils faced off against the Pittsburgh Panthers on October 5, 1929 (Duke lost this game, but would go on to develop a strong football program in the 1930s under Wade's leadership).</p>\r\n<p>Other buildings would not see official use until nearly a year later in 1930, when the hospital opened on July 1. The rest of the buildings were first used in September 1930 when the new academic year began.</p></div>\r\n\r\n<h2><a name=\"firsts\">Important Firsts</a></h2>\r\n<h3 class=\"accordion\">Who was Duke University's first international student?</h3>\r\n\r\n<div class=\"panel\">\r\n  \r\n<p><img src=\"/rubenstein/sites/default/files/rubenstein/users/MatthewSchaefer/soong_c-250px.jpg\" alt=\"Charles Soong\" title=\"Charles Soong\" width=\"200\"  class=\"image-right img-responsive\"><b>Han Chiao-shun (Charles \"Charlie\" Jones Soong)</b> was Duke's first international student. Soong was born in the Wench'ang district of the island of Hainan, China in 1866. At twelve years old, he was adopted by a maternal uncle and emigrated to the United States where he lived in Boston before relocating to North Carolina.</p> <p>When Soong expressed interest in gaining an education to return to China as a missionary, his education at Trinity College was financed by General Julian S. Carr. In 1881 and 1882 Soong attended Trinity College as a \"special and preparatory student\" where he studied under Dr. Braxton Craven, Trinity's president.</p> <p>In the fall of 1882 he entered the theological seminary of Vanderbilt University.</p>\r\n</div>\r\n\r\n<h3 class=\"accordion\">When did Duke University desegregate?</h3>\r\n\r\n<div class=\"panel\">\r\n  \r\n<p>From its beginning, Duke relied on Black workers in positions within the dining halls, custodial service, and maid service. An African-American architect, Julian Abele, was the chief designer of the main quads of East and West Campus. These buildings were constructed by Black and white workers between 1925 and 1932. Desegregating Duke was a long process begun in 1948 with a petition by Divinity School students stating they “would welcome the fellowship, stimulation, and fuller Christian cooperation that we feel would exist here if Negro students were to join us in our common Christian study as ministers of the Gospel.” The 1951 basketball game between Duke and Temple University with an African-American starter, Samuel Sylvester, marked the campus’s first interracial basketball game.</p>\r\n\r\n<p>But it was not until 1961 that Duke agreed to admit African Americans into its graduate and professional schools. Walter Thaniel Johnson, Jr., and David Robinson entered the Law School in 1961. In Divinity, Reuben Lee Speaks entered as a special student in 1961, followed by regular degree candidates Matthew A. Zimmerman and Donald Ballard in 1962. Ida Stephens Owens, James Nathaniel Eaton, and Odell Richardson Reuben entered the Graduate School in 1962. The Medical School admitted Delano Meriwether in 1963. Also in 1963 Duke admitted its first Black undergraduates: Gene Kendall, Mary Mitchell Harris, Wilhelmina Reuben-Cooke, Cassandra Smith Rush and Nathaniel White, Jr.</p>\r\n<p>Additional Resources:\r\n<ul><li>\"<a href=\"https://exhibits.library.duke.edu/exhibits/show/desegregation/intro\">The Road to Desegregation at Duke</a>,\" an online exhibit based on University Archives materials.</li>\r\n<li><i><a href=\"https://archive.org/details/legacy19631993th00duke\">Legacy, 1963-1993: Thirty Years of African-American Students at Duke University</a></i>, a book prepared by the Office of the President to commemorate the 30th anniversary of the integration of the undergraduate colleges.</li></ul></p>\r\n</div>\r\n\r\n<h3 class=\"accordion\">Who was the first African-American person to speak on campus?</h3>\r\n\r\n<div class=\"panel\">\r\n  \r\n<p><b>Booker T. Washington</b>, educator and reformer, first president and principal developer of Tuskegee Normal and Industrial Institute (now Tuskegee University), and influential spokesman for African Americans was the first Black speaker on Duke’s campus. President John C. Kilgo had met Washington at the Durham County Colored Fair in 1896, and invited him to speak at Chapel exercises on the Trinity campus. Although the speech was not covered in local or state publications, the national progressive weekly magazine <i>Outlook</i> noted that Washington's speech was received with \"marked enthusiasm\" and that his entourage of a half-dozen colleagues was treated with the \"greatest courtesy,\" even receiving a \"hearty college yell\" by the students as they departed the campus.</p>\r\n</div>\r\n\r\n<h2><a name=\"lists\">Lists</a></h2>\r\n\r\n<h3 class=\"accordion\">Who has served as Duke's student government president?</h3>\r\n\r\n<div class=\"panel\">\r\n  \r\n<p>Find a complete list of student government presidents <a href=\"https://library.duke.edu/rubenstein/uarchives/history/articles/student-govt-presidents\">here</a>.</p>\r\n</div>\r\n\r\n<h3 class=\"accordion\">Who has served as editor of <i>The Chronicle</i>?</h3>\r\n\r\n<div class=\"panel\">\r\n  \r\n<p>Find a complete list of editors of <i>The Chronicle</i> <a href=\"https://library.duke.edu/rubenstein/uarchives/history/articles/chronicle-editors\">here</a>.</p>\r\n</div>\r\n\r\n<h3 class=\"accordion\">Where can I find a list of people who have received honorary degrees from Duke University?</h3>\r\n\r\n<div class=\"panel\">\r\n  \r\n<p>Trinity College awarded its first honorary degrees in 1855. Today, honorary degrees are bestowed by a Board of Trustees committee made up of trustee and faculty members. The committee provides this <a href=\"https://trustees.duke.edu/honorary-degrees/past-recipients\">list of past recipients</a>.</p>\r\n</div>\r\n\r\n<h3 class=\"accordion\">Who has received the University Medal for Distinguished Meritorious Service?</h3>\r\n\r\n<div class=\"panel\">\r\n  \r\n<p>One of the highest honors bestowed upon members of the Duke community, the University Medal for Distinguished Meritorious Service at Duke is awarded annually at the Founder’s Day ceremony. It recognizes outstanding contributions to the university by trustees and faculty or staff.</p><table class=\"table table-bordered table-striped\" border=\"1\" cellpadding=\"3\"><tbody><tr><td><strong>1986</strong></td><td>Mary Duke Biddle Trent Semans (Trustee) &amp; R. Taylor Cole (Faculty/Staff)</td></tr><tr><td><strong>1987</strong></td><td>Juanita Kreps (Trustee) &amp; Reynolds Price (Faculty/Staff)</td></tr><tr><td><strong>1988</strong></td><td>W. M. Upchurch, Jr. (Trustee) &amp; Richard L. Watson, Jr. (Faculty/Staff)</td></tr><tr><td><strong>1989</strong></td><td>Kenneth Goodson (Trustee) &amp; Marcus E. Hobbs (Faculty/Staff)</td></tr><tr><td><strong>1990</strong></td><td>Charles B. Wade (Trustee) &amp; Mary Grace Wilson (Faculty/Staff)</td></tr><tr><td><strong>1991</strong></td><td>Marshall I. Pickens (Trustee) &amp; Anne Firor Scott (Faculty/Staff)</td></tr><tr><td><strong>1992</strong></td><td>David C. Sabiston, Jr. (Faculty/Staff) &amp; Terry Sanford (Faculty/Staff)</td></tr><tr><td><strong>1993</strong></td><td>Samuel Dubois Cook (Trustee) &amp; Pelham Wilder, Jr. (Faculty/Staff)</td></tr><tr><td><strong>1994</strong></td><td>Isobel Craven Drill (Trustee) &amp; Paul J. Dumas (Faculty/Staff)</td></tr><tr><td><strong>1995</strong></td><td>John W. Chandler (Trustee) &amp; Anne Walker Garrard (Faculty/Staff)</td></tr><tr><td><strong>1996</strong></td><td>William Griffith (Faculty/Staff) &amp; Eugene Stead, M.D. (Faculty/Staff)</td></tr><tr><td><strong>1997</strong></td><td>Charles Johnson (Faculty/Staff) &amp; Mike Krzyzewski (Faculty/Staff)</td></tr><tr><td><strong>1998</strong></td><td>Thomas Langford (Faculty/Staff)</td></tr><tr><td><strong>1999</strong></td><td>The award was not given this year. Honorary degrees were awarded to Anthony D. Duke &amp; James H. Semans instead.</td></tr><tr><td><strong>2000</strong></td><td>Robert F. Durden (Faculty/Staff) &amp; Ella Fountain Pratt (Faculty/Staff)</td></tr><tr><td><strong>2001</strong></td><td>Susan Bennett King (Trustee) &amp; Thomas F. Keller (Faculty/Staff)</td></tr><tr><td><strong>2002</strong></td><td>John Alexander McMahon (Trustee) &amp; William G. Anlyan (Faculty/Staff)</td></tr><tr><td><strong>2003</strong></td><td>A. Morris Williams, Jr. (Trustee), Joseph G. Pietrantoni (Faculty/Staff) &amp; Nannerl O. Keohane (Faculty/Staff)</td></tr><tr><td><strong>2004</strong></td><td>Ernestine Friedl (Faculty/Staff) &amp; Samuel L. Katz (Faculty/Staff)</td></tr><tr><td><strong>2005</strong></td><td>William E. King (Faculty/Staff)</td></tr><tr><td><strong>2006</strong></td><td>Ruby Leila Wilson (Faculty/Staff) &amp; William \"Jimmy\" Wallace, Jr. (Faculty/Staff)</td></tr><tr><td><strong>2007</strong></td><td>John A. Koskinen (Trustee) &amp; John J. Piva Jr. (Faculty/Staff)</td></tr><tr><td><strong>2008</strong></td><td><span id=\"innercontent\"><span class=\"newsitembody\"><span>John A. Forlines, Jr. (Trustee) &amp; </span></span></span><span id=\"innercontent\"><span class=\"newsitembody\"><span>N. Allison Haltom (Faculty/Staff)<br></span></span></span></td></tr><tr><td><strong>2009</strong></td><td>Joel L. Fleishman (Faculty/Staff) &amp; Ernest Mario (Trustee)</td></tr><tr><td><strong>2010</strong></td><td>Jean Fox O'Barr (Faculty/Staff) &amp; Robert Steel (Trustee)</td></tr><tr><td><strong>2011</strong></td><td>James Bonk (Faculty/Staff) &amp; Karl von der Heyden (Trustee)</td></tr><tr><td><strong>2012</strong></td><td>Rebecca Trent Kirkland (Trustee) &amp; Judith L. Ruderman (Faculty/Staff)</td></tr><tr><td><strong>2013</strong></td><td>Daniel T. Blue, Jr. (Trustee) &amp; Gerald L. Wilson (Faculty/Staff)</td></tr><tr><td><strong>2014</strong></td><td>Cookie Anspach Kohn (Trustee) &amp; Horst Meyer (Faculty/Staff)</td></tr><tr><td><strong>2015</strong></td><td>&nbsp;Al Buehler (Faculty/Staff) &amp; Paula Burger (Trustee)</td></tr><tr><td><strong>2016</strong></td><td>Oscar Dantzler (Faculty/Staff) &amp; Bruce Karsh (Trustee)</td></tr><tr><td><strong>2017</strong></td><td>Catherine Gilliss&nbsp;(Faculty/Staff)&nbsp;&amp; Peter Lange (Faculty/Staff)</td></tr><tr><td><strong>2018</strong></td><td>Thomas Gorrie (Trustee) &amp; Sally Robinson (Trustee)</td></tr><tr><td><strong>2019</strong></td><td>David M. Rubenstein (Trustee) &amp; Brenda Armstrong (Faculty/Staff)</td></tr><tr><td><strong>2020</strong></td><td>no medals awarded</td></tr></tbody></table>\r\n</div>\r\n\r\n<h3 class=\"accordion\">How can I find past recipients of the Duke Alumni Association's awards, including the Distinguished Alumni Award?</h3>\r\n\r\n<div class=\"panel\">\r\n  \r\n<p>The Duke Alumni Association maintains a list of the past recipients of their annual awards, which may be viewed <a href=\"https://alumni.duke.edu/past-award-winners\">here</a>.</p>\r\n</div>\r\n\r\n<h3 class=\"accordion\">Who has given the address at the annual Convocation for New Graduate and Professional School Students?</h3>\r\n\r\n<div class=\"panel\">\r\n  \r\n<p><table class=\"table table-striped\"><tbody><tr><td><strong>1987</strong></td><td width=\"20%\">Robert F. Durden</td><td>Professor of History</td></tr><tr><td><strong>1988</strong></td><td>John Hope Franklin</td><td><p>James B. Duke Professor of History</p></td></tr><tr><td><strong>1989</strong></td><td>Leonard Silk</td><td>Economist, Columnist, <em>The New York Times</em></td></tr><tr><td><strong>1990</strong></td><td>Dennis O'Connor</td><td>Provost, UNC-Chapel Hill</td></tr><tr><td><strong>1991</strong></td><td>Paul Hardin</td><td>Chancellor, UNC-Chapel Hill</td></tr><tr><td><strong>1992</strong></td><td>Craufurd D. Goodwin</td><td>James B. Duke Professor of Economics</td></tr><tr><td><strong>1993</strong></td><td>Nannerl O. Keohane</td><td>President</td></tr><tr><td><strong>1994</strong></td><td>John. W. Strohbehn</td><td>Provost</td></tr><tr><td><strong>1995<br></strong></td><td>Alasdair MacIntyre</td><td>Arts &amp; Sciences Professor of Philosophy</td></tr><tr><td><strong>1996<br></strong></td><td>Karla F. C. Holloway</td><td>James B. Duke Professor of English</td></tr><tr><td><strong>1997<br></strong></td><td>William H. Chafe</td><td>Dean of the Faculty of Arts &amp; Sciences and of Trinity College</td></tr><tr><td><strong>1998<br></strong></td><td>Nannerl O. Keohane</td><td>President</td></tr><tr><td><strong>1999<br></strong></td><td>Peter Lange</td><td>Provost</td></tr><tr><td><strong>2000<br></strong></td><td>Cathy N. Davidson</td><td>Vice Provost for Interdisciplinary Studies</td></tr><tr><td><strong>2001<br></strong></td><td>Robert Richardson</td><td>Duke Trustee</td></tr><tr><td><strong>2002<br></strong></td><td>Douglas Breeden</td><td>Dean of Fuqua School of Business</td></tr><tr><td><strong>2003<br></strong></td><td>R. Sanders Williams</td><td>Dean of the School of Medicine</td></tr><tr><td><strong>2004<br></strong></td><td>Richard Brodhead</td><td>President</td></tr><tr><td><strong>2005<br></strong></td><td>Kristina M. Johnson</td><td>Dean of the Pratt School of Engineering</td></tr><tr><td><strong>2006<br></strong></td><td>Katherine Bartlett</td><td>Dean of the School of Law</td></tr><tr><td><strong>2007<br></strong></td><td>Paula McClain</td><td>Professor of Political Science &amp; Public Policy</td></tr><tr><td><strong>2008<br></strong></td><td>Peter Lange</td><td>Provost</td></tr><tr><td><strong>2009<br></strong></td><td>Gregory L. Jones</td><td>Dean of Divinity School</td></tr><tr><td><strong>2010<br></strong></td><td>Jo Rae Wright</td><td>Dean of the Graduate School</td></tr><tr><td><strong>2011<br></strong></td><td>William Chameides</td><td>Dean of the Nicolas School for the Environment</td></tr><tr><td><strong>2012</strong></td><td>Mohamed Noor</td><td>Earl D. McLean Professor &amp; Associate Chair of Biology</td></tr><tr><td><strong>2013</strong></td><td>John H. Aldrich</td><td>Pfizer-Pratt University Professor of Political Science and President-elect of the American Political Science Association</td></tr><tr><td><strong>2014</strong></td><td>Arlie O. Petters</td><td>Benjamin Powell Professor and Professor of Mathematics, Physics, and Business Administration</td></tr><tr><td><strong>2015</strong></td><td>Nan Marie Jokerst</td><td>J. A. Jones Professor of Electrical and Computer Engineering</td></tr><tr><td><strong>2016</strong></td><td>Susan Lozier</td><td>Ronie-Richelle Garcia-Johnson Professor of Earth and Ocean Sciences</td></tr><tr><td><strong>2017</strong></td><td>David F. Levi</td><td>James B. Duke and Benjamin N. Duke Dean of the Duke School of Law</td></tr><tr><td><strong>2018</strong></td><td>Richard Powell</td><td>John Spencer Bassett Professor of Art &amp; Art History (<a href=\"https://today.duke.edu/2018/08/richard-powell-words-new-graduate-and-professional-students\" target=\"_blank\">link to address</a>)</td></tr><tr><td><strong>2019</strong></td><td>James E. Coleman, Jr.</td><td>&nbsp;John S. Bradway Professor of the Practice of Law, Duke School of Law</td></tr></tbody></table><h5>Thanks to <b>Jacqueline Looney</b>, Senior Associate Dean for Graduate Programs and Associate Vice Provost for Academic Diversity, and <b>Debra Cash</b>, Senior Program Coordinator for Special Events and University Ceremonies, for their assistance in compiling this list.</h5></p>\r\n</div>\r\n\r\n<style type=\"text/css\">\r\n\r\n/* Style the element that is used to open and close the accordion class */\r\nh3.accordion {\r\n    background-color: #eee;\r\n    color: #444;\r\n    cursor: pointer;\r\n    padding: 18px;\r\n    width: 100%;\r\n    text-align: left;\r\n    border: none;\r\n    outline: none;\r\n    transition: 0.4s;\r\n    margin-bottom:10px;\r\n    font-size: 20px;\r\n    font-weight: 400;\r\n}\r\n\r\n/* Add a background color to the accordion if it is clicked on (add the .active class with JS), and when you move the mouse over it (hover) */\r\nh3.accordion.active, p.accordion:hover {\r\n    background-color: #ddd;\r\n}\r\n\r\n/* Unicode character for \"plus\" sign (+) */\r\nh3.accordion:after {\r\n    content: '\\2795'; \r\n    font-size: 13px;\r\n    color: #777;\r\n    float: right;\r\n    margin-left: 5px;\r\n    padding-top: .35em;\r\n}\r\n\r\n/* Unicode character for \"minus\" sign (-) */\r\nh3.accordion.active:after {\r\n    content: \"\\2796\"; \r\n}\r\n\r\n/* Style the element that is used for the panel class */\r\n\r\ndiv.panel {\r\n    padding: 0 18px;\r\n    background-color: white;\r\n    max-height: 0;\r\n    overflow: hidden;\r\n    transition: 0.4s ease-in-out;\r\n    opacity: 0;\r\n    margin-bottom:10px;\r\n}\r\n\r\ndiv.panel.show {\r\n    opacity: 1;\r\n    max-height: 2000px; /* Whatever you like, as long as its more than the height of the content (on all screen sizes) */\r\n}\r\n\r\n.feature-box {\r\n  border-left: 20px solid #fff;\r\n}\r\n\r\n</style>",
            "revision_id" : 16983,
            "langcode" : "und",
            "deleted" : 0,
            "body_format" : "full_html_no_wysiwyg",
            "bundle" : "page",
            "entity_id" : 302,
            "body_summary" : "",
            "delta" : 0
         },
         "title" : "Frequently Asked Questions",
         "promote" : 0,
         "field_revision" : {
            "langcode" : null,
            "default_langcode" : 1,
            "uid" : 1,
            "created" : null,
            "revision_translation_affected" : 1,
            "sticky" : 0,
            "changed" : null,
            "status" : 1,
            "title" : "Frequently Asked Questions"
         },
         "uid" : 13,
         "vuuid" : "e4164d95-f60c-4e96-9b93-1abd26bc71c3",
         "log" : ""
      }
   ],
   "node_field_data" : {
      "sticky" : 0,
      "changed" : null,
      "status" : 1,
      "type" : "page",
      "langcode" : "und",
      "default_langcode" : 1,
      "uid" : 1,
      "revision_translation_affected" : 1,
      "created" : 1381194036,
      "promote" : 0,
      "title" : "Frequently Asked Questions"
   },
   "asidebox" : {
      "body_title" : "Quick Links",
      "bid" : null,
      "nid" : 302,
      "block_module" : null,
      "vid" : 16983,
      "body_format" : "full_html",
      "block_delta" : null,
      "body_value" : "<p><a href=\"#general\">General Duke University History</a></p><p><a href=\"#athletics\">Athletics</a></p><p><a href=\"#campus\">The Campus &amp; its Architecture</a></p><p><a href=\"#firsts\">Important Firsts</a></p><p><a href=\"#lists\">Lists</a></p>",
      "status" : "html"
   },
   "uuid" : "dc0fe2ac-77b7-464f-97df-05af37981793",
   "path_alias" : {
      "language" : "und",
      "status" : 0,
      "langcode" : "und",
      "pid" : 369,
      "alias" : "/uarchives/history/faqs"
   },
   "field_image" : null,
   "vid" : 16983,
   "type" : "page",
   "field_tags" : [],
   "node_access" : null,
   "node__body" : {
      "langcode" : "und",
      "revision_id" : 16983,
      "body_format" : "full_html_no_wysiwyg",
      "deleted" : 0,
      "body_value" : "<h2><a name=\"general\">General Duke University History</a></h2>\r\n<h3 class=\"accordion\">How can I learn more about the Duke family?</h3>\r\n\r\n<div class=\"panel\">\r\n  <p>After the Civil War, as Durham became nationally known for brightleaf tobacco, Washington Duke, along with children Mary, Benjamin, and James, established a small business producing smoking tobacco on their farm, now known as <a href=\"https://dukehomestead.org/\">Duke Homestead</a>, a North Carolina State Historic Site. The business was founded as W. Duke, Sons, and Company in 1878 and would eventually develop into the American Tobacco Company. The family also had interests in Durham real estate, textiles, and later hydroelectric power, the foundation of today’s Duke Energy.</p>\r\n  \r\n  <p>In 1890, Washington Duke provided $85,000 to Randolph County’s Trinity College to finance its move to Durham, beginning the family’s support for the school. Son James B. Duke’s creation of The Duke Endowment in 1924 provided ongoing funding for Trinity College (which changed its name to Duke University), Johnson C. Smith University, Furman University, and Davidson College, along with organizations supporting child care, churches, higher education, and hospitals throughout North and South Carolina.</p>\r\n  \r\n  <p>Doris Duke, James B. Duke's only child, continued the family’s philanthropic work by setting up the <a href=\"http://fdncenter.org/grantmaker/dorisduke/index.html\">Doris Duke Charitable Foundation</a>. The foundation supports the arts, child care, the environment and medical research. Another family philanthropy is Durham's <a href=\"http://www.marydukebiddlefoundation.org/\">Mary Duke Biddle Foundation</a>, established by Benjamin N. Duke's daughter, Mary Duke Biddle.</p>\r\n  \r\n  <p>You’ll find a number of resources about the Duke family on the University Archives’ website, including:</p>\r\n  \r\n  <ul>\r\n\r\n    <li><a href=\"https://library.duke.edu/rubenstein/uarchives/history/articles/duke-family\">Historical articles</a> about Washington, Benjamin N., and James B. Duke</li>\r\n    \r\n    <li>A <a href=\"https://guides.library.duke.edu/dukefamily\">research guide</a> about the Duke family</li>\r\n    \r\n    <li>A <a href=\"https://library.duke.edu/rubenstein/sites/default/files/rubenstein/uarchives/WDuke_family_chart_0.pdf\">genealogy</a> of Washington Duke and his descendants</li>\r\n    \r\n    </ul>\r\n\r\n</div>\r\n\r\n\r\n\r\n<h3 class=\"accordion\">Who has served as Duke University's presidents?</h3>\r\n\r\n<div class=\"panel\">\r\n  \r\n<ul><li>1838-1842: Brantley York (b. 1805, d. 1891)\r\n<ul><li>Principal of Brown's Schoolhouse (1838-1841)</li>\r\n<li>Principal of Union Institute Academy (1839-1842)</li></ul></li>\r\n<li>1842-1863: Braxton Craven (b. 1822, d. 1882)\r\n<ul><li>Principal of Union Institute Academy (1842-1851)</li>\r\n<li>President of Normal College (1851-1859)</li>\r\n<li>President of Trinity College (1859-1863; 1865-1882)</li></ul></li>\r\n<li>1863-1865: William Trigg Gannaway (b. 1825, d. 1910)</li>\r\n<li>1883-1884: Marquis Lafayette Wood (b. 1829 , d. 1893)</li>\r\n<li>1884-1887: Trinity College governed by a committee of the Board of Trustees</li>\r\n<li>1887-1894: John Franklin Crowell (b. 1857, d. 1931), oversaw the move from Randolph County to Durham, NC in 1892</li>\r\n<li>1894-1910: John Carlisle Kilgo (b. 1861, d. 1922)</li>\r\n<li>1910-1940: William Preston Few (b. 1867, d. 1940), oversaw the transition from Trinity College to Duke University in 1924</li>\r\n<li>1941-1948: Robert Lee Flowers (b. 1870, d. 1951)</li>\r\n<li>1949-1960: Arthur Hollis Edens (b. 1901, d. 1968)</li>\r\n<li>1960-1963: Julian Deryl Hart (b. 1894, d. 1980)</li>\r\n<li>1963-1969: Douglas Maitland Knight (b. 1921, d. 2005)</li>\r\n<li>1970-1985: Terry Sanford (b. 1917, d. 1998)</li>\r\n<li>1985-1993:  H. Keith H. Brodie (b. 1939, d. 2016)</li>\r\n<li>1993-2004: Nannerl O. Keohane (b. 1940)</li>\r\n<li>2004-2017: Richard H. Brodhead (b. 1947)</li>\r\n<li>2017-present: Vincent E. Price (b. 1957)</li></ul></p>\r\n\r\nVisit our <a href=\"https://library.duke.edu/rubenstein/collections/creators/corporations/duke-presidents\">timeline of Duke's presidential history</a> to learn more!\r\n  \r\n</div>\r\n\r\n<h3 class=\"accordion\">What was the cost of tuition at Duke University in a particular year?</h3>\r\n\r\n<div class=\"panel\">\r\n  \r\n<p>View yearly figures for Duke University tuition <a href=\"https://library.duke.edu/rubenstein/uarchives/history/articles/statistics\">here</a>. For the current academic year, tuition figures are available on the <a href=\"https://facts.duke.edu/\">Duke Facts website</a>.</p>\r\n</div>\r\n\r\n<h3 class=\"accordion\">Where can I find Duke University's mission statement, charter, and bylaws?</h3>\r\n\r\n<div class=\"panel\">\r\n  \r\n  <p>The University's current charter, bylaws, and mission statement can be found on the \"<a href=\"https://trustees.duke.edu/governing-documents\">Governing Documents</a>\" page at the Duke University Board of Trustees website. These documents, including sections of James B. Duke's Indenture of Trust that concern the University, may also be found in Appendix A of the <i><a href=\"http://www.provost.duke.edu/policies/fhb.html\">Duke University Faculty Handbook</a></i>, which is distributed by the Office of the Provost.</p>\r\n<p>Duke University Archives holds the Constitution of the Union Institute Society, dated February 1839. This is the first governing document of the university and the oldest official record in the Duke University Archives. To view a digitized copy of this document, please visit our <a href=\"https://library.duke.edu/rubenstein/uarchives/history/articles/charter-bylaws-aims-mission\">webpage</a>.</p>\r\n  \r\n</div>\r\n\r\n<h3 class=\"accordion\">What is Duke University's motto, shield, and seal?</h3>\r\n\r\n<div class=\"panel\">\r\n  \r\n<p>Duke's Latin motto, Eruditio et Religio, translates to English as Knowledge and Religion, and is perhaps a reference to a hymn written by Charles Wesley, brother to John Wesley, the founder of Methodism. The motto appears in both the University's shield and seal.</p>\r\n<p>The shield was commissioned in 1964 and decommissioned in 2009. While no longer used as part of the Duke brand, one may find the shield on street light signage throughout campus.</p>\r\n<p>The seal also includes the Latin motto. As it is the legal signature of Duke University, it appears on diplomas and other official documents.</p>\r\n  \r\n</div>\r\n<h3 class=\"accordion\">When did Trinity College move to Durham?</h3>\r\n\r\n<div class=\"panel\">\r\n\r\n  <p>In March of 1890, after a lobbying effort and pledges of money and land from Durham leaders, the Trinity College Board of Trustees approved Trinity College’s move from Randolph County to Durham. It took two years for the school to complete its move and Trinity College officially reopened in Durham on September 1, 1892.</p>\r\n\r\n</div>\r\n\r\n<h3 class=\"accordion\">What is Duke University's relationship to the Methodist Church?</h3>\r\n\r\n<div class=\"panel\">\r\n  \r\n<p>Union Institute was founded in 1838 by Methodist and Quaker parents, but had no formal denominational connection. Over time, most of the leaders of the school wereMethodists. When the school was chartered as Normal College in 1851, the Methodists were intimately but informally involved. The rechartering of Normal as Trinity College in 1859 led to an allMethodist board, although that was not mandated by the charter. However, the new charter of 1891 specified that 12 trustees each--out of thirty-six trustees total--be selected from the two Conferences of North Carolina. It was during this period that the Methodist Church was most closely tied to the institution. At no time did the school require that students enrolled be Methodist.</p> \r\n<p>In 1903, President John C. Kilgo led an effort to change the charter to ensure that new trustees were recommended by a majority of current trustees, rather than simply having the individual conferences elect replacements. In this way, the role of the Methodist Conferences was reduced. As the College grew and became Duke University, President William P. Few saw the Divinity School (established in 1926) as being the appropriate place for a close tie between Methodism and Duke. Today, the Divinity School retains a connection and receives part of its funding from the North Carolina Conference of the Methodist Church. Trustees are no longer selected or recommended by the church.</p>\r\n  \r\n</div>\r\n\r\n<h3 class=\"accordion\">I’ve heard that James B. Duke initially pledged his fortune to Princeton University, if the school would change its name to Duke University. When Princeton declined, Duke approached Trinity College. Is this true?</h3>\r\n\r\n<div class=\"panel\">\r\n  \r\n<p>We hear this myth about Duke University frequently! Records in the University Archives show that Trinity College President William Preston Few initially proposed the idea of building Trinity College into a university to the Dukes several years before James B. Duke included Trinity College in the 1924 Duke Endowment Indenture.</p>\r\n<p>Why Princeton became the university connected with this myth is a matter of speculation, but there are some connections: James B. Duke’s Duke Farms is located in Somerville, NJ, less than 20 miles from Princeton, and Princeton’s Holder Hall is often seen as a possible inspiration for the Duke Chapel’s architecture.</p>\r\n  \r\n</div>\r\n\r\n<h3 class=\"accordion\">What are Duke University's school colors?</h3>\r\n\r\n<div class=\"panel\">\r\n  \r\n<p>In the late 1880s, the student body of Trinity College, the institution that preceded Duke University, chose dark blue for its school color. By 1910, blue and white were often paired together in the college's songs and cheers and were regarded as the school's colors. The color known as Duke blue came about in 1961, when President J. Deryl Hart appointed a committee to develop a distinctive doctoral robe for the university. In 1965, the committee recommended to Douglas Knight, Hart's successor, that \"an official University blue be accepted and approved. The color we recommend is neither royal nor Yale, but Prussian blue.\" Prussian blue is neither as dark as navy blue nor as light as royal blue&#8212;two colors often compared to Duke Blue. At its meeting on Sept. 23, 1965, the Executive Committee of Duke's Board of Trustees \"unanimously adopted the recommendations of the subcommittee that Prussian blue be officially adopted as Duke blue.\"</p>\r\n<p>Additional information about Duke blue can e found in the <a href=\"https://brand.duke.edu/colors/\">Duke University Brand Guide</a>.</p>\r\n  \r\n</div>\r\n\r\n<h3 class=\"accordion\">Tell me about the Duke University Wedgwood Plates.</h3>\r\n\r\n<div class=\"panel\">\r\n  \r\n<p></p>\r\n\r\n  \r\n</div>\r\n<h3 class=\"accordion\">Why is the yearbook called \"The Chanticleer\"?</h3>\r\n\r\n<div class=\"panel\">\r\n  \r\n<p>In the fall of 1911, members of the Trinity College Class of 1912 began a movement for a yearbook. The student newspaper <i>The Chronicle</i> reported that over 100 names for the proposed book had been submitted by the students, and that the name would be selected on January 15. The paper did not report on the selection procedure or the results, but the first use of the name in <i>The Chronicle</i> was on February 21, 1912. The <a href=\"https://archive.org/details/chanticleerseria1912duke\">first issue of the yearbook</a> came out in May 1912.</p>\r\n<p>While we don’t know exactly why the name was chosen, when used as a verb, \"to chanticleer\" means \"to crow\" and the rooster was a symbol of “crowing.” The 1912 yearbook, as well as subsequent issues, featured rooster icons on the title page, endpapers, and throughout the illustrations of the yearbook. It has also been suggested that a rooster was Trinity's mascot before the Blue Devil was adopted in 1922.</p>\r\n<p>You'll find digitized copies of <i>The Chanticleer</i> <a href=\"https://library.duke.edu/rubenstein/uarchives/collections-guides/digitized/chanticleer\">here</a>.</p>\r\n</div>\r\n\r\n<h2><a name=\"athletics\">Athletics</a></h2>\r\n<h3 class=\"accordion\">What is the history of Duke and UNC’s football rivalry?</h3>\r\n\r\n<div class=\"panel\">\r\n  \r\n<p>In addition to the legendary Duke-UNC basketball rivalry, both schools have historically had a long standing football rivalry as well. The first game between UNC and what was then Trinity College took place on Thanksgiving Day, 1888. Trinity won, 16-0.</p>\r\n<p>The football rivalry was especially prominent in the 1920s, and UNC and Duke built new stadiums in 1927 and 1929, respectively. In 1931, Duke hired Wallace Wade, a successful University of Alabama coach who had led two teams to the Rose Bowl. He repeated that success at Duke, as the Blue Devils played in the Rose Bowl in 1939 and 1942. Wade’s assistant, Eddie Cameron, also took a Duke team to the Sugar Bowl in 1945 while Wade was in the Army during World War II. From 1931 through 1945, Wade and Cameron compiled an 11-3-2 record against the Tar Heels, avenging a series of seven losses and one tie in the 1920s.</p>\r\n<p>Duke has had a number of traditions relating to its football rivalry with UNC, including bonfires, parades, and the exchanging of the Victory Bell, which was created in 1948 by cheerleaders from both Duke and UNC. Duke and UNC continue to regularly play each other as part of the Atlantic Coast Conference.</p>\r\n</div>\r\n\r\n<h3 class=\"accordion\">Is it true that the 1942 Rose Bowl was played in Durham?</h3>\r\n\r\n<div class=\"panel\">\r\n  \r\n<p>Yes. The 1942 Rose Bowl was held in Durham on January 1, 1942. The Rose Bowl was moved from its traditional home in Pasadena due to security concerns after the bombing of Pearl Harbor on December 7, 1941. Over 55,000 spectators watched the game at Duke  Stadium (now called the Wallace Wade Stadium). Duke faced Oregon State in the Rose Bowl and lost 20-16.</p>\r\n</div>\r\n\r\n<h3 class=\"accordion\">What is the early history of Duke basketball?</h3>\r\n\r\n<div class=\"panel\">\r\n  \r\n<p>Trinity College fielded its first men’s basketball team in 1906, coached by Wilbur Wade \"Cap\" Card (namesake of the Card Gymnasium). An alumnus of Trinity (Class of 1900), Card had returned to serve as Director of a new Physical Education program. Trinity put together a team, using the Angier B. Duke Gymnasium (also known as the Ark). Held on March 2, 1906, the Wake-Trinity game resulted in a Trinity loss 24-10 but is notable as the beginning of the \"Big Four\" Tobacco Road Rivalry. Even though the Duke-UNC rivalry is the better-known Tobacco Road matchup today, UNC did not play Trinity until the 1922 season.</p>\r\n<p>Edmund Cameron took over coaching duties in 1929, bringing stability to a program that had seen ten coaches in fifteen years after Card left the basketball program. Later Duke's football coach, Cameron's tenure as basketball coach started a tradition of winning seasons at the collegiate level. </p>\r\n</div>\r\n\r\n<h3 class=\"accordion\">Why is Duke University's mascot a Blue Devil?</h3>\r\n\r\n<div class=\"panel\">\r\n<p>First adopted in the early 1920s, Duke’s Blue Devil mascot originated with the Chasseurs Alpins—nicknamed \"les Diables Bleus\"— well-known French soldiers during World War I. The soldiers' distinctive blue uniform with flowing cape and jaunty beret captured public imagination in the United States. Soon after the war ended, the Trinity College Board of Trustees lifted its quarter-century ban of football on campus and, in September of 1921, the <i>Trinity Chronicle</i>, launched a campaign to select a school mascot. Believing that the choice should incorporate the school color of dark blue, the newspaper editors urged a selection from among the nominations of Blue Titans, Blue Eagles, Polar Bears, Blue Devils, Royal Blazes, or Blue Warriors. However, there was no clear winner and no selection was made that year.</p> <p>The following year, student leaders from the Class of 1923 decided to select a name and agreed that the newspaper staff should make the choice. William H. Lander, as editor-in-chief, and Mike Bradshaw, as managing editor, of the <i>Trinity Chronicle</i> began referring to the athletic teams as the Blue Devils in October 1922. Surprisingly, no opposition materialized, not even from the college administration. The newspaper staff continued its use and, through repetition, Blue Devils eventually caught on.</p></div>\r\n\r\n<h2><a name=\"campus\">The Campus and its Architecture</a></h2>\r\n<h3 class=\"accordion\">Who designed Duke University's campus?</h3>\r\n\r\n<div class=\"panel\">\r\n  \r\n<p><a href=\"https://library.duke.edu/rubenstein/uarchives/history/articles/abele\">Read more about African-American architect <b>Julian Abele</b> (1881-1950)</a>.</p>\r\n</div>\r\n\r\n<h3 class=\"accordion\">How much did the 1925-1932 campus building project cost?</h3>\r\n\r\n<div class=\"panel\">\r\n  \r\n<p>According to the final report of the Duke Endowment’s Duke University Building Committee, dated June 28, 1932:\r\n<ul><li><b>$4,782,710.57</b> for the expansion and reconstruction of East Campus (then known as the Woman’s College).</li>\r\n<li><b>$16,373,421.84</b> for the brand-new West Campus, including the purchase of 5,080 acres of land.</li></ul>\r\nA November 1932 addendum to the Building Committee’s report offers detailed figures for the Duke Chapel. The most expensive building on the campus (at the time), the final cost was <b>$2,285,742.54</b>. The stained glass windows accounted for 9% of the building cost, while 8.5% of the total cost was for the hand-carved woodwork and paneling. The Aeolian organ ($65,300; now known as the Kathleen Upton Byrns McClendon Organ) and carillon ($54,500) totalled 5% of the cost.</p>\r\n<p>The university spent an additional <b>$1,124,195.75</b> of its own funds for a gymnasium, football stadium, athletic practice fields, and twelve residences for administrators and faculty members.</p>\r\n</div>\r\n\r\n<h3 class=\"accordion\">What statues are located on Duke University's campus?</h3>\r\n\r\n<div class=\"panel\">\r\n  \r\n<ul><li><img src=\"/rubenstein/sites/default/files/rubenstein/users/maureen.mccormick/duke%20w-250px.jpg\" alt=\"Washington Duke Statue\" title=\"Washington Duke Statue\" width=\"250\" height=\"154\" class=\"image-right img-responsive\">On East Campus, <b>Washington Duke</b>, who began the family's tie to Trinity College with a donation of money for buildings and endowment in 1890, is memorialized by a unique seated statue near the main entrance to East Campus.</li>\r\n<li>Also on East Campus is Washington Duke’s son, <b>Benjamin Newton Duke</b>, whose statue is in front of Baldwin Auditorium.</li>\r\n<li>Another East Campus statue, <b>The Sower</b>, depicts a passage from the Bible. The Sower was a gift of James B. Duke in 1914.</li> \r\n<li>On West Campus, a large statue of <b>James B. Duke</b>, another son of Washington Duke and founder of The Duke Endowment, is located in front of Duke Chapel.</li>\r\n<li>Near the French Family Science Center, there is an unusual pair of statues, one depicting <b>Knut Schmidt-Nielsen</b> and the other a <b>camel</b>. Schmidt-Nielsen, a longtime professor of biology, did some of his most important research with camels.</li>\r\n<li>Within the athletics area of West Campus, there are mounted busts of <b>Coaches Wallace Wade, William D. \"Bill\" Murray, Edmund M. \"Eddie\" Cameron, and John Wesley \"Jack\" Coombs</b> marking athletic facilities named in their honor.</li>\r\n</ul>\r\n</div>\r\n\r\n<h3 class=\"accordion\">What is the Duke University Chapel Carillon?</h3>\r\n\r\n<div class=\"panel\">\r\n  \r\n<p>The Duke University Chapel Carillon refers to the set of bells installed in the top of Duke Chapel. The carillon was donated by George G. Allen and William R. Perkins of the Duke Endowment in April 1930. The Duke carillon was cast by the Taylor Bell Foundry of Loughborough, England. The carillon was installed in 1932, and the playing mechanism was completely renovated by the same foundry in the summer of 1992. The Duke carillon has 50 bells ranging over four chromatic octaves varying in weight from 10 to 11,200 pounds and in size from 8 inches to 6 feet, 9 inches in diameter. Traditionally, the Duke carillon is played on weekdays at 5:00, as well as on special university occasions.</p> \r\n<p>The Duke carillon is played by the University Carillonneur. Previous carillonneurs include Anton Brees, who played the first recital in June 1932, and J. Samuel Hammond, who began playing the carillon in 1965 and was named University Carillonneur emeritus in 2018. The Board of Trustees named the carillon for J. Samuel Hammond in December 2018.</p>\r\n<p><a href=\"https://chapel.duke.edu/carillon\">Read more</a> about the Carillon on the Duke University Chapel's website.</p>\r\n</div>\r\n\r\n<h3 class=\"accordion\">Why is there a cemetery on Duke University's West Campus?</h3>\r\n\r\n<div class=\"panel\">\r\n  \r\n<p>Found near Wade Stadium in the Blue Zone parking lot, this is the privately-owned cemetery of the Rigsbee family. Brothers Jesse and T. J., along with their families, lived on and farmed a large portion of the land that is now Duke’s West Campus. The family sold their land to Duke University in 1925, with the exception of the cemetery, which the family still maintains.</p>\r\n</div>\r\n\r\n<h3 class=\"accordion\">Where does the stone used on West Campus come from?</h3>\r\n\r\n<div class=\"panel\">\r\n  \r\n<p>\r\nStone from a Duke University-owned quarry in Hillsborough, North Carolina lends a unique look to the buildings of West Campus. Selected in 1925 for its attractive variant colors and the low cost of transporting a local resource, the stone&#8212;sometimes called “bluestone” or “Hillsborough stone”&#8212;was brought directly to West Campus by train in the late 1920s, with a railroad spur running down what is now Abele Quad. The stone continues to be quarried for campus building projects today.</p>\r\n</div>\r\n\r\n<h3 class=\"accordion\">What information do you have about the stone figures flanking the portal to the Duke University Chapel?</h3>\r\n<div class=\"panel\">\r\n  \r\n<p><a href=\"https://library.duke.edu/rubenstein/uarchives/history/faqs/chapel-figures\">Read more</a> about the Chapel's stone figures.</p></div>\r\n\r\n<h3 class=\"accordion\">What was the first West Campus building to be used?</h3>\r\n<div class=\"panel\">\r\n  \r\n<p>Duke University's football stadium (named for Coach Wallace Wade in 1967) became the first building on Duke University's West Campus to see official use, when the Blue Devils faced off against the Pittsburgh Panthers on October 5, 1929 (Duke lost this game, but would go on to develop a strong football program in the 1930s under Wade's leadership).</p>\r\n<p>Other buildings would not see official use until nearly a year later in 1930, when the hospital opened on July 1. The rest of the buildings were first used in September 1930 when the new academic year began.</p></div>\r\n\r\n<h2><a name=\"firsts\">Important Firsts</a></h2>\r\n<h3 class=\"accordion\">Who was Duke University's first international student?</h3>\r\n\r\n<div class=\"panel\">\r\n  \r\n<p><img src=\"/rubenstein/sites/default/files/rubenstein/users/MatthewSchaefer/soong_c-250px.jpg\" alt=\"Charles Soong\" title=\"Charles Soong\" width=\"200\"  class=\"image-right img-responsive\"><b>Han Chiao-shun (Charles \"Charlie\" Jones Soong)</b> was Duke's first international student. Soong was born in the Wench'ang district of the island of Hainan, China in 1866. At twelve years old, he was adopted by a maternal uncle and emigrated to the United States where he lived in Boston before relocating to North Carolina.</p> <p>When Soong expressed interest in gaining an education to return to China as a missionary, his education at Trinity College was financed by General Julian S. Carr. In 1881 and 1882 Soong attended Trinity College as a \"special and preparatory student\" where he studied under Dr. Braxton Craven, Trinity's president.</p> <p>In the fall of 1882 he entered the theological seminary of Vanderbilt University.</p>\r\n</div>\r\n\r\n<h3 class=\"accordion\">When did Duke University desegregate?</h3>\r\n\r\n<div class=\"panel\">\r\n  \r\n<p>From its beginning, Duke relied on Black workers in positions within the dining halls, custodial service, and maid service. An African-American architect, Julian Abele, was the chief designer of the main quads of East and West Campus. These buildings were constructed by Black and white workers between 1925 and 1932. Desegregating Duke was a long process begun in 1948 with a petition by Divinity School students stating they “would welcome the fellowship, stimulation, and fuller Christian cooperation that we feel would exist here if Negro students were to join us in our common Christian study as ministers of the Gospel.” The 1951 basketball game between Duke and Temple University with an African-American starter, Samuel Sylvester, marked the campus’s first interracial basketball game.</p>\r\n\r\n<p>But it was not until 1961 that Duke agreed to admit African Americans into its graduate and professional schools. Walter Thaniel Johnson, Jr., and David Robinson entered the Law School in 1961. In Divinity, Reuben Lee Speaks entered as a special student in 1961, followed by regular degree candidates Matthew A. Zimmerman and Donald Ballard in 1962. Ida Stephens Owens, James Nathaniel Eaton, and Odell Richardson Reuben entered the Graduate School in 1962. The Medical School admitted Delano Meriwether in 1963. Also in 1963 Duke admitted its first Black undergraduates: Gene Kendall, Mary Mitchell Harris, Wilhelmina Reuben-Cooke, Cassandra Smith Rush and Nathaniel White, Jr.</p>\r\n<p>Additional Resources:\r\n<ul><li>\"<a href=\"https://exhibits.library.duke.edu/exhibits/show/desegregation/intro\">The Road to Desegregation at Duke</a>,\" an online exhibit based on University Archives materials.</li>\r\n<li><i><a href=\"https://archive.org/details/legacy19631993th00duke\">Legacy, 1963-1993: Thirty Years of African-American Students at Duke University</a></i>, a book prepared by the Office of the President to commemorate the 30th anniversary of the integration of the undergraduate colleges.</li></ul></p>\r\n</div>\r\n\r\n<h3 class=\"accordion\">Who was the first African-American person to speak on campus?</h3>\r\n\r\n<div class=\"panel\">\r\n  \r\n<p><b>Booker T. Washington</b>, educator and reformer, first president and principal developer of Tuskegee Normal and Industrial Institute (now Tuskegee University), and influential spokesman for African Americans was the first Black speaker on Duke’s campus. President John C. Kilgo had met Washington at the Durham County Colored Fair in 1896, and invited him to speak at Chapel exercises on the Trinity campus. Although the speech was not covered in local or state publications, the national progressive weekly magazine <i>Outlook</i> noted that Washington's speech was received with \"marked enthusiasm\" and that his entourage of a half-dozen colleagues was treated with the \"greatest courtesy,\" even receiving a \"hearty college yell\" by the students as they departed the campus.</p>\r\n</div>\r\n\r\n<h2><a name=\"lists\">Lists</a></h2>\r\n\r\n<h3 class=\"accordion\">Who has served as Duke's student government president?</h3>\r\n\r\n<div class=\"panel\">\r\n  \r\n<p>Find a complete list of student government presidents <a href=\"https://library.duke.edu/rubenstein/uarchives/history/articles/student-govt-presidents\">here</a>.</p>\r\n</div>\r\n\r\n<h3 class=\"accordion\">Who has served as editor of <i>The Chronicle</i>?</h3>\r\n\r\n<div class=\"panel\">\r\n  \r\n<p>Find a complete list of editors of <i>The Chronicle</i> <a href=\"https://library.duke.edu/rubenstein/uarchives/history/articles/chronicle-editors\">here</a>.</p>\r\n</div>\r\n\r\n<h3 class=\"accordion\">Where can I find a list of people who have received honorary degrees from Duke University?</h3>\r\n\r\n<div class=\"panel\">\r\n  \r\n<p>Trinity College awarded its first honorary degrees in 1855. Today, honorary degrees are bestowed by a Board of Trustees committee made up of trustee and faculty members. The committee provides this <a href=\"https://trustees.duke.edu/honorary-degrees/past-recipients\">list of past recipients</a>.</p>\r\n</div>\r\n\r\n<h3 class=\"accordion\">Who has received the University Medal for Distinguished Meritorious Service?</h3>\r\n\r\n<div class=\"panel\">\r\n  \r\n<p>One of the highest honors bestowed upon members of the Duke community, the University Medal for Distinguished Meritorious Service at Duke is awarded annually at the Founder’s Day ceremony. It recognizes outstanding contributions to the university by trustees and faculty or staff.</p><table class=\"table table-bordered table-striped\" border=\"1\" cellpadding=\"3\"><tbody><tr><td><strong>1986</strong></td><td>Mary Duke Biddle Trent Semans (Trustee) &amp; R. Taylor Cole (Faculty/Staff)</td></tr><tr><td><strong>1987</strong></td><td>Juanita Kreps (Trustee) &amp; Reynolds Price (Faculty/Staff)</td></tr><tr><td><strong>1988</strong></td><td>W. M. Upchurch, Jr. (Trustee) &amp; Richard L. Watson, Jr. (Faculty/Staff)</td></tr><tr><td><strong>1989</strong></td><td>Kenneth Goodson (Trustee) &amp; Marcus E. Hobbs (Faculty/Staff)</td></tr><tr><td><strong>1990</strong></td><td>Charles B. Wade (Trustee) &amp; Mary Grace Wilson (Faculty/Staff)</td></tr><tr><td><strong>1991</strong></td><td>Marshall I. Pickens (Trustee) &amp; Anne Firor Scott (Faculty/Staff)</td></tr><tr><td><strong>1992</strong></td><td>David C. Sabiston, Jr. (Faculty/Staff) &amp; Terry Sanford (Faculty/Staff)</td></tr><tr><td><strong>1993</strong></td><td>Samuel Dubois Cook (Trustee) &amp; Pelham Wilder, Jr. (Faculty/Staff)</td></tr><tr><td><strong>1994</strong></td><td>Isobel Craven Drill (Trustee) &amp; Paul J. Dumas (Faculty/Staff)</td></tr><tr><td><strong>1995</strong></td><td>John W. Chandler (Trustee) &amp; Anne Walker Garrard (Faculty/Staff)</td></tr><tr><td><strong>1996</strong></td><td>William Griffith (Faculty/Staff) &amp; Eugene Stead, M.D. (Faculty/Staff)</td></tr><tr><td><strong>1997</strong></td><td>Charles Johnson (Faculty/Staff) &amp; Mike Krzyzewski (Faculty/Staff)</td></tr><tr><td><strong>1998</strong></td><td>Thomas Langford (Faculty/Staff)</td></tr><tr><td><strong>1999</strong></td><td>The award was not given this year. Honorary degrees were awarded to Anthony D. Duke &amp; James H. Semans instead.</td></tr><tr><td><strong>2000</strong></td><td>Robert F. Durden (Faculty/Staff) &amp; Ella Fountain Pratt (Faculty/Staff)</td></tr><tr><td><strong>2001</strong></td><td>Susan Bennett King (Trustee) &amp; Thomas F. Keller (Faculty/Staff)</td></tr><tr><td><strong>2002</strong></td><td>John Alexander McMahon (Trustee) &amp; William G. Anlyan (Faculty/Staff)</td></tr><tr><td><strong>2003</strong></td><td>A. Morris Williams, Jr. (Trustee), Joseph G. Pietrantoni (Faculty/Staff) &amp; Nannerl O. Keohane (Faculty/Staff)</td></tr><tr><td><strong>2004</strong></td><td>Ernestine Friedl (Faculty/Staff) &amp; Samuel L. Katz (Faculty/Staff)</td></tr><tr><td><strong>2005</strong></td><td>William E. King (Faculty/Staff)</td></tr><tr><td><strong>2006</strong></td><td>Ruby Leila Wilson (Faculty/Staff) &amp; William \"Jimmy\" Wallace, Jr. (Faculty/Staff)</td></tr><tr><td><strong>2007</strong></td><td>John A. Koskinen (Trustee) &amp; John J. Piva Jr. (Faculty/Staff)</td></tr><tr><td><strong>2008</strong></td><td><span id=\"innercontent\"><span class=\"newsitembody\"><span>John A. Forlines, Jr. (Trustee) &amp; </span></span></span><span id=\"innercontent\"><span class=\"newsitembody\"><span>N. Allison Haltom (Faculty/Staff)<br></span></span></span></td></tr><tr><td><strong>2009</strong></td><td>Joel L. Fleishman (Faculty/Staff) &amp; Ernest Mario (Trustee)</td></tr><tr><td><strong>2010</strong></td><td>Jean Fox O'Barr (Faculty/Staff) &amp; Robert Steel (Trustee)</td></tr><tr><td><strong>2011</strong></td><td>James Bonk (Faculty/Staff) &amp; Karl von der Heyden (Trustee)</td></tr><tr><td><strong>2012</strong></td><td>Rebecca Trent Kirkland (Trustee) &amp; Judith L. Ruderman (Faculty/Staff)</td></tr><tr><td><strong>2013</strong></td><td>Daniel T. Blue, Jr. (Trustee) &amp; Gerald L. Wilson (Faculty/Staff)</td></tr><tr><td><strong>2014</strong></td><td>Cookie Anspach Kohn (Trustee) &amp; Horst Meyer (Faculty/Staff)</td></tr><tr><td><strong>2015</strong></td><td>&nbsp;Al Buehler (Faculty/Staff) &amp; Paula Burger (Trustee)</td></tr><tr><td><strong>2016</strong></td><td>Oscar Dantzler (Faculty/Staff) &amp; Bruce Karsh (Trustee)</td></tr><tr><td><strong>2017</strong></td><td>Catherine Gilliss&nbsp;(Faculty/Staff)&nbsp;&amp; Peter Lange (Faculty/Staff)</td></tr><tr><td><strong>2018</strong></td><td>Thomas Gorrie (Trustee) &amp; Sally Robinson (Trustee)</td></tr><tr><td><strong>2019</strong></td><td>David M. Rubenstein (Trustee) &amp; Brenda Armstrong (Faculty/Staff)</td></tr><tr><td><strong>2020</strong></td><td>no medals awarded</td></tr></tbody></table>\r\n</div>\r\n\r\n<h3 class=\"accordion\">How can I find past recipients of the Duke Alumni Association's awards, including the Distinguished Alumni Award?</h3>\r\n\r\n<div class=\"panel\">\r\n  \r\n<p>The Duke Alumni Association maintains a list of the past recipients of their annual awards, which may be viewed <a href=\"https://alumni.duke.edu/past-award-winners\">here</a>.</p>\r\n</div>\r\n\r\n<h3 class=\"accordion\">Who has given the address at the annual Convocation for New Graduate and Professional School Students?</h3>\r\n\r\n<div class=\"panel\">\r\n  \r\n<p><table class=\"table table-striped\"><tbody><tr><td><strong>1987</strong></td><td width=\"20%\">Robert F. Durden</td><td>Professor of History</td></tr><tr><td><strong>1988</strong></td><td>John Hope Franklin</td><td><p>James B. Duke Professor of History</p></td></tr><tr><td><strong>1989</strong></td><td>Leonard Silk</td><td>Economist, Columnist, <em>The New York Times</em></td></tr><tr><td><strong>1990</strong></td><td>Dennis O'Connor</td><td>Provost, UNC-Chapel Hill</td></tr><tr><td><strong>1991</strong></td><td>Paul Hardin</td><td>Chancellor, UNC-Chapel Hill</td></tr><tr><td><strong>1992</strong></td><td>Craufurd D. Goodwin</td><td>James B. Duke Professor of Economics</td></tr><tr><td><strong>1993</strong></td><td>Nannerl O. Keohane</td><td>President</td></tr><tr><td><strong>1994</strong></td><td>John. W. Strohbehn</td><td>Provost</td></tr><tr><td><strong>1995<br></strong></td><td>Alasdair MacIntyre</td><td>Arts &amp; Sciences Professor of Philosophy</td></tr><tr><td><strong>1996<br></strong></td><td>Karla F. C. Holloway</td><td>James B. Duke Professor of English</td></tr><tr><td><strong>1997<br></strong></td><td>William H. Chafe</td><td>Dean of the Faculty of Arts &amp; Sciences and of Trinity College</td></tr><tr><td><strong>1998<br></strong></td><td>Nannerl O. Keohane</td><td>President</td></tr><tr><td><strong>1999<br></strong></td><td>Peter Lange</td><td>Provost</td></tr><tr><td><strong>2000<br></strong></td><td>Cathy N. Davidson</td><td>Vice Provost for Interdisciplinary Studies</td></tr><tr><td><strong>2001<br></strong></td><td>Robert Richardson</td><td>Duke Trustee</td></tr><tr><td><strong>2002<br></strong></td><td>Douglas Breeden</td><td>Dean of Fuqua School of Business</td></tr><tr><td><strong>2003<br></strong></td><td>R. Sanders Williams</td><td>Dean of the School of Medicine</td></tr><tr><td><strong>2004<br></strong></td><td>Richard Brodhead</td><td>President</td></tr><tr><td><strong>2005<br></strong></td><td>Kristina M. Johnson</td><td>Dean of the Pratt School of Engineering</td></tr><tr><td><strong>2006<br></strong></td><td>Katherine Bartlett</td><td>Dean of the School of Law</td></tr><tr><td><strong>2007<br></strong></td><td>Paula McClain</td><td>Professor of Political Science &amp; Public Policy</td></tr><tr><td><strong>2008<br></strong></td><td>Peter Lange</td><td>Provost</td></tr><tr><td><strong>2009<br></strong></td><td>Gregory L. Jones</td><td>Dean of Divinity School</td></tr><tr><td><strong>2010<br></strong></td><td>Jo Rae Wright</td><td>Dean of the Graduate School</td></tr><tr><td><strong>2011<br></strong></td><td>William Chameides</td><td>Dean of the Nicolas School for the Environment</td></tr><tr><td><strong>2012</strong></td><td>Mohamed Noor</td><td>Earl D. McLean Professor &amp; Associate Chair of Biology</td></tr><tr><td><strong>2013</strong></td><td>John H. Aldrich</td><td>Pfizer-Pratt University Professor of Political Science and President-elect of the American Political Science Association</td></tr><tr><td><strong>2014</strong></td><td>Arlie O. Petters</td><td>Benjamin Powell Professor and Professor of Mathematics, Physics, and Business Administration</td></tr><tr><td><strong>2015</strong></td><td>Nan Marie Jokerst</td><td>J. A. Jones Professor of Electrical and Computer Engineering</td></tr><tr><td><strong>2016</strong></td><td>Susan Lozier</td><td>Ronie-Richelle Garcia-Johnson Professor of Earth and Ocean Sciences</td></tr><tr><td><strong>2017</strong></td><td>David F. Levi</td><td>James B. Duke and Benjamin N. Duke Dean of the Duke School of Law</td></tr><tr><td><strong>2018</strong></td><td>Richard Powell</td><td>John Spencer Bassett Professor of Art &amp; Art History (<a href=\"https://today.duke.edu/2018/08/richard-powell-words-new-graduate-and-professional-students\" target=\"_blank\">link to address</a>)</td></tr><tr><td><strong>2019</strong></td><td>James E. Coleman, Jr.</td><td>&nbsp;John S. Bradway Professor of the Practice of Law, Duke School of Law</td></tr></tbody></table><h5>Thanks to <b>Jacqueline Looney</b>, Senior Associate Dean for Graduate Programs and Associate Vice Provost for Academic Diversity, and <b>Debra Cash</b>, Senior Program Coordinator for Special Events and University Ceremonies, for their assistance in compiling this list.</h5></p>\r\n</div>\r\n\r\n<style type=\"text/css\">\r\n\r\n/* Style the element that is used to open and close the accordion class */\r\nh3.accordion {\r\n    background-color: #eee;\r\n    color: #444;\r\n    cursor: pointer;\r\n    padding: 18px;\r\n    width: 100%;\r\n    text-align: left;\r\n    border: none;\r\n    outline: none;\r\n    transition: 0.4s;\r\n    margin-bottom:10px;\r\n    font-size: 20px;\r\n    font-weight: 400;\r\n}\r\n\r\n/* Add a background color to the accordion if it is clicked on (add the .active class with JS), and when you move the mouse over it (hover) */\r\nh3.accordion.active, p.accordion:hover {\r\n    background-color: #ddd;\r\n}\r\n\r\n/* Unicode character for \"plus\" sign (+) */\r\nh3.accordion:after {\r\n    content: '\\2795'; \r\n    font-size: 13px;\r\n    color: #777;\r\n    float: right;\r\n    margin-left: 5px;\r\n    padding-top: .35em;\r\n}\r\n\r\n/* Unicode character for \"minus\" sign (-) */\r\nh3.accordion.active:after {\r\n    content: \"\\2796\"; \r\n}\r\n\r\n/* Style the element that is used for the panel class */\r\n\r\ndiv.panel {\r\n    padding: 0 18px;\r\n    background-color: white;\r\n    max-height: 0;\r\n    overflow: hidden;\r\n    transition: 0.4s ease-in-out;\r\n    opacity: 0;\r\n    margin-bottom:10px;\r\n}\r\n\r\ndiv.panel.show {\r\n    opacity: 1;\r\n    max-height: 2000px; /* Whatever you like, as long as its more than the height of the content (on all screen sizes) */\r\n}\r\n\r\n.feature-box {\r\n  border-left: 20px solid #fff;\r\n}\r\n\r\n</style>",
      "body_summary" : "",
      "delta" : 0,
      "entity_id" : 302,
      "bundle" : "page"
   },
   "langcode" : "und"
}

