{
   "node__body" : {
      "bundle" : "page",
      "entity_id" : 405,
      "delta" : 0,
      "body_summary" : "",
      "body_value" : "<h3>Completed: 1927</h3><h3>Architect: Office of Horace Trumbauer</h3><table border=\"0\"><tbody><tr><td style=\"text-align: center;\"><img src=\"/rubenstein/sites/default/files/rubenstein/users/MatthewSchaefer/Friedl_P1_500px.jpg\" alt=\"Ernestine P. Friedl\" title=\"Ernestine P. Friedl\" height=\"300\"></td><td></td></tr></tbody></table><p>Ernestine P. Friedl (1920-2015) came to Duke University in 1973, serving as chair of the Dept. of Anthropology until 1980, then as Dean of Arts and Sciences and Trinity College at Duke University from 1980-1985.</p><p>Originally known as the Science Building when it was completed in 1927, the building is the complement of the Carr Building. It contained classrooms, scientific laboratories, and a large lecture hall, as well as several offices. In 1968-1969, the building's interior was dramatically remodeled, and the Duke University Museum of Art took residence. After the Nasher Museum was built in 2004, the building was again remodeled to house the Departments of Cultural Anthropology, Literature, African and African American Studies, Latino/a Studies. The building was rededicated in 2008 in honor of Cultural Anthropology Professor Emerita Ernestine P. Friedl.</p><h2>For Further Research:</h2><ul><li><a href=\"http://library.duke.edu/rubenstein/findingaids/uabio/\">Biographical Reference Collection</a>&nbsp;- Contains biographical information on Ernestine Friedl.</li><li><a href=\"http://library.duke.edu/rubenstein/findingaids/uabuilding/\">Building Reference Collection</a>&nbsp;-&nbsp;Contains historical building information.</li><li><a href=\"https://www.flickr.com/search?user_id=19219926%40N04&amp;sort=relevance&amp;text=Friedl\">Flickr photographs related to Friedl Building.</a></li></ul>",
      "deleted" : 0,
      "body_format" : "full_html",
      "revision_id" : 12495,
      "langcode" : "und"
   },
   "langcode" : "und",
   "type" : "page",
   "field_tags" : [],
   "node_access" : null,
   "node_field_data" : {
      "title" : "Friedl Building",
      "promote" : 0,
      "status" : 1,
      "type" : "page",
      "changed" : null,
      "sticky" : 0,
      "uid" : 1,
      "revision_translation_affected" : 1,
      "created" : 1396539389,
      "langcode" : "und",
      "default_langcode" : 1
   },
   "asidebox" : {
      "nid" : 405,
      "body_title" : "",
      "bid" : null,
      "block_delta" : null,
      "body_value" : null,
      "status" : "disabled",
      "block_module" : null,
      "vid" : 12495,
      "body_format" : null
   },
   "nid" : "405",
   "revisions" : [
      {
         "timestamp" : 1512434921,
         "comment" : 1,
         "status" : 1,
         "node_revision__field_tags" : [],
         "sticky" : 0,
         "node_revision__body" : {
            "body_summary" : "",
            "delta" : 0,
            "bundle" : "page",
            "entity_id" : 405,
            "revision_id" : 12495,
            "langcode" : "und",
            "deleted" : 0,
            "body_format" : "full_html",
            "body_value" : "<h3>Completed: 1927</h3><h3>Architect: Office of Horace Trumbauer</h3><table border=\"0\"><tbody><tr><td style=\"text-align: center;\"><img src=\"/rubenstein/sites/default/files/rubenstein/users/MatthewSchaefer/Friedl_P1_500px.jpg\" alt=\"Ernestine P. Friedl\" title=\"Ernestine P. Friedl\" height=\"300\"></td><td></td></tr></tbody></table><p>Ernestine P. Friedl (1920-2015) came to Duke University in 1973, serving as chair of the Dept. of Anthropology until 1980, then as Dean of Arts and Sciences and Trinity College at Duke University from 1980-1985.</p><p>Originally known as the Science Building when it was completed in 1927, the building is the complement of the Carr Building. It contained classrooms, scientific laboratories, and a large lecture hall, as well as several offices. In 1968-1969, the building's interior was dramatically remodeled, and the Duke University Museum of Art took residence. After the Nasher Museum was built in 2004, the building was again remodeled to house the Departments of Cultural Anthropology, Literature, African and African American Studies, Latino/a Studies. The building was rededicated in 2008 in honor of Cultural Anthropology Professor Emerita Ernestine P. Friedl.</p><h2>For Further Research:</h2><ul><li><a href=\"http://library.duke.edu/rubenstein/findingaids/uabio/\">Biographical Reference Collection</a>&nbsp;- Contains biographical information on Ernestine Friedl.</li><li><a href=\"http://library.duke.edu/rubenstein/findingaids/uabuilding/\">Building Reference Collection</a>&nbsp;-&nbsp;Contains historical building information.</li><li><a href=\"https://www.flickr.com/search?user_id=19219926%40N04&amp;sort=relevance&amp;text=Friedl\">Flickr photographs related to Friedl Building.</a></li></ul>"
         },
         "title" : "Friedl Building",
         "promote" : 0,
         "field_revision" : {
            "title" : "Friedl Building",
            "default_langcode" : 1,
            "langcode" : null,
            "revision_translation_affected" : 1,
            "created" : null,
            "uid" : 1,
            "sticky" : 0,
            "status" : 1,
            "changed" : null
         },
         "uid" : 13,
         "vuuid" : "9bd75e96-0d73-4a6c-a004-2f2cee53a5ef",
         "log" : ""
      }
   ],
   "uuid" : "dd951f6c-fcf5-44b1-bbc0-57518d1f2b1e",
   "path_alias" : {
      "alias" : "/uarchives/history/exhibits/building-names/east/friedl",
      "pid" : 485,
      "langcode" : "und",
      "status" : 0,
      "language" : "und"
   },
   "field_image" : null,
   "vid" : 12495
}

