{
   "asidebox" : null,
   "node_field_data" : {
      "created" : 1437595515,
      "revision_translation_affected" : 1,
      "uid" : 1,
      "default_langcode" : 1,
      "langcode" : "und",
      "changed" : null,
      "status" : 0,
      "type" : "page",
      "sticky" : 0,
      "title" : "Paul M. Gross Hall",
      "promote" : 0
   },
   "revisions" : [
      {
         "log" : "",
         "uid" : 13,
         "vuuid" : "f719d124-9981-49e5-9b42-46dff0d44df3",
         "field_revision" : {
            "title" : "Paul M. Gross Hall",
            "status" : 0,
            "changed" : null,
            "sticky" : 0,
            "revision_translation_affected" : 1,
            "created" : null,
            "uid" : 1,
            "default_langcode" : 1,
            "langcode" : null
         },
         "title" : "Paul M. Gross Hall",
         "promote" : 0,
         "status" : 0,
         "node_revision__body" : {
            "entity_id" : 583,
            "bundle" : "page",
            "delta" : 0,
            "body_summary" : "",
            "body_value" : "<h2 style=\"text-align: left;\">Architect: J. N. Pease Associates</h2><h2 style=\"text-align: left;\">Completed: 1968</h2><table style=\"width: 100%;\" border=\"0\"><tbody><tr><td><img src=\"/rubenstein/sites/default/files/rubenstein/uarchives/gross.jpg\" alt=\"Paul M. Gross\" title=\"Paul M. Gross\" style=\"float: right;\" height=\"300\" width=\"226\"></td><td><p><img src=\"/rubenstein/sites/default/files/rubenstein/uarchives/gross-hall.jpg\" alt=\"Paul M. Gross Hall\" title=\"Paul M. Gross Hall\" style=\"float: left;\" height=\"300\" width=\"386\"></p></td></tr></tbody></table><p></p><p>BUILDING TEXT HERE</p><p></p><h2>For Further Research:&nbsp;</h2><ul><li><a href=\"http://library.duke.edu/rubenstein/findingaids/uabio/\">Biographical Reference Collection</a>: Contains biographical information on Paul M. Gross.</li></ul><ul><li><a href=\"http://library.duke.edu/rubenstein/findingaids/uabuilding/\" title=\"Building Reference Collection\">Building Reference Collection</a>: Contains historical building information (see \"Gross Chemical Laboratory\" folder in box 3).</li></ul>",
            "deleted" : 0,
            "body_format" : "full_html",
            "langcode" : "und",
            "revision_id" : 8773
         },
         "node_revision__field_tags" : [],
         "sticky" : 0,
         "comment" : 1,
         "timestamp" : 1437596297
      }
   ],
   "nid" : "583",
   "uuid" : "de13c173-d2db-416f-83a7-383af0c1ca9b",
   "path_alias" : {
      "status" : 0,
      "language" : "und",
      "pid" : 689,
      "alias" : "/uarchives/history/exhibits/building-names/west/gross",
      "langcode" : "und"
   },
   "field_image" : null,
   "vid" : 8773,
   "node__body" : {
      "deleted" : 0,
      "body_format" : "full_html",
      "langcode" : "und",
      "revision_id" : 8773,
      "body_value" : "<h2 style=\"text-align: left;\">Architect: J. N. Pease Associates</h2><h2 style=\"text-align: left;\">Completed: 1968</h2><table style=\"width: 100%;\" border=\"0\"><tbody><tr><td><img src=\"/rubenstein/sites/default/files/rubenstein/uarchives/gross.jpg\" alt=\"Paul M. Gross\" title=\"Paul M. Gross\" style=\"float: right;\" height=\"300\" width=\"226\"></td><td><p><img src=\"/rubenstein/sites/default/files/rubenstein/uarchives/gross-hall.jpg\" alt=\"Paul M. Gross Hall\" title=\"Paul M. Gross Hall\" style=\"float: left;\" height=\"300\" width=\"386\"></p></td></tr></tbody></table><p></p><p>BUILDING TEXT HERE</p><p></p><h2>For Further Research:&nbsp;</h2><ul><li><a href=\"http://library.duke.edu/rubenstein/findingaids/uabio/\">Biographical Reference Collection</a>: Contains biographical information on Paul M. Gross.</li></ul><ul><li><a href=\"http://library.duke.edu/rubenstein/findingaids/uabuilding/\" title=\"Building Reference Collection\">Building Reference Collection</a>: Contains historical building information (see \"Gross Chemical Laboratory\" folder in box 3).</li></ul>",
      "delta" : 0,
      "body_summary" : "",
      "entity_id" : 583,
      "bundle" : "page"
   },
   "langcode" : "und",
   "field_tags" : [],
   "type" : "page",
   "node_access" : null
}

