{
   "vid" : 5677,
   "path_alias" : {
      "alias" : "/uarchives/transfer/unscheduled",
      "pid" : 340,
      "langcode" : "und",
      "status" : 0,
      "language" : "und"
   },
   "field_image" : null,
   "uuid" : "e368f500-3a5e-42cc-89db-49922ef4f068",
   "node_field_data" : {
      "uid" : 1,
      "revision_translation_affected" : 1,
      "created" : 1378839516,
      "langcode" : "und",
      "default_langcode" : 1,
      "status" : 1,
      "type" : "page",
      "changed" : null,
      "sticky" : 0,
      "title" : "Documenting the Disposition of Unscheduled Records",
      "promote" : 0
   },
   "asidebox" : {
      "vid" : 5677,
      "block_module" : null,
      "body_format" : null,
      "block_delta" : null,
      "status" : "disabled",
      "body_value" : null,
      "bid" : null,
      "body_title" : "",
      "nid" : 275
   },
   "nid" : "275",
   "revisions" : [
      {
         "timestamp" : 1399511437,
         "node_revision__field_tags" : [],
         "node_revision__body" : {
            "body_summary" : "",
            "delta" : 0,
            "bundle" : "page",
            "entity_id" : 275,
            "revision_id" : 5677,
            "langcode" : "und",
            "deleted" : 0,
            "body_format" : "full_html",
            "body_value" : "<h2>Contact us</h2><p><a href=\"http://library.duke.edu/rubenstein/uarchives/ask\" target=\"_blank\">Contact the Duke University Archives</a> to discuss records you would like to dispose of that are not listed in current Duke University records retention guidelines.</p><p>You will be notified when it is acceptable to dispose of the records in question. Please wait until you are notified before disposing of the records.</p><h2>Why is it important to document the disposition of unscheduled records?</h2><ul><li><p>In the absence of an approved set of retention guidelines, documenting disposition shows that you did not dispose of university records arbitrarily.</p></li><li><p>If the records are needed in the future for official actions, documenting disposition provides evidence of why the records are unavailable.</p></li><li><p>Documenting a one-time disposition action allows you to clean out large volumes of records that are no longer useful. The alternative is to wait for the records in question to appear in approved retention guidelines, which may take several months.</p></li><li><p>Documenting disposition provides evidence of compliance with federal record keeping requirements, if applicable.</p></li></ul>"
         },
         "sticky" : 0,
         "status" : 1,
         "comment" : 1,
         "field_revision" : {
            "title" : "Documenting the Disposition of Unscheduled Records",
            "changed" : null,
            "status" : 1,
            "sticky" : 0,
            "created" : null,
            "revision_translation_affected" : 1,
            "uid" : 1,
            "default_langcode" : 1,
            "langcode" : null
         },
         "promote" : 0,
         "title" : "Documenting the Disposition of Unscheduled Records",
         "log" : "",
         "vuuid" : "5cffa07c-a624-41e3-94a0-91e7e8f8edcb",
         "uid" : 13
      }
   ],
   "langcode" : "und",
   "node__body" : {
      "delta" : 0,
      "body_summary" : "",
      "bundle" : "page",
      "entity_id" : 275,
      "body_format" : "full_html",
      "deleted" : 0,
      "revision_id" : 5677,
      "langcode" : "und",
      "body_value" : "<h2>Contact us</h2><p><a href=\"http://library.duke.edu/rubenstein/uarchives/ask\" target=\"_blank\">Contact the Duke University Archives</a> to discuss records you would like to dispose of that are not listed in current Duke University records retention guidelines.</p><p>You will be notified when it is acceptable to dispose of the records in question. Please wait until you are notified before disposing of the records.</p><h2>Why is it important to document the disposition of unscheduled records?</h2><ul><li><p>In the absence of an approved set of retention guidelines, documenting disposition shows that you did not dispose of university records arbitrarily.</p></li><li><p>If the records are needed in the future for official actions, documenting disposition provides evidence of why the records are unavailable.</p></li><li><p>Documenting a one-time disposition action allows you to clean out large volumes of records that are no longer useful. The alternative is to wait for the records in question to appear in approved retention guidelines, which may take several months.</p></li><li><p>Documenting disposition provides evidence of compliance with federal record keeping requirements, if applicable.</p></li></ul>"
   },
   "node_access" : null,
   "type" : "page",
   "field_tags" : []
}

