{
   "field_tags" : [],
   "type" : "page",
   "node_access" : null,
   "node__body" : {
      "body_format" : "full_html",
      "deleted" : 0,
      "revision_id" : 14085,
      "langcode" : "und",
      "body_value" : "<p>Thank you for your interest in filming collection material from the David M. Rubenstein Rare Book &amp; Manuscript Library. The policy and guidelines, outlined below, protect collections from accidental damage during filming, and taping sessions. External groups interested in filming or videotaping in the Rubenstein Library will require advance permission from Duke University Libraries’ administration to allow us to meet your needs.</p><p>Duke University students, faculty, and staff should contact Research Services to discuss and arrange filming.</p><h3>For Commercial requests</h3><p>Please contact <a href=\"https://newsoffice.duke.edu/filming-campus\">Duke University Communications</a>. All commercial, non-news photography or videotaping must be approved in advance by Duke University Communications</p><h3>For Non-Commercial requests (News stories, documentaries, etc.)</h3><p>The Rubenstein Library has advanced digitization capabilities. Our <a href=\"https://library.duke.edu/rubenstein/research/reproductions\">reproduction services</a> can provide publication and broadcast quality still images.</p><p></p><h4>Identifying Material to Film</h4><p>It is strongly recommended that in the case of major productions a member of the production team arranges an initial exploratory visit to the Rubenstein Library to identify material for filming and view potential filming locations. While Rubenstein Library staff are happy to advise on potentially relevant areas of our collections, we are unable to undertake extensive research on the requester’s behalf. Our <a href=\"https://library.duke.edu/rubenstein/\">webpages</a> and <a href=\"https://find.library.duke.edu/?f%5Blocation_hierarchy_f%5D%5B%5D=duke%3Adukeruby&amp;f%5Blocation_hierarchy_f%5D%5B%5D=duke%3Adukeunis\">catalog</a> are the key sources for identifying material in the Rubenstein Library.</p><p></p><h4>Making a Request to Film</h4><p>A written request must be sent to the Rubenstein Library’s Head of Research Services at least two months in advance of the filming session. The request should include:</p><ul><li>Name and purpose of filming</li><li>Date and time of filming</li><li>Length of time filming is expected to take</li><li>A specific list of Rubenstein Library items to be used</li><li>The types of filming and photography planned</li><li>A full list of equipment (cameras, lighting, etc.)</li><li>Full list of people in the film crew (including actors, producers, etc.).</li></ul><p>Once the request is received, staff will evaluate risks posed to individual items, and allow for alternative selections to be made if specific items are deemed unsuitable for use.</p><p>Once approved, any changes to the above information should be provided in advance of filming, in writing, to avoid delays to or termination of filming.</p><p></p><h4>Filming Location<o:p></o:p></h4><p>Filming of material from the Rubenstein Library will occur in one of our secure rooms. The Reading Room is unavailable for filming.</p><p></p><h4>Filming and Care of Collections <o:p></o:p></h4><p>Rubenstein Library collections are irreplaceable and easily damaged. Film crews will be asked to respect and adhere to Rubenstein Library handling policies, fire, and safety regulations.</p><p>A Rubenstein Library staff member will be assigned to attend filming and videotaping sessions to ensure that the guidelines in this policy are followed. At the discretion of the designated staff member, some variations in these guidelines may be authorized which take into consideration the nature and condition of materials being filmed, the effects of the production on the site environment, and the physical effects on the items being filmed. In all cases, the decisions of the Rubenstein Library’s staff will be final.</p><p>Filming must take place Monday through Friday between 9:00 a.m. and 5:00 p.m.</p><p>Due to the risks of high temperature, ultraviolet exposure, light intensity, and length of exposure, lighting levels and exposure lengths are to be kept to the absolute minimum. Lighting should produce low levels of heat and be equipped with UV absorbers. Rubenstein Library reserves the right to restrict the types of lighting that is permissible for filming. The equipment list provided as part of the initial filming request will be reviewed and items that pose a risk to the collections will be identified during the initial review.</p><p></p><h4>Copyright</h4><p>Please refer to our <a href=\"https://library.duke.edu/rubenstein/research/citations-and-permissions\">Citations, Permissions &amp; Copyright</a> page.</p><p>Please note: When&nbsp;providing permission to film its collections, the Rubenstein Library is not supplying permission to publish or otherwise distribute such material. Duke University provides access to these materials for educational or research purposes only.&nbsp;You are&nbsp;solely responsible for making legal assessments of and securing any necessary permissions to the collection materials that you intend to use for purposes other than personal research.</p><p></p><h4>Acknowledgements</h4><p>When publishing, exhibiting, or broadcasting any material from the Rubenstein Library (regardless of copyright status). Formal acknowledgement must be made to the Rubenstein Library using the credit line:</p><p style=\"padding-left: 30px;\"><b style=\"mso-bidi-font-weight: normal;\">David M. Rubenstein Rare Book &amp; Manuscript Library, Duke University<o:p></o:p></b></p><p></p><h4>Fees</h4><p>The charges associated with filming at the Rubenstein Library are $225 for the first hour and $175 each additional hour, which must be paid prior to filming.</p><p></p><h4>Delays to Filming or Termination</h4><p>The Rubenstein Library will not be responsible fiscally or otherwise for any inconvenience or liability to the schedule, deadline, or obligations of camera and filming crews or their administration for any delays or stoppage of work caused by the decisions of the Rubenstein Library staff authorized to enforce this policy</p><p></p><h3>Guidelines</h3><p>Eating, drinking, smoking, and applying makeup are prohibited in all filming areas. All building security, inspection, clearance and safety procedures must be followed.</p><p>All members of the film crew planning to enter the Reading Room must complete an online Rubenstein Library <a href=\"https://duke.aeon.atlas-sys.com/\">registration</a>.</p><p>Collection materials may not be used as props, stands, or supports for other items, nor may they be positioned in such a way as to cause potential or real stress or damage.</p><p>Collection materials approved for filming must be handled and positioned during the session by designated Rubenstein Library staff only.</p><p>Lamps must not raise the surface temperature of collection materials or the room environment beyond levels appropriate to the safety of collection materials. This is an item specific, non-quantifiable measure, and will be assessed during the session by appointed Rubenstein Library staff according to the response of materials during filming. Maximum duration of continuous lighting will be determined by these considerations.</p><p>Lamps should be turned off when not in use. If intensity of lights can be controlled, low intensity should be used while positioning lights. Lights should be brought up to full intensity only just before shooting begins.</p><p>Precautions should be made to prevent damage to collection materials should a lamp fall or explode. This may be done by assigning a crew member to hold the lamp stand during filming; placing lamps at a distance from collection materials which is greater than the height of the extended stand; weighting the stands with sandbags; attaching protection screens to the lamp fixtures; or a combination of the above. It is for this concern that protection gratings are required for lamp fixtures.</p><p>It is expected that film crews will supply their own UL approved surge protectors and extensions cords, all of which must be in good condition.</p><p>Should power overloads or other malfunction result in erratic electrical behavior, blown building fuses, overheating cables, or other potentially dangerous situations, the session will be terminated immediately until the problem can be resolved to the satisfaction of appropriate Rubenstein Library, Facilities, or Physical Plant personnel.</p><p>The privacy of patrons must not be violated. Photographers/filmmakers may not photograph/film readers and library staff without the written consent of any individual.</p><p></p><p></p>",
      "delta" : 0,
      "body_summary" : "",
      "bundle" : "page",
      "entity_id" : 737
   },
   "langcode" : "und",
   "uuid" : "e432d809-3cfd-461e-b044-29ea70e9578f",
   "path_alias" : {
      "language" : "und",
      "status" : 0,
      "langcode" : "und",
      "pid" : 877,
      "alias" : "/research/filming-policy"
   },
   "vid" : 14085,
   "field_image" : null,
   "revisions" : [
      {
         "sticky" : 0,
         "node_revision__field_tags" : [],
         "node_revision__body" : {
            "body_format" : "full_html",
            "deleted" : 0,
            "langcode" : "und",
            "revision_id" : 14085,
            "body_value" : "<p>Thank you for your interest in filming collection material from the David M. Rubenstein Rare Book &amp; Manuscript Library. The policy and guidelines, outlined below, protect collections from accidental damage during filming, and taping sessions. External groups interested in filming or videotaping in the Rubenstein Library will require advance permission from Duke University Libraries’ administration to allow us to meet your needs.</p><p>Duke University students, faculty, and staff should contact Research Services to discuss and arrange filming.</p><h3>For Commercial requests</h3><p>Please contact <a href=\"https://newsoffice.duke.edu/filming-campus\">Duke University Communications</a>. All commercial, non-news photography or videotaping must be approved in advance by Duke University Communications</p><h3>For Non-Commercial requests (News stories, documentaries, etc.)</h3><p>The Rubenstein Library has advanced digitization capabilities. Our <a href=\"https://library.duke.edu/rubenstein/research/reproductions\">reproduction services</a> can provide publication and broadcast quality still images.</p><p></p><h4>Identifying Material to Film</h4><p>It is strongly recommended that in the case of major productions a member of the production team arranges an initial exploratory visit to the Rubenstein Library to identify material for filming and view potential filming locations. While Rubenstein Library staff are happy to advise on potentially relevant areas of our collections, we are unable to undertake extensive research on the requester’s behalf. Our <a href=\"https://library.duke.edu/rubenstein/\">webpages</a> and <a href=\"https://find.library.duke.edu/?f%5Blocation_hierarchy_f%5D%5B%5D=duke%3Adukeruby&amp;f%5Blocation_hierarchy_f%5D%5B%5D=duke%3Adukeunis\">catalog</a> are the key sources for identifying material in the Rubenstein Library.</p><p></p><h4>Making a Request to Film</h4><p>A written request must be sent to the Rubenstein Library’s Head of Research Services at least two months in advance of the filming session. The request should include:</p><ul><li>Name and purpose of filming</li><li>Date and time of filming</li><li>Length of time filming is expected to take</li><li>A specific list of Rubenstein Library items to be used</li><li>The types of filming and photography planned</li><li>A full list of equipment (cameras, lighting, etc.)</li><li>Full list of people in the film crew (including actors, producers, etc.).</li></ul><p>Once the request is received, staff will evaluate risks posed to individual items, and allow for alternative selections to be made if specific items are deemed unsuitable for use.</p><p>Once approved, any changes to the above information should be provided in advance of filming, in writing, to avoid delays to or termination of filming.</p><p></p><h4>Filming Location<o:p></o:p></h4><p>Filming of material from the Rubenstein Library will occur in one of our secure rooms. The Reading Room is unavailable for filming.</p><p></p><h4>Filming and Care of Collections <o:p></o:p></h4><p>Rubenstein Library collections are irreplaceable and easily damaged. Film crews will be asked to respect and adhere to Rubenstein Library handling policies, fire, and safety regulations.</p><p>A Rubenstein Library staff member will be assigned to attend filming and videotaping sessions to ensure that the guidelines in this policy are followed. At the discretion of the designated staff member, some variations in these guidelines may be authorized which take into consideration the nature and condition of materials being filmed, the effects of the production on the site environment, and the physical effects on the items being filmed. In all cases, the decisions of the Rubenstein Library’s staff will be final.</p><p>Filming must take place Monday through Friday between 9:00 a.m. and 5:00 p.m.</p><p>Due to the risks of high temperature, ultraviolet exposure, light intensity, and length of exposure, lighting levels and exposure lengths are to be kept to the absolute minimum. Lighting should produce low levels of heat and be equipped with UV absorbers. Rubenstein Library reserves the right to restrict the types of lighting that is permissible for filming. The equipment list provided as part of the initial filming request will be reviewed and items that pose a risk to the collections will be identified during the initial review.</p><p></p><h4>Copyright</h4><p>Please refer to our <a href=\"https://library.duke.edu/rubenstein/research/citations-and-permissions\">Citations, Permissions &amp; Copyright</a> page.</p><p>Please note: When&nbsp;providing permission to film its collections, the Rubenstein Library is not supplying permission to publish or otherwise distribute such material. Duke University provides access to these materials for educational or research purposes only.&nbsp;You are&nbsp;solely responsible for making legal assessments of and securing any necessary permissions to the collection materials that you intend to use for purposes other than personal research.</p><p></p><h4>Acknowledgements</h4><p>When publishing, exhibiting, or broadcasting any material from the Rubenstein Library (regardless of copyright status). Formal acknowledgement must be made to the Rubenstein Library using the credit line:</p><p style=\"padding-left: 30px;\"><b style=\"mso-bidi-font-weight: normal;\">David M. Rubenstein Rare Book &amp; Manuscript Library, Duke University<o:p></o:p></b></p><p></p><h4>Fees</h4><p>The charges associated with filming at the Rubenstein Library are $225 for the first hour and $175 each additional hour, which must be paid prior to filming.</p><p></p><h4>Delays to Filming or Termination</h4><p>The Rubenstein Library will not be responsible fiscally or otherwise for any inconvenience or liability to the schedule, deadline, or obligations of camera and filming crews or their administration for any delays or stoppage of work caused by the decisions of the Rubenstein Library staff authorized to enforce this policy</p><p></p><h3>Guidelines</h3><p>Eating, drinking, smoking, and applying makeup are prohibited in all filming areas. All building security, inspection, clearance and safety procedures must be followed.</p><p>All members of the film crew planning to enter the Reading Room must complete an online Rubenstein Library <a href=\"https://duke.aeon.atlas-sys.com/\">registration</a>.</p><p>Collection materials may not be used as props, stands, or supports for other items, nor may they be positioned in such a way as to cause potential or real stress or damage.</p><p>Collection materials approved for filming must be handled and positioned during the session by designated Rubenstein Library staff only.</p><p>Lamps must not raise the surface temperature of collection materials or the room environment beyond levels appropriate to the safety of collection materials. This is an item specific, non-quantifiable measure, and will be assessed during the session by appointed Rubenstein Library staff according to the response of materials during filming. Maximum duration of continuous lighting will be determined by these considerations.</p><p>Lamps should be turned off when not in use. If intensity of lights can be controlled, low intensity should be used while positioning lights. Lights should be brought up to full intensity only just before shooting begins.</p><p>Precautions should be made to prevent damage to collection materials should a lamp fall or explode. This may be done by assigning a crew member to hold the lamp stand during filming; placing lamps at a distance from collection materials which is greater than the height of the extended stand; weighting the stands with sandbags; attaching protection screens to the lamp fixtures; or a combination of the above. It is for this concern that protection gratings are required for lamp fixtures.</p><p>It is expected that film crews will supply their own UL approved surge protectors and extensions cords, all of which must be in good condition.</p><p>Should power overloads or other malfunction result in erratic electrical behavior, blown building fuses, overheating cables, or other potentially dangerous situations, the session will be terminated immediately until the problem can be resolved to the satisfaction of appropriate Rubenstein Library, Facilities, or Physical Plant personnel.</p><p>The privacy of patrons must not be violated. Photographers/filmmakers may not photograph/film readers and library staff without the written consent of any individual.</p><p></p><p></p>",
            "delta" : 0,
            "body_summary" : "",
            "entity_id" : 737,
            "bundle" : "page"
         },
         "status" : 1,
         "comment" : 1,
         "timestamp" : 1548361072,
         "log" : "",
         "vuuid" : "e2f6c209-a637-48c6-b6e4-d905e1d1b7d4",
         "uid" : 11,
         "field_revision" : {
            "sticky" : 0,
            "changed" : null,
            "status" : 1,
            "langcode" : null,
            "default_langcode" : 1,
            "uid" : 1,
            "created" : null,
            "revision_translation_affected" : 1,
            "title" : "Policy and Guidelines for Filming and Video"
         },
         "promote" : 0,
         "title" : "Policy and Guidelines for Filming and Video"
      }
   ],
   "nid" : "737",
   "asidebox" : {
      "bid" : null,
      "body_title" : "",
      "nid" : 737,
      "vid" : 14085,
      "block_module" : null,
      "body_format" : null,
      "block_delta" : null,
      "status" : "disabled",
      "body_value" : null
   },
   "node_field_data" : {
      "title" : "Policy and Guidelines for Filming and Video",
      "promote" : 0,
      "created" : 1548358196,
      "revision_translation_affected" : 1,
      "uid" : 1,
      "default_langcode" : 1,
      "langcode" : "und",
      "changed" : null,
      "status" : 1,
      "type" : "page",
      "sticky" : 0
   }
}

