{
   "revisions" : [
      {
         "log" : "",
         "vuuid" : "1ddf0e24-1181-4dd4-8259-20946107d127",
         "uid" : 22,
         "field_revision" : {
            "title" : "Méndez Human Rights Book Award",
            "uid" : 1,
            "created" : null,
            "revision_translation_affected" : 1,
            "langcode" : null,
            "default_langcode" : 1,
            "changed" : null,
            "status" : 1,
            "sticky" : 0
         },
         "promote" : 0,
         "title" : "Méndez Human Rights Book Award",
         "node_revision__field_tags" : [],
         "sticky" : 0,
         "node_revision__body" : {
            "entity_id" : 667,
            "bundle" : "page",
            "body_summary" : "",
            "delta" : 0,
            "body_value" : "<h4 class=\"Normal1\" align=\"center\"><b>Juan E. Méndez Book Award for Human Rights in Latin America</b></h4><h4 class=\"Normal1\" align=\"center\"><b style=\"font-size: 13.008px;\">&nbsp;</b></h4><p class=\"Normal1\">The Juan E. Méndez Book Award for Human Rights in Latin America honors the leadership and legacy of Juan E. Méndez, a champion of justice who has devoted his life to the defense of human rights. Méndez is the former UN Special Rapporteur on Torture and current Professor of Human Rights Law at American University.</p><p class=\"Normal1\">This award began in 2008 as a collaboration between the Washington Office on Latin America (WOLA) and Duke, in recognition of WOLA’s decision to deposit its institutional papers at Duke’s Rubenstein Rare Books and Manuscripts Library. In 2017, Duke University collaborated with Juan E. Méndez to reposition the book award in his honor.</p><p class=\"Normal1\">Méndez’s papers are housed at Duke University Libraries’ Human Rights Archive, one of the largest collections of human rights materials at any American university. The papers document Méndez’s work as the UN Special Advisor for the Prevention of Genocide and the UN Special Rapporteur on Torture, as well as his work with the International Center for Transitional Justice (ICTJ).&nbsp; Méndez is well represented in the ICTJ records themselves, which are also housed at the Human Rights Archive along with the papers and records of noted human rights activists and organizations such as Rabbi Marshall T. Meyer, Patricia Derian, Jerome Shestack, and the Washington Office on Latin America (WOLA).</p><p class=\"Normal1\">The Duke Human Rights Center @ the Franklin Humanities Institute, the Human Rights Archive at the Rubenstein Library and the Center for Latin American and Caribbean Studies&nbsp;cosponsor this award.</p><p class=\"Normal1\">&nbsp;</p><p class=\"Normal1\" align=\"center\"><b>Juan E. Méndez Book Award for Human Rights in Latin America</b></p><p class=\"Normal1\" align=\"center\"><b style=\"font-size: 13.008px;\">ELIGIBILITY</b></p><p class=\"Normal1\">&nbsp;Scholarly and popular books, including graphic works, are eligible, either edited or authored. To be eligible, books must meet the following criteria:</p><ul><li>An original, non-fiction book related to issues of human rights, the rule of law, social and/or economic justice, and democracy, as they are broadly understood, in contemporary Latin America. Books should pertain to events that took place in roughly the past 50 years.</li><li>Published in the English language by a commercial, university, or non-profit publishing concern. Books written originally in other languages and translated into English are eligible. Self-published books are not eligible.</li><li>Published in the two years before the date of the award, including the year of the award. In other words, books published in 2019 and 2020 are eligible for the prize awarded in 2021. Books published in 2018 or before are not eligible.</li></ul><p class=\"Normal1\">The deadline for 2021 entries is TBD. There is no entry form. Publishers, authors or readers may send nominations and a single copy of the book to rights@duke.edu and the address below. Please use the subject line Méndez Book Award. We will contact you for additional copies if the book is included in the short list. The winner will be announced in early 2022 and invited to deliver a reading at Duke University in February. There is an award of $1,000.&nbsp;</p><div>The submission should contain a short description of the book and publishing details; no supporting materials or reviews are necessary. If books are short-listed, we will request copies for all judges. For books due to be published in 2020 but after the entry deadline, nominators may send a pre-publication copy, indicating the publication date. Judges are drawn from Duke University as well as journalists, scholars, writers and others who have worked in human rights in Latin America.</div>",
            "langcode" : "und",
            "revision_id" : 16968,
            "deleted" : 0,
            "body_format" : "full_html"
         },
         "status" : 1,
         "comment" : 1,
         "timestamp" : 1616514253
      }
   ],
   "nid" : "667",
   "asidebox" : {
      "block_delta" : null,
      "status" : "html",
      "body_value" : "<ul><li>2020 - Theresa Keeley, <em>Reagan’s Gun-Toting Nuns: The Catholic Conflict over Cold War Human Rights Policy in Central America</em></li><li>2019 - Carolyn Forché, <em>What You Have Heard is True: A Memoir of Witness and Resistance</em> &nbsp;</li><li>2018 - María McFarland Sánchez-Moreno, <em>There Are No Dead Here: A Story of Murder and Denial in Colombia</em> &nbsp;</li><li>2017 - Matt Eisenbrandt, <em>Assassination of a Saint, The Plot to Murder Óscar Romero and the Quest to Bring His Killers to Justice&nbsp;</em></li><li>2016 - Chad Broughton,&nbsp;<em>Boom, Bust, Exodus: The Rust Belt, the Maquilas, and a Tale of Two Cities</em></li><li>2015 – Kirsten Weld, <i>Paper Cadavers: The Archives of Dictatorship in Guatemala</i></li><li>2014 – Oscar Martinez, <i>The Beast: Riding The Rails And Dodging Narcos On The Migrant Trail</i></li><li>2013 - Jonathan M. Katz, <i>The Big Truck That Went By: How The World Came to Save Haiti and Left Behind a Disaster</i></li><li>2012 - Héctor Abad, <i>Oblivion: A Memoir</i></li><li>2011 - Katherine Sikkink for <i>The Justice Cascade</i></li><li>2010 -Victoria Bruce and Karin Hayes, with Jorge Enrique Botero for <i>Hostage Nation</i></li><li>2009 -&nbsp;Ambassador Heraldo Muñoz, <em>The Dictator’s Shadow: Life Under Augusto Pinochet</em>&nbsp;</li><li>2008 -<i>&nbsp;</i>Francisco Goldman for&nbsp;<i>The Art of Political Murder: Who Killed the Bishop?</i></li></ul>",
      "vid" : 16968,
      "block_module" : null,
      "body_format" : "full_html",
      "nid" : 667,
      "bid" : null,
      "body_title" : "Previous Award Winners"
   },
   "node_field_data" : {
      "title" : "Méndez Human Rights Book Award",
      "promote" : 0,
      "created" : 1505938068,
      "revision_translation_affected" : 1,
      "uid" : 1,
      "default_langcode" : 1,
      "langcode" : "und",
      "status" : 1,
      "type" : "page",
      "changed" : null,
      "sticky" : 0
   },
   "path_alias" : {
      "status" : 0,
      "language" : "und",
      "pid" : 791,
      "alias" : "/human-rights/book-award",
      "langcode" : "und"
   },
   "field_image" : null,
   "vid" : 16968,
   "uuid" : "e4db1776-8fe6-40b5-bfb7-2ba3ef2368d7",
   "node_access" : null,
   "field_tags" : [],
   "type" : "page",
   "langcode" : "und",
   "node__body" : {
      "bundle" : "page",
      "entity_id" : 667,
      "delta" : 0,
      "body_summary" : "",
      "body_value" : "<h4 class=\"Normal1\" align=\"center\"><b>Juan E. Méndez Book Award for Human Rights in Latin America</b></h4><h4 class=\"Normal1\" align=\"center\"><b style=\"font-size: 13.008px;\">&nbsp;</b></h4><p class=\"Normal1\">The Juan E. Méndez Book Award for Human Rights in Latin America honors the leadership and legacy of Juan E. Méndez, a champion of justice who has devoted his life to the defense of human rights. Méndez is the former UN Special Rapporteur on Torture and current Professor of Human Rights Law at American University.</p><p class=\"Normal1\">This award began in 2008 as a collaboration between the Washington Office on Latin America (WOLA) and Duke, in recognition of WOLA’s decision to deposit its institutional papers at Duke’s Rubenstein Rare Books and Manuscripts Library. In 2017, Duke University collaborated with Juan E. Méndez to reposition the book award in his honor.</p><p class=\"Normal1\">Méndez’s papers are housed at Duke University Libraries’ Human Rights Archive, one of the largest collections of human rights materials at any American university. The papers document Méndez’s work as the UN Special Advisor for the Prevention of Genocide and the UN Special Rapporteur on Torture, as well as his work with the International Center for Transitional Justice (ICTJ).&nbsp; Méndez is well represented in the ICTJ records themselves, which are also housed at the Human Rights Archive along with the papers and records of noted human rights activists and organizations such as Rabbi Marshall T. Meyer, Patricia Derian, Jerome Shestack, and the Washington Office on Latin America (WOLA).</p><p class=\"Normal1\">The Duke Human Rights Center @ the Franklin Humanities Institute, the Human Rights Archive at the Rubenstein Library and the Center for Latin American and Caribbean Studies&nbsp;cosponsor this award.</p><p class=\"Normal1\">&nbsp;</p><p class=\"Normal1\" align=\"center\"><b>Juan E. Méndez Book Award for Human Rights in Latin America</b></p><p class=\"Normal1\" align=\"center\"><b style=\"font-size: 13.008px;\">ELIGIBILITY</b></p><p class=\"Normal1\">&nbsp;Scholarly and popular books, including graphic works, are eligible, either edited or authored. To be eligible, books must meet the following criteria:</p><ul><li>An original, non-fiction book related to issues of human rights, the rule of law, social and/or economic justice, and democracy, as they are broadly understood, in contemporary Latin America. Books should pertain to events that took place in roughly the past 50 years.</li><li>Published in the English language by a commercial, university, or non-profit publishing concern. Books written originally in other languages and translated into English are eligible. Self-published books are not eligible.</li><li>Published in the two years before the date of the award, including the year of the award. In other words, books published in 2019 and 2020 are eligible for the prize awarded in 2021. Books published in 2018 or before are not eligible.</li></ul><p class=\"Normal1\">The deadline for 2021 entries is TBD. There is no entry form. Publishers, authors or readers may send nominations and a single copy of the book to rights@duke.edu and the address below. Please use the subject line Méndez Book Award. We will contact you for additional copies if the book is included in the short list. The winner will be announced in early 2022 and invited to deliver a reading at Duke University in February. There is an award of $1,000.&nbsp;</p><div>The submission should contain a short description of the book and publishing details; no supporting materials or reviews are necessary. If books are short-listed, we will request copies for all judges. For books due to be published in 2020 but after the entry deadline, nominators may send a pre-publication copy, indicating the publication date. Judges are drawn from Duke University as well as journalists, scholars, writers and others who have worked in human rights in Latin America.</div>",
      "body_format" : "full_html",
      "deleted" : 0,
      "revision_id" : 16968,
      "langcode" : "und"
   }
}

