{
   "uuid" : "e552ecc3-470a-482c-83c7-5f4f70c09401",
   "path_alias" : {
      "language" : "und",
      "status" : 0,
      "langcode" : "und",
      "pid" : 719,
      "alias" : "/content/exhibits"
   },
   "field_image" : null,
   "vid" : 11631,
   "nid" : "611",
   "revisions" : [
      {
         "timestamp" : 1488987428,
         "node_revision__body" : {
            "body_summary" : "",
            "delta" : 0,
            "bundle" : "page",
            "entity_id" : 611,
            "revision_id" : 11631,
            "langcode" : "und",
            "deleted" : 0,
            "body_format" : "plain_text",
            "body_value" : "<h2>Online Exhibits</h2><p><a href=\"http://exhibits.library.duke.edu/exhibits/show/john-hope-franklin-imprint\" target=\"_blank\">John Hope Franklin: Imprint of an American Scholar</a></p><p><img src=\"/rubenstein/sites/default/files/rubenstein/users/john.gartrell/JHFpapers_p4_004.jpg\" alt=\"Young Franklin\" height=\"173\" width=\"120\"></p><p></p><p><a href=\"http://exhibits.library.duke.edu/exhibits/show/africanamericansinfilm\" target=\"_blank\">From Blackface to Blaxploitation: Represntations of African Americans in Film</a></p><p><img src=\"/rubenstein/sites/default/files/rubenstein/users/john.gartrell/Coffy_small.jpg\" alt=\"Coffy Pressbook\" height=\"198\" width=\"120\"></p><p></p><p><a href=\"http://library.duke.edu/exhibits/johnhopefranklin/index.html\" target=\"_blank\">Conscience of a Nation: John Hope Franklin on African American History</a></p><p><img src=\"/rubenstein/sites/default/files/rubenstein/users/john.gartrell/jhfbc010010130-lrg.jpg\" alt=\"Franklin Broadside\" height=\"153\" width=\"120\"></p><p></p>"
         },
         "node_revision__field_tags" : [],
         "sticky" : 0,
         "status" : 0,
         "comment" : 1,
         "field_revision" : {
            "revision_translation_affected" : 1,
            "created" : null,
            "uid" : 1,
            "default_langcode" : 1,
            "langcode" : null,
            "status" : 0,
            "changed" : null,
            "sticky" : 0,
            "title" : "Exhibits"
         },
         "promote" : 0,
         "title" : "Exhibits",
         "log" : "",
         "vuuid" : "412214dc-27be-4fb6-980c-8a842c200c0f",
         "uid" : 7
      }
   ],
   "node_field_data" : {
      "type" : "page",
      "changed" : null,
      "status" : 0,
      "sticky" : 0,
      "revision_translation_affected" : 1,
      "created" : 1444768316,
      "uid" : 1,
      "default_langcode" : 1,
      "langcode" : "und",
      "title" : "Exhibits",
      "promote" : 0
   },
   "asidebox" : null,
   "type" : "page",
   "field_tags" : [],
   "node_access" : null,
   "node__body" : {
      "body_summary" : "",
      "delta" : 0,
      "entity_id" : 611,
      "bundle" : "page",
      "langcode" : "und",
      "revision_id" : 11631,
      "deleted" : 0,
      "body_format" : "plain_text",
      "body_value" : "<h2>Online Exhibits</h2><p><a href=\"http://exhibits.library.duke.edu/exhibits/show/john-hope-franklin-imprint\" target=\"_blank\">John Hope Franklin: Imprint of an American Scholar</a></p><p><img src=\"/rubenstein/sites/default/files/rubenstein/users/john.gartrell/JHFpapers_p4_004.jpg\" alt=\"Young Franklin\" height=\"173\" width=\"120\"></p><p></p><p><a href=\"http://exhibits.library.duke.edu/exhibits/show/africanamericansinfilm\" target=\"_blank\">From Blackface to Blaxploitation: Represntations of African Americans in Film</a></p><p><img src=\"/rubenstein/sites/default/files/rubenstein/users/john.gartrell/Coffy_small.jpg\" alt=\"Coffy Pressbook\" height=\"198\" width=\"120\"></p><p></p><p><a href=\"http://library.duke.edu/exhibits/johnhopefranklin/index.html\" target=\"_blank\">Conscience of a Nation: John Hope Franklin on African American History</a></p><p><img src=\"/rubenstein/sites/default/files/rubenstein/users/john.gartrell/jhfbc010010130-lrg.jpg\" alt=\"Franklin Broadside\" height=\"153\" width=\"120\"></p><p></p>"
   },
   "langcode" : "und"
}

