{
   "node_field_data" : {
      "type" : "page",
      "status" : 0,
      "changed" : null,
      "sticky" : 0,
      "revision_translation_affected" : 1,
      "created" : 1394729925,
      "uid" : 1,
      "default_langcode" : 1,
      "langcode" : "und",
      "title" : "Email FAQs: Guidelines and Policies",
      "promote" : 0
   },
   "asidebox" : null,
   "nid" : "381",
   "revisions" : [
      {
         "field_revision" : {
            "title" : "Email FAQs: Guidelines and Policies",
            "langcode" : null,
            "default_langcode" : 1,
            "uid" : 1,
            "revision_translation_affected" : 1,
            "created" : null,
            "sticky" : 0,
            "status" : 0,
            "changed" : null
         },
         "title" : "Email FAQs: Guidelines and Policies",
         "promote" : 0,
         "log" : "",
         "uid" : 137,
         "vuuid" : "5b2db3b3-980d-45da-89a5-ae29c836c488",
         "timestamp" : 1559744483,
         "status" : 0,
         "node_revision__field_tags" : [],
         "node_revision__body" : {
            "body_summary" : "",
            "delta" : 0,
            "entity_id" : 381,
            "bundle" : "page",
            "langcode" : "und",
            "revision_id" : 14381,
            "body_format" : "full_html",
            "deleted" : 0,
            "body_value" : "<h3>How do I know when an email is a record?</h3><p>Electronic messages are subject to the same tests as paper documents to determine their record status. Email created or received pursuant to the transaction of University business or in the fulfillment of its educational, administrative, business, or legal obligations is a record. Messages with continuing value, such as those that document administrative decision-making, committee, faculty, and campus activities are considered records. Examples of messages that may have continuing value are those which:</p><ul><li>approve or authorize actions or expenditures;</li><li>are formal communications between staff, such as correspondence or memoranda relating to official business;</li><li>signify a policy change or development;</li><li>create a precedent, such as messages issuing instructions or advice;</li><li>relate to the substantive business of the work unit or University;</li><li>involve negotiations on behalf of the University;</li><li>have value for other people or the work unit as a whole.</li></ul><p>Faculty correspondence, research data, and external scholarly communications which are not of an administrative nature may still have significant archival value.<br><br>Unwanted or unneeded junk mail (spam), personal messages, and most listserv messages, are not University records and should be routinely identified, separated, and removed from the email system. Such email may be considered a “nonrecord”.</p><h3>What do I do with emails that are considered records?</h3><p>Electronic messages whose loss would pose a significant fiscal, legal, or administrative risk to the University if they could not be accessed or read should not be deleted unless retained in an acceptable paper format.<br><br>Electronic copies can be deleted if paper copies are maintained.</p><h3>What do I do with emails that do not have significant value?</h3><p>Messages with short term value (only needed for a limited time or purpose) should be deleted and purged once their usefulness ends. Such messages include:</p><ul><li>those distributed to a large number of staff for informational purposes only, such as news bulletins, circulars, meeting notices, copies of extracts of documents;</li><li>drafts;</li><li>notices of events that have already occurred;</li><li>personal messages and announcements not work related;</li><li>junk mail.</li></ul><h3>How can email be considered an authentic record?</h3><p>The issue of authenticity is tied to the concepts of integrity and trustworthiness. Questions of authenticity often arise in legal proceedings, with courts considering the reliability and accuracy of the process or system used to produce or reproduce and maintain the records, rather than its format.<br><br>If a record is created during the routine course of business and for specific purpose, it is typically considered authentic. Certain data elements of email (metadata) will identify changes to content and structure, thus affecting its authenticity and completeness.<br><br>Rules of evidence and laws such as the Uniform Photographic Copies of Business and Public Records as Evidence Act allow records to be accepted by the courts without condition; however, the accuracy of the records' content still may be challenged.</p><h3>Are email records handled differently than paper?</h3><p>Email should be managed by its content, not its format. Whether or not one keeps an email message depends on its value, subject, and function.</p><h3>Can anyone read my email?</h3><p>The Office of Information Technology has a policy on Computing and Electronic Communications at Duke University: Security &amp; Privacy, which says, in part, \"the University may find it necessary to access and disclose information from computer and network users' accounts to the extent required by law, to uphold contractual obligations or other applicable University policies, or to diagnose and correct technical problems. For this reason, the ultimate privacy of messages and files cannot be ensured.&amp;quot; Therefore, it is advisable not to use email to communicate confidential or sensitive information.<br><br>See <a href=\"email/access-security%20\" target=\"_blank\">Access and Security FAQs</a> for additional information on this topic.</p><p></p>"
         },
         "sticky" : 0,
         "comment" : 1
      }
   ],
   "vid" : 14381,
   "path_alias" : {
      "pid" : 461,
      "alias" : "/uarchives/transfer/records-management/email/guidelines-policies",
      "langcode" : "und",
      "status" : 0,
      "language" : "und"
   },
   "field_image" : null,
   "uuid" : "ec4e3e38-60ed-44bc-bb9f-8735ed641c9c",
   "langcode" : "und",
   "node__body" : {
      "delta" : 0,
      "body_summary" : "",
      "entity_id" : 381,
      "bundle" : "page",
      "deleted" : 0,
      "body_format" : "full_html",
      "langcode" : "und",
      "revision_id" : 14381,
      "body_value" : "<h3>How do I know when an email is a record?</h3><p>Electronic messages are subject to the same tests as paper documents to determine their record status. Email created or received pursuant to the transaction of University business or in the fulfillment of its educational, administrative, business, or legal obligations is a record. Messages with continuing value, such as those that document administrative decision-making, committee, faculty, and campus activities are considered records. Examples of messages that may have continuing value are those which:</p><ul><li>approve or authorize actions or expenditures;</li><li>are formal communications between staff, such as correspondence or memoranda relating to official business;</li><li>signify a policy change or development;</li><li>create a precedent, such as messages issuing instructions or advice;</li><li>relate to the substantive business of the work unit or University;</li><li>involve negotiations on behalf of the University;</li><li>have value for other people or the work unit as a whole.</li></ul><p>Faculty correspondence, research data, and external scholarly communications which are not of an administrative nature may still have significant archival value.<br><br>Unwanted or unneeded junk mail (spam), personal messages, and most listserv messages, are not University records and should be routinely identified, separated, and removed from the email system. Such email may be considered a “nonrecord”.</p><h3>What do I do with emails that are considered records?</h3><p>Electronic messages whose loss would pose a significant fiscal, legal, or administrative risk to the University if they could not be accessed or read should not be deleted unless retained in an acceptable paper format.<br><br>Electronic copies can be deleted if paper copies are maintained.</p><h3>What do I do with emails that do not have significant value?</h3><p>Messages with short term value (only needed for a limited time or purpose) should be deleted and purged once their usefulness ends. Such messages include:</p><ul><li>those distributed to a large number of staff for informational purposes only, such as news bulletins, circulars, meeting notices, copies of extracts of documents;</li><li>drafts;</li><li>notices of events that have already occurred;</li><li>personal messages and announcements not work related;</li><li>junk mail.</li></ul><h3>How can email be considered an authentic record?</h3><p>The issue of authenticity is tied to the concepts of integrity and trustworthiness. Questions of authenticity often arise in legal proceedings, with courts considering the reliability and accuracy of the process or system used to produce or reproduce and maintain the records, rather than its format.<br><br>If a record is created during the routine course of business and for specific purpose, it is typically considered authentic. Certain data elements of email (metadata) will identify changes to content and structure, thus affecting its authenticity and completeness.<br><br>Rules of evidence and laws such as the Uniform Photographic Copies of Business and Public Records as Evidence Act allow records to be accepted by the courts without condition; however, the accuracy of the records' content still may be challenged.</p><h3>Are email records handled differently than paper?</h3><p>Email should be managed by its content, not its format. Whether or not one keeps an email message depends on its value, subject, and function.</p><h3>Can anyone read my email?</h3><p>The Office of Information Technology has a policy on Computing and Electronic Communications at Duke University: Security &amp; Privacy, which says, in part, \"the University may find it necessary to access and disclose information from computer and network users' accounts to the extent required by law, to uphold contractual obligations or other applicable University policies, or to diagnose and correct technical problems. For this reason, the ultimate privacy of messages and files cannot be ensured.&amp;quot; Therefore, it is advisable not to use email to communicate confidential or sensitive information.<br><br>See <a href=\"email/access-security%20\" target=\"_blank\">Access and Security FAQs</a> for additional information on this topic.</p><p></p>"
   },
   "node_access" : null,
   "type" : "page",
   "field_tags" : []
}

