{
   "uuid" : "ed9d43e5-9cbd-4198-bca0-5256bc95530d",
   "path_alias" : {
      "language" : "und",
      "status" : 0,
      "langcode" : "und",
      "pid" : 807,
      "alias" : "/uarchives/recordsmanagement"
   },
   "vid" : 16916,
   "field_image" : null,
   "node_field_data" : {
      "promote" : 0,
      "title" : "Records Management at Duke",
      "default_langcode" : 1,
      "langcode" : "und",
      "revision_translation_affected" : 1,
      "created" : 1517587696,
      "uid" : 1,
      "sticky" : 0,
      "status" : 1,
      "type" : "page",
      "changed" : null
   },
   "asidebox" : {
      "block_module" : null,
      "vid" : 16916,
      "body_format" : "full_html",
      "block_delta" : null,
      "body_value" : "<p>Contact the Records Manager at <strong>919-684-8066</strong> or <a href=\"mailto:hillary.gatlin@duke.edu\">hillary.gatlin@duke.edu</a>.</p>",
      "status" : "html",
      "body_title" : "Questions about Your Records?",
      "bid" : null,
      "nid" : 677
   },
   "nid" : "677",
   "revisions" : [
      {
         "vuuid" : "98bf312d-d0f4-4803-a72c-790677dfb296",
         "uid" : 137,
         "log" : "",
         "promote" : 0,
         "title" : "Records Management at Duke",
         "field_revision" : {
            "title" : "Records Management at Duke",
            "created" : null,
            "revision_translation_affected" : 1,
            "uid" : 1,
            "default_langcode" : 1,
            "langcode" : null,
            "status" : 1,
            "changed" : null,
            "sticky" : 0
         },
         "comment" : 1,
         "sticky" : 0,
         "node_revision__field_tags" : [],
         "node_revision__body" : {
            "body_value" : "<p>The University Archives administers Duke University’s Records Management program. The purpose of the Records Management program is to provide guidance and assistance to University offices and departments to ensure that vital information is available in a cost-effective, efficient, and legally-defensible manner. The Records Management program helps offices categorize the different kinds of records they create and use, craft records retention guidelines, transfer permanent records to the Archives, identify storage locations for temporary records, and manage and retain their electronic records.</p><p>Records of the School of Nursing, School of Medicine, and Duke University Health System are managed by the Duke University Medical Center Archives. For retention requirements for these records, please visit the Duke Medical Center Archives <a href=\"https://archives.mc.duke.edu/\">website</a>.</p><div class=\"table-responsive\"><table id=\"AutoNumber1\" style=\"width: 100%;\" rules=\"rows\" class=\"table\" cellspacing=\"40\" cellpadding=\"6\"><tbody><tr><td width=\"100\" align=\"top\"><img src=\"/rubenstein/sites/default/files/rubenstein/uarchives/GothicReadingRoomPic_0.jpg\" alt=\"Gothic Reading Room\" title=\"Gothic Reading Room \" style=\"display: block; margin-left: auto; margin-right: auto;\" width=\"228\" height=\"177\"></td><td><h3><a href=\"https://library.duke.edu/rubenstein/uarchives/recordsmanagement/whatisrm\">What is Records Management?</a></h3></td></tr><tr><td><img src=\"/rubenstein/sites/default/files/rubenstein/archives-other/transfer-office-thumbnail-1.jpg\" alt=\"Transfer Office Records\" title=\"Transfer Office Records\" style=\"display: block; margin-left: auto; margin-right: auto;\" class=\"img-responsive\" width=\"175\" height=\"175\"></td><td><h3><a href=\"https://library.duke.edu/rubenstein/uarchives/recordsmanagement/retentionguidelines\">How Long Should I Retain My Records?</a></h3><p></p></td></tr><tr><td style=\"text-align: center;\"><img src=\"/rubenstein/sites/default/files/rubenstein/uarchives/Stacks_0.jpg\" alt=\"Rubenstein Stacks\" title=\"Archives Stacks\" width=\"208\" height=\"158\"></td><td><h3><a href=\"https://library.duke.edu/rubenstein/uarchives/recordsmanagement/transferstorage\">How Do I Transfer Records to the Archives?</a></h3><p></p></td></tr><tr><td style=\"text-align: center;\"><img src=\"/rubenstein/sites/default/files/rubenstein/uarchives/OfficeWorker.jpg\" alt=\"Office Worker\" title=\"Office Worker\" width=\"240\" height=\"189\"></td><td><h3><a href=\"recordsmanagement/outreach\">Where Can I Learn More about Records Management?</a></h3></td></tr><tr><td style=\"text-align: center;\"><img src=\"/rubenstein/sites/default/files/rubenstein/uarchives/DukeComputerPicture_1.jpg\" alt=\"Computer Cluster at Duke\" width=\"180\" height=\"253\"></td><td><h3><a href=\"recordsmanagement/shareddrive\">How Do I Clean Up My Shared Drive?</a></h3></td></tr><tr><td style=\"text-align: center;\"><img src=\"/rubenstein/sites/default/files/rubenstein/uarchives/ComputerPic_0.jpg\" alt=\"Math Institute Machine\" title=\"Math Institute Machine\" width=\"219\" height=\"175\"></td><td><h3><a href=\"recordsmanagement/electronicrecords\">How Do I Transfer My Electronic Records?</a></h3></td></tr><tr><td style=\"text-align: center;\"><img src=\"/rubenstein/sites/default/files/rubenstein/uarchives/CarPhotoforSite.jpg\" alt=\"Goodbye Duke, 1950\" title=\"Goodbye Duke, 1950\" width=\"250\" height=\"203\"></td><td><h3><a href=\"recordsmanagement/leavingduke\">I'm Leaving Duke. What Do I Do With My Records?<br></a></h3></td></tr><tr><td></td><td></td></tr></tbody></table></div>",
            "langcode" : "und",
            "revision_id" : 16916,
            "body_format" : "full_html",
            "deleted" : 0,
            "entity_id" : 677,
            "bundle" : "page",
            "body_summary" : "",
            "delta" : 0
         },
         "status" : 1,
         "timestamp" : 1614968522
      }
   ],
   "node__body" : {
      "delta" : 0,
      "body_summary" : "",
      "entity_id" : 677,
      "bundle" : "page",
      "deleted" : 0,
      "body_format" : "full_html",
      "langcode" : "und",
      "revision_id" : 16916,
      "body_value" : "<p>The University Archives administers Duke University’s Records Management program. The purpose of the Records Management program is to provide guidance and assistance to University offices and departments to ensure that vital information is available in a cost-effective, efficient, and legally-defensible manner. The Records Management program helps offices categorize the different kinds of records they create and use, craft records retention guidelines, transfer permanent records to the Archives, identify storage locations for temporary records, and manage and retain their electronic records.</p><p>Records of the School of Nursing, School of Medicine, and Duke University Health System are managed by the Duke University Medical Center Archives. For retention requirements for these records, please visit the Duke Medical Center Archives <a href=\"https://archives.mc.duke.edu/\">website</a>.</p><div class=\"table-responsive\"><table id=\"AutoNumber1\" style=\"width: 100%;\" rules=\"rows\" class=\"table\" cellspacing=\"40\" cellpadding=\"6\"><tbody><tr><td width=\"100\" align=\"top\"><img src=\"/rubenstein/sites/default/files/rubenstein/uarchives/GothicReadingRoomPic_0.jpg\" alt=\"Gothic Reading Room\" title=\"Gothic Reading Room \" style=\"display: block; margin-left: auto; margin-right: auto;\" width=\"228\" height=\"177\"></td><td><h3><a href=\"https://library.duke.edu/rubenstein/uarchives/recordsmanagement/whatisrm\">What is Records Management?</a></h3></td></tr><tr><td><img src=\"/rubenstein/sites/default/files/rubenstein/archives-other/transfer-office-thumbnail-1.jpg\" alt=\"Transfer Office Records\" title=\"Transfer Office Records\" style=\"display: block; margin-left: auto; margin-right: auto;\" class=\"img-responsive\" width=\"175\" height=\"175\"></td><td><h3><a href=\"https://library.duke.edu/rubenstein/uarchives/recordsmanagement/retentionguidelines\">How Long Should I Retain My Records?</a></h3><p></p></td></tr><tr><td style=\"text-align: center;\"><img src=\"/rubenstein/sites/default/files/rubenstein/uarchives/Stacks_0.jpg\" alt=\"Rubenstein Stacks\" title=\"Archives Stacks\" width=\"208\" height=\"158\"></td><td><h3><a href=\"https://library.duke.edu/rubenstein/uarchives/recordsmanagement/transferstorage\">How Do I Transfer Records to the Archives?</a></h3><p></p></td></tr><tr><td style=\"text-align: center;\"><img src=\"/rubenstein/sites/default/files/rubenstein/uarchives/OfficeWorker.jpg\" alt=\"Office Worker\" title=\"Office Worker\" width=\"240\" height=\"189\"></td><td><h3><a href=\"recordsmanagement/outreach\">Where Can I Learn More about Records Management?</a></h3></td></tr><tr><td style=\"text-align: center;\"><img src=\"/rubenstein/sites/default/files/rubenstein/uarchives/DukeComputerPicture_1.jpg\" alt=\"Computer Cluster at Duke\" width=\"180\" height=\"253\"></td><td><h3><a href=\"recordsmanagement/shareddrive\">How Do I Clean Up My Shared Drive?</a></h3></td></tr><tr><td style=\"text-align: center;\"><img src=\"/rubenstein/sites/default/files/rubenstein/uarchives/ComputerPic_0.jpg\" alt=\"Math Institute Machine\" title=\"Math Institute Machine\" width=\"219\" height=\"175\"></td><td><h3><a href=\"recordsmanagement/electronicrecords\">How Do I Transfer My Electronic Records?</a></h3></td></tr><tr><td style=\"text-align: center;\"><img src=\"/rubenstein/sites/default/files/rubenstein/uarchives/CarPhotoforSite.jpg\" alt=\"Goodbye Duke, 1950\" title=\"Goodbye Duke, 1950\" width=\"250\" height=\"203\"></td><td><h3><a href=\"recordsmanagement/leavingduke\">I'm Leaving Duke. What Do I Do With My Records?<br></a></h3></td></tr><tr><td></td><td></td></tr></tbody></table></div>"
   },
   "langcode" : "und",
   "type" : "page",
   "field_tags" : [],
   "node_access" : null
}

