{
   "node_access" : null,
   "type" : "page",
   "field_tags" : [],
   "langcode" : "und",
   "node__body" : {
      "body_summary" : "",
      "delta" : 0,
      "entity_id" : 523,
      "bundle" : "page",
      "langcode" : "und",
      "revision_id" : 7585,
      "deleted" : 0,
      "body_format" : "full_html",
      "body_value" : "<ul><li><a href=\"/rubenstein/collections/creators/corporations/\">Corporations</a></li><li><a href=\"/rubenstein/collections/creators/people/\">People</a></li><li><a href=\"/rubenstein/collections/creators/families/\">Families</a></li></ul>"
   },
   "path_alias" : {
      "status" : 0,
      "language" : "und",
      "pid" : 625,
      "alias" : "/collections/creators",
      "langcode" : "und"
   },
   "vid" : 7585,
   "field_image" : null,
   "uuid" : "ede7c68b-245c-4d02-a7ff-f63f4c6d7d9e",
   "nid" : "523",
   "revisions" : [
      {
         "timestamp" : 1423065169,
         "comment" : 1,
         "sticky" : 0,
         "node_revision__field_tags" : [],
         "node_revision__body" : {
            "body_format" : "full_html",
            "deleted" : 0,
            "langcode" : "und",
            "revision_id" : 7585,
            "body_value" : "<ul><li><a href=\"/rubenstein/collections/creators/corporations/\">Corporations</a></li><li><a href=\"/rubenstein/collections/creators/people/\">People</a></li><li><a href=\"/rubenstein/collections/creators/families/\">Families</a></li></ul>",
            "delta" : 0,
            "body_summary" : "",
            "entity_id" : 523,
            "bundle" : "page"
         },
         "status" : 1,
         "promote" : 0,
         "title" : "Creators",
         "field_revision" : {
            "title" : "Creators",
            "sticky" : 0,
            "status" : 1,
            "changed" : null,
            "default_langcode" : 1,
            "langcode" : null,
            "revision_translation_affected" : 1,
            "created" : null,
            "uid" : 1
         },
         "vuuid" : "9d6c0a5a-eaa7-4176-94e4-43e4d7508176",
         "uid" : 7,
         "log" : ""
      }
   ],
   "node_field_data" : {
      "promote" : 0,
      "title" : "Creators",
      "default_langcode" : 1,
      "langcode" : "und",
      "created" : 1423065169,
      "revision_translation_affected" : 1,
      "uid" : 1,
      "sticky" : 0,
      "changed" : null,
      "status" : 1,
      "type" : "page"
   },
   "asidebox" : {
      "body_title" : "",
      "bid" : null,
      "nid" : 523,
      "block_module" : null,
      "vid" : 7585,
      "body_format" : null,
      "block_delta" : null,
      "body_value" : null,
      "status" : "disabled"
   }
}

