{
   "node__body" : {
      "revision_id" : 11549,
      "langcode" : "und",
      "deleted" : 0,
      "body_format" : "full_html",
      "body_value" : "<h3>Financial Gifts</h3><p><img src=\"/rubenstein/sites/default/files/rubenstein/archives-other/tchs-vault.jpg\" alt=\"Trinity College Library Vault, circa 1900s\" title=\"Trinity College Library Vault, circa 1900s\" width=\"300\" height=\"218\" class=\"caption-right\"><a href=\"https://www.gifts.duke.edu/?designation=3990037\" class=\"btn btn-success\" style=\"font-size: 1em; text-align: center;\">Make a Gift to the University Archives</a></p><h3>Collections</h3><p>The Duke University Archives seeks to build its collections through donations from students and others that document the activities that comprised their unique campus experience. Materials we collect include:</p><ul><li>Diaries</li><li>Correspondence (letters to and from home)</li><li>Photograph albums</li><li>Scrapbooks</li><li>Recordings (film or audio)</li><li>Student or other campus organization records (minutes, posters, membership lists, etc.)</li></ul><p>In general, we do not need additional copies of the <em>Chanticleer</em> or the <em>Chronicle</em>, or other widely distributed campus publications. We occasionally collect artifacts, making evaluations on a case-by-case basis.</p><p>If you have material you are interested in donating, please <a href=\"mailto:valerie.gillispie@duke.edu\">contact the University Archivist</a>.</p>",
      "body_summary" : "",
      "delta" : 0,
      "bundle" : "page",
      "entity_id" : 421
   },
   "langcode" : "und",
   "field_tags" : [],
   "type" : "page",
   "node_access" : null,
   "uuid" : "f31dbe97-f877-45b4-96b9-52c1d2181684",
   "path_alias" : {
      "alias" : "/uarchives/transfer/donate",
      "pid" : 503,
      "langcode" : "und",
      "status" : 0,
      "language" : "und"
   },
   "vid" : 11549,
   "field_image" : null,
   "asidebox" : {
      "nid" : 421,
      "body_title" : "",
      "bid" : null,
      "block_delta" : null,
      "body_value" : null,
      "status" : "disabled",
      "block_module" : null,
      "vid" : 11549,
      "body_format" : null
   },
   "node_field_data" : {
      "promote" : 0,
      "title" : "Donate to the Duke University Archives",
      "langcode" : "und",
      "default_langcode" : 1,
      "uid" : 1,
      "revision_translation_affected" : 1,
      "created" : 1399927610,
      "sticky" : 0,
      "changed" : null,
      "status" : 1,
      "type" : "page"
   },
   "revisions" : [
      {
         "promote" : 0,
         "title" : "Donate to the Duke University Archives",
         "field_revision" : {
            "status" : 1,
            "changed" : null,
            "sticky" : 0,
            "created" : null,
            "revision_translation_affected" : 1,
            "uid" : 1,
            "default_langcode" : 1,
            "langcode" : null,
            "title" : "Donate to the Duke University Archives"
         },
         "vuuid" : "2a886b23-4b7e-4f57-abcf-f6a8429a77fa",
         "uid" : 7,
         "log" : "",
         "timestamp" : 1488922673,
         "comment" : 1,
         "node_revision__field_tags" : [],
         "node_revision__body" : {
            "bundle" : "page",
            "entity_id" : 421,
            "body_summary" : "",
            "delta" : 0,
            "body_value" : "<h3>Financial Gifts</h3><p><img src=\"/rubenstein/sites/default/files/rubenstein/archives-other/tchs-vault.jpg\" alt=\"Trinity College Library Vault, circa 1900s\" title=\"Trinity College Library Vault, circa 1900s\" width=\"300\" height=\"218\" class=\"caption-right\"><a href=\"https://www.gifts.duke.edu/?designation=3990037\" class=\"btn btn-success\" style=\"font-size: 1em; text-align: center;\">Make a Gift to the University Archives</a></p><h3>Collections</h3><p>The Duke University Archives seeks to build its collections through donations from students and others that document the activities that comprised their unique campus experience. Materials we collect include:</p><ul><li>Diaries</li><li>Correspondence (letters to and from home)</li><li>Photograph albums</li><li>Scrapbooks</li><li>Recordings (film or audio)</li><li>Student or other campus organization records (minutes, posters, membership lists, etc.)</li></ul><p>In general, we do not need additional copies of the <em>Chanticleer</em> or the <em>Chronicle</em>, or other widely distributed campus publications. We occasionally collect artifacts, making evaluations on a case-by-case basis.</p><p>If you have material you are interested in donating, please <a href=\"mailto:valerie.gillispie@duke.edu\">contact the University Archivist</a>.</p>",
            "revision_id" : 11549,
            "langcode" : "und",
            "body_format" : "full_html",
            "deleted" : 0
         },
         "sticky" : 0,
         "status" : 1
      }
   ],
   "nid" : "421"
}

