{
   "node__body" : null,
   "langcode" : "und",
   "type" : "page",
   "field_tags" : [],
   "node_access" : null,
   "uuid" : "f4336c82-d92f-4627-9f98-f93c24d4590d",
   "path_alias" : {
      "langcode" : "und",
      "pid" : 958,
      "alias" : "/research/reproductions/fees",
      "language" : "und",
      "status" : 0
   },
   "field_image" : null,
   "vid" : 16759,
   "node_field_data" : {
      "status" : 0,
      "changed" : null,
      "type" : "page",
      "sticky" : 0,
      "uid" : 1,
      "revision_translation_affected" : 1,
      "created" : 1608222823,
      "langcode" : "und",
      "default_langcode" : 1,
      "title" : "Fee Schedule ",
      "promote" : 0
   },
   "asidebox" : null,
   "nid" : "805",
   "revisions" : [
      {
         "promote" : 0,
         "title" : "Fee Schedule ",
         "field_revision" : {
            "langcode" : null,
            "default_langcode" : 1,
            "uid" : 1,
            "created" : null,
            "revision_translation_affected" : 1,
            "sticky" : 0,
            "changed" : null,
            "status" : 0,
            "title" : "Fee Schedule "
         },
         "vuuid" : "051edfbc-f5e5-464c-b873-ec82c615d563",
         "uid" : 7,
         "log" : "",
         "timestamp" : 1608222823,
         "comment" : 1,
         "node_revision__field_tags" : [],
         "sticky" : 0,
         "node_revision__body" : {
            "langcode" : null
         },
         "status" : 0
      }
   ]
}

