{
   "node__body" : {
      "body_value" : "<p>Our Reading Room is currently closed to all non-Duke users. Duke users with a Duke Unique ID (DUID) and a Duke ID card can request an appointment to use the Reading Room.</p><p>Before requesting an appointment to view material in the Rubenstein Library’s Reading Room, please <a href=\"https://library.duke.edu/rubenstein/ask\">contact us to schedule a brief Zoom consult</a>. We will not approve your appointment request until you have had a consultation with a Rubenstein librarian.&nbsp; If you place a request for an appointment and have not spoken with a Rubenstein Librarian, we will contact you to arrange a consultation before approving your appointment.</p><p>Once you have spoken with a librarian and it has been determined that viewing materials in the Reading Room is the best option for you, please follow these steps:</p><ol><li>Visit the Rubenstein Library’s Reading Room <a href=\"https://duke.libcal.com/reserve/rubensteinlibrary\">appointment request form in LibCal.<br><br></a></li><li>Choose the date and time you would like to visit the Reading Room, and click on the corresponding green box. For example, if you want to schedule an appointment at 1pm on Feb. 15, you would click on the green box circled in red:<br><br> <img src=\"/rubenstein/sites/default/files/rubenstein/pictures/appointment_booking_1.png\" alt=\"Appointment Scheduler\" style=\"padding: 30px; border: 1px solid #eee;\" class=\"img-responsive center-block\" width=\"600\" height=\"181\"><br><br></li><li>The system will then ask you to choose an end time from a drop down menu and \"Submit Tmes:\"<br><br> <img src=\"/rubenstein/sites/default/files/rubenstein/pictures/appointment_booking_2.png\" alt=\"Appointment Scheduler\" style=\"padding: 30px; border: 1px solid #eee;\" class=\"img-responsive center-block\" width=\"600\" height=\"131\"><br><br></li><li>Click \"Submit Times,\" and you will be prompted to login to the system with your NetID. Click Login.<br><br></li><li>Confirm the booking details by clicking \"Continue.\"<br><br> <img src=\"/rubenstein/sites/default/files/rubenstein/pictures/appointment_booking_3.png\" alt=\"Appointment Scheduler\" style=\"padding: 30px; border: 1px solid #eee;\" class=\"img-responsive center-block\" width=\"600\" height=\"174\"><br><br></li><li>To submit the appointment request, please fill out the box with times you will be available for a Zoom consultation. If you have already had a consult with a Rubenstein Librarian, or want to include any other relevant information, please include that information in the box. Then click \"Submit my Booking\":<br><br> <img src=\"/rubenstein/sites/default/files/rubenstein/pictures/appointment_booking_4.png\" alt=\"Appointment Scheduler\" style=\"padding: 30px; border: 1px solid #eee;\" class=\"img-responsive center-block\" width=\"600\" height=\"223\"><br><br></li><li>You will see a screen confirming that you have submitted an appointment request:<br><br> <img src=\"/rubenstein/sites/default/files/rubenstein/pictures/appointment_booking_5.png\" alt=\"Appointment Scheduler\" style=\"padding: 30px; border: 1px solid #eee;\" class=\"img-responsive center-block\" width=\"600\" height=\"240\"><br><br></li><li><p>You will receive an automated email from the LibCal system that says you have submitted a request and that you will receive a confirmation email from Rubenstein Library staff.</p><br><br> <img src=\"/rubenstein/sites/default/files/rubenstein/pictures/appointment_booking_6.png\" alt=\"Appointment Scheduler\" style=\"padding: 30px; border: 1px solid #eee;\" class=\"img-responsive center-block\" width=\"600\" height=\"155\"><br><br></li><li>When Rubenstein Library staff approve this request, you will receive the following email through the LibCal system:<br><br><img src=\"/rubenstein/sites/default/files/rubenstein/pictures/appointment_booking_7.png\" alt=\"Appointment Scheduler\" style=\"padding: 30px; border: 1px solid #eee;\" class=\"img-responsive center-block\" width=\"600\" height=\"151\"><br><br></li><li>If the Rubenstein Library denies your request, you will have been notified and made aware of the reasons why your request was cancelled.<br><br></li><li>The day before your Reading Room appointment is scheduled, you will receive an email from Rubenstein Library staff reminding you of your appointment and with a list of important things to know before you come in for your appointment:<br><br> <img src=\"/rubenstein/sites/default/files/rubenstein/pictures/appointment_booking_8.png\" alt=\"Appointment Scheduler\" style=\"padding: 30px; border: 1px solid #eee;\" class=\"img-responsive center-block\" width=\"600\" height=\"221\"><br><br></li></ol><p>If you have any questions about this process, please feel free to contact us at <a href=\"mailto:special-collections@duke.edu\">special-collections@duke.edu</a>.</p>",
      "revision_id" : 16854,
      "langcode" : "und",
      "body_format" : "full_html",
      "deleted" : 0,
      "bundle" : "page",
      "entity_id" : 804,
      "body_summary" : "",
      "delta" : 0
   },
   "langcode" : "und",
   "field_tags" : [],
   "type" : "page",
   "node_access" : null,
   "uuid" : "f7a81534-3cab-4497-a2a1-c0c0e2a88e66",
   "path_alias" : {
      "alias" : "/research/readingroom/request",
      "pid" : 957,
      "langcode" : "und",
      "status" : 0,
      "language" : "und"
   },
   "vid" : 16854,
   "field_image" : null,
   "asidebox" : {
      "body_format" : null,
      "block_module" : null,
      "vid" : 16854,
      "body_value" : null,
      "status" : "disabled",
      "block_delta" : null,
      "body_title" : "",
      "bid" : null,
      "nid" : 804
   },
   "node_field_data" : {
      "promote" : 0,
      "title" : "Requesting a Reading Room appointment",
      "default_langcode" : 1,
      "langcode" : "und",
      "revision_translation_affected" : 1,
      "created" : 1608222622,
      "uid" : 1,
      "sticky" : 0,
      "type" : "page",
      "changed" : null,
      "status" : 1
   },
   "revisions" : [
      {
         "field_revision" : {
            "title" : "Requesting a Reading Room appointment",
            "created" : null,
            "revision_translation_affected" : 1,
            "uid" : 1,
            "default_langcode" : 1,
            "langcode" : null,
            "changed" : null,
            "status" : 1,
            "sticky" : 0
         },
         "title" : "Requesting a Reading Room appointment",
         "promote" : 0,
         "log" : "",
         "uid" : 11,
         "vuuid" : "50da2002-10a7-41b4-8e76-3903d78bad09",
         "timestamp" : 1611176314,
         "status" : 1,
         "node_revision__body" : {
            "revision_id" : 16854,
            "langcode" : "und",
            "body_format" : "full_html",
            "deleted" : 0,
            "body_value" : "<p>Our Reading Room is currently closed to all non-Duke users. Duke users with a Duke Unique ID (DUID) and a Duke ID card can request an appointment to use the Reading Room.</p><p>Before requesting an appointment to view material in the Rubenstein Library’s Reading Room, please <a href=\"https://library.duke.edu/rubenstein/ask\">contact us to schedule a brief Zoom consult</a>. We will not approve your appointment request until you have had a consultation with a Rubenstein librarian.&nbsp; If you place a request for an appointment and have not spoken with a Rubenstein Librarian, we will contact you to arrange a consultation before approving your appointment.</p><p>Once you have spoken with a librarian and it has been determined that viewing materials in the Reading Room is the best option for you, please follow these steps:</p><ol><li>Visit the Rubenstein Library’s Reading Room <a href=\"https://duke.libcal.com/reserve/rubensteinlibrary\">appointment request form in LibCal.<br><br></a></li><li>Choose the date and time you would like to visit the Reading Room, and click on the corresponding green box. For example, if you want to schedule an appointment at 1pm on Feb. 15, you would click on the green box circled in red:<br><br> <img src=\"/rubenstein/sites/default/files/rubenstein/pictures/appointment_booking_1.png\" alt=\"Appointment Scheduler\" style=\"padding: 30px; border: 1px solid #eee;\" class=\"img-responsive center-block\" width=\"600\" height=\"181\"><br><br></li><li>The system will then ask you to choose an end time from a drop down menu and \"Submit Tmes:\"<br><br> <img src=\"/rubenstein/sites/default/files/rubenstein/pictures/appointment_booking_2.png\" alt=\"Appointment Scheduler\" style=\"padding: 30px; border: 1px solid #eee;\" class=\"img-responsive center-block\" width=\"600\" height=\"131\"><br><br></li><li>Click \"Submit Times,\" and you will be prompted to login to the system with your NetID. Click Login.<br><br></li><li>Confirm the booking details by clicking \"Continue.\"<br><br> <img src=\"/rubenstein/sites/default/files/rubenstein/pictures/appointment_booking_3.png\" alt=\"Appointment Scheduler\" style=\"padding: 30px; border: 1px solid #eee;\" class=\"img-responsive center-block\" width=\"600\" height=\"174\"><br><br></li><li>To submit the appointment request, please fill out the box with times you will be available for a Zoom consultation. If you have already had a consult with a Rubenstein Librarian, or want to include any other relevant information, please include that information in the box. Then click \"Submit my Booking\":<br><br> <img src=\"/rubenstein/sites/default/files/rubenstein/pictures/appointment_booking_4.png\" alt=\"Appointment Scheduler\" style=\"padding: 30px; border: 1px solid #eee;\" class=\"img-responsive center-block\" width=\"600\" height=\"223\"><br><br></li><li>You will see a screen confirming that you have submitted an appointment request:<br><br> <img src=\"/rubenstein/sites/default/files/rubenstein/pictures/appointment_booking_5.png\" alt=\"Appointment Scheduler\" style=\"padding: 30px; border: 1px solid #eee;\" class=\"img-responsive center-block\" width=\"600\" height=\"240\"><br><br></li><li><p>You will receive an automated email from the LibCal system that says you have submitted a request and that you will receive a confirmation email from Rubenstein Library staff.</p><br><br> <img src=\"/rubenstein/sites/default/files/rubenstein/pictures/appointment_booking_6.png\" alt=\"Appointment Scheduler\" style=\"padding: 30px; border: 1px solid #eee;\" class=\"img-responsive center-block\" width=\"600\" height=\"155\"><br><br></li><li>When Rubenstein Library staff approve this request, you will receive the following email through the LibCal system:<br><br><img src=\"/rubenstein/sites/default/files/rubenstein/pictures/appointment_booking_7.png\" alt=\"Appointment Scheduler\" style=\"padding: 30px; border: 1px solid #eee;\" class=\"img-responsive center-block\" width=\"600\" height=\"151\"><br><br></li><li>If the Rubenstein Library denies your request, you will have been notified and made aware of the reasons why your request was cancelled.<br><br></li><li>The day before your Reading Room appointment is scheduled, you will receive an email from Rubenstein Library staff reminding you of your appointment and with a list of important things to know before you come in for your appointment:<br><br> <img src=\"/rubenstein/sites/default/files/rubenstein/pictures/appointment_booking_8.png\" alt=\"Appointment Scheduler\" style=\"padding: 30px; border: 1px solid #eee;\" class=\"img-responsive center-block\" width=\"600\" height=\"221\"><br><br></li></ol><p>If you have any questions about this process, please feel free to contact us at <a href=\"mailto:special-collections@duke.edu\">special-collections@duke.edu</a>.</p>",
            "body_summary" : "",
            "delta" : 0,
            "bundle" : "page",
            "entity_id" : 804
         },
         "node_revision__field_tags" : [],
         "sticky" : 0,
         "comment" : 1
      }
   ],
   "nid" : "804"
}

