{
   "field_tags" : [],
   "type" : "page",
   "node_access" : null,
   "node__body" : {
      "bundle" : "page",
      "entity_id" : 800,
      "body_summary" : "",
      "delta" : 0,
      "body_value" : "<p><img src=\"/rubenstein/sites/default/files/rubenstein/users/kate.collins/DukeMS93.png\" alt=\"manuscript page with a portrait of King David\" title=\"Psalter, King David, Duke Ge’ez MS 93 (folio 2 recto)\" style=\"margin: 10px; float: right;\" class=\"caption-right\" width=\"300\" height=\"407\"></p><p>The Rubenstein Library holds 112 Ge’ez (Ethiopic) manuscripts, in both roll and codex format, dating from the 18th-20th century. The collection includes magic scrolls, Psalters, prayers, and hymns. <a href=\"https://blogs.library.duke.edu/magazine/2009/11/02/collections-highlight/\">Learn more about the history of the collection</a>. For additional information or to request items for use <a href=\"https://library.duke.edu/rubenstein/ask\">contact us</a>.</p><p></p><h2>Manuscripts in the collection</h2><p><strong>Ethiopic MS 1</strong><br>Content: Psalms, Canticles, Song of Songs, Praises to Mary<br>Geographic origin: Ethiopia<br>Date: approximately 18th century<br>Dimensions: codex, page 16.7 × 15 cm (H × W), 161 folia, embroidered binding<br>Acquisition records: arrived at Duke 26 April 1964, bookplate “Paul A. Stroock, Flushing, NY, Duc de Lioncourt.”</p><p><strong>Ethiopic&nbsp;</strong><strong>MS 2</strong><br>Content: Psalms, Canticles, Song of Songs, Praises to Mary<br>Geographic origin: Ethiopia<br>Date: approximately early 20th century<br>Dimensions: codex, page 13 × 9.3 cm (H × W), 156 folia<br>Acquisition records: arrived at Duke between 1964-1971.</p><p><strong>Ethiopic&nbsp;</strong><strong>MS 3</strong><br>Content: magic<br>Geographic origin: Ethiopia<br>Date: approximately 20th century<br>Dimensions: scroll, 93.5 × 5 cm (W × H)<br>Acquisition records: arrived at Duke between 1964-1971.</p><p><strong>Ethiopic</strong><strong>&nbsp;MS 4</strong><br>Content: Psalms, Canticles, Song of Songs, Praises to Mary<br>Geographic origin: Ethiopia<br>Date: approximately 19th century<br>Dimensions: codex, page 19 × 14 cm (H × W), 173 folia<br>Acquisition records: arrived at Duke between 1964-1971.</p><p><strong>Ethiopic&nbsp;</strong><strong>MS 5</strong><br>Content: Gospel of John<br>Geographic origin: Ethiopia<br>Date: approximately 20th century<br>Dimensions: codex, page 15.2 × 11.5 cm (H × W), 72 folia<br>Acquisition records: arrived at Duke between 1964-1971.</p><p><strong>Ethiopic&nbsp;</strong><strong>MS 6</strong><br>Content: devotional prayers and hymns<br>Geographic origin: Ethiopia<br>Date: approximately 19th century<br>Dimensions: codex, page 14 × 16.7 cm (H × W), 55 folia<br>Acquisition records: arrived at Duke between 1964-1971.</p><p><strong>Ethiopic&nbsp;</strong><strong>MS 7</strong><br>Content: Psalms, Canticles, Song of Songs, Praises to Mary<br>Geographic origin: Ethiopia<br>Date: approximately 20th century<br>Dimensions: codex, page 14 × 10 cm (H × W), 156 folia<br>Acquisition records: arrived at Duke between 1964-1971.&nbsp;</p><p><strong>Ethiopic&nbsp;</strong><strong>MS 8</strong><br>Content: Psalms, Canticles, Song of Songs, Praises to Mary<br>Geographic origin: Ethiopia<br>Date: approximately late 19th or early 20th century<br>Dimensions: codex, page 14.5 × 9 cm (H × W), 106 folia<br>Acquisition records: arrived at Duke between 1964-1971.</p><p><strong>Ethiopic&nbsp;</strong><strong>MS 9</strong><br>Content: commemoration of the saints<br>Geographic origin: Ethiopia<br>Date: approximately 20th century<br>Dimensions: codex, page 10 × 7 cm (H × W), 14 folia<br>Acquisition records: arrived at Duke 17 January 1971.</p><p><strong>Ethiopic&nbsp;</strong><strong>MS 10</strong><br>Content: penitential ritual, Psalms, Canticles, Song of Songs, Praises to Mary<br>Geographic origin: Ethiopia<br>Date: approximately late 19th or early 20th century<br>Dimensions: codex, page 14.5 × 10.5 cm (H × W), 180 folia<br>Acquisition records: arrived at Duke between 1971-1976.</p><p><strong>Ethiopic&nbsp;</strong><strong>MS 11</strong><br>Content: Psalms, Canticles, Song of Songs, Praises to Mary<br>Geographic origin: Ethiopia<br>Date: approximately 18th century<br>Dimensions: codex, page 14 × 14 cm (H × W), 165 folia<br>Acquisition records: arrived at Duke between 1971-1976.</p><p><strong>Ethiopic&nbsp;</strong><strong>MS 12</strong><br>Content: miracles of the virgin Mary<br>Geographic origin: Ethiopia<br>Date: approximately late 19th or early 20th century<br>Dimensions: codex, page 32.5 × 27 cm (H × W), 95 folia<br>Acquisition records: arrived at Duke between 1971-1976.</p><p><strong>Ethiopic&nbsp;</strong><strong>MS 13</strong><br>Content: magic<br>Geographic origin: Ethiopia<br>Date: approximately 19th century<br>Dimensions: scroll, 174 × 15 cm (W × H)<br>Acquisition records: arrived at Duke between 1971-1976.</p><p><strong>Ethiopic&nbsp;</strong><strong>MS 14</strong><br>Content: magic<br>Geographic origin: Ethiopia<br>Date: approximately 20th century<br>Dimensions: scroll, 166 × 11 cm (W × H)<br>Acquisition records: arrived at Duke between 1971-1976.</p><p><strong>Ethiopic&nbsp;</strong><strong>MS 15</strong><br>Content: magic<br>Geographic origin: Ethiopia<br>Date: approximately 20th century<br>Dimensions: scroll, 168 × 10 cm (W × H)<br>Acquisition records: arrived at Duke between 1971-1989.</p><p><strong>Ethiopic&nbsp;</strong><strong>MS 16</strong><br>Content: magic<br>Geographic origin: Ethiopia<br>Date: approximately 20th century<br>Dimensions: scroll, 178 × 7 cm (W × H)<br>Acquisition records: arrived at Duke between 1971-1989.</p><p><strong>Ethiopic&nbsp;</strong><strong>MS 17</strong><br>Content: magic<br>Geographic origin: Ethiopia<br>Date: approximately 20th century<br>Dimensions: scroll, 170 × 12 cm (W × H)<br>Acquisition records: arrived at Duke between 1971-1989.</p><p><strong>Ethiopic&nbsp;</strong><strong>MS 18</strong><br>Content: magic<br>Geographic origin: Ethiopia<br>Date: approximately 20th century<br>Dimensions: scroll, 155 × 11 cm (W × H)<br>Acquisition records: arrived at Duke between 1971-1989.</p><p><strong>Ethiopic&nbsp;</strong><strong>MS 19</strong><br>Content: magic<br>Geographic origin: Ethiopia<br>Date: approximately 20th century<br>Dimensions: scroll, 153 × 10 cm (W × H)<br>Acquisition records: arrived at Duke between 1971-1989.</p><p><strong>Ethiopic&nbsp;</strong><strong>MS 20</strong><br>Content: magic<br>Geographic origin: Ethiopia<br>Date: approximately late 19th or early 20th century<br>Dimensions: scroll, 158 × 9 cm (W × H)<br>Acquisition records: arrived at Duke between 1971-1989.</p><p><strong>Ethiopic&nbsp;</strong><strong>MS 21</strong><br>Content: magic<br>Geographic origin: Ethiopia<br>Date: approximately 20th century<br>Dimensions: scroll, 172 × 12 cm (W × H)<br>Acquisition records: arrived at Duke between 1971-1989.</p><p><strong>Ethiopic&nbsp;</strong><strong>MS 22</strong><br>Content: magic<br>Geographic origin: Ethiopia<br>Date: approximately late 19th or early 20th century<br>Dimensions: scroll, 147 × 10 cm (W × H)<br>Acquisition records: arrived at Duke between 1971-1989.</p><p><strong>Ethiopic&nbsp;</strong><strong>MS 23</strong><br>Content: magic<br>Geographic origin: Ethiopia<br>Date: approximately late 19th or early 20th century<br>Dimensions: scroll, 179 × 12 cm (W × H)<br>Acquisition records: arrived at Duke between 1971-1989.</p><p><strong>Ethiopic&nbsp;</strong><strong>MS 24</strong><br>Content: magic<br>Geographic origin: Ethiopia<br>Date: approximately 20th century<br>Dimensions: scroll, 141 × 13 cm (W × H)<br>Acquisition records: arrived at Duke between 1971-1989.</p><p><strong>Ethiopic&nbsp;</strong><strong>MS 25</strong><br>Content: magic<br>Geographic origin: Ethiopia<br>Date: approximately 18th century<br>Dimensions: scroll, 127 × 12 cm (W × H)<br>Acquisition records: arrived at Duke between 1971-1989.</p><p><strong>Ethiopic&nbsp;</strong><strong>MS 26</strong><br>Content: magic<br>Geographic origin: Ethiopia<br>Date: approximately 20th century<br>Dimensions: scroll, 195 × 12 cm (W × H)<br>Acquisition records: arrived at Duke between 1971-1989.</p><p><strong>Ethiopic&nbsp;</strong><strong>MS 27</strong><br>Content: magic<br>Geographic origin: Ethiopia<br>Date: approximately 19th century<br>Dimensions: scroll, 158 × 9.5 cm (W × H)<br>Acquisition records: arrived at Duke between 1971-1989.</p><p><strong>Ethiopic&nbsp;</strong><strong>MS 28</strong><br>Content: magic<br>Geographic origin: Ethiopia<br>Date: approximately 20th century<br>Dimensions: scroll, 142 × 12 cm (W × H)<br>Acquisition records: arrived at Duke between 1971-1989.</p><p><strong>Ethiopic&nbsp;</strong><strong>MS 29</strong><br>Content: Psalms, Canticles, Song of Songs, Praises to Mary<br>Geographic origin: Ethiopia<br>Date: approximately 20th century<br>Dimensions: codex, page 16.5 × 11.3 cm (H × W), 140 folia<br>Acquisition records: arrived at Duke between 1971-1989.</p><p><strong>Ethiopic&nbsp;</strong><strong>MS 30</strong><br>Content: Miscellaneous, Life of Kiros and Paul-Abib, canons, creed, Apocalypse<br>Geographic origin: Ethiopia<br>Date: approximately 20th century<br>Dimensions: codex, page 15 × 10.5 cm (H × W), 103 folia<br>Acquisition records: arrived at Duke between 1971-1989.</p><p><strong>Ethiopic&nbsp;</strong><strong>MS 31</strong><br>Content: monastic prayers (Mashafa Menkwesna)<br>Geographic origin: Ethiopia<br>Date: approximately 20th century<br>Dimensions: codex, page 13 × 10 cm (H × W), 48 folia<br>Acquisition records: arrived at Duke between 1971-1989.</p><p><strong>Ethiopic&nbsp;</strong><strong>MS 32</strong><br>Content: four Gospels<br>Geographic origin: Ethiopia<br>Date: approximately 19th century<br>Dimensions: codex, page 34 × 28.4 cm (H × W), 48 folia, includes later illustrations<br>Acquisition records: appeared at Sotheby’s 6 December 1988 (lot 63, illustrated). Purchased from Alan G. Thomas (cat 51 no. 7) in 1989.</p><p><strong>Ethiopic&nbsp;</strong><strong>MS 33</strong><br>Content: Psalms, Canticles, Song of Songs, Praises to Mary<br>Geographic origin: Ethiopia<br>Date: approximately 19th century<br>Dimensions: codex, page 23.6 × 17.5 cm (H × W), 134 folia<br>Acquisition records: contains a twentieth-century bookplate of Thomas Jenkins Lewis. Purchased from Alan G. Thomas (cat 53 no. 15) in 1991.</p><p><strong>Ethiopic&nbsp;</strong><strong>MS 34</strong><br>Content: Life and miracles of St. Gabra Manfas Qeddus<br>Geographic origin: Ethiopia<br>Date: approximately 18th century<br>Dimensions: codex, page 20.5 × 19 cm (H × W), 87 folia, ten illuminations<br>Acquisition records: donated by Allen Kelley&nbsp;to Duke in 1991.</p><p><strong>Ethiopic&nbsp;</strong><strong>MS 35</strong><br>Content: liturgical prayers, Anaphoras<br>Geographic origin: Ethiopia<br>Date: approximately 18th century<br>Dimensions: codex, page 24 × 20.3 cm (H × W), 108 folia, fourteen illuminations (later additions)<br>Acquisition records: donated by Allen Kelley to Duke in 1992.</p><p><strong>Ethiopic&nbsp;</strong><strong>MS 36</strong><br>Content: Psalms, Canticles, Song of Songs, Praises to Mary<br>Geographic origin: Ethiopia<br>Date: unknown<br>Dimensions: codex, page 19 × 14.5 cm (H × W), 146 folia, fourteen illuminations (later additions)<br>Acquisition records: purchased from Mrs. Lillian Anderson in 1992.</p><p><strong>Ethiopic&nbsp;</strong><strong>MS 37</strong><br>Content: scribal chart (school text)<br>Geographic origin: Ethiopia<br>Date: unknown<br>Dimensions: leaf, 36 × 25.5 cm (H × W)<br>Acquisition records: purchased from&nbsp;Mrs. Lillian Anderson in 1992.</p><p><strong>Ethiopic&nbsp;</strong><strong>MS 38</strong><br>Content: Psalms, Canticles, Song of Songs, Praises to Mary<br>Geographic origin: Ethiopia<br>Date: early 19th century<br>Dimensions: codex, page 16 × 13.5 cm (H × W), 155 folia, includes plates (possibly later additions)<br>Acquisition records: purchased from&nbsp;Joseph Natale Rare Books on 1 June 1993.</p><p><strong>Ethiopic&nbsp;</strong><strong>MS 39</strong><br>Content: Gospel of John, morning prayers, additional prayers<br>Geographic origin: Ethiopia<br>Date: unknown<br>Dimensions: codex, page 15.5 × 12 cm (H × W), 172 folia, includes six illuminations<br>Acquisition records: purchased from&nbsp;Joseph Natale Rare Books on 21 September 1993.</p><p><strong>Ethiopic&nbsp;</strong><strong>MS 40</strong><br>Content: magic<br>Geographic origin: Ethiopia<br>Date: unknown<br>Dimensions: scroll, 158 × 12.5 cm (W × H)<br>Acquisition records: purchased from&nbsp;Joseph Natale Rare Books on 4 December 1993.</p><p><strong>Ethiopic&nbsp;</strong><strong>MS 41</strong><br>Content: magic<br>Geographic origin: Ethiopia<br>Date: unknown<br>Dimensions: scroll, 130 × 7.8 cm (W × H)<br>Acquisition records: purchased from&nbsp;Joseph Natale Rare Books on 4 December 1993.</p><p><strong>Ethiopic&nbsp;</strong><strong>MS 42</strong><br>Content: magic<br>Geographic origin: Ethiopia<br>Date: unknown<br>Dimensions: scroll, 150 × 9.5 cm (W × H)<br>Acquisition records: purchased from&nbsp;Joseph Natale Rare Books on 4 December 1993.</p><p><strong>Ethiopic&nbsp;</strong><strong>MS 43</strong><br>Content: magic<br>Geographic origin: Ethiopia<br>Date: unknown<br>Dimensions: scroll, 158 × 10.5 cm (W × H)<br>Acquisition records: purchased from&nbsp;Joseph Natale Rare Books on 4 December 1993.</p><p><strong>Ethiopic&nbsp;</strong><strong>MS 44</strong><br>Content: magic<br>Geographic origin: Ethiopia<br>Date: unknown<br>Dimensions: scroll, 192 × 10 cm (W × H)<br>Acquisition records: purchased from&nbsp;Joseph Natale Rare Books on 4 December 1993.</p><p><strong>Ethiopic&nbsp;</strong><strong>MS 45</strong><br>Content: magic<br>Geographic origin: Ethiopia<br>Date: unknown<br>Dimensions: scroll, 164 × 10 cm (W × H)<br>Acquisition records: purchased from&nbsp;Joseph Natale Rare Books on 26 March 1994.</p><p><strong>Ethiopic&nbsp;</strong><strong>MS 46</strong><br>Content: magic<br>Geographic origin: Ethiopia<br>Date: unknown<br>Dimensions: scroll, 168 × 8.5 cm (W × H)<br>Acquisition records: purchased from&nbsp;Joseph Natale Rare Books on 26 March 1994.</p><p><strong>Ethiopic&nbsp;</strong><strong>MS 47</strong><br>Content: magic<br>Geographic origin: Ethiopia<br>Date: unknown<br>Dimensions: scroll, 174 × 9 cm (W × H)<br>Acquisition records: purchased from&nbsp;Joseph Natale Rare Books on 26 March 1994.</p><p><strong>Ethiopic&nbsp;</strong><strong>MS 48</strong><br>Content: magic<br>Geographic origin: Ethiopia<br>Date: unknown<br>Dimensions: scroll, 174 × 8 cm (W × H)<br>Acquisition records: purchased from&nbsp;Joseph Natale Rare Books on 26 March 1994.</p><p><strong>Ethiopic&nbsp;</strong><strong>MS 49</strong><br>Content: book of Hymns (Deggwa) for the period of Lent<br>Geographic origin: Ethiopia<br>Date: unknown<br>Dimensions: codex, page 25 × 19 cm (H × W), 59 folia, six illuminations<br>Acquisition records: purchased from&nbsp;Joseph Natale Rare Books on 26 March 1994.</p><p><strong>Ethiopic&nbsp;</strong><strong>MS 50</strong><br>Content: book of Hymns (Deggwa) for the whole year<br>Geographic origin: Ethiopia<br>Date: unknown<br>Dimensions: codex, page 24 × 19 cm (H × W), 83 folia, seven illuminations<br>Acquisition records: purchased from&nbsp;Joseph Natale Rare Books on 26 March 1994.</p><p><strong>Ethiopic&nbsp;</strong><strong>MS 51</strong><br>Content: icon<br>Geographic origin: Ethiopia<br>Date: unknown<br>Dimensions: diptych icon<br>Acquisition records: purchased from&nbsp;Joseph Natale Rare Books on 26 March 1994.</p><p><strong>Ethiopic&nbsp;</strong><strong>MS 52</strong><br>Content: icon<br>Geographic origin: Ethiopia<br>Date: unknown<br>Dimensions: diptych icon<br>Acquisition records: purchased from&nbsp;Joseph Natale Rare Books on 26 March 1994.</p><p><strong>Ethiopic&nbsp;</strong><strong>MS 53</strong><br>Content: life and miracles of St. Takla Haymanot<br>Geographic origin: Ethiopia<br>Date: unknown<br>Dimensions: codex, page 33 × 28 cm (H × W), 107 folia<br>Acquisition records: purchased from&nbsp;Sam Fogg Rare Books and Manuscripts on 27 April 1994.</p><p><strong>Ethiopic&nbsp;</strong><strong>MS 54</strong><br>Content: collection of theological and disciplinary texts (Haymanota Abaw), patristic writings<br>Geographic origin: Ethiopia<br>Date: approximately 18th century<br>Dimensions: codex, page 34 × 30 cm (H × W), 182 folia<br>Acquisition records: purchased from&nbsp;Sam Fogg Rare Books and Manuscripts on 27 April 1994.</p><p><strong>Ethiopic&nbsp;</strong><strong>MS 55</strong><br>Content: magic<br>Geographic origin: Ethiopia<br>Date: unknown<br>Dimensions: scroll, 173 × 11 cm (W × H)<br>Acquisition records: purchased from&nbsp;Joseph Natale Rare Books on 23 June 1994.</p><p><strong>Ethiopic&nbsp;</strong><strong>MS 56</strong><br>Content: magic<br>Geographic origin: Ethiopia<br>Date: unknown<br>Dimensions: scroll, 160 × 10 cm (W × H)<br>Acquisition records: purchased from&nbsp;Joseph Natale Rare Books on 23 June 1994.</p><p><strong>Ethiopic&nbsp;</strong><strong>MS 57</strong><br>Content: magic<br>Geographic origin: Ethiopia<br>Date: unknown<br>Dimensions: scroll, 159 × 8.5 cm (W × H)<br>Acquisition records: purchased from&nbsp;Joseph Natale Rare Books on 23 June 1994.</p><p><strong>Ethiopic&nbsp;</strong><strong>MS 58</strong><br>Content: magic<br>Geographic origin: Ethiopia<br>Date: unknown<br>Dimensions: scroll, 239 × 11.5 cm (W × H)<br>Acquisition records: purchased from&nbsp;Joseph Natale Rare Books on 23 June 1994.</p><p><strong>Ethiopic&nbsp;</strong><strong>MS 59</strong><br>Content: magic<br>Geographic origin: Ethiopia<br>Date: unknown<br>Dimensions: scroll, 211 × 10 cm (W × H)<br>Acquisition records: purchased from&nbsp;Joseph Natale Rare Books on 23 June 1994.</p><p><strong>Ethiopic&nbsp;</strong><strong>MS 60</strong><br>Content: magic<br>Geographic origin: Ethiopia<br>Date: unknown<br>Dimensions: scroll, 182 × 11 cm (W × H)<br>Acquisition records: purchased from&nbsp;Joseph Natale Rare Books on 23 June 1994.</p><p><strong>Ethiopic&nbsp;</strong><strong>MS 61</strong><br>Content: magic<br>Geographic origin: Ethiopia<br>Date: unknown<br>Dimensions: scroll, 107 × 9 cm (W × H)<br>Acquisition records: purchased from&nbsp;Joseph Natale Rare Books on 23 June 1994.</p><p><strong>Ethiopic&nbsp;</strong><strong>MS 62</strong><br>Content: magic<br>Geographic origin: Ethiopia<br>Date: unknown<br>Dimensions: scroll, 194 × 11 cm (W × H)<br>Acquisition records: purchased from&nbsp;Joseph Natale Rare Books on 23 June 1994.</p><p><strong>Ethiopic&nbsp;</strong><strong>MS 63</strong><br>Content: magic<br>Geographic origin: Ethiopia<br>Date: unknown<br>Dimensions: scroll, 153 × 11.5 cm (W × H)<br>Acquisition records: purchased from&nbsp;Joseph Natale Rare Books on 23 June 1994.</p><p><strong>Ethiopic&nbsp;</strong><strong>MS 64</strong><br>Content: magic<br>Geographic origin: Ethiopia<br>Date: unknown<br>Dimensions: scroll, 132 × 8.5 cm (W × H)<br>Acquisition records: purchased from&nbsp;Joseph Natale Rare Books on 23 June 1994.</p><p><strong>Ethiopic&nbsp;</strong><strong>MS 65</strong><br>Content: magic<br>Geographic origin: Ethiopia<br>Date: unknown<br>Dimensions: scroll, 160 × 10 cm (W × H)<br>Acquisition records: purchased from&nbsp;Joseph Natale Rare Books on 23 June 1994.</p><p><strong>Ethiopic&nbsp;</strong><strong>MS 66</strong><br>Content: magic<br>Geographic origin: Ethiopia<br>Date: unknown<br>Dimensions: scroll, 63.5 × 5.7 cm (W × H), bound<br>Acquisition records: purchased from&nbsp;Joseph Natale Rare Books on 23 June 1994.</p><p><strong>Ethiopic&nbsp;</strong><strong>MS 67</strong><br>Content: magic<br>Geographic origin: Ethiopia<br>Date: unknown<br>Dimensions: scroll, amulet, 4 × 4 cm (W × H), sealed in a leather pouch<br>Acquisition records: purchased from&nbsp;Joseph Natale Rare Books on 23 June 1994.</p><p><strong>Ethiopic&nbsp;</strong><strong>MS 68</strong><br>Content: magic<br>Geographic origin: Ethiopia<br>Date: unknown<br>Dimensions: scroll, amulet, 3 × 4.5 cm (W × H), sealed in a leather pouch<br>Acquisition records: purchased from&nbsp;Joseph Natale Rare Books on 23 June 1994.</p><p><strong>Ethiopic&nbsp;</strong><strong>MS 69</strong><br>Content: magic<br>Geographic origin: Ethiopia<br>Date: unknown<br>Dimensions: scroll, amulet, 3.4 × 5 cm (W × H), sealed in a leather pouch<br>Acquisition records: purchased from&nbsp;Joseph Natale Rare Books on 23 June 1994.</p><p><strong>Ethiopic&nbsp;</strong><strong>MS 70</strong><br>Content: magic<br>Geographic origin: Ethiopia<br>Date: unknown<br>Dimensions: scroll, amulet, 3.8 × 6.5 cm (W × H), sealed in a leather pouch<br>Acquisition records: purchased from&nbsp;Joseph Natale Rare Books on 23 June 1994.</p><p><strong>Ethiopic&nbsp;</strong><strong>MS 71</strong><br>Content: Psalms, Canticles, Song of Songs, Praises to Mary<br>Geographic origin: Ethiopia<br>Date: unknown<br>Dimensions: codex, page 12.2 × 9 cm (H × W), 166 folia<br>Acquisition records: purchased from&nbsp;Joseph Natale Rare Books on 23 June 1994.</p><p><strong>Ethiopic&nbsp;</strong><strong>MS 72</strong><br>Content: Psalms, Canticles, Song of Songs, Praises to Mary<br>Geographic origin: Ethiopia<br>Date: unknown<br>Dimensions: codex, page 10 × 9.4 cm (H × W), 191 folia, five illuminations (later additions)<br>Acquisition records: purchased from&nbsp;Joseph Natale Rare Books on 23 June 1994.</p><p><strong>Ethiopic&nbsp;</strong><strong>MS 73</strong><br>Content: homilies, miracles, and salutations for Archangel Michael<br>Geographic origin: Ethiopia<br>Date: unknown<br>Dimensions: codex, page 22.5 × 16.8 cm (H × W), 102 folia, ten illuminations<br>Acquisition records: purchased from&nbsp;Joseph Natale Rare Books on 23 June 1994.</p><p><strong>Ethiopic&nbsp;</strong><strong>MS 74</strong><br>Content: Hymn “God Reigns” (Egziabher Nagsa)<br>Geographic origin: Ethiopia<br>Date: unknown<br>Dimensions: codex, page 26.5 × 19.5 cm (H × W), 95 folia, five illuminations (later additions)<br>Acquisition records: purchased from&nbsp;Joseph Natale Rare Books on 23 June 1994.</p><p><strong>Ethiopic&nbsp;</strong><strong>MS 75</strong><br>Content: prayers to Mary, Anaphora of Mary (by Cyriacus of Behnesa)<br>Geographic origin: Ethiopia<br>Date: unknown<br>Dimensions: codex, page 13 × 8.5 cm (H × W), 103 folia<br>Acquisition records: purchased from&nbsp;Joseph Natale Rare Books on 23 June 1994.</p><p><strong>Ethiopic</strong><strong>&nbsp;MS 76</strong><br>Content: Psalms, Canticles, Song of Songs, Praises to Mary<br>Geographic origin: Ethiopia<br>Date: unknown<br>Dimensions: codex, page 14.2 × 9.8 cm (H × W), 183 folia, six illuminations (later additions)<br>Acquisition records: purchased from&nbsp;Joseph Natale Rare Books on 23 June 1994.</p><p><strong>Ethiopic&nbsp;</strong><strong>MS 77</strong><br>Content: Psalms, Canticles, Song of Songs, Praises to Mary<br>Geographic origin: Ethiopia<br>Date: unknown<br>Dimensions: codex, page 16.7 × 11 cm (H × W), 145 folia, six illuminations (later additions)<br>Acquisition records: purchased from&nbsp;Joseph Natale Rare Books on 23 June 1994.</p><p><strong>Ethiopic&nbsp;</strong><strong>MS 78</strong><br>Content: small amulets<br>Geographic origin: Ethiopia<br>Date: unknown<br>Dimensions: prayer necklace<br>Acquisition records: purchased from&nbsp;Joseph Natale Rare Books on 23 June 1994.</p><p><strong>Ethiopic&nbsp;</strong><strong>MS 79</strong><br>Content: Psalms, Canticles, Song of Songs, Praises to Mary<br>Geographic origin: Ethiopia<br>Date: unknown<br>Dimensions: codex, page 16 × 11.5 cm (H × W), 145 folia, three illuminations<br>Acquisition records: purchased from&nbsp;Joseph Natale Rare Books on 19 September 2004.</p><p><strong>Ethiopic&nbsp;</strong><strong>MS 80</strong><br>Content: Psalms, Canticles, Song of Songs, Praises to Mary<br>Geographic origin: Ethiopia<br>Date: unknown<br>Dimensions: codex, page 23.6 × 21.5 cm (H × W), 177 folia, six illuminations (later additions)<br>Acquisition records: purchased from&nbsp;Joseph Natale Rare Books on 19 September 2004.</p><p><strong>Ethiopic&nbsp;</strong><strong>MS 81</strong><br>Content: Psalms, Canticles, Song of Songs, Praises to Mary<br>Geographic origin: Ethiopia<br>Date: unknown<br>Dimensions: codex, page 15 × 11 cm (H × W), 144 folia<br>Acquisition records: purchased from&nbsp;Joseph Natale Rare Books on 19 September 2004.</p><p><strong>Ethiopic&nbsp;</strong><strong>MS 82</strong><br>Content: Psalms, Canticles, Song of Songs, Praises to Mary<br>Geographic origin: Ethiopia<br>Date: unknown<br>Dimensions: codex, page 20.5 × 15.5 cm (H × W), 167 folia, seven illuminations<br>Acquisition records: purchased from&nbsp;Joseph Natale Rare Books on 19 September 2004.</p><p><strong>Ethiopic&nbsp;</strong><strong>MS 83</strong><br>Content: book of Hymns (Zemmare and Mawas`et)<br>Geographic origin: Ethiopia<br>Date: unknown<br>Dimensions: codex, page 26 × 19.5 cm (H × W), 54 folia, two illuminations (later additions)<br>Acquisition records: purchased from&nbsp;Joseph Natale Rare Books on 19 September 2004.</p><p><strong>Ethiopic&nbsp;</strong><strong>MS 84</strong><br>Content: magic<br>Geographic origin: Ethiopia<br>Date: unknown<br>Dimensions: scroll, 126 × 12.5 cm (W × H)<br>Acquisition records: purchased from&nbsp;Joseph Natale Rare Books on 19 September 2004.</p><p><strong>Ethiopic&nbsp;</strong><strong>MS 85</strong><br>Content: magic<br>Geographic origin: Ethiopia<br>Date: unknown<br>Dimensions: scroll, 167 × 9 cm (W × H)<br>Acquisition records: purchased from&nbsp;Joseph Natale Rare Books on 19 September 2004.</p><p><strong>Ethiopic&nbsp;</strong><strong>MS 86</strong><br>Content: magic<br>Geographic origin: Ethiopia<br>Date: unknown<br>Dimensions: scroll, 205 × 9 cm (W × H)<br>Acquisition records: purchased from&nbsp;Joseph Natale Rare Books on 19 September 2004.</p><p><strong>Ethiopic&nbsp;</strong><strong>MS 87</strong><br>Content: book of Hymns (Ziq)<br>Geographic origin: Ethiopia<br>Date: unknown<br>Dimensions: codex, page 14.8 × 11.4 cm (H × W), 144 folia<br>Acquisition records: purchased from&nbsp;Joseph Natale Rare Books on 1 November 1994.</p><p><strong>Ethiopic&nbsp;</strong><strong>MS 88</strong><br>Content: Amharic theological work<br>Geographic origin: Ethiopia<br>Date: unknown<br>Dimensions: codex, page 16.4 × 9.4 cm (H × W), 80 folia<br>Acquisition records: purchased from&nbsp;Joseph Natale Rare Books on 1 November 1994.</p><p><strong>Ethiopic&nbsp;</strong><strong>MS 89</strong><br>Content: Hymns of Yared<br>Geographic origin: Ethiopia<br>Date: unknown<br>Dimensions: codex, page 20 × 14.5 cm (H × W), 63 folia, six illuminations<br>Acquisition records: purchased from&nbsp;Joseph Natale Rare Books on 1 November 1994.</p><p><strong>Ethiopic&nbsp;</strong><strong>MS 90</strong><br>Content: Psalms, Canticles, Song of Songs, Praises to Mary<br>Geographic origin: Ethiopia<br>Date: unknown<br>Dimensions: codex, page 12.7 × 14.1 cm (H × W)<br>Acquisition records: purchased from&nbsp;Joseph Natale Rare Books on 1 November 1994.</p><p><strong>Ethiopic&nbsp;</strong><strong>MS 91</strong><br>Content: Psalms, Canticles, Song of Songs, Praises to Mary<br>Geographic origin: Ethiopia<br>Date: unknown<br>Dimensions: codex, page 16.5 × 11.5 cm (H × W), 146 folia, six illuminations (later additions), includes Mahdar (case)<br>Acquisition records: purchased from&nbsp;Joseph Natale Rare Books on 1 November 1994.</p><p><strong>Ethiopic&nbsp;</strong><strong>MS 92</strong><br>Content: Psalms, Canticles, Song of Songs, Praises to Mary<br>Geographic origin: Ethiopia<br>Date: unknown<br>Dimensions: codex, page 14 × 19 cm (H × W)<br>Acquisition records: purchased from&nbsp;Joseph Natale Rare Books on 1 November 1994.</p><p><strong>Ethiopic&nbsp;</strong><strong>MS 93</strong><br>Content: Psalms, Canticles, Song of Songs, Praises to Mary<br>Geographic origin: Ethiopia<br>Date: unknown<br>Dimensions: codex, page 21.8 × 16.1 cm (H × W), 170 folia<br>Acquisition records: purchased from&nbsp;Joseph Natale Rare Books on 1 November 1994.</p><p><strong>Ethiopic&nbsp;</strong><strong>MS 94</strong><br>Content: magic<br>Geographic origin: Ethiopia<br>Date: unknown<br>Dimensions: scroll, 207 × 11 cm (W × H)<br>Acquisition records: purchased from&nbsp;Joseph Natale Rare Books on 1 November 1994.</p><p><strong>Ethiopic&nbsp;</strong><strong>MS 95</strong><br>Content: magic<br>Geographic origin: Ethiopia<br>Date: unknown<br>Dimensions: scroll, 215 × 13 cm (W × H)<br>Acquisition records: purchased from&nbsp;Joseph Natale Rare Books on 1 November 1994.</p><p><strong>Ethiopic&nbsp;</strong><strong>MS 96</strong><br>Content: magic<br>Geographic origin: Ethiopia<br>Date: unknown<br>Dimensions: scroll, 179 × 10.4 cm (W × H)<br>Acquisition records: purchased from&nbsp;Joseph Natale Rare Books on 1 November 1994.</p><p><strong>Ethiopic&nbsp;</strong><strong>MS 97</strong><br>Content: magic<br>Geographic origin: Ethiopia<br>Date: unknown<br>Dimensions: scroll, 160 × 8 cm (W × H)<br>Acquisition records: purchased from&nbsp;Joseph Natale Rare Books on 1 November 1994.</p><p><strong>Ethiopic&nbsp;</strong><strong>MS 98</strong><br>Content: magic<br>Geographic origin: Ethiopia<br>Date: unknown<br>Dimensions: scroll, 160 × 14.2 cm (W × H)<br>Acquisition records: purchased from&nbsp;Joseph Natale Rare Books on 1 November 1994.</p><p><strong>Ethiopic&nbsp;</strong><strong>MS 99</strong><br>Content: Psalms, Canticles, Song of Songs, Praises to Mary<br>Geographic origin: Ethiopia<br>Date: unknown<br>Dimensions: codex, page 14 × 11 cm (H × W), 171 folia, eight illuminations<br>Acquisition records: purchased from&nbsp;Joseph Natale Rare Books on 19 January 1995.</p><p><strong>Ethiopic&nbsp;</strong><strong>MS 100</strong><br>Content: Psalms, Canticles, Song of Songs, Praises to Mary<br>Geographic origin: Ethiopia<br>Date: unknown<br>Dimensions: codex, page 18.5 × 11 cm (H × W), 131 folia, eight illuminations<br>Acquisition records: purchased from&nbsp;Joseph Natale Rare Books on 19 January 1995.</p><p><strong>Ethiopic&nbsp;</strong><strong>MS 101</strong><br>Content: Gospel of John<br>Geographic origin: Ethiopia<br>Date: unknown<br>Dimensions: codex, page 15 × 11 cm (H × W), 99 folia<br>Acquisition records: purchased from&nbsp;Joseph Natale Rare Books on 19 January 1995.</p><p><strong>Ethiopic&nbsp;</strong><strong>MS 102</strong><br>Content: Psalms, Canticles, Song of Songs, Praises to Mary<br>Geographic origin: Ethiopia<br>Date: unknown<br>Dimensions: codex, page 20.5 × 14 cm (H × W), 152 folia, eleven illuminations (later additions)<br>Acquisition records: purchased from&nbsp;Joseph Natale Rare Books on 19 January 1995.</p><p><strong>Ethiopic&nbsp;</strong><strong>MS 103</strong><br>Content: Homilies, miracles, and salutations for Archangel Michael<br>Geographic origin: Ethiopia<br>Date: unknown<br>Dimensions: codex, page 20 × 15 cm (H × W), 134 folia, ten illuminations (later additions)<br>Acquisition records: purchased from&nbsp;Joseph Natale Rare Books on 19 January 1995.</p><p><strong>Ethiopic&nbsp;</strong><strong>MS 104</strong><br>Content: book of Hymns (Me`eraf)<br>Geographic origin: Ethiopia<br>Date: unknown<br>Dimensions: codex, page 18 × 13 cm (H × W), 120 folia, twelve illuminations (later additions)<br>Acquisition records: purchased from&nbsp;Joseph Natale Rare Books on 19 January 1995.</p><p><strong>Ethiopic&nbsp;</strong><strong>MS 105</strong><br>Content: Homilies, miracles, and salutations for Archangel Michael<br>Geographic origin: Ethiopia<br>Date: unknown<br>Dimensions: codex, page 16 × 6.5 cm (H × W), 103 folia, six illuminations, includes Mahdar (case)<br>Acquisition records: purchased from&nbsp;Joseph Natale Rare Books on 19 January 1995.</p><p><strong>Ethiopic&nbsp;</strong><strong>MS 106</strong><br>Content: Psalms, Canticles, Song of Songs, Praises to Mary<br>Geographic origin: Ethiopia<br>Date: unknown<br>Dimensions: codex, page 35 × 25 cm (H × W), 176 folia, seven illuminations<br>Acquisition records: purchased from&nbsp;Joseph Natale Rare Books on 19 January 1995.</p><p><strong>Ethiopic&nbsp;</strong><strong>MS 107</strong><br>Content: Psalms, Canticles, Song of Songs, Praises to Mary<br>Geographic origin: Ethiopia<br>Date: unknown<br>Dimensions: codex, page 14 × 10 cm (H × W), 158 folia, five illuminations, includes Mahdar (case)<br>Acquisition records: purchased from&nbsp;Joseph Natale Rare Books on 19 January 1995.</p><p><strong>Ethiopic&nbsp;</strong><strong>MS 108</strong><br>Content: small book of salutations to Mary and Jesus<br>Geographic origin: Ethiopia<br>Date: unknown<br>Dimensions: codex, page 10.5 × 8.5 cm (H × W), 54 folia, five illuminations, includes Mahdar (case)<br>Acquisition records: donated by Steve Snyderman to Duke in November 1999.</p><p><strong>Ethiopic&nbsp;</strong><strong>&nbsp;MS 109</strong><br>Content: book of Hymns (Ziq)<br>Geographic origin: Ethiopia<br>Date: unknown<br>Dimensions: codex, page 15 × 11 cm (H × W), 39 folia, includes Mahdar (case)<br>Acquisition records: donated by Mrs. Francis B. Elder to Duke on 17 July 2000.</p><p><strong>Ethiopic&nbsp;</strong><strong>MS 110</strong><br>Content: magic<br>Geographic origin: Ethiopia<br>Date: unknown<br>Dimensions: scroll, 154 × 10 cm (W × H)<br>Acquisition records: donated by Mrs. Francis B. Elder to Duke on 17 July 2000.</p><p><strong>Ethiopic&nbsp;</strong><strong>MS 111</strong><br>Content: Letters of Paul<br>Geographic origin: Ethiopia<br>Date: unknown<br>Dimensions: codex, page 19.5 × 17.5 cm (H × W), 108 folia (incomplete, missing one or more quires at end)<br>Acquisition records: donated to Duke in 2008 in memory of Ernest A. Muro, Jr.</p><p><strong>Ethiopic&nbsp;</strong><strong>MS 112</strong><br>Content: Hymns to Mary<br>Geographic origin: Ethiopia<br>Date: unknown<br>Dimensions: codex, page 16.5 × 13.3 cm (H × W), 26 folia<br>Acquisition records: unknown</p><p style=\"text-align: left;\"><strong>&nbsp;</strong></p>",
      "revision_id" : 16590,
      "langcode" : "und",
      "deleted" : 0,
      "body_format" : "full_html"
   },
   "langcode" : "und",
   "uuid" : "f7df74b3-bf2a-484e-a01e-ccc62103ebdf",
   "path_alias" : {
      "status" : 0,
      "language" : "und",
      "pid" : 953,
      "alias" : "/collections/ethiopic-manuscripts",
      "langcode" : "und"
   },
   "field_image" : null,
   "vid" : 16590,
   "revisions" : [
      {
         "timestamp" : 1601670682,
         "comment" : 1,
         "status" : 1,
         "node_revision__body" : {
            "body_value" : "<p><img src=\"/rubenstein/sites/default/files/rubenstein/users/kate.collins/DukeMS93.png\" alt=\"manuscript page with a portrait of King David\" title=\"Psalter, King David, Duke Ge’ez MS 93 (folio 2 recto)\" style=\"margin: 10px; float: right;\" class=\"caption-right\" width=\"300\" height=\"407\"></p><p>The Rubenstein Library holds 112 Ge’ez (Ethiopic) manuscripts, in both roll and codex format, dating from the 18th-20th century. The collection includes magic scrolls, Psalters, prayers, and hymns. <a href=\"https://blogs.library.duke.edu/magazine/2009/11/02/collections-highlight/\">Learn more about the history of the collection</a>. For additional information or to request items for use <a href=\"https://library.duke.edu/rubenstein/ask\">contact us</a>.</p><p></p><h2>Manuscripts in the collection</h2><p><strong>Ethiopic MS 1</strong><br>Content: Psalms, Canticles, Song of Songs, Praises to Mary<br>Geographic origin: Ethiopia<br>Date: approximately 18th century<br>Dimensions: codex, page 16.7 × 15 cm (H × W), 161 folia, embroidered binding<br>Acquisition records: arrived at Duke 26 April 1964, bookplate “Paul A. Stroock, Flushing, NY, Duc de Lioncourt.”</p><p><strong>Ethiopic&nbsp;</strong><strong>MS 2</strong><br>Content: Psalms, Canticles, Song of Songs, Praises to Mary<br>Geographic origin: Ethiopia<br>Date: approximately early 20th century<br>Dimensions: codex, page 13 × 9.3 cm (H × W), 156 folia<br>Acquisition records: arrived at Duke between 1964-1971.</p><p><strong>Ethiopic&nbsp;</strong><strong>MS 3</strong><br>Content: magic<br>Geographic origin: Ethiopia<br>Date: approximately 20th century<br>Dimensions: scroll, 93.5 × 5 cm (W × H)<br>Acquisition records: arrived at Duke between 1964-1971.</p><p><strong>Ethiopic</strong><strong>&nbsp;MS 4</strong><br>Content: Psalms, Canticles, Song of Songs, Praises to Mary<br>Geographic origin: Ethiopia<br>Date: approximately 19th century<br>Dimensions: codex, page 19 × 14 cm (H × W), 173 folia<br>Acquisition records: arrived at Duke between 1964-1971.</p><p><strong>Ethiopic&nbsp;</strong><strong>MS 5</strong><br>Content: Gospel of John<br>Geographic origin: Ethiopia<br>Date: approximately 20th century<br>Dimensions: codex, page 15.2 × 11.5 cm (H × W), 72 folia<br>Acquisition records: arrived at Duke between 1964-1971.</p><p><strong>Ethiopic&nbsp;</strong><strong>MS 6</strong><br>Content: devotional prayers and hymns<br>Geographic origin: Ethiopia<br>Date: approximately 19th century<br>Dimensions: codex, page 14 × 16.7 cm (H × W), 55 folia<br>Acquisition records: arrived at Duke between 1964-1971.</p><p><strong>Ethiopic&nbsp;</strong><strong>MS 7</strong><br>Content: Psalms, Canticles, Song of Songs, Praises to Mary<br>Geographic origin: Ethiopia<br>Date: approximately 20th century<br>Dimensions: codex, page 14 × 10 cm (H × W), 156 folia<br>Acquisition records: arrived at Duke between 1964-1971.&nbsp;</p><p><strong>Ethiopic&nbsp;</strong><strong>MS 8</strong><br>Content: Psalms, Canticles, Song of Songs, Praises to Mary<br>Geographic origin: Ethiopia<br>Date: approximately late 19th or early 20th century<br>Dimensions: codex, page 14.5 × 9 cm (H × W), 106 folia<br>Acquisition records: arrived at Duke between 1964-1971.</p><p><strong>Ethiopic&nbsp;</strong><strong>MS 9</strong><br>Content: commemoration of the saints<br>Geographic origin: Ethiopia<br>Date: approximately 20th century<br>Dimensions: codex, page 10 × 7 cm (H × W), 14 folia<br>Acquisition records: arrived at Duke 17 January 1971.</p><p><strong>Ethiopic&nbsp;</strong><strong>MS 10</strong><br>Content: penitential ritual, Psalms, Canticles, Song of Songs, Praises to Mary<br>Geographic origin: Ethiopia<br>Date: approximately late 19th or early 20th century<br>Dimensions: codex, page 14.5 × 10.5 cm (H × W), 180 folia<br>Acquisition records: arrived at Duke between 1971-1976.</p><p><strong>Ethiopic&nbsp;</strong><strong>MS 11</strong><br>Content: Psalms, Canticles, Song of Songs, Praises to Mary<br>Geographic origin: Ethiopia<br>Date: approximately 18th century<br>Dimensions: codex, page 14 × 14 cm (H × W), 165 folia<br>Acquisition records: arrived at Duke between 1971-1976.</p><p><strong>Ethiopic&nbsp;</strong><strong>MS 12</strong><br>Content: miracles of the virgin Mary<br>Geographic origin: Ethiopia<br>Date: approximately late 19th or early 20th century<br>Dimensions: codex, page 32.5 × 27 cm (H × W), 95 folia<br>Acquisition records: arrived at Duke between 1971-1976.</p><p><strong>Ethiopic&nbsp;</strong><strong>MS 13</strong><br>Content: magic<br>Geographic origin: Ethiopia<br>Date: approximately 19th century<br>Dimensions: scroll, 174 × 15 cm (W × H)<br>Acquisition records: arrived at Duke between 1971-1976.</p><p><strong>Ethiopic&nbsp;</strong><strong>MS 14</strong><br>Content: magic<br>Geographic origin: Ethiopia<br>Date: approximately 20th century<br>Dimensions: scroll, 166 × 11 cm (W × H)<br>Acquisition records: arrived at Duke between 1971-1976.</p><p><strong>Ethiopic&nbsp;</strong><strong>MS 15</strong><br>Content: magic<br>Geographic origin: Ethiopia<br>Date: approximately 20th century<br>Dimensions: scroll, 168 × 10 cm (W × H)<br>Acquisition records: arrived at Duke between 1971-1989.</p><p><strong>Ethiopic&nbsp;</strong><strong>MS 16</strong><br>Content: magic<br>Geographic origin: Ethiopia<br>Date: approximately 20th century<br>Dimensions: scroll, 178 × 7 cm (W × H)<br>Acquisition records: arrived at Duke between 1971-1989.</p><p><strong>Ethiopic&nbsp;</strong><strong>MS 17</strong><br>Content: magic<br>Geographic origin: Ethiopia<br>Date: approximately 20th century<br>Dimensions: scroll, 170 × 12 cm (W × H)<br>Acquisition records: arrived at Duke between 1971-1989.</p><p><strong>Ethiopic&nbsp;</strong><strong>MS 18</strong><br>Content: magic<br>Geographic origin: Ethiopia<br>Date: approximately 20th century<br>Dimensions: scroll, 155 × 11 cm (W × H)<br>Acquisition records: arrived at Duke between 1971-1989.</p><p><strong>Ethiopic&nbsp;</strong><strong>MS 19</strong><br>Content: magic<br>Geographic origin: Ethiopia<br>Date: approximately 20th century<br>Dimensions: scroll, 153 × 10 cm (W × H)<br>Acquisition records: arrived at Duke between 1971-1989.</p><p><strong>Ethiopic&nbsp;</strong><strong>MS 20</strong><br>Content: magic<br>Geographic origin: Ethiopia<br>Date: approximately late 19th or early 20th century<br>Dimensions: scroll, 158 × 9 cm (W × H)<br>Acquisition records: arrived at Duke between 1971-1989.</p><p><strong>Ethiopic&nbsp;</strong><strong>MS 21</strong><br>Content: magic<br>Geographic origin: Ethiopia<br>Date: approximately 20th century<br>Dimensions: scroll, 172 × 12 cm (W × H)<br>Acquisition records: arrived at Duke between 1971-1989.</p><p><strong>Ethiopic&nbsp;</strong><strong>MS 22</strong><br>Content: magic<br>Geographic origin: Ethiopia<br>Date: approximately late 19th or early 20th century<br>Dimensions: scroll, 147 × 10 cm (W × H)<br>Acquisition records: arrived at Duke between 1971-1989.</p><p><strong>Ethiopic&nbsp;</strong><strong>MS 23</strong><br>Content: magic<br>Geographic origin: Ethiopia<br>Date: approximately late 19th or early 20th century<br>Dimensions: scroll, 179 × 12 cm (W × H)<br>Acquisition records: arrived at Duke between 1971-1989.</p><p><strong>Ethiopic&nbsp;</strong><strong>MS 24</strong><br>Content: magic<br>Geographic origin: Ethiopia<br>Date: approximately 20th century<br>Dimensions: scroll, 141 × 13 cm (W × H)<br>Acquisition records: arrived at Duke between 1971-1989.</p><p><strong>Ethiopic&nbsp;</strong><strong>MS 25</strong><br>Content: magic<br>Geographic origin: Ethiopia<br>Date: approximately 18th century<br>Dimensions: scroll, 127 × 12 cm (W × H)<br>Acquisition records: arrived at Duke between 1971-1989.</p><p><strong>Ethiopic&nbsp;</strong><strong>MS 26</strong><br>Content: magic<br>Geographic origin: Ethiopia<br>Date: approximately 20th century<br>Dimensions: scroll, 195 × 12 cm (W × H)<br>Acquisition records: arrived at Duke between 1971-1989.</p><p><strong>Ethiopic&nbsp;</strong><strong>MS 27</strong><br>Content: magic<br>Geographic origin: Ethiopia<br>Date: approximately 19th century<br>Dimensions: scroll, 158 × 9.5 cm (W × H)<br>Acquisition records: arrived at Duke between 1971-1989.</p><p><strong>Ethiopic&nbsp;</strong><strong>MS 28</strong><br>Content: magic<br>Geographic origin: Ethiopia<br>Date: approximately 20th century<br>Dimensions: scroll, 142 × 12 cm (W × H)<br>Acquisition records: arrived at Duke between 1971-1989.</p><p><strong>Ethiopic&nbsp;</strong><strong>MS 29</strong><br>Content: Psalms, Canticles, Song of Songs, Praises to Mary<br>Geographic origin: Ethiopia<br>Date: approximately 20th century<br>Dimensions: codex, page 16.5 × 11.3 cm (H × W), 140 folia<br>Acquisition records: arrived at Duke between 1971-1989.</p><p><strong>Ethiopic&nbsp;</strong><strong>MS 30</strong><br>Content: Miscellaneous, Life of Kiros and Paul-Abib, canons, creed, Apocalypse<br>Geographic origin: Ethiopia<br>Date: approximately 20th century<br>Dimensions: codex, page 15 × 10.5 cm (H × W), 103 folia<br>Acquisition records: arrived at Duke between 1971-1989.</p><p><strong>Ethiopic&nbsp;</strong><strong>MS 31</strong><br>Content: monastic prayers (Mashafa Menkwesna)<br>Geographic origin: Ethiopia<br>Date: approximately 20th century<br>Dimensions: codex, page 13 × 10 cm (H × W), 48 folia<br>Acquisition records: arrived at Duke between 1971-1989.</p><p><strong>Ethiopic&nbsp;</strong><strong>MS 32</strong><br>Content: four Gospels<br>Geographic origin: Ethiopia<br>Date: approximately 19th century<br>Dimensions: codex, page 34 × 28.4 cm (H × W), 48 folia, includes later illustrations<br>Acquisition records: appeared at Sotheby’s 6 December 1988 (lot 63, illustrated). Purchased from Alan G. Thomas (cat 51 no. 7) in 1989.</p><p><strong>Ethiopic&nbsp;</strong><strong>MS 33</strong><br>Content: Psalms, Canticles, Song of Songs, Praises to Mary<br>Geographic origin: Ethiopia<br>Date: approximately 19th century<br>Dimensions: codex, page 23.6 × 17.5 cm (H × W), 134 folia<br>Acquisition records: contains a twentieth-century bookplate of Thomas Jenkins Lewis. Purchased from Alan G. Thomas (cat 53 no. 15) in 1991.</p><p><strong>Ethiopic&nbsp;</strong><strong>MS 34</strong><br>Content: Life and miracles of St. Gabra Manfas Qeddus<br>Geographic origin: Ethiopia<br>Date: approximately 18th century<br>Dimensions: codex, page 20.5 × 19 cm (H × W), 87 folia, ten illuminations<br>Acquisition records: donated by Allen Kelley&nbsp;to Duke in 1991.</p><p><strong>Ethiopic&nbsp;</strong><strong>MS 35</strong><br>Content: liturgical prayers, Anaphoras<br>Geographic origin: Ethiopia<br>Date: approximately 18th century<br>Dimensions: codex, page 24 × 20.3 cm (H × W), 108 folia, fourteen illuminations (later additions)<br>Acquisition records: donated by Allen Kelley to Duke in 1992.</p><p><strong>Ethiopic&nbsp;</strong><strong>MS 36</strong><br>Content: Psalms, Canticles, Song of Songs, Praises to Mary<br>Geographic origin: Ethiopia<br>Date: unknown<br>Dimensions: codex, page 19 × 14.5 cm (H × W), 146 folia, fourteen illuminations (later additions)<br>Acquisition records: purchased from Mrs. Lillian Anderson in 1992.</p><p><strong>Ethiopic&nbsp;</strong><strong>MS 37</strong><br>Content: scribal chart (school text)<br>Geographic origin: Ethiopia<br>Date: unknown<br>Dimensions: leaf, 36 × 25.5 cm (H × W)<br>Acquisition records: purchased from&nbsp;Mrs. Lillian Anderson in 1992.</p><p><strong>Ethiopic&nbsp;</strong><strong>MS 38</strong><br>Content: Psalms, Canticles, Song of Songs, Praises to Mary<br>Geographic origin: Ethiopia<br>Date: early 19th century<br>Dimensions: codex, page 16 × 13.5 cm (H × W), 155 folia, includes plates (possibly later additions)<br>Acquisition records: purchased from&nbsp;Joseph Natale Rare Books on 1 June 1993.</p><p><strong>Ethiopic&nbsp;</strong><strong>MS 39</strong><br>Content: Gospel of John, morning prayers, additional prayers<br>Geographic origin: Ethiopia<br>Date: unknown<br>Dimensions: codex, page 15.5 × 12 cm (H × W), 172 folia, includes six illuminations<br>Acquisition records: purchased from&nbsp;Joseph Natale Rare Books on 21 September 1993.</p><p><strong>Ethiopic&nbsp;</strong><strong>MS 40</strong><br>Content: magic<br>Geographic origin: Ethiopia<br>Date: unknown<br>Dimensions: scroll, 158 × 12.5 cm (W × H)<br>Acquisition records: purchased from&nbsp;Joseph Natale Rare Books on 4 December 1993.</p><p><strong>Ethiopic&nbsp;</strong><strong>MS 41</strong><br>Content: magic<br>Geographic origin: Ethiopia<br>Date: unknown<br>Dimensions: scroll, 130 × 7.8 cm (W × H)<br>Acquisition records: purchased from&nbsp;Joseph Natale Rare Books on 4 December 1993.</p><p><strong>Ethiopic&nbsp;</strong><strong>MS 42</strong><br>Content: magic<br>Geographic origin: Ethiopia<br>Date: unknown<br>Dimensions: scroll, 150 × 9.5 cm (W × H)<br>Acquisition records: purchased from&nbsp;Joseph Natale Rare Books on 4 December 1993.</p><p><strong>Ethiopic&nbsp;</strong><strong>MS 43</strong><br>Content: magic<br>Geographic origin: Ethiopia<br>Date: unknown<br>Dimensions: scroll, 158 × 10.5 cm (W × H)<br>Acquisition records: purchased from&nbsp;Joseph Natale Rare Books on 4 December 1993.</p><p><strong>Ethiopic&nbsp;</strong><strong>MS 44</strong><br>Content: magic<br>Geographic origin: Ethiopia<br>Date: unknown<br>Dimensions: scroll, 192 × 10 cm (W × H)<br>Acquisition records: purchased from&nbsp;Joseph Natale Rare Books on 4 December 1993.</p><p><strong>Ethiopic&nbsp;</strong><strong>MS 45</strong><br>Content: magic<br>Geographic origin: Ethiopia<br>Date: unknown<br>Dimensions: scroll, 164 × 10 cm (W × H)<br>Acquisition records: purchased from&nbsp;Joseph Natale Rare Books on 26 March 1994.</p><p><strong>Ethiopic&nbsp;</strong><strong>MS 46</strong><br>Content: magic<br>Geographic origin: Ethiopia<br>Date: unknown<br>Dimensions: scroll, 168 × 8.5 cm (W × H)<br>Acquisition records: purchased from&nbsp;Joseph Natale Rare Books on 26 March 1994.</p><p><strong>Ethiopic&nbsp;</strong><strong>MS 47</strong><br>Content: magic<br>Geographic origin: Ethiopia<br>Date: unknown<br>Dimensions: scroll, 174 × 9 cm (W × H)<br>Acquisition records: purchased from&nbsp;Joseph Natale Rare Books on 26 March 1994.</p><p><strong>Ethiopic&nbsp;</strong><strong>MS 48</strong><br>Content: magic<br>Geographic origin: Ethiopia<br>Date: unknown<br>Dimensions: scroll, 174 × 8 cm (W × H)<br>Acquisition records: purchased from&nbsp;Joseph Natale Rare Books on 26 March 1994.</p><p><strong>Ethiopic&nbsp;</strong><strong>MS 49</strong><br>Content: book of Hymns (Deggwa) for the period of Lent<br>Geographic origin: Ethiopia<br>Date: unknown<br>Dimensions: codex, page 25 × 19 cm (H × W), 59 folia, six illuminations<br>Acquisition records: purchased from&nbsp;Joseph Natale Rare Books on 26 March 1994.</p><p><strong>Ethiopic&nbsp;</strong><strong>MS 50</strong><br>Content: book of Hymns (Deggwa) for the whole year<br>Geographic origin: Ethiopia<br>Date: unknown<br>Dimensions: codex, page 24 × 19 cm (H × W), 83 folia, seven illuminations<br>Acquisition records: purchased from&nbsp;Joseph Natale Rare Books on 26 March 1994.</p><p><strong>Ethiopic&nbsp;</strong><strong>MS 51</strong><br>Content: icon<br>Geographic origin: Ethiopia<br>Date: unknown<br>Dimensions: diptych icon<br>Acquisition records: purchased from&nbsp;Joseph Natale Rare Books on 26 March 1994.</p><p><strong>Ethiopic&nbsp;</strong><strong>MS 52</strong><br>Content: icon<br>Geographic origin: Ethiopia<br>Date: unknown<br>Dimensions: diptych icon<br>Acquisition records: purchased from&nbsp;Joseph Natale Rare Books on 26 March 1994.</p><p><strong>Ethiopic&nbsp;</strong><strong>MS 53</strong><br>Content: life and miracles of St. Takla Haymanot<br>Geographic origin: Ethiopia<br>Date: unknown<br>Dimensions: codex, page 33 × 28 cm (H × W), 107 folia<br>Acquisition records: purchased from&nbsp;Sam Fogg Rare Books and Manuscripts on 27 April 1994.</p><p><strong>Ethiopic&nbsp;</strong><strong>MS 54</strong><br>Content: collection of theological and disciplinary texts (Haymanota Abaw), patristic writings<br>Geographic origin: Ethiopia<br>Date: approximately 18th century<br>Dimensions: codex, page 34 × 30 cm (H × W), 182 folia<br>Acquisition records: purchased from&nbsp;Sam Fogg Rare Books and Manuscripts on 27 April 1994.</p><p><strong>Ethiopic&nbsp;</strong><strong>MS 55</strong><br>Content: magic<br>Geographic origin: Ethiopia<br>Date: unknown<br>Dimensions: scroll, 173 × 11 cm (W × H)<br>Acquisition records: purchased from&nbsp;Joseph Natale Rare Books on 23 June 1994.</p><p><strong>Ethiopic&nbsp;</strong><strong>MS 56</strong><br>Content: magic<br>Geographic origin: Ethiopia<br>Date: unknown<br>Dimensions: scroll, 160 × 10 cm (W × H)<br>Acquisition records: purchased from&nbsp;Joseph Natale Rare Books on 23 June 1994.</p><p><strong>Ethiopic&nbsp;</strong><strong>MS 57</strong><br>Content: magic<br>Geographic origin: Ethiopia<br>Date: unknown<br>Dimensions: scroll, 159 × 8.5 cm (W × H)<br>Acquisition records: purchased from&nbsp;Joseph Natale Rare Books on 23 June 1994.</p><p><strong>Ethiopic&nbsp;</strong><strong>MS 58</strong><br>Content: magic<br>Geographic origin: Ethiopia<br>Date: unknown<br>Dimensions: scroll, 239 × 11.5 cm (W × H)<br>Acquisition records: purchased from&nbsp;Joseph Natale Rare Books on 23 June 1994.</p><p><strong>Ethiopic&nbsp;</strong><strong>MS 59</strong><br>Content: magic<br>Geographic origin: Ethiopia<br>Date: unknown<br>Dimensions: scroll, 211 × 10 cm (W × H)<br>Acquisition records: purchased from&nbsp;Joseph Natale Rare Books on 23 June 1994.</p><p><strong>Ethiopic&nbsp;</strong><strong>MS 60</strong><br>Content: magic<br>Geographic origin: Ethiopia<br>Date: unknown<br>Dimensions: scroll, 182 × 11 cm (W × H)<br>Acquisition records: purchased from&nbsp;Joseph Natale Rare Books on 23 June 1994.</p><p><strong>Ethiopic&nbsp;</strong><strong>MS 61</strong><br>Content: magic<br>Geographic origin: Ethiopia<br>Date: unknown<br>Dimensions: scroll, 107 × 9 cm (W × H)<br>Acquisition records: purchased from&nbsp;Joseph Natale Rare Books on 23 June 1994.</p><p><strong>Ethiopic&nbsp;</strong><strong>MS 62</strong><br>Content: magic<br>Geographic origin: Ethiopia<br>Date: unknown<br>Dimensions: scroll, 194 × 11 cm (W × H)<br>Acquisition records: purchased from&nbsp;Joseph Natale Rare Books on 23 June 1994.</p><p><strong>Ethiopic&nbsp;</strong><strong>MS 63</strong><br>Content: magic<br>Geographic origin: Ethiopia<br>Date: unknown<br>Dimensions: scroll, 153 × 11.5 cm (W × H)<br>Acquisition records: purchased from&nbsp;Joseph Natale Rare Books on 23 June 1994.</p><p><strong>Ethiopic&nbsp;</strong><strong>MS 64</strong><br>Content: magic<br>Geographic origin: Ethiopia<br>Date: unknown<br>Dimensions: scroll, 132 × 8.5 cm (W × H)<br>Acquisition records: purchased from&nbsp;Joseph Natale Rare Books on 23 June 1994.</p><p><strong>Ethiopic&nbsp;</strong><strong>MS 65</strong><br>Content: magic<br>Geographic origin: Ethiopia<br>Date: unknown<br>Dimensions: scroll, 160 × 10 cm (W × H)<br>Acquisition records: purchased from&nbsp;Joseph Natale Rare Books on 23 June 1994.</p><p><strong>Ethiopic&nbsp;</strong><strong>MS 66</strong><br>Content: magic<br>Geographic origin: Ethiopia<br>Date: unknown<br>Dimensions: scroll, 63.5 × 5.7 cm (W × H), bound<br>Acquisition records: purchased from&nbsp;Joseph Natale Rare Books on 23 June 1994.</p><p><strong>Ethiopic&nbsp;</strong><strong>MS 67</strong><br>Content: magic<br>Geographic origin: Ethiopia<br>Date: unknown<br>Dimensions: scroll, amulet, 4 × 4 cm (W × H), sealed in a leather pouch<br>Acquisition records: purchased from&nbsp;Joseph Natale Rare Books on 23 June 1994.</p><p><strong>Ethiopic&nbsp;</strong><strong>MS 68</strong><br>Content: magic<br>Geographic origin: Ethiopia<br>Date: unknown<br>Dimensions: scroll, amulet, 3 × 4.5 cm (W × H), sealed in a leather pouch<br>Acquisition records: purchased from&nbsp;Joseph Natale Rare Books on 23 June 1994.</p><p><strong>Ethiopic&nbsp;</strong><strong>MS 69</strong><br>Content: magic<br>Geographic origin: Ethiopia<br>Date: unknown<br>Dimensions: scroll, amulet, 3.4 × 5 cm (W × H), sealed in a leather pouch<br>Acquisition records: purchased from&nbsp;Joseph Natale Rare Books on 23 June 1994.</p><p><strong>Ethiopic&nbsp;</strong><strong>MS 70</strong><br>Content: magic<br>Geographic origin: Ethiopia<br>Date: unknown<br>Dimensions: scroll, amulet, 3.8 × 6.5 cm (W × H), sealed in a leather pouch<br>Acquisition records: purchased from&nbsp;Joseph Natale Rare Books on 23 June 1994.</p><p><strong>Ethiopic&nbsp;</strong><strong>MS 71</strong><br>Content: Psalms, Canticles, Song of Songs, Praises to Mary<br>Geographic origin: Ethiopia<br>Date: unknown<br>Dimensions: codex, page 12.2 × 9 cm (H × W), 166 folia<br>Acquisition records: purchased from&nbsp;Joseph Natale Rare Books on 23 June 1994.</p><p><strong>Ethiopic&nbsp;</strong><strong>MS 72</strong><br>Content: Psalms, Canticles, Song of Songs, Praises to Mary<br>Geographic origin: Ethiopia<br>Date: unknown<br>Dimensions: codex, page 10 × 9.4 cm (H × W), 191 folia, five illuminations (later additions)<br>Acquisition records: purchased from&nbsp;Joseph Natale Rare Books on 23 June 1994.</p><p><strong>Ethiopic&nbsp;</strong><strong>MS 73</strong><br>Content: homilies, miracles, and salutations for Archangel Michael<br>Geographic origin: Ethiopia<br>Date: unknown<br>Dimensions: codex, page 22.5 × 16.8 cm (H × W), 102 folia, ten illuminations<br>Acquisition records: purchased from&nbsp;Joseph Natale Rare Books on 23 June 1994.</p><p><strong>Ethiopic&nbsp;</strong><strong>MS 74</strong><br>Content: Hymn “God Reigns” (Egziabher Nagsa)<br>Geographic origin: Ethiopia<br>Date: unknown<br>Dimensions: codex, page 26.5 × 19.5 cm (H × W), 95 folia, five illuminations (later additions)<br>Acquisition records: purchased from&nbsp;Joseph Natale Rare Books on 23 June 1994.</p><p><strong>Ethiopic&nbsp;</strong><strong>MS 75</strong><br>Content: prayers to Mary, Anaphora of Mary (by Cyriacus of Behnesa)<br>Geographic origin: Ethiopia<br>Date: unknown<br>Dimensions: codex, page 13 × 8.5 cm (H × W), 103 folia<br>Acquisition records: purchased from&nbsp;Joseph Natale Rare Books on 23 June 1994.</p><p><strong>Ethiopic</strong><strong>&nbsp;MS 76</strong><br>Content: Psalms, Canticles, Song of Songs, Praises to Mary<br>Geographic origin: Ethiopia<br>Date: unknown<br>Dimensions: codex, page 14.2 × 9.8 cm (H × W), 183 folia, six illuminations (later additions)<br>Acquisition records: purchased from&nbsp;Joseph Natale Rare Books on 23 June 1994.</p><p><strong>Ethiopic&nbsp;</strong><strong>MS 77</strong><br>Content: Psalms, Canticles, Song of Songs, Praises to Mary<br>Geographic origin: Ethiopia<br>Date: unknown<br>Dimensions: codex, page 16.7 × 11 cm (H × W), 145 folia, six illuminations (later additions)<br>Acquisition records: purchased from&nbsp;Joseph Natale Rare Books on 23 June 1994.</p><p><strong>Ethiopic&nbsp;</strong><strong>MS 78</strong><br>Content: small amulets<br>Geographic origin: Ethiopia<br>Date: unknown<br>Dimensions: prayer necklace<br>Acquisition records: purchased from&nbsp;Joseph Natale Rare Books on 23 June 1994.</p><p><strong>Ethiopic&nbsp;</strong><strong>MS 79</strong><br>Content: Psalms, Canticles, Song of Songs, Praises to Mary<br>Geographic origin: Ethiopia<br>Date: unknown<br>Dimensions: codex, page 16 × 11.5 cm (H × W), 145 folia, three illuminations<br>Acquisition records: purchased from&nbsp;Joseph Natale Rare Books on 19 September 2004.</p><p><strong>Ethiopic&nbsp;</strong><strong>MS 80</strong><br>Content: Psalms, Canticles, Song of Songs, Praises to Mary<br>Geographic origin: Ethiopia<br>Date: unknown<br>Dimensions: codex, page 23.6 × 21.5 cm (H × W), 177 folia, six illuminations (later additions)<br>Acquisition records: purchased from&nbsp;Joseph Natale Rare Books on 19 September 2004.</p><p><strong>Ethiopic&nbsp;</strong><strong>MS 81</strong><br>Content: Psalms, Canticles, Song of Songs, Praises to Mary<br>Geographic origin: Ethiopia<br>Date: unknown<br>Dimensions: codex, page 15 × 11 cm (H × W), 144 folia<br>Acquisition records: purchased from&nbsp;Joseph Natale Rare Books on 19 September 2004.</p><p><strong>Ethiopic&nbsp;</strong><strong>MS 82</strong><br>Content: Psalms, Canticles, Song of Songs, Praises to Mary<br>Geographic origin: Ethiopia<br>Date: unknown<br>Dimensions: codex, page 20.5 × 15.5 cm (H × W), 167 folia, seven illuminations<br>Acquisition records: purchased from&nbsp;Joseph Natale Rare Books on 19 September 2004.</p><p><strong>Ethiopic&nbsp;</strong><strong>MS 83</strong><br>Content: book of Hymns (Zemmare and Mawas`et)<br>Geographic origin: Ethiopia<br>Date: unknown<br>Dimensions: codex, page 26 × 19.5 cm (H × W), 54 folia, two illuminations (later additions)<br>Acquisition records: purchased from&nbsp;Joseph Natale Rare Books on 19 September 2004.</p><p><strong>Ethiopic&nbsp;</strong><strong>MS 84</strong><br>Content: magic<br>Geographic origin: Ethiopia<br>Date: unknown<br>Dimensions: scroll, 126 × 12.5 cm (W × H)<br>Acquisition records: purchased from&nbsp;Joseph Natale Rare Books on 19 September 2004.</p><p><strong>Ethiopic&nbsp;</strong><strong>MS 85</strong><br>Content: magic<br>Geographic origin: Ethiopia<br>Date: unknown<br>Dimensions: scroll, 167 × 9 cm (W × H)<br>Acquisition records: purchased from&nbsp;Joseph Natale Rare Books on 19 September 2004.</p><p><strong>Ethiopic&nbsp;</strong><strong>MS 86</strong><br>Content: magic<br>Geographic origin: Ethiopia<br>Date: unknown<br>Dimensions: scroll, 205 × 9 cm (W × H)<br>Acquisition records: purchased from&nbsp;Joseph Natale Rare Books on 19 September 2004.</p><p><strong>Ethiopic&nbsp;</strong><strong>MS 87</strong><br>Content: book of Hymns (Ziq)<br>Geographic origin: Ethiopia<br>Date: unknown<br>Dimensions: codex, page 14.8 × 11.4 cm (H × W), 144 folia<br>Acquisition records: purchased from&nbsp;Joseph Natale Rare Books on 1 November 1994.</p><p><strong>Ethiopic&nbsp;</strong><strong>MS 88</strong><br>Content: Amharic theological work<br>Geographic origin: Ethiopia<br>Date: unknown<br>Dimensions: codex, page 16.4 × 9.4 cm (H × W), 80 folia<br>Acquisition records: purchased from&nbsp;Joseph Natale Rare Books on 1 November 1994.</p><p><strong>Ethiopic&nbsp;</strong><strong>MS 89</strong><br>Content: Hymns of Yared<br>Geographic origin: Ethiopia<br>Date: unknown<br>Dimensions: codex, page 20 × 14.5 cm (H × W), 63 folia, six illuminations<br>Acquisition records: purchased from&nbsp;Joseph Natale Rare Books on 1 November 1994.</p><p><strong>Ethiopic&nbsp;</strong><strong>MS 90</strong><br>Content: Psalms, Canticles, Song of Songs, Praises to Mary<br>Geographic origin: Ethiopia<br>Date: unknown<br>Dimensions: codex, page 12.7 × 14.1 cm (H × W)<br>Acquisition records: purchased from&nbsp;Joseph Natale Rare Books on 1 November 1994.</p><p><strong>Ethiopic&nbsp;</strong><strong>MS 91</strong><br>Content: Psalms, Canticles, Song of Songs, Praises to Mary<br>Geographic origin: Ethiopia<br>Date: unknown<br>Dimensions: codex, page 16.5 × 11.5 cm (H × W), 146 folia, six illuminations (later additions), includes Mahdar (case)<br>Acquisition records: purchased from&nbsp;Joseph Natale Rare Books on 1 November 1994.</p><p><strong>Ethiopic&nbsp;</strong><strong>MS 92</strong><br>Content: Psalms, Canticles, Song of Songs, Praises to Mary<br>Geographic origin: Ethiopia<br>Date: unknown<br>Dimensions: codex, page 14 × 19 cm (H × W)<br>Acquisition records: purchased from&nbsp;Joseph Natale Rare Books on 1 November 1994.</p><p><strong>Ethiopic&nbsp;</strong><strong>MS 93</strong><br>Content: Psalms, Canticles, Song of Songs, Praises to Mary<br>Geographic origin: Ethiopia<br>Date: unknown<br>Dimensions: codex, page 21.8 × 16.1 cm (H × W), 170 folia<br>Acquisition records: purchased from&nbsp;Joseph Natale Rare Books on 1 November 1994.</p><p><strong>Ethiopic&nbsp;</strong><strong>MS 94</strong><br>Content: magic<br>Geographic origin: Ethiopia<br>Date: unknown<br>Dimensions: scroll, 207 × 11 cm (W × H)<br>Acquisition records: purchased from&nbsp;Joseph Natale Rare Books on 1 November 1994.</p><p><strong>Ethiopic&nbsp;</strong><strong>MS 95</strong><br>Content: magic<br>Geographic origin: Ethiopia<br>Date: unknown<br>Dimensions: scroll, 215 × 13 cm (W × H)<br>Acquisition records: purchased from&nbsp;Joseph Natale Rare Books on 1 November 1994.</p><p><strong>Ethiopic&nbsp;</strong><strong>MS 96</strong><br>Content: magic<br>Geographic origin: Ethiopia<br>Date: unknown<br>Dimensions: scroll, 179 × 10.4 cm (W × H)<br>Acquisition records: purchased from&nbsp;Joseph Natale Rare Books on 1 November 1994.</p><p><strong>Ethiopic&nbsp;</strong><strong>MS 97</strong><br>Content: magic<br>Geographic origin: Ethiopia<br>Date: unknown<br>Dimensions: scroll, 160 × 8 cm (W × H)<br>Acquisition records: purchased from&nbsp;Joseph Natale Rare Books on 1 November 1994.</p><p><strong>Ethiopic&nbsp;</strong><strong>MS 98</strong><br>Content: magic<br>Geographic origin: Ethiopia<br>Date: unknown<br>Dimensions: scroll, 160 × 14.2 cm (W × H)<br>Acquisition records: purchased from&nbsp;Joseph Natale Rare Books on 1 November 1994.</p><p><strong>Ethiopic&nbsp;</strong><strong>MS 99</strong><br>Content: Psalms, Canticles, Song of Songs, Praises to Mary<br>Geographic origin: Ethiopia<br>Date: unknown<br>Dimensions: codex, page 14 × 11 cm (H × W), 171 folia, eight illuminations<br>Acquisition records: purchased from&nbsp;Joseph Natale Rare Books on 19 January 1995.</p><p><strong>Ethiopic&nbsp;</strong><strong>MS 100</strong><br>Content: Psalms, Canticles, Song of Songs, Praises to Mary<br>Geographic origin: Ethiopia<br>Date: unknown<br>Dimensions: codex, page 18.5 × 11 cm (H × W), 131 folia, eight illuminations<br>Acquisition records: purchased from&nbsp;Joseph Natale Rare Books on 19 January 1995.</p><p><strong>Ethiopic&nbsp;</strong><strong>MS 101</strong><br>Content: Gospel of John<br>Geographic origin: Ethiopia<br>Date: unknown<br>Dimensions: codex, page 15 × 11 cm (H × W), 99 folia<br>Acquisition records: purchased from&nbsp;Joseph Natale Rare Books on 19 January 1995.</p><p><strong>Ethiopic&nbsp;</strong><strong>MS 102</strong><br>Content: Psalms, Canticles, Song of Songs, Praises to Mary<br>Geographic origin: Ethiopia<br>Date: unknown<br>Dimensions: codex, page 20.5 × 14 cm (H × W), 152 folia, eleven illuminations (later additions)<br>Acquisition records: purchased from&nbsp;Joseph Natale Rare Books on 19 January 1995.</p><p><strong>Ethiopic&nbsp;</strong><strong>MS 103</strong><br>Content: Homilies, miracles, and salutations for Archangel Michael<br>Geographic origin: Ethiopia<br>Date: unknown<br>Dimensions: codex, page 20 × 15 cm (H × W), 134 folia, ten illuminations (later additions)<br>Acquisition records: purchased from&nbsp;Joseph Natale Rare Books on 19 January 1995.</p><p><strong>Ethiopic&nbsp;</strong><strong>MS 104</strong><br>Content: book of Hymns (Me`eraf)<br>Geographic origin: Ethiopia<br>Date: unknown<br>Dimensions: codex, page 18 × 13 cm (H × W), 120 folia, twelve illuminations (later additions)<br>Acquisition records: purchased from&nbsp;Joseph Natale Rare Books on 19 January 1995.</p><p><strong>Ethiopic&nbsp;</strong><strong>MS 105</strong><br>Content: Homilies, miracles, and salutations for Archangel Michael<br>Geographic origin: Ethiopia<br>Date: unknown<br>Dimensions: codex, page 16 × 6.5 cm (H × W), 103 folia, six illuminations, includes Mahdar (case)<br>Acquisition records: purchased from&nbsp;Joseph Natale Rare Books on 19 January 1995.</p><p><strong>Ethiopic&nbsp;</strong><strong>MS 106</strong><br>Content: Psalms, Canticles, Song of Songs, Praises to Mary<br>Geographic origin: Ethiopia<br>Date: unknown<br>Dimensions: codex, page 35 × 25 cm (H × W), 176 folia, seven illuminations<br>Acquisition records: purchased from&nbsp;Joseph Natale Rare Books on 19 January 1995.</p><p><strong>Ethiopic&nbsp;</strong><strong>MS 107</strong><br>Content: Psalms, Canticles, Song of Songs, Praises to Mary<br>Geographic origin: Ethiopia<br>Date: unknown<br>Dimensions: codex, page 14 × 10 cm (H × W), 158 folia, five illuminations, includes Mahdar (case)<br>Acquisition records: purchased from&nbsp;Joseph Natale Rare Books on 19 January 1995.</p><p><strong>Ethiopic&nbsp;</strong><strong>MS 108</strong><br>Content: small book of salutations to Mary and Jesus<br>Geographic origin: Ethiopia<br>Date: unknown<br>Dimensions: codex, page 10.5 × 8.5 cm (H × W), 54 folia, five illuminations, includes Mahdar (case)<br>Acquisition records: donated by Steve Snyderman to Duke in November 1999.</p><p><strong>Ethiopic&nbsp;</strong><strong>&nbsp;MS 109</strong><br>Content: book of Hymns (Ziq)<br>Geographic origin: Ethiopia<br>Date: unknown<br>Dimensions: codex, page 15 × 11 cm (H × W), 39 folia, includes Mahdar (case)<br>Acquisition records: donated by Mrs. Francis B. Elder to Duke on 17 July 2000.</p><p><strong>Ethiopic&nbsp;</strong><strong>MS 110</strong><br>Content: magic<br>Geographic origin: Ethiopia<br>Date: unknown<br>Dimensions: scroll, 154 × 10 cm (W × H)<br>Acquisition records: donated by Mrs. Francis B. Elder to Duke on 17 July 2000.</p><p><strong>Ethiopic&nbsp;</strong><strong>MS 111</strong><br>Content: Letters of Paul<br>Geographic origin: Ethiopia<br>Date: unknown<br>Dimensions: codex, page 19.5 × 17.5 cm (H × W), 108 folia (incomplete, missing one or more quires at end)<br>Acquisition records: donated to Duke in 2008 in memory of Ernest A. Muro, Jr.</p><p><strong>Ethiopic&nbsp;</strong><strong>MS 112</strong><br>Content: Hymns to Mary<br>Geographic origin: Ethiopia<br>Date: unknown<br>Dimensions: codex, page 16.5 × 13.3 cm (H × W), 26 folia<br>Acquisition records: unknown</p><p style=\"text-align: left;\"><strong>&nbsp;</strong></p>",
            "revision_id" : 16590,
            "langcode" : "und",
            "body_format" : "full_html",
            "deleted" : 0,
            "bundle" : "page",
            "entity_id" : 800,
            "body_summary" : "",
            "delta" : 0
         },
         "node_revision__field_tags" : [],
         "sticky" : 0,
         "title" : "Ethiopic Manuscripts",
         "promote" : 0,
         "field_revision" : {
            "title" : "Ethiopic Manuscripts",
            "created" : null,
            "revision_translation_affected" : 1,
            "uid" : 1,
            "default_langcode" : 1,
            "langcode" : null,
            "status" : 1,
            "changed" : null,
            "sticky" : 0
         },
         "uid" : 11,
         "vuuid" : "1117de9a-a262-4ce8-8e0d-1ff4929da27b",
         "log" : ""
      }
   ],
   "nid" : "800",
   "asidebox" : {
      "nid" : 800,
      "bid" : null,
      "body_title" : "",
      "status" : "disabled",
      "body_value" : null,
      "block_delta" : null,
      "body_format" : null,
      "vid" : 16590,
      "block_module" : null
   },
   "node_field_data" : {
      "promote" : 0,
      "title" : "Ethiopic Manuscripts",
      "langcode" : "und",
      "default_langcode" : 1,
      "uid" : 1,
      "created" : 1600110991,
      "revision_translation_affected" : 1,
      "sticky" : 0,
      "changed" : null,
      "status" : 1,
      "type" : "page"
   }
}

