{
   "nid" : "547",
   "revisions" : [
      {
         "comment" : 1,
         "status" : 1,
         "sticky" : 0,
         "node_revision__field_tags" : [],
         "node_revision__body" : {
            "body_value" : "<h2 class=\"MsoNormal\">2020-2021</h2><ul><li>Jackson Davidow, Theory and History of Art and Design, Rhode Island School of Design, \"Picturing a Pandemic: South African AIDS Cultural Activism in a Global Context.\"&nbsp;</li><li>Lisa Pruitt, Faculty, Department of History, Middle Tennessee State University, “Crippled: A History of Childhood Disability in America, 1860-1980.”</li><li>Morgan McCullough, Ph.D. candidate, Lyon G. Tyler Department of History, William and Mary, \"Material Bodies: Race, Gender, and Women in the Early American South.\"&nbsp;</li></ul><h2 class=\"MsoNormal\">2019-2020</h2><ul><li>Matthew Barrett, Doctoral Candidate, Queen’s University, History Department: <em>Conduct Unbecoming an Officer and a Doctor: Medical Attitudes toward Homosexuality and the Court-Martial of Dr. Percy E. Ryberg.</em></li><li>Kelly O’Donnell, Faculty, Thomas Jefferson University, College of Humanities and Sciences: for the study of the role doctors’ wives played in the medical profession and recasting the history of American health care by focusing on the women behind the “great men” of medicine.</li><li>Laura Smith, Doctoral Candidate, University of Arkansas, History Department: <em>Southern Doctors from Southern Communities: Medical Education and Professionalization in the Nineteenth-Century South.</em></li></ul><h2 class=\"MsoNormal\"><br>2018-2019</h2><ul><li>Jonathan Jones, Ph.D. candidate, Binghamton University, History Department, for dissertation research on “A Mind Prostrate:” Physicians, Opiates, and Insanity in the Civil War's Aftermath.</li><li>Amanda Stuckey, Ph.D., York College, English and Humanities Department, for research on \"A History of Access: Medicine, Education, and Disability during the Long Nineteenth Century.\"</li><li>Wenrui Zhao, Ph.D. candidate, Columbia University, History Department, for dissertation research on “Dissecting Sight: Eye Surgery and Vision in Early Modern Europe.”&nbsp;</li></ul><h2>2017-2018</h2><h2 class=\"MsoNormal\"></h2><ul><li>Lisa Guinn, Ph.D., Department of History &amp; Political Science, Bethany College, for researching the motivation of women who worked in nursing, sanitary work, and the special diet kitchens during the Civil War.</li><li>Marjorie Lorch, Ph.D., Applied&nbsp;Linguistics and&nbsp;Communication, School of Social&nbsp;Sciences, History and Philosophy, Birkbeck, University of London, for “The Long View of Language Localization.”</li><li>Mallory Szymanski, Ph.D. candidate,&nbsp;Department of&nbsp;History, University of Florida, for her work “Medical absolution in the clinic: Erasing sexual indiscretion with a neurasthenia diagnosis in the&nbsp;Gilded Age.”</li></ul><h2></h2><h2 class=\"MsoNormal\">2016-2017</h2><ul><li>Cecilio Cooper, PhD candidate in the Department of African American Studies, Northwestern University for dissertation research on “Phantom Limbs, Fugitive Flesh: Slavery + Colonial Dissection.”</li><li>Sara Kern, PhD candidate in History &amp; Women's, Gender, and Sexuality Studies, Penn State University, for dissertation work on “Measuring Bodies, Defining Health: Medicine, Statistics, and Civil War Legacy in the Nineteenth-Century America.”&nbsp;</li><li>Professor Kim Nielsen, Disability Studies &amp; History, University of Toledo, for research on her book, The Doctress and the Horsewhip, a biography of Dr. Anna B. Ott (1819-1893).<o:p style=\"font-size: 1.385em; font-weight: bold;\">&nbsp;</o:p>&nbsp;</li></ul><h2 class=\"MsoNormal\">2015-2016</h2><ul><li>Lindsey Beal, MFA, for photographic research on late nineteenth and early twentieth century obstetric and gynecological instruments.&nbsp;</li><li>Elaine LaFay, PhD candidate in History and Sociology of Science, University of Pennsylvania, for dissertation work on “Weathered Bodies, Sickly Lands: Climate, Health, and Place in the Antebellum Gulf South.”</li><li><o:p style=\"font-size: 13.008px;\">&nbsp;</o:p>Jaipreet Virdi-Dhesi, PhD, for work on “Deafness is Misery: Advertised Cures for Hearing Loss in Early 20th Century America.”</li></ul><h2 class=\"MsoNormal\">2014-2015</h2><ul><li>Cali Buckley, Pennsylvania State University, Department of Art History, for dissertation work on, “Women of Substance: The Materiality of Anatomical Models and the Control of Women’s Medicine in Early Modern Europe.”<span style=\"font-size: 13.008px;\" data-mce-mark=\"1\">&nbsp;</span></li><li>Alicia Puglionesi, Johns Hopkins University, Institute of the History of Medicine, for dissertation work on “The Astonishment of Experience: Americans and Psychical Research, 1885-1935.”</li><li>Courtney Thompson, Yale University, Department of the History of Science and Medicine, for dissertation work on “Criminal Minds: Medicine, Law, and the Phrenological Impulse in America, 1830-1890.”</li></ul><p class=\"MsoNormal\"></p><p class=\"MsoNormal\"></p>",
            "langcode" : "und",
            "revision_id" : 17003,
            "deleted" : 0,
            "body_format" : "full_html",
            "entity_id" : 547,
            "bundle" : "page",
            "body_summary" : "",
            "delta" : 0
         },
         "timestamp" : 1617902799,
         "uid" : 10,
         "vuuid" : "81b9df4b-6be9-4bb3-ba53-3d00855d2cea",
         "log" : "",
         "title" : "History of Medicine Travel Grant Recipients",
         "promote" : 0,
         "field_revision" : {
            "title" : "History of Medicine Travel Grant Recipients",
            "changed" : null,
            "status" : 1,
            "sticky" : 0,
            "created" : null,
            "revision_translation_affected" : 1,
            "uid" : 1,
            "default_langcode" : 1,
            "langcode" : null
         }
      }
   ],
   "node_field_data" : {
      "promote" : 0,
      "title" : "History of Medicine Travel Grant Recipients",
      "default_langcode" : 1,
      "langcode" : "und",
      "revision_translation_affected" : 1,
      "created" : 1434476475,
      "uid" : 1,
      "sticky" : 0,
      "status" : 1,
      "type" : "page",
      "changed" : null
   },
   "asidebox" : {
      "bid" : null,
      "body_title" : "",
      "nid" : 547,
      "vid" : 17003,
      "block_module" : null,
      "body_format" : null,
      "block_delta" : null,
      "status" : "disabled",
      "body_value" : null
   },
   "path_alias" : {
      "pid" : 653,
      "alias" : "/history-of-medicine/grants/past-recipients",
      "langcode" : "und",
      "status" : 0,
      "language" : "und"
   },
   "vid" : 17003,
   "field_image" : null,
   "uuid" : "fd0fb364-59d4-459d-a061-747faccadccf",
   "node_access" : null,
   "type" : "page",
   "field_tags" : [],
   "langcode" : "und",
   "node__body" : {
      "body_value" : "<h2 class=\"MsoNormal\">2020-2021</h2><ul><li>Jackson Davidow, Theory and History of Art and Design, Rhode Island School of Design, \"Picturing a Pandemic: South African AIDS Cultural Activism in a Global Context.\"&nbsp;</li><li>Lisa Pruitt, Faculty, Department of History, Middle Tennessee State University, “Crippled: A History of Childhood Disability in America, 1860-1980.”</li><li>Morgan McCullough, Ph.D. candidate, Lyon G. Tyler Department of History, William and Mary, \"Material Bodies: Race, Gender, and Women in the Early American South.\"&nbsp;</li></ul><h2 class=\"MsoNormal\">2019-2020</h2><ul><li>Matthew Barrett, Doctoral Candidate, Queen’s University, History Department: <em>Conduct Unbecoming an Officer and a Doctor: Medical Attitudes toward Homosexuality and the Court-Martial of Dr. Percy E. Ryberg.</em></li><li>Kelly O’Donnell, Faculty, Thomas Jefferson University, College of Humanities and Sciences: for the study of the role doctors’ wives played in the medical profession and recasting the history of American health care by focusing on the women behind the “great men” of medicine.</li><li>Laura Smith, Doctoral Candidate, University of Arkansas, History Department: <em>Southern Doctors from Southern Communities: Medical Education and Professionalization in the Nineteenth-Century South.</em></li></ul><h2 class=\"MsoNormal\"><br>2018-2019</h2><ul><li>Jonathan Jones, Ph.D. candidate, Binghamton University, History Department, for dissertation research on “A Mind Prostrate:” Physicians, Opiates, and Insanity in the Civil War's Aftermath.</li><li>Amanda Stuckey, Ph.D., York College, English and Humanities Department, for research on \"A History of Access: Medicine, Education, and Disability during the Long Nineteenth Century.\"</li><li>Wenrui Zhao, Ph.D. candidate, Columbia University, History Department, for dissertation research on “Dissecting Sight: Eye Surgery and Vision in Early Modern Europe.”&nbsp;</li></ul><h2>2017-2018</h2><h2 class=\"MsoNormal\"></h2><ul><li>Lisa Guinn, Ph.D., Department of History &amp; Political Science, Bethany College, for researching the motivation of women who worked in nursing, sanitary work, and the special diet kitchens during the Civil War.</li><li>Marjorie Lorch, Ph.D., Applied&nbsp;Linguistics and&nbsp;Communication, School of Social&nbsp;Sciences, History and Philosophy, Birkbeck, University of London, for “The Long View of Language Localization.”</li><li>Mallory Szymanski, Ph.D. candidate,&nbsp;Department of&nbsp;History, University of Florida, for her work “Medical absolution in the clinic: Erasing sexual indiscretion with a neurasthenia diagnosis in the&nbsp;Gilded Age.”</li></ul><h2></h2><h2 class=\"MsoNormal\">2016-2017</h2><ul><li>Cecilio Cooper, PhD candidate in the Department of African American Studies, Northwestern University for dissertation research on “Phantom Limbs, Fugitive Flesh: Slavery + Colonial Dissection.”</li><li>Sara Kern, PhD candidate in History &amp; Women's, Gender, and Sexuality Studies, Penn State University, for dissertation work on “Measuring Bodies, Defining Health: Medicine, Statistics, and Civil War Legacy in the Nineteenth-Century America.”&nbsp;</li><li>Professor Kim Nielsen, Disability Studies &amp; History, University of Toledo, for research on her book, The Doctress and the Horsewhip, a biography of Dr. Anna B. Ott (1819-1893).<o:p style=\"font-size: 1.385em; font-weight: bold;\">&nbsp;</o:p>&nbsp;</li></ul><h2 class=\"MsoNormal\">2015-2016</h2><ul><li>Lindsey Beal, MFA, for photographic research on late nineteenth and early twentieth century obstetric and gynecological instruments.&nbsp;</li><li>Elaine LaFay, PhD candidate in History and Sociology of Science, University of Pennsylvania, for dissertation work on “Weathered Bodies, Sickly Lands: Climate, Health, and Place in the Antebellum Gulf South.”</li><li><o:p style=\"font-size: 13.008px;\">&nbsp;</o:p>Jaipreet Virdi-Dhesi, PhD, for work on “Deafness is Misery: Advertised Cures for Hearing Loss in Early 20th Century America.”</li></ul><h2 class=\"MsoNormal\">2014-2015</h2><ul><li>Cali Buckley, Pennsylvania State University, Department of Art History, for dissertation work on, “Women of Substance: The Materiality of Anatomical Models and the Control of Women’s Medicine in Early Modern Europe.”<span style=\"font-size: 13.008px;\" data-mce-mark=\"1\">&nbsp;</span></li><li>Alicia Puglionesi, Johns Hopkins University, Institute of the History of Medicine, for dissertation work on “The Astonishment of Experience: Americans and Psychical Research, 1885-1935.”</li><li>Courtney Thompson, Yale University, Department of the History of Science and Medicine, for dissertation work on “Criminal Minds: Medicine, Law, and the Phrenological Impulse in America, 1830-1890.”</li></ul><p class=\"MsoNormal\"></p><p class=\"MsoNormal\"></p>",
      "deleted" : 0,
      "body_format" : "full_html",
      "revision_id" : 17003,
      "langcode" : "und",
      "bundle" : "page",
      "entity_id" : 547,
      "delta" : 0,
      "body_summary" : ""
   }
}

