{
   "node__body" : {
      "deleted" : 0,
      "body_format" : "full_html",
      "langcode" : "und",
      "revision_id" : 15879,
      "body_value" : "<p>We have standalone document cameras (<a href=\"http://www.thehovercam.com/solo8\">HoverCams</a>) available for researchers to use in our reading room. HoverCams attach to your Mac or Windows computer and allow you to take photographs of archival material and save them directly to your laptop.</p><p>Print copies of directions are also available in our reading room.</p><h3>Directions for Windows Users</h3><p><a href=\"/rubenstein/sites/default/files/rubenstein/users/kate.collins/HoverCam_Install_Windows.pdf\">Installing the HoverCam Software</a> (PDF)</p><p><a href=\"/rubenstein/sites/default/files/rubenstein/users/kate.collins/Hovercam_Using_Windows.pdf\">Using the HoverCam</a> (PDF)</p><h3>Directions for Mac Users</h3><p><a href=\"/rubenstein/sites/default/files/rubenstein/users/kate.collins/Hovercam_Install_Mac.pdf\">Installing the HoverCam Software</a> (PDF)</p><p><a href=\"/rubenstein/sites/default/files/rubenstein/users/kate.collins/HoverCam_Using_Mac.pdf\">Using the HoverCam</a> (PDF)</p><p></p>",
      "delta" : 0,
      "body_summary" : "",
      "entity_id" : 641,
      "bundle" : "page"
   },
   "langcode" : "und",
   "field_tags" : [],
   "type" : "page",
   "node_access" : null,
   "asidebox" : {
      "block_delta" : null,
      "status" : "disabled",
      "body_value" : null,
      "vid" : 15879,
      "block_module" : null,
      "body_format" : null,
      "nid" : 641,
      "bid" : null,
      "body_title" : ""
   },
   "node_field_data" : {
      "title" : "Using HoverCams",
      "promote" : 0,
      "revision_translation_affected" : 1,
      "created" : 1467996419,
      "uid" : 1,
      "default_langcode" : 1,
      "langcode" : "und",
      "status" : 1,
      "type" : "page",
      "changed" : null,
      "sticky" : 0
   },
   "revisions" : [
      {
         "timestamp" : 1587406723,
         "comment" : 1,
         "sticky" : 0,
         "node_revision__field_tags" : [],
         "node_revision__body" : {
            "revision_id" : 15879,
            "langcode" : "und",
            "deleted" : 0,
            "body_format" : "full_html",
            "body_value" : "<p>We have standalone document cameras (<a href=\"http://www.thehovercam.com/solo8\">HoverCams</a>) available for researchers to use in our reading room. HoverCams attach to your Mac or Windows computer and allow you to take photographs of archival material and save them directly to your laptop.</p><p>Print copies of directions are also available in our reading room.</p><h3>Directions for Windows Users</h3><p><a href=\"/rubenstein/sites/default/files/rubenstein/users/kate.collins/HoverCam_Install_Windows.pdf\">Installing the HoverCam Software</a> (PDF)</p><p><a href=\"/rubenstein/sites/default/files/rubenstein/users/kate.collins/Hovercam_Using_Windows.pdf\">Using the HoverCam</a> (PDF)</p><h3>Directions for Mac Users</h3><p><a href=\"/rubenstein/sites/default/files/rubenstein/users/kate.collins/Hovercam_Install_Mac.pdf\">Installing the HoverCam Software</a> (PDF)</p><p><a href=\"/rubenstein/sites/default/files/rubenstein/users/kate.collins/HoverCam_Using_Mac.pdf\">Using the HoverCam</a> (PDF)</p><p></p>",
            "body_summary" : "",
            "delta" : 0,
            "bundle" : "page",
            "entity_id" : 641
         },
         "status" : 1,
         "promote" : 0,
         "title" : "Using HoverCams",
         "field_revision" : {
            "status" : 1,
            "changed" : null,
            "sticky" : 0,
            "revision_translation_affected" : 1,
            "created" : null,
            "uid" : 1,
            "default_langcode" : 1,
            "langcode" : null,
            "title" : "Using HoverCams"
         },
         "vuuid" : "dbb52633-610b-4bad-b35d-d79e44dcc22a",
         "uid" : 11,
         "log" : ""
      }
   ],
   "nid" : "641",
   "uuid" : "ffa327c2-e78f-4f2d-b7c4-891b0048a0e2",
   "vid" : 15879,
   "path_alias" : {
      "langcode" : "und",
      "pid" : 755,
      "alias" : "/research/readingroom/hovercams",
      "language" : "und",
      "status" : 0
   },
   "field_image" : null
}

