{
   "fid" : 455,
   "uuid" : "06645a1a-d170-45b7-ad2c-b688f293a3f0",
   "filename" : "carol-terry-teal2_0.jpg",
   "uid" : 17,
   "filemime" : "image/jpeg",
   "uri" : "public://users/danette.pachtner/carol-terry-teal2_0.jpg",
   "status" : 1,
   "filesize" : 36033,
   "timestamp" : 1498245112,
   "type" : "image"
}
