{
   "filesize" : 7517,
   "timestamp" : 1374498260,
   "type" : "image",
   "filename" : "WarLoveKabul2_0.jpg",
   "fid" : 213,
   "uid" : 10,
   "uuid" : "08d687ae-de91-4ec7-8038-bf779e8aa478",
   "filemime" : "image/jpeg",
   "status" : 1,
   "uri" : "public://lilly-video-images/WarLoveKabul2_0.jpg"
}
