{
   "uri" : "public://lilly-video-images/boyz-n-the-hood_0.jpg",
   "status" : 1,
   "fid" : 53,
   "uuid" : "0951eac1-c17f-4a84-a60d-0115842a8122",
   "filename" : "boyz-n-the-hood_0.jpg",
   "uid" : 10,
   "filemime" : "image/jpeg",
   "type" : "image",
   "timestamp" : 1374165498,
   "filesize" : 8455
}
