{
   "filemime" : "image/jpeg",
   "filename" : "arsenal_0.jpg",
   "fid" : 20,
   "uid" : 10,
   "uuid" : "09e44842-bebb-4814-bef7-be8573792f50",
   "uri" : "public://lilly-video-images/arsenal_0.jpg",
   "status" : 1,
   "filesize" : 5421,
   "timestamp" : 1374160426,
   "type" : "image"
}
