{
   "timestamp" : 1401827044,
   "type" : "image",
   "filesize" : 13911,
   "uri" : "public://users/danette.pachtner/Pina.jpg",
   "status" : 1,
   "filemime" : "image/jpeg",
   "fid" : 357,
   "uuid" : "0ab72a99-080b-4926-b004-aeb44da86307",
   "filename" : "Pina.jpg",
   "uid" : 17
}
