{
   "filesize" : 4864,
   "timestamp" : 1405017484,
   "type" : "image",
   "filemime" : "image/jpeg",
   "fid" : 367,
   "uuid" : "10d0adff-6772-49e2-a877-769a33cc8e5d",
   "filename" : "Nathaniel Brown DSC_4425a_0.jpg",
   "uid" : 16,
   "status" : 1,
   "uri" : "public://users/lauren.crowell/Nathaniel Brown DSC_4425a_0.jpg"
}
