{
   "type" : "image",
   "timestamp" : 1404238383,
   "filesize" : 100887,
   "uri" : "public://users/danette.pachtner/Joe.jpg",
   "status" : 1,
   "filemime" : "image/jpeg",
   "fid" : 361,
   "uuid" : "1469b4a3-d80f-497a-ab35-e3369dc6ee3d",
   "filename" : "Joe.jpg",
   "uid" : 17
}
