{
   "filemime" : "image/jpeg",
   "fid" : 142,
   "uid" : 10,
   "filename" : "houseisblack2_0.jpg",
   "uuid" : "15bc8cc6-e91d-4e59-91bd-7b94ee48fda8",
   "uri" : "public://lilly-video-images/houseisblack2_0.jpg",
   "status" : 1,
   "filesize" : 5470,
   "timestamp" : 1374249599,
   "type" : "image"
}
