{
   "uuid" : "176fc867-a302-43f0-a942-a9692b389aae",
   "fid" : 337,
   "filename" : "FreeRadicals.jpg",
   "uid" : 17,
   "filemime" : "image/jpeg",
   "status" : 1,
   "uri" : "public://users/danette.pachtner/FreeRadicals.jpg",
   "filesize" : 114276,
   "timestamp" : 1379084800,
   "type" : "image"
}
