{
   "uri" : "public://users/danette.pachtner/film reels.jpg",
   "status" : 1,
   "fid" : 292,
   "uuid" : "1c44d494-3b2c-485d-bd6b-b7c316907485",
   "filename" : "film reels.jpg",
   "uid" : 17,
   "filemime" : "image/jpeg",
   "type" : "image",
   "timestamp" : 1378914833,
   "filesize" : 7051
}
