{
   "filesize" : 12627,
   "type" : "image",
   "timestamp" : 1374172558,
   "filemime" : "image/jpeg",
   "filename" : "hoopdreams_0.jpg",
   "fid" : 92,
   "uid" : 10,
   "uuid" : "2876263b-77f0-4ab0-802c-3a1104ddbbae",
   "uri" : "public://lilly-video-images/hoopdreams_0.jpg",
   "status" : 1
}
