{
   "status" : 1,
   "uri" : "public://lilly-video-images/underworld_0.jpg",
   "filemime" : "image/jpeg",
   "fid" : 253,
   "filename" : "underworld_0.jpg",
   "uuid" : "2d1a2dc4-5c01-47c4-b4d4-2af353ba8afd",
   "uid" : 10,
   "type" : "image",
   "timestamp" : 1374502816,
   "filesize" : 6826
}
