{
   "filesize" : 9628,
   "timestamp" : 1379081717,
   "type" : "image",
   "filemime" : "image/jpeg",
   "uuid" : "2df92a5f-03d8-4336-aec8-abe11ab2b45a",
   "fid" : 315,
   "filename" : "SciFi.jpg",
   "uid" : 17,
   "uri" : "public://users/danette.pachtner/SciFi.jpg",
   "status" : 1
}
