{
   "filesize" : 5684,
   "type" : "image",
   "timestamp" : 1374255708,
   "fid" : 154,
   "uid" : 10,
   "filename" : "brokeback_0.jpg",
   "uuid" : "2e5a5197-b94f-4659-83a9-c847ffe27c58",
   "filemime" : "image/jpeg",
   "uri" : "public://lilly-video-images/brokeback_0.jpg",
   "status" : 1
}
