{
   "uri" : "public://lilly-video-images/AllorNothing_0.jpg",
   "status" : 1,
   "uuid" : "2fd490d1-5a18-4199-85f8-236316181b3f",
   "fid" : 179,
   "filename" : "AllorNothing_0.jpg",
   "uid" : 10,
   "filemime" : "image/jpeg",
   "timestamp" : 1374261138,
   "type" : "image",
   "filesize" : 7668
}
