{
   "filesize" : 7314,
   "type" : "image",
   "timestamp" : 1374256846,
   "filename" : "taxi-driver_0.jpg",
   "fid" : 166,
   "uuid" : "3300e435-cfe0-48be-b75f-596daaa8c798",
   "uid" : 10,
   "filemime" : "image/jpeg",
   "status" : 1,
   "uri" : "public://lilly-video-images/taxi-driver_0.jpg"
}
