{
   "status" : 1,
   "uri" : "public://lilly-other/lilly_level2.jpg",
   "filemime" : "image/jpeg",
   "filename" : "lilly_level2.jpg",
   "fid" : 407,
   "uid" : 4,
   "uuid" : "345f377c-018d-425c-960d-8db203717ced",
   "type" : "image",
   "timestamp" : 1476883930,
   "filesize" : 51088
}
