{
   "timestamp" : 1374500836,
   "type" : "image",
   "filesize" : 4758,
   "status" : 1,
   "uri" : "public://lilly-video-images/wait-till-dark_0.jpg",
   "fid" : 237,
   "filename" : "wait-till-dark_0.jpg",
   "uuid" : "3597bee6-b1e1-474d-94b5-2a419932af45",
   "uid" : 10,
   "filemime" : "image/jpeg"
}
