{
   "filemime" : "image/jpeg",
   "uuid" : "37cb4d25-bc6d-46d5-8280-2c02992c7781",
   "fid" : 135,
   "filename" : "maurice_0.jpg",
   "uid" : 10,
   "status" : 1,
   "uri" : "public://lilly-video-images/maurice_0.jpg",
   "filesize" : 6805,
   "type" : "image",
   "timestamp" : 1374248576
}
