{
   "filemime" : "image/jpeg",
   "uuid" : "3b2068e9-026f-4abf-a370-156df5dc8d32",
   "fid" : 323,
   "filename" : "ShadowofAghanistan.jpg",
   "uid" : 17,
   "status" : 1,
   "uri" : "public://users/danette.pachtner/ShadowofAghanistan.jpg",
   "filesize" : 8382,
   "timestamp" : 1379083173,
   "type" : "image"
}
