{
   "timestamp" : 1374233685,
   "type" : "image",
   "filesize" : 7080,
   "status" : 1,
   "uri" : "public://lilly-video-images/highnoon2_0.jpg",
   "filemime" : "image/jpeg",
   "fid" : 98,
   "uuid" : "3d54d716-bfca-48cf-a2fb-98189eeb21fb",
   "filename" : "highnoon2_0.jpg",
   "uid" : 10
}
