{
   "uri" : "public://users/sarah griffin/blue_and_white_devil-300px.jpg",
   "status" : 1,
   "fid" : 305,
   "filename" : "blue_and_white_devil-300px.jpg",
   "uid" : 7,
   "uuid" : "4671fd86-13fc-4963-97fe-46e680203300",
   "filemime" : "image/jpeg",
   "timestamp" : 1378996560,
   "type" : "image",
   "filesize" : 52890
}
