{
   "filesize" : 6121,
   "timestamp" : 1374502006,
   "type" : "image",
   "filemime" : "image/jpeg",
   "fid" : 247,
   "filename" : "sink-or-swim_0.jpg",
   "uuid" : "4ba8d2ea-54cd-4664-b686-31e60be6e39d",
   "uid" : 10,
   "uri" : "public://lilly-video-images/sink-or-swim_0.jpg",
   "status" : 1
}
