{
   "filemime" : "image/jpeg",
   "filename" : "holloway-carson.jpg",
   "fid" : 278,
   "uid" : 16,
   "uuid" : "4c7dff00-cc18-4953-b62c-d7259dec6342",
   "status" : 1,
   "uri" : "public://users/lauren.crowell/holloway-carson.jpg",
   "filesize" : 9745,
   "timestamp" : 1377534699,
   "type" : "image"
}
