{
   "filemime" : "image/jpeg",
   "filename" : "newkelley.jpg",
   "fid" : 423,
   "uid" : 17,
   "uuid" : "4f89dff4-457e-4deb-b9ca-204e0b7b4092",
   "status" : 1,
   "uri" : "public://users/danette.pachtner/newkelley.jpg",
   "filesize" : 97524,
   "timestamp" : 1498169414,
   "type" : "image"
}
