{
   "status" : 1,
   "uri" : "public://lilly-video-images/funny_games_0.jpg",
   "filemime" : "image/jpeg",
   "fid" : 238,
   "filename" : "funny_games_0.jpg",
   "uuid" : "5138ce5c-b5a8-4591-8dd0-7c37d0a7a85f",
   "uid" : 10,
   "type" : "image",
   "timestamp" : 1374500875,
   "filesize" : 6217
}
