{
   "filemime" : "image/png",
   "fid" : 313,
   "filename" : "book.png",
   "uuid" : "57562300-884a-48ab-8473-fc18a2fb01ff",
   "uid" : 3,
   "status" : 1,
   "uri" : "public://music/book.png",
   "filesize" : 593,
   "timestamp" : 1379020759,
   "type" : "image"
}
