{
   "filesize" : 2334,
   "type" : "image",
   "timestamp" : 1498171797,
   "fid" : 441,
   "filename" : "small_carol-terry-teal_0.jpg",
   "uuid" : "5ae7c647-697d-426a-ac70-a50aed0dcdb9",
   "uid" : 17,
   "filemime" : "image/jpeg",
   "uri" : "public://users/danette.pachtner/small_carol-terry-teal_0.jpg",
   "status" : 1
}
