{
   "filemime" : "image/jpeg",
   "fid" : 117,
   "uid" : 10,
   "filename" : "miracle-on-34th-street_0.jpg",
   "uuid" : "6bf4c39d-15e8-44de-a17a-8515ed9675f6",
   "uri" : "public://lilly-video-images/miracle-on-34th-street_0.jpg",
   "status" : 1,
   "filesize" : 8616,
   "type" : "image",
   "timestamp" : 1374245955
}
