{
   "filesize" : 8817,
   "timestamp" : 1374246412,
   "type" : "image",
   "uid" : 10,
   "fid" : 126,
   "filename" : "home-alone_0.jpg",
   "uuid" : "6d592f29-01ad-40a4-8e82-2f7b87413533",
   "filemime" : "image/jpeg",
   "status" : 1,
   "uri" : "public://lilly-video-images/home-alone_0.jpg"
}
