{
   "filesize" : 8265,
   "type" : "image",
   "timestamp" : 1374161558,
   "filemime" : "image/jpeg",
   "fid" : 27,
   "filename" : "mockingbird4_0.jpg",
   "uuid" : "6e814107-8e28-49e7-aa87-541e21afcc00",
   "uid" : 10,
   "status" : 1,
   "uri" : "public://lilly-video-images/mockingbird4_0.jpg"
}
