{
   "filesize" : 4753,
   "timestamp" : 1374494459,
   "type" : "image",
   "uid" : 10,
   "fid" : 191,
   "filename" : "sawdustandtinsel_0.jpg",
   "uuid" : "6fb50835-6f5e-4757-b9c2-553d84e69c83",
   "filemime" : "image/jpeg",
   "uri" : "public://lilly-video-images/sawdustandtinsel_0.jpg",
   "status" : 1
}
