{
   "status" : 1,
   "uri" : "public://lilly-video-images/itcamefrombeneaththesea_0.jpg",
   "fid" : 176,
   "filename" : "itcamefrombeneaththesea_0.jpg",
   "uuid" : "71588fba-666e-43fa-b550-63a569e9f426",
   "uid" : 10,
   "filemime" : "image/jpeg",
   "timestamp" : 1374260821,
   "type" : "image",
   "filesize" : 8806
}
