{
   "uri" : "public://music/miniscore.png",
   "status" : 1,
   "uuid" : "77711d95-192a-4382-b35a-68c4252675c5",
   "fid" : 314,
   "filename" : "miniscore.png",
   "uid" : 3,
   "filemime" : "image/png",
   "type" : "image",
   "timestamp" : 1379020793,
   "filesize" : 1394
}
