{
   "filemime" : "image/jpeg",
   "uid" : 10,
   "fid" : 230,
   "filename" : "patriotism_0.jpg",
   "uuid" : "7b873d01-3d54-49b3-8b0c-c6d40545948c",
   "uri" : "public://lilly-video-images/patriotism_0.jpg",
   "status" : 1,
   "filesize" : 4678,
   "type" : "image",
   "timestamp" : 1374500224
}
