{
   "status" : 1,
   "uri" : "public://lilly-video-images/vera_drake_001.jpg",
   "filename" : "vera_drake_001.jpg",
   "fid" : 181,
   "uuid" : "7ec7fd17-5f2e-4297-a318-f2b65405835f",
   "uid" : 10,
   "filemime" : "image/jpeg",
   "type" : "image",
   "timestamp" : 1374261408,
   "filesize" : 24973
}
