{
   "uid" : 5,
   "fid" : 343,
   "filename" : "Blue-Devilish-Postcard-Photo-webpage.jpg",
   "uuid" : "8095c862-8d3c-472a-a0df-003da0cc61b1",
   "filemime" : "image/jpeg",
   "status" : 1,
   "uri" : "public://users/carol terry/Blue-Devilish-Postcard-Photo-webpage.jpg",
   "filesize" : 61335,
   "type" : "image",
   "timestamp" : 1392907967
}
