{
   "timestamp" : 1374240540,
   "type" : "image",
   "filesize" : 7067,
   "status" : 1,
   "uri" : "public://lilly-video-images/seven_samurai_0.jpg",
   "filemime" : "image/jpeg",
   "fid" : 107,
   "uuid" : "80f3a3de-d45c-46c7-89ec-3850d506d446",
   "filename" : "seven_samurai_0.jpg",
   "uid" : 10
}
