{
   "timestamp" : 1374161623,
   "type" : "image",
   "filesize" : 16163,
   "uri" : "public://lilly-video-images/kiki01_0.jpg",
   "status" : 1,
   "uid" : 10,
   "fid" : 28,
   "filename" : "kiki01_0.jpg",
   "uuid" : "83099c23-a4d3-4481-bf36-ceabe16d7178",
   "filemime" : "image/jpeg"
}
