{
   "filesize" : 7137,
   "timestamp" : 1373987322,
   "type" : "image",
   "filename" : "Hydrangeas_0.jpg",
   "fid" : 5,
   "uuid" : "83c1fa32-fa14-41de-907d-53feaa6727f9",
   "uid" : 4,
   "filemime" : "image/jpeg",
   "uri" : "public://Hydrangeas_0.jpg",
   "status" : 1
}
