{
   "filemime" : "image/jpeg",
   "uuid" : "83c60323-f41d-44c7-a19b-7229d2455681",
   "fid" : 16,
   "filename" : "la_femme_nikita.jpg",
   "uid" : 10,
   "status" : 1,
   "uri" : "public://lilly-video-images/la_femme_nikita.jpg",
   "filesize" : 76138,
   "type" : "image",
   "timestamp" : 1374147024
}
