{
   "filemime" : "image/jpeg",
   "filename" : "BishopsWife_0.jpg",
   "fid" : 124,
   "uid" : 10,
   "uuid" : "85515eab-516a-4792-98c1-111668ffdb6d",
   "status" : 1,
   "uri" : "public://lilly-video-images/BishopsWife_0.jpg",
   "filesize" : 6769,
   "timestamp" : 1374246324,
   "type" : "image"
}
