{
   "status" : 1,
   "uri" : "public://users/carol terry/lilly032A_0.jpg",
   "filemime" : "image/jpeg",
   "filename" : "lilly032A_0.jpg",
   "fid" : 284,
   "uuid" : "87f2a306-2133-4324-9609-19e13730484f",
   "uid" : 5,
   "type" : "image",
   "timestamp" : 1377799642,
   "filesize" : 92660
}
