{
   "filesize" : 4030,
   "timestamp" : 1374168263,
   "type" : "image",
   "filemime" : "image/jpeg",
   "filename" : "LateSpring2_0.jpg",
   "fid" : 61,
   "uid" : 10,
   "uuid" : "90184f92-ae66-4924-8b35-c29792498b9e",
   "uri" : "public://lilly-video-images/LateSpring2_0.jpg",
   "status" : 1
}
