{
   "fid" : 359,
   "uuid" : "93101b2a-efe2-47a0-aa08-85bef25aead8",
   "filename" : "medium_Pina.jpg",
   "uid" : 17,
   "filemime" : "image/jpeg",
   "status" : 1,
   "uri" : "public://users/danette.pachtner/medium_Pina.jpg",
   "filesize" : 3040,
   "type" : "image",
   "timestamp" : 1401827044
}
