{
   "filemime" : "image/jpeg",
   "uuid" : "971263b4-03bc-4091-8015-06b8e07c4b74",
   "fid" : 328,
   "filename" : "sml_listener.jpg",
   "uid" : 7,
   "uri" : "public://users/sarah griffin/sml_listener.jpg",
   "status" : 1,
   "filesize" : 5573,
   "timestamp" : 1379083274,
   "type" : "image"
}
