{
   "type" : "image",
   "timestamp" : 1374164143,
   "filesize" : 6020,
   "status" : 1,
   "uri" : "public://lilly-video-images/trash_0.jpg",
   "filemime" : "image/jpeg",
   "uuid" : "97ca3394-f223-4b94-82c3-e0e97c2c039e",
   "fid" : 43,
   "filename" : "trash_0.jpg",
   "uid" : 10
}
