{
   "status" : 1,
   "uri" : "public://lilly-video-images/underworld.jpg",
   "filemime" : "image/jpeg",
   "fid" : 17,
   "filename" : "underworld.jpg",
   "uid" : 10,
   "uuid" : "9cd8cddc-f442-4968-9b24-8eb3f053afb7",
   "timestamp" : 1374147051,
   "type" : "image",
   "filesize" : 170798
}
