{
   "filemime" : "image/jpeg",
   "uid" : 10,
   "fid" : 241,
   "filename" : "hurtlocker_0.jpg",
   "uuid" : "9d37bab4-7a3a-4229-8722-cab5a41bc547",
   "status" : 1,
   "uri" : "public://lilly-video-images/hurtlocker_0.jpg",
   "filesize" : 6802,
   "type" : "image",
   "timestamp" : 1374501649
}
