{
   "type" : "image",
   "timestamp" : 1466787323,
   "filesize" : 3559,
   "uri" : "public://users/danette.pachtner/medium_deadpool.jpg",
   "status" : 1,
   "filename" : "medium_deadpool.jpg",
   "fid" : 387,
   "uid" : 17,
   "uuid" : "a5edeb6d-0d3c-4f19-94c2-a396b945c438",
   "filemime" : "image/jpeg"
}
