{
   "status" : 1,
   "uri" : "public://users/sarah griffin/medium_ML-Main Floor.jpg",
   "filename" : "medium_ML-Main Floor.jpg",
   "fid" : 377,
   "uuid" : "a67f01e1-a13f-4b53-b0c0-eab792da7758",
   "uid" : 7,
   "filemime" : "image/jpeg",
   "timestamp" : 1466784707,
   "type" : "image",
   "filesize" : 2773
}
