{
   "fid" : 185,
   "filename" : "combatdiary_0.jpg",
   "uid" : 10,
   "uuid" : "a7e89454-5884-45f3-99b0-4a81c674006f",
   "filemime" : "image/jpeg",
   "uri" : "public://lilly-video-images/combatdiary_0.jpg",
   "status" : 1,
   "filesize" : 7080,
   "timestamp" : 1374493662,
   "type" : "image"
}
