{
   "type" : "image",
   "timestamp" : 1379082353,
   "filesize" : 6187,
   "uri" : "public://users/danette.pachtner/Devil'sBackbone.jpg",
   "status" : 1,
   "filemime" : "image/jpeg",
   "fid" : 319,
   "filename" : "Devil'sBackbone.jpg",
   "uid" : 17,
   "uuid" : "aaa32506-b464-40db-aa9e-94e885f3f19d"
}
