{
   "filesize" : 5540,
   "timestamp" : 1374502709,
   "type" : "image",
   "fid" : 250,
   "filename" : "avalon_0.jpg",
   "uuid" : "b7e1f671-e8f6-45a4-803f-b36947f14aa3",
   "uid" : 10,
   "filemime" : "image/jpeg",
   "status" : 1,
   "uri" : "public://lilly-video-images/avalon_0.jpg"
}
