{
   "uuid" : "b92cbab8-6a85-4498-9557-21ee92bb5aff",
   "fid" : 119,
   "filename" : "howthegrinch_0.jpg",
   "uid" : 10,
   "filemime" : "image/jpeg",
   "status" : 1,
   "uri" : "public://lilly-video-images/howthegrinch_0.jpg",
   "filesize" : 7277,
   "timestamp" : 1374246073,
   "type" : "image"
}
