{
   "uri" : "public://lilly-video-images/paperchasers_0.jpg",
   "status" : 1,
   "fid" : 57,
   "filename" : "paperchasers_0.jpg",
   "uid" : 10,
   "uuid" : "bd12ecba-17e1-412e-b6c9-21d26f04e766",
   "filemime" : "image/jpeg",
   "type" : "image",
   "timestamp" : 1374166308,
   "filesize" : 8053
}
