{
   "status" : 1,
   "uri" : "public://users/danette.pachtner/large_Devil'sBackbone.jpg",
   "filemime" : "image/jpeg",
   "fid" : 320,
   "filename" : "large_Devil'sBackbone.jpg",
   "uuid" : "c4abce99-2dce-451c-9406-026162e39cb0",
   "uid" : 17,
   "timestamp" : 1379082353,
   "type" : "image",
   "filesize" : 4494
}
