{
   "filesize" : 7266,
   "timestamp" : 1374171278,
   "type" : "image",
   "filemime" : "image/jpeg",
   "filename" : "Times_of_Harvey_Milk_0.jpg",
   "fid" : 77,
   "uuid" : "c8f8b753-6bf3-45ab-965a-f769d822210f",
   "uid" : 10,
   "uri" : "public://lilly-video-images/Times_of_Harvey_Milk_0.jpg",
   "status" : 1
}
