{
   "timestamp" : 1374494195,
   "type" : "image",
   "filesize" : 4764,
   "uri" : "public://lilly-video-images/seventh_seal_0.jpg",
   "status" : 1,
   "filemime" : "image/jpeg",
   "fid" : 190,
   "filename" : "seventh_seal_0.jpg",
   "uid" : 10,
   "uuid" : "c96e24f7-9f37-415e-90ab-2ecc7e28d775"
}
