{
   "filesize" : 5022,
   "timestamp" : 1374240082,
   "type" : "image",
   "filemime" : "image/jpeg",
   "fid" : 101,
   "uid" : 10,
   "filename" : "Black-Girl_0.jpg",
   "uuid" : "ca4714e1-7712-4b98-b60f-65d8a072b031",
   "uri" : "public://lilly-video-images/Black-Girl_0.jpg",
   "status" : 1
}
