{
   "type" : "undefined",
   "timestamp" : 1372276123,
   "filesize" : 595284,
   "status" : 1,
   "uri" : "public://Hydrangeas.jpg",
   "filemime" : "image/jpeg",
   "filename" : "Hydrangeas.jpg",
   "fid" : 2,
   "uid" : 4,
   "uuid" : "cb45e9f6-7faa-4037-a6e4-70c0e5ec2cee"
}
