{
   "filesize" : 9594,
   "type" : "image",
   "timestamp" : 1374169196,
   "uid" : 10,
   "fid" : 65,
   "filename" : "barbarella_0.jpg",
   "uuid" : "cdb531b0-9d9e-4f02-abce-62341dd75fe4",
   "filemime" : "image/jpeg",
   "status" : 1,
   "uri" : "public://lilly-video-images/barbarella_0.jpg"
}
