{
   "timestamp" : 1379081717,
   "type" : "image",
   "filesize" : 6877,
   "status" : 1,
   "uri" : "public://users/danette.pachtner/large_SciFi.jpg",
   "uuid" : "cdc25c59-7777-4899-a91b-8777867b32df",
   "fid" : 316,
   "filename" : "large_SciFi.jpg",
   "uid" : 17,
   "filemime" : "image/jpeg"
}
