{
   "filesize" : 256014,
   "timestamp" : 1374261341,
   "type" : "image",
   "uuid" : "d22ca4fd-6309-4373-86c1-03b7f265e7ce",
   "fid" : 180,
   "filename" : "veradrake_0.jpg",
   "uid" : 10,
   "filemime" : "image/jpeg",
   "status" : 1,
   "uri" : "public://lilly-video-images/veradrake_0.jpg"
}
