{
   "timestamp" : 1379083261,
   "type" : "image",
   "filesize" : 44752,
   "uri" : "public://users/sarah griffin/website3.jpg",
   "status" : 1,
   "filemime" : "image/jpeg",
   "filename" : "website3.jpg",
   "fid" : 327,
   "uid" : 7,
   "uuid" : "d2aa6b13-ca18-48dc-8fb1-71d6149bb7ea"
}
