{
   "filesize" : 7711,
   "type" : "image",
   "timestamp" : 1374255661,
   "uid" : 10,
   "fid" : 153,
   "filename" : "fivehundreddaysofsummer_0.jpg",
   "uuid" : "d4a5817a-804c-4e14-bd3d-07608bfd5ba5",
   "filemime" : "image/jpeg",
   "uri" : "public://lilly-video-images/fivehundreddaysofsummer_0.jpg",
   "status" : 1
}
