{
   "fid" : 177,
   "uid" : 10,
   "filename" : "forbidden-planet_0.jpg",
   "uuid" : "e28d9dc8-3659-4ebb-a953-44a64a4b9ea3",
   "filemime" : "image/jpeg",
   "uri" : "public://lilly-video-images/forbidden-planet_0.jpg",
   "status" : 1,
   "filesize" : 9592,
   "timestamp" : 1374260885,
   "type" : "image"
}
