{
   "filesize" : 347554,
   "type" : "image",
   "timestamp" : 1381503147,
   "filemime" : "image/jpeg",
   "uid" : 3,
   "fid" : 341,
   "filename" : "Thomas-Room-Fall-2012.jpg",
   "uuid" : "e47ccbc6-b3e3-4666-9791-a456027400bb",
   "uri" : "public://lilly-other/Thomas-Room-Fall-2012.jpg",
   "status" : 1
}
