{
   "timestamp" : 1374495114,
   "type" : "image",
   "filesize" : 8791,
   "uri" : "public://lilly-video-images/american-pop1_0.jpg",
   "status" : 1,
   "filemime" : "image/jpeg",
   "uid" : 10,
   "fid" : 196,
   "filename" : "american-pop1_0.jpg",
   "uuid" : "e697265a-1b28-4cce-8508-ac1484b1c304"
}
