{
   "timestamp" : 1517588801,
   "type" : "undefined",
   "filesize" : 2718,
   "status" : 1,
   "uri" : "public://users/danette.pachtner/small_Dunkirk_1.jpg",
   "filemime" : "image/jpeg",
   "uuid" : "e718e4a0-edb0-4325-b08d-6750a35f2ab7",
   "fid" : 481,
   "filename" : "small_Dunkirk_1.jpg",
   "uid" : 17
}
