{
   "uri" : "public://lilly-video-images/dear-america_0.jpg",
   "status" : 1,
   "filemime" : "image/jpeg",
   "fid" : 73,
   "uid" : 10,
   "filename" : "dear-america_0.jpg",
   "uuid" : "ed5e4739-93ff-43c6-969e-fa2e7bfc508c",
   "type" : "image",
   "timestamp" : 1374169851,
   "filesize" : 8407
}
