{
   "fid" : 333,
   "uid" : 7,
   "filename" : "microform-small.jpg",
   "uuid" : "ed6c7cf7-43f5-4b93-947d-3c54d6c8cb4f",
   "filemime" : "image/jpeg",
   "uri" : "public://users/sarah griffin/microform-small.jpg",
   "status" : 1,
   "filesize" : 25745,
   "timestamp" : 1379084095,
   "type" : "image"
}
