{
   "timestamp" : 1466787514,
   "type" : "image",
   "filesize" : 3574,
   "status" : 1,
   "uri" : "public://users/danette.pachtner/zoolander_1.jpg",
   "filename" : "zoolander_1.jpg",
   "fid" : 395,
   "uid" : 17,
   "uuid" : "f679581a-234c-448b-ba13-fabb6309f154",
   "filemime" : "image/jpeg"
}
