{
   "uri" : "public://lilly-video-images/christmas-in-connecticut_0.jpg",
   "status" : 1,
   "fid" : 115,
   "filename" : "christmas-in-connecticut_0.jpg",
   "uid" : 10,
   "uuid" : "f9b3b3dc-c26f-496c-abef-97df35977ffd",
   "filemime" : "image/jpeg",
   "type" : "image",
   "timestamp" : 1374241339,
   "filesize" : 8286
}
