{
   "filename" : "11-9-1929chronicle.pdf",
   "filemime" : "application/pdf",
   "uuid" : "00e26a22-4386-4cfd-aa7a-57633ba38e32",
   "timestamp" : 1517327492,
   "status" : 1,
   "uri" : "public://users/danette.pachtner/11-9-1929chronicle.pdf",
   "filesize" : 20008431,
   "fid" : 3813,
   "uid" : 81
}
