{
   "filesize" : 3301,
   "fid" : 1063,
   "uid" : 275,
   "uri" : "public://users/haley.walton/medium_kornbluth.jpg",
   "status" : 1,
   "timestamp" : 1404137078,
   "filemime" : "image/jpeg",
   "filename" : "medium_kornbluth.jpg",
   "uuid" : "01310adf-4111-4258-9e64-8c9ae2005b94"
}
