{
   "status" : 1,
   "uri" : "public://users/Melanie Sturgeon/BZWeb_iMac.png",
   "filesize" : 885302,
   "fid" : 1769,
   "uid" : 181,
   "filename" : "BZWeb_iMac.png",
   "filemime" : "image/png",
   "uuid" : "0143cdc2-a10f-4717-b52d-411a73be97ab",
   "timestamp" : 1442593493
}
