{
   "timestamp" : 1436388177,
   "uuid" : "0343ddf0-af34-4bf0-8a3f-9422fd882c2a",
   "filemime" : "image/jpeg",
   "filename" : "1aah15.jpg",
   "fid" : 1513,
   "uid" : 433,
   "filesize" : 101996,
   "status" : 1,
   "uri" : "public://users/arianne.hartsellgundy/1aah15.jpg"
}
