{
   "filemime" : "image/jpeg",
   "filename" : "VFWPrincetonderTatevasiantoGorinApriltn.jpg",
   "uuid" : "0386ca47-41ce-4e49-817d-790a8bab68da",
   "timestamp" : 1509478972,
   "status" : 1,
   "uri" : "public://research/student-activism/VFWPrincetonderTatevasiantoGorinApriltn.jpg",
   "filesize" : 21917,
   "fid" : 3093,
   "uid" : 73
}
