{
   "uri" : "public://users/brittany.wofford@duke.edu/Murphy, Beverly.jpg",
   "status" : 1,
   "filesize" : 22344,
   "fid" : 1033,
   "uid" : 36,
   "filemime" : "image/jpeg",
   "filename" : "Murphy, Beverly.jpg",
   "uuid" : "03dc88da-a7d3-4f4a-ab10-6e05d38714a9",
   "timestamp" : 1403203430
}
