{
   "filesize" : 2536,
   "fid" : 871,
   "uid" : 4,
   "status" : 1,
   "uri" : "public://icons/google-scholar-21px-67pct.png",
   "timestamp" : 1390504516,
   "filemime" : "image/png",
   "filename" : "google-scholar-21px-67pct.png",
   "uuid" : "04693972-9246-4350-b657-316f02cefb97"
}
