{
   "uuid" : "04fd0fe0-4b8d-4e85-bc37-cbecc595f78b",
   "filemime" : "image/jpeg",
   "filename" : "cute-cat-couple-wallpaper-800x600.jpg",
   "timestamp" : 1372172369,
   "uri" : "public://users/rita.johnston/cute-cat-couple-wallpaper-800x600.jpg",
   "status" : 1,
   "uid" : 58,
   "fid" : 35,
   "filesize" : 100995
}
