{
   "timestamp" : 1376414555,
   "uuid" : "0521dae0-ea39-49f9-adf2-cd27c8b245c4",
   "filename" : "endnote-logo.png",
   "filemime" : "image/png",
   "uid" : 82,
   "fid" : 175,
   "filesize" : 34275,
   "status" : 1,
   "uri" : "public://users/michael.peper/endnote-logo.png"
}
