{
   "filemime" : "image/jpeg",
   "filename" : "22336980770_ccb863f2c6_o.jpg",
   "uuid" : "052d19db-4082-4559-a863-4726277ce196",
   "timestamp" : 1495034561,
   "status" : 1,
   "uri" : "public://users/megan.crain/22336980770_ccb863f2c6_o.jpg",
   "filesize" : 206145,
   "fid" : 2619,
   "uid" : 67
}
