{
   "status" : 1,
   "uri" : "public://carousel_images/13.-In-the-Server-Closet-1024x680_1.jpg",
   "fid" : 482,
   "uid" : 84,
   "filesize" : 103557,
   "uuid" : "06ca5fcc-22c5-4ea4-bbf1-4010193d375a",
   "filename" : "13.-In-the-Server-Closet-1024x680.jpg",
   "filemime" : "image/jpeg",
   "timestamp" : 1382964931
}
