{
   "filesize" : 55298,
   "uid" : 3,
   "fid" : 4705,
   "status" : 1,
   "uri" : "public://about/orgchart_0.pdf",
   "timestamp" : 1568661968,
   "filemime" : "application/pdf",
   "filename" : "orgchart_0.pdf",
   "uuid" : "06f44a5a-cf36-4ed3-b397-bd92e3c6d712"
}
