{
   "fid" : 283,
   "uid" : 87,
   "filesize" : 10096,
   "uri" : "public://users/paolo.mangiafico/large_openaccessplos-200.png",
   "status" : 1,
   "timestamp" : 1378479115,
   "uuid" : "0798808a-729e-41a2-b49b-6b8eb22bf215",
   "filemime" : "image/png",
   "filename" : "large_openaccessplos-200.png"
}
