{
   "uuid" : "07e18ed1-7d02-42b5-a8da-fb20b0ea6f3a",
   "filemime" : "application/pdf",
   "filename" : "1-7-1938editorial.pdf",
   "timestamp" : 1517345269,
   "status" : 1,
   "uri" : "public://research/student-activism/1-7-1938editorial.pdf",
   "fid" : 3901,
   "uid" : 81,
   "filesize" : 848907
}
