{
   "filesize" : 120555,
   "fid" : 1607,
   "uid" : 339,
   "status" : 1,
   "uri" : "public://exhibits/perkins_fl01_von_der_heyden_05.jpg.500x300_q85_autocrop_crop-smart.jpg",
   "timestamp" : 1438866570,
   "filemime" : "image/jpeg",
   "filename" : "perkins_fl01_von_der_heyden_05.jpg.500x300_q85_autocrop_crop-smart.jpg",
   "uuid" : "081716d9-f3be-44ef-a89b-373f91eb4e7a"
}
