{
   "uri" : "public://staff_images/laura_with_flute_600_wide.jpg",
   "status" : 1,
   "filesize" : 165465,
   "fid" : 4625,
   "uid" : 2231,
   "filename" : "laura_with_flute_600_wide.jpg",
   "filemime" : "image/jpeg",
   "uuid" : "08a529c0-72d6-4b27-862c-7f2fdb152883",
   "timestamp" : 1566590254
}
