{
   "uuid" : "09430539-5763-4385-b6a2-b555f84df5fc",
   "filemime" : "image/jpeg",
   "filename" : "VarelaMaria_LowndesCountyVoterRegTable_captioned.jpg",
   "timestamp" : 1494957307,
   "uri" : "public://users/megan.crain/VarelaMaria_LowndesCountyVoterRegTable_captioned.jpg",
   "status" : 1,
   "uid" : 67,
   "fid" : 2555,
   "filesize" : 196714
}
