{
   "filesize" : 142549,
   "fid" : 1473,
   "uid" : 3,
   "status" : 1,
   "uri" : "public://exhibits/unnatural_nature.jpg",
   "timestamp" : 1435179272,
   "filemime" : "image/jpeg",
   "filename" : "unnatural_nature.jpg",
   "uuid" : "09cd3f93-575f-40f1-acc6-abbb58e04c6a"
}
