{
   "filesize" : 9478,
   "uid" : 4,
   "fid" : 312,
   "status" : 1,
   "uri" : "public://search-find/dukechronicle-bw.jpg",
   "timestamp" : 1378826395,
   "filename" : "dukechronicle-bw.jpg",
   "filemime" : "image/jpeg",
   "uuid" : "0a45ae7b-e16a-45fd-9a73-4484ac5a4992"
}
