{
   "timestamp" : 1376414702,
   "filename" : "Refworks-logo.gif",
   "filemime" : "image/gif",
   "uuid" : "0b3094bc-ebc8-4375-93ac-62ade175f78f",
   "filesize" : 2628,
   "fid" : 177,
   "uid" : 82,
   "status" : 1,
   "uri" : "public://users/michael.peper/Refworks-logo.gif"
}
