{
   "status" : 1,
   "uri" : "public://exhibits/haggadahblurbimage.jpg",
   "fid" : 2351,
   "uid" : 47,
   "filesize" : 83469,
   "uuid" : "0d63e872-fb93-4449-9c87-8e82c3893990",
   "filemime" : "image/jpeg",
   "filename" : "haggadahblurbimage.jpg",
   "timestamp" : 1487866088
}
