{
   "uri" : "public://research/student-activism/YMCA-AnnualRept-36-37fullp3.pdf",
   "status" : 1,
   "uid" : 81,
   "fid" : 3693,
   "filesize" : 3588282,
   "uuid" : "0d8f9ca2-682b-4944-8919-e099528ecd12",
   "filemime" : "application/pdf",
   "filename" : "YMCA-AnnualRept-36-37fullp3.pdf",
   "timestamp" : 1515699982
}
