{
   "filesize" : 109675,
   "fid" : 1015,
   "uid" : 47,
   "status" : 1,
   "uri" : "public://users/meg.brown@duke.edu/_DSC7009a.jpg",
   "timestamp" : 1399575000,
   "filename" : "_DSC7009a.jpg",
   "filemime" : "image/jpeg",
   "uuid" : "0ec532a2-05d1-4031-b4d4-f89fc6aae47e"
}
