{
   "uuid" : "0f00c4d2-5a3f-4021-9231-8368aac84a8e",
   "filemime" : "image/jpeg",
   "filename" : "Acqusitions webflowchart.jpg",
   "timestamp" : 1376664101,
   "uri" : "public://users/shelby.tilley/Acqusitions webflowchart.jpg",
   "status" : 1,
   "fid" : 221,
   "uid" : 59,
   "filesize" : 75996
}
