{
   "uri" : "public://staff_images/lisacroucher_headshot1.jpg",
   "status" : 1,
   "filesize" : 4676634,
   "uid" : 2283,
   "fid" : 4907,
   "filename" : "lisacroucher_headshot1.jpg",
   "filemime" : "image/jpeg",
   "uuid" : "0f7b3101-dc15-4850-9add-f16bb88c800e",
   "timestamp" : 1587660574
}
