{
   "filename" : "614-Chapel-Drive-500px.jpg",
   "filemime" : "image/jpeg",
   "uuid" : "1015a91b-a247-4a90-9241-05a1f2549c94",
   "timestamp" : 1438616135,
   "uri" : "public://exhibits/614-Chapel-Drive-500px.jpg",
   "status" : 1,
   "filesize" : 95024,
   "uid" : 339,
   "fid" : 1555
}
