{
   "status" : 1,
   "uri" : "public://users/megan.crain/amongfriendslogo.jpg",
   "filesize" : 203707,
   "fid" : 123,
   "uid" : 67,
   "filename" : "amongfriendslogo.jpg",
   "filemime" : "image/jpeg",
   "uuid" : "101a0cb7-c39f-4db4-887c-75961ca7daa1",
   "timestamp" : 1375715281
}
