{
   "timestamp" : 1439393337,
   "uuid" : "105c4d3c-29dc-4ab7-a675-667a0e39daab",
   "filemime" : "image/jpeg",
   "filename" : "doris_duke.jpg",
   "fid" : 1725,
   "uid" : 3,
   "filesize" : 13809,
   "uri" : "public://exhibits/doris_duke.jpg",
   "status" : 1
}
