{
   "filename" : "LWV1927sm.jpg",
   "filemime" : "image/jpeg",
   "uuid" : "10a7036b-bc60-494c-976a-6505f3a02bde",
   "timestamp" : 1496256925,
   "uri" : "public://users/lee.sorensen/LWV1927sm.jpg",
   "status" : 1,
   "filesize" : 33711,
   "uid" : 48,
   "fid" : 2681
}
