{
   "uuid" : "10f09a57-ea00-461e-b28f-05642fbe2fae",
   "filemime" : "image/jpeg",
   "filename" : "Partnership2015IndieVargasCresci - 3.jpg",
   "timestamp" : 1472150398,
   "status" : 1,
   "uri" : "public://exhibits/Partnership2015IndieVargasCresci - 3.jpg",
   "uid" : 47,
   "fid" : 2155,
   "filesize" : 65456
}
