{
   "filesize" : 2243,
   "uid" : 71,
   "fid" : 5025,
   "uri" : "public://users/angela.zoss/time-1-5-white.png",
   "status" : 1,
   "timestamp" : 1613509144,
   "filemime" : "image/png",
   "filename" : "time-1-5-white.png",
   "uuid" : "1181fe95-26d8-4fbe-b3ed-fcc0843aca14"
}
