{
   "filemime" : "application/pdf",
   "filename" : "peaceagentfeb241936combinedrevised.pdf",
   "uuid" : "118a517e-d95f-43cf-a486-16de4e9409ab",
   "timestamp" : 1509130702,
   "status" : 1,
   "uri" : "public://research/student-activism/peaceagentfeb241936combinedrevised.pdf",
   "filesize" : 8101906,
   "uid" : 73,
   "fid" : 2991
}
