{
   "timestamp" : 1435177622,
   "uuid" : "11a69f73-9fe2-4777-a408-fe597ed25562",
   "filename" : "guardianarchivesexhibitmay2014small.jpg",
   "filemime" : "image/jpeg",
   "fid" : 1465,
   "uid" : 3,
   "filesize" : 42800,
   "status" : 1,
   "uri" : "public://exhibits/guardianarchivesexhibitmay2014small.jpg"
}
