{
   "filename" : "picoult.jpg",
   "filemime" : "image/jpeg",
   "uuid" : "11bbd522-5dc4-45ab-a3d8-027a371e6b3f",
   "timestamp" : 1375820390,
   "status" : 1,
   "uri" : "public://research-support/picoult.jpg",
   "filesize" : 8162,
   "uid" : 111,
   "fid" : 140
}
