{
   "status" : 1,
   "uri" : "public://users/Laura Williams/chanticleerseria1929duke_0007.jpg",
   "filesize" : 65524,
   "uid" : 191,
   "fid" : 2333,
   "filemime" : "image/jpeg",
   "filename" : "chanticleerseria1929duke_0007.jpg",
   "uuid" : "11dab1ee-aacd-486f-aff3-166f40c6e66c",
   "timestamp" : 1487034668
}
