{
   "uri" : "public://pictures/vision.jpg",
   "status" : 1,
   "filesize" : 7708,
   "fid" : 1133,
   "uid" : 337,
   "filemime" : "image/jpeg",
   "filename" : "vision.jpg",
   "uuid" : "12c1a6a3-4ccd-4ca3-9689-190f93fed1ba",
   "timestamp" : 1413915644
}
