{
   "uuid" : "12dc815b-45d9-46f0-88f8-11b3dc9e59b4",
   "filemime" : "image/jpeg",
   "filename" : "perkinsforgallery.jpg",
   "timestamp" : 1375896258,
   "status" : 1,
   "uri" : "public://users/meg.brown@duke.edu/perkinsforgallery.jpg",
   "fid" : 146,
   "uid" : 47,
   "filesize" : 44875
}
