{
   "uuid" : "12f1fcf9-38c7-4d0c-baf3-3757329211dc",
   "filename" : "tau psi omega.jpg",
   "filemime" : "image/jpeg",
   "timestamp" : 1509478148,
   "uri" : "public://research/student-activism/tau psi omega.jpg",
   "status" : 1,
   "uid" : 57,
   "fid" : 3085,
   "filesize" : 89968
}
