{
   "filesize" : 12983,
   "uid" : 313,
   "fid" : 4990,
   "status" : 1,
   "uri" : "public://users/Joyce Chapman/arl-fy2019-duke.xlsx",
   "timestamp" : 1600799559,
   "filename" : "arl-fy2019-duke.xlsx",
   "filemime" : "application/vnd.openxmlformats-officedocument.spreadsheetml.sheet",
   "uuid" : "138024ca-61c8-4a4f-bc55-a2f9ece844d3"
}
