{
   "timestamp" : 1385405884,
   "filemime" : "image/jpeg",
   "filename" : "exhibits_47.jpg",
   "uuid" : "1397d278-d0b0-4528-b3d2-ba05c3ac5a75",
   "filesize" : 12519,
   "fid" : 677,
   "uid" : 139,
   "uri" : "public://pictures/exhibits_47.jpg",
   "status" : 1
}
