{
   "uid" : 2077,
   "fid" : 4403,
   "filesize" : 1774,
   "status" : 1,
   "uri" : "public://using-the-library/searchTips-request.PNG",
   "timestamp" : 1547405554,
   "uuid" : "13bcd8bf-d835-4b54-9e3d-321bc3547d50",
   "filename" : "searchTips-request.PNG",
   "filemime" : "image/png"
}
