{
   "status" : 1,
   "uri" : "public://research/student-activism/peaceagentmarch91936(1).jpg",
   "uid" : 73,
   "fid" : 2981,
   "filesize" : 43079,
   "uuid" : "13c905a8-b934-4214-9471-9dc90cb926dc",
   "filemime" : "image/jpeg",
   "filename" : "peaceagentmarch91936(1).jpg",
   "timestamp" : 1509129704
}
