{
   "uuid" : "13fdd2cc-ed34-4bff-8805-fe13217d027b",
   "filename" : "sturgeon-melanie.jpg",
   "filemime" : "image/jpeg",
   "timestamp" : 1445448569,
   "uri" : "public://staff-portraits/sturgeon-melanie.jpg",
   "status" : 1,
   "fid" : 1791,
   "uid" : 25,
   "filesize" : 17457
}
