{
   "filename" : "refworks-logo.jpg",
   "filemime" : "image/jpeg",
   "uuid" : "1431ac94-f1fa-4be8-b685-1ac7d2aca705",
   "timestamp" : 1541350342,
   "uri" : "public://research-support/refworks-logo.jpg",
   "status" : 1,
   "filesize" : 31288,
   "fid" : 4345,
   "uid" : 2077
}
