{
   "timestamp" : 1422282763,
   "filemime" : "image/jpeg",
   "filename" : "picture-399-1422282763.jpg",
   "uuid" : "1436d6ae-b39b-402e-8b7a-c0c030fe4def",
   "filesize" : 214451,
   "uid" : 399,
   "fid" : 1263,
   "uri" : "public://pictures/picture-399-1422282763.jpg",
   "status" : 1
}
