{
   "filename" : "Rules and Guidelines.pdf",
   "filemime" : "application/pdf",
   "uuid" : "14505d21-9c9b-483c-bcfc-3074dcff829a",
   "timestamp" : 1415043677,
   "status" : 1,
   "uri" : "public://users/megan.crain/Rules and Guidelines.pdf",
   "filesize" : 215950,
   "fid" : 1135,
   "uid" : 67
}
