{
   "filemime" : "application/pdf",
   "filename" : "sapiens_zhang.pdf",
   "uuid" : "147ce5d6-57a5-4186-bb02-c07190634acf",
   "timestamp" : 1573155339,
   "uri" : "public://users/arianne.hartsellgundy/sapiens_zhang.pdf",
   "status" : 1,
   "filesize" : 88799,
   "uid" : 433,
   "fid" : 4749
}
