{
   "timestamp" : 1381351840,
   "uuid" : "149723f4-8677-4f1e-a9fe-3e2bc9999caa",
   "filemime" : "image/jpeg",
   "filename" : "blakely-1.jpg",
   "uid" : 25,
   "fid" : 430,
   "filesize" : 32488,
   "uri" : "public://using-the-library/blakely-1.jpg",
   "status" : 1
}
