{
   "filesize" : 10036,
   "uid" : 139,
   "fid" : 695,
   "status" : 1,
   "uri" : "public://pictures/exhibits_56.jpg",
   "timestamp" : 1385405951,
   "filename" : "exhibits_56.jpg",
   "filemime" : "image/jpeg",
   "uuid" : "14a2a98c-9512-409a-9ed5-d9bfe3343f7f"
}
