{
   "uuid" : "14bd1e5e-e3ec-4bde-914b-264933173719",
   "filename" : "6075905075_79de925c2e.jpg",
   "filemime" : "image/jpeg",
   "timestamp" : 1376685209,
   "status" : 1,
   "uri" : "public://users/megan.crain/6075905075_79de925c2e.jpg",
   "fid" : 228,
   "uid" : 67,
   "filesize" : 156733
}
