{
   "timestamp" : 1458319619,
   "filename" : "harris.jpg",
   "filemime" : "image/jpeg",
   "uuid" : "1570d421-3790-4416-9387-4ea354092c10",
   "filesize" : 232213,
   "uid" : 47,
   "fid" : 2005,
   "uri" : "public://exhibits/harris.jpg",
   "status" : 1
}
