{
   "uid" : 2077,
   "fid" : 4239,
   "filesize" : 749695,
   "uri" : "public://rooms/graduateReadingRoom1.png",
   "status" : 1,
   "timestamp" : 1531414262,
   "uuid" : "15df18f1-5699-44d9-80c6-b98547a4101e",
   "filename" : "graduateReadingRoom1.png",
   "filemime" : "image/png"
}
