{
   "uuid" : "16acfa2f-3a6e-45e8-90fe-df85fc7b21bb",
   "filename" : "2nd-worker-student-conference-1938-thumbnail.jpg",
   "filemime" : "image/jpeg",
   "timestamp" : 1510152197,
   "uri" : "public://research/student-activism/2nd-worker-student-conference-1938-thumbnail.jpg",
   "status" : 1,
   "fid" : 3257,
   "uid" : 149,
   "filesize" : 433275
}
