{
   "filesize" : 22648,
   "uid" : 513,
   "fid" : 2309,
   "status" : 1,
   "uri" : "public://about/LC11-17-15.docx",
   "timestamp" : 1487011854,
   "filemime" : "application/vnd.openxmlformats-officedocument.wordprocessingml.document",
   "filename" : "LC11-17-15.docx",
   "uuid" : "17407b71-40b2-4244-9c4e-727c0ff0f7ea"
}
