{
   "timestamp" : 1583274225,
   "uuid" : "17524556-1185-4e53-b157-20cde389501a",
   "filemime" : "image/jpeg",
   "filename" : "20200303_172053.jpg",
   "uid" : 2213,
   "fid" : 4853,
   "filesize" : 18359,
   "uri" : "public://exhibits/20200303_172053.jpg",
   "status" : 1
}
