{
   "uuid" : "179e9f89-5a50-4cfb-a2ab-0d554e4f4d60",
   "filemime" : "image/png",
   "filename" : "BZ_DeviceCollage_0.png",
   "timestamp" : 1442593595,
   "uri" : "public://users/Melanie Sturgeon/BZ_DeviceCollage_0.png",
   "status" : 1,
   "uid" : 181,
   "fid" : 1773,
   "filesize" : 342874
}
