{
   "filesize" : 777835,
   "fid" : 84,
   "uid" : 59,
   "uri" : "public://users/shelby.tilley/Penguins.jpg",
   "status" : 1,
   "timestamp" : 1374775388,
   "filename" : "Penguins.jpg",
   "filemime" : "image/jpeg",
   "uuid" : "17ce28ec-b8d0-4181-b7c1-bb4b36e76242"
}
