{
   "timestamp" : 1490990589,
   "uuid" : "182b9843-4318-4cdc-9985-b4065ba733b6",
   "filemime" : "image/jpeg",
   "filename" : "curtis 2.jpg",
   "fid" : 2413,
   "uid" : 69,
   "filesize" : 110277,
   "uri" : "public://users/beth.doyle/curtis 2.jpg",
   "status" : 1
}
