{
   "filesize" : 28788,
   "fid" : 3583,
   "uid" : 73,
   "uri" : "public://research/student-activism/flood1937.jpg",
   "status" : 1,
   "timestamp" : 1515185056,
   "filemime" : "image/jpeg",
   "filename" : "flood1937.jpg",
   "uuid" : "186ce870-9249-4f81-9705-08c7bd701ccb"
}
