{
   "timestamp" : 1619210970,
   "uuid" : "187f451e-0cca-4894-afd3-010ded8ad5e4",
   "filemime" : "image/jpeg",
   "filename" : "web_paradise.jpg",
   "fid" : 5078,
   "uid" : 47,
   "filesize" : 112531,
   "status" : 1,
   "uri" : "public://exhibits/web_paradise.jpg"
}
