{
   "status" : 1,
   "uri" : "public://support/Steptoe_Display.jpg",
   "filesize" : 156219,
   "fid" : 2210,
   "uid" : 3,
   "filemime" : "image/jpeg",
   "filename" : "Steptoe_Display.jpg",
   "uuid" : "18dce165-2f13-44c2-ac9b-f199da5fe95e",
   "timestamp" : 1480960477
}
