{
   "uuid" : "1ad82a4d-98b9-4a34-b63c-fca115dd06c5",
   "filename" : "flower1_1.jpg",
   "filemime" : "image/jpeg",
   "timestamp" : 1374087999,
   "uri" : "public://flower1_1.jpg",
   "status" : 1,
   "fid" : 60,
   "uid" : 84,
   "filesize" : 6008
}
