{
   "status" : 1,
   "uri" : "public://using-the-library/searchTips-multipleLibraryLocation.PNG",
   "uid" : 2077,
   "fid" : 4415,
   "filesize" : 3604,
   "uuid" : "1b8b5842-e994-4b4a-ad0f-a2c941556ae4",
   "filemime" : "image/png",
   "filename" : "searchTips-multipleLibraryLocation.PNG",
   "timestamp" : 1547406047
}
