{
   "fid" : 679,
   "uid" : 139,
   "filesize" : 9986,
   "status" : 1,
   "uri" : "public://pictures/exhibits_48.jpg",
   "timestamp" : 1385405891,
   "uuid" : "1bb14514-b763-499c-90ad-5d5f85f1fd48",
   "filename" : "exhibits_48.jpg",
   "filemime" : "image/jpeg"
}
