{
   "timestamp" : 1530891494,
   "filename" : "Perkins_Bookeye4.jpeg",
   "filemime" : "image/jpeg",
   "uuid" : "1d0a27d3-33f8-483b-8924-96dc2d2d84da",
   "filesize" : 111850,
   "fid" : 4195,
   "uid" : 2197,
   "uri" : "public://users/yuyuan/Perkins_Bookeye4.jpeg",
   "status" : 1
}
