{
   "uid" : 67,
   "fid" : 2599,
   "filesize" : 279182,
   "uri" : "public://users/megan.crain/29840328674_64984275d5_o.jpg",
   "status" : 1,
   "timestamp" : 1495030946,
   "uuid" : "1e5d2601-a1a7-455e-89d4-111e6cfe61eb",
   "filemime" : "image/jpeg",
   "filename" : "29840328674_64984275d5_o.jpg"
}
