{
   "timestamp" : 1602008088,
   "filemime" : "image/jpeg",
   "filename" : "Hydrangeas_3.jpg",
   "uuid" : "1ef736d3-9fe9-4baa-b7e8-27e4133de5b5",
   "filesize" : 13554,
   "uid" : 25,
   "fid" : 4995,
   "uri" : "public://course-support/Hydrangeas_3.jpg",
   "status" : 1
}
