{
   "status" : 1,
   "uri" : "public://pictures/crazy-smart-1.jpg",
   "filesize" : 71232,
   "uid" : 25,
   "fid" : 3,
   "filemime" : "image/jpeg",
   "filename" : "crazy-smart-1.jpg",
   "uuid" : "1f5fbc1c-8651-437e-b61d-c47507ed086c",
   "timestamp" : 1371587564
}
