{
   "timestamp" : 1517257861,
   "uuid" : "1fb0ebe3-ef6f-48af-b1bf-75b704c6bbeb",
   "filename" : "voting-in-nc 1tn.jpg",
   "filemime" : "image/jpeg",
   "uid" : 55,
   "fid" : 3803,
   "filesize" : 12354,
   "status" : 1,
   "uri" : "public://research/student-activism/voting-in-nc 1tn.jpg"
}
