{
   "timestamp" : 1382557174,
   "uuid" : "20037d5c-7eb1-404f-8915-f35ce7ac8232",
   "filename" : "lynell-jameca-1.jpg",
   "filemime" : "image/jpeg",
   "uid" : 4,
   "fid" : 460,
   "filesize" : 278592,
   "status" : 1,
   "uri" : "public://carousel_images/lynell-jameca-1.jpg"
}
