{
   "filemime" : "image/png",
   "filename" : "1932-10-12 Liberal club.png",
   "uuid" : "20b4a43f-1bd3-48ca-9f03-0968ad267d8f",
   "timestamp" : 1514992326,
   "status" : 1,
   "uri" : "public://research/student-activism/1932-10-12 Liberal club.png",
   "filesize" : 310785,
   "fid" : 3491,
   "uid" : 147
}
