{
   "filesize" : 57096,
   "uid" : 36,
   "fid" : 553,
   "uri" : "public://users/brittany.wofford@duke.edu/Group Study Room (Lower Level).jpg",
   "status" : 1,
   "timestamp" : 1383678840,
   "filename" : "Group Study Room (Lower Level).jpg",
   "filemime" : "image/jpeg",
   "uuid" : "20b5072f-4607-47aa-b379-a49bc0b1e39f"
}
