{
   "uri" : "public://research/student-activism/2-12-1937.pdf",
   "status" : 1,
   "filesize" : 8443502,
   "fid" : 2763,
   "uid" : 81,
   "filemime" : "application/pdf",
   "filename" : "2-12-1937.pdf",
   "uuid" : "20e47ab8-0a4c-470e-8271-82c57fab3528",
   "timestamp" : 1502464848
}
