{
   "uri" : "public://research/student-activism/Feb 12 1930 p1 opt slide 10.pdf",
   "status" : 1,
   "filesize" : 1028951,
   "uid" : 55,
   "fid" : 3659,
   "filemime" : "application/pdf",
   "filename" : "Feb 12 1930 p1 opt slide 10.pdf",
   "uuid" : "210283e7-4b9d-4695-94a2-14bfcfdb8e28",
   "timestamp" : 1515637710
}
