{
   "timestamp" : 1383232315,
   "filename" : "campus-map.jpg",
   "filemime" : "image/jpeg",
   "uuid" : "2197da66-4961-48ab-b7eb-beb885f02fe3",
   "filesize" : 42384,
   "fid" : 539,
   "uid" : 25,
   "uri" : "public://about/campus-map.jpg",
   "status" : 1
}
