{
   "uuid" : "21f295d9-95a4-4fbb-a515-fb93e83e3cbf",
   "filemime" : "image/jpeg",
   "filename" : "Mezzanine.jpg",
   "timestamp" : 1383847964,
   "status" : 1,
   "uri" : "public://users/brittany.wofford@duke.edu/Mezzanine.jpg",
   "uid" : 36,
   "fid" : 559,
   "filesize" : 138850
}
