{
   "timestamp" : 1514999110,
   "uuid" : "237085d0-198f-4cd1-83fd-64b55e11a883",
   "filemime" : "application/pdf",
   "filename" : "Slide 48b 2-19-1937.pdf",
   "uid" : 81,
   "fid" : 3507,
   "filesize" : 1050960,
   "status" : 1,
   "uri" : "public://research/student-activism/Slide 48b 2-19-1937.pdf"
}
