{
   "uri" : "public://users/beth.doyle/adopt_picturebook.jpg",
   "status" : 1,
   "fid" : 1775,
   "uid" : 69,
   "filesize" : 29747,
   "uuid" : "23716efc-326f-41f0-9110-b4e38b54b8e3",
   "filemime" : "image/jpeg",
   "filename" : "adopt_picturebook.jpg",
   "timestamp" : 1444151340
}
