{
   "uuid" : "237d2998-aafe-4b3f-95cb-4d78fa8f43ce",
   "filename" : "mandela_exhibit.jpg",
   "filemime" : "image/jpeg",
   "timestamp" : 1435179797,
   "status" : 1,
   "uri" : "public://exhibits/mandela_exhibit.jpg",
   "uid" : 3,
   "fid" : 1475,
   "filesize" : 67075
}
