{
   "uuid" : "255f03f2-1e93-4bed-8989-2bb27f8b8980",
   "filemime" : "image/jpeg",
   "filename" : "sweetplypaper.jpg",
   "timestamp" : 1559187416,
   "uri" : "public://exhibits/sweetplypaper.jpg",
   "status" : 1,
   "fid" : 4555,
   "uid" : 47,
   "filesize" : 156036
}
