{
   "filesize" : 8306,
   "fid" : 22,
   "uid" : 45,
   "uri" : "public://users/kjhunt/large_113_524673268414_8503_n_0.jpg",
   "status" : 1,
   "timestamp" : 1371740906,
   "filename" : "large_113_524673268414_8503_n_0.jpg",
   "filemime" : "image/jpeg",
   "uuid" : "26179894-bf93-43bb-8c13-8d0d329983f8"
}
