{
   "filename" : "Beloved but Left Behind.jpg",
   "filemime" : "image/jpeg",
   "uuid" : "28313a47-ff88-4eee-86f2-22919a77a8c5",
   "timestamp" : 1539884658,
   "status" : 1,
   "uri" : "public://users/aaron.welborn/Beloved but Left Behind.jpg",
   "filesize" : 137390,
   "uid" : 60,
   "fid" : 4329
}
