{
   "status" : 1,
   "uri" : "public://research/student-activism/03-28-1933 Women Voters.png",
   "filesize" : 177333,
   "uid" : 147,
   "fid" : 3483,
   "filemime" : "image/png",
   "filename" : "03-28-1933 Women Voters.png",
   "uuid" : "2856e848-ad23-44dd-8cfb-fd238a14c033",
   "timestamp" : 1514992228
}
