{
   "uuid" : "288c31ac-baea-49a5-841e-633ed818df18",
   "filemime" : "application/pdf",
   "filename" : "Chronicleapril281936vfw.pdf",
   "timestamp" : 1509469738,
   "status" : 1,
   "uri" : "public://research/student-activism/Chronicleapril281936vfw.pdf",
   "uid" : 73,
   "fid" : 3057,
   "filesize" : 1048195
}
