{
   "filename" : "LC 10-26-17.docx",
   "filemime" : "application/vnd.openxmlformats-officedocument.wordprocessingml.document",
   "uuid" : "28a00ed3-1e7b-4272-b60e-4995eca627b9",
   "timestamp" : 1558023339,
   "uri" : "public://about/LC 10-26-17.docx",
   "status" : 1,
   "filesize" : 17911,
   "uid" : 513,
   "fid" : 4523
}
