{
   "timestamp" : 1510002985,
   "filemime" : "application/pdf",
   "filename" : "Chronicledec41936cheatingedletter.pdf",
   "uuid" : "2a59a5b9-d249-4aa8-8b24-3f26f9afdbd2",
   "filesize" : 907382,
   "uid" : 73,
   "fid" : 3217,
   "status" : 1,
   "uri" : "public://research/student-activism/Chronicledec41936cheatingedletter.pdf"
}
