{
   "filesize" : 29884,
   "uid" : 69,
   "fid" : 1783,
   "status" : 1,
   "uri" : "public://users/beth.doyle/adopt a box.jpg",
   "timestamp" : 1444157040,
   "filename" : "adopt a box.jpg",
   "filemime" : "image/jpeg",
   "uuid" : "2b356107-9676-40c0-b10a-455ceaf3db23"
}
