{
   "status" : 1,
   "uri" : "public://staff-portraits/crowell-lauren.jpg",
   "filesize" : 8424,
   "fid" : 2017,
   "uid" : 25,
   "filename" : "crowell-lauren.jpg",
   "filemime" : "image/jpeg",
   "uuid" : "2c13b3af-2ca1-4ab0-aa7b-8713f7beb436",
   "timestamp" : 1460480991
}
