{
   "uri" : "public://carousel_images/Shawn_Elder993x551.jpg",
   "status" : 1,
   "filesize" : 172737,
   "uid" : 84,
   "fid" : 529,
   "filename" : "Shawn_Elder993x551.jpg",
   "filemime" : "image/jpeg",
   "uuid" : "2cf47fed-2c98-40b0-872c-6888acef2e07",
   "timestamp" : 1392906566
}
