{
   "timestamp" : 1457710839,
   "filename" : "envelope.png",
   "filemime" : "image/png",
   "uuid" : "2d8e8f0e-10b0-47b5-96c2-2149ff3994d5",
   "filesize" : 396,
   "fid" : 1943,
   "uid" : 25,
   "status" : 1,
   "uri" : "public://icons/envelope.png"
}
