{
   "status" : 1,
   "uri" : "public://users/aaron.welborn/minutes-2013-02-15.pdf",
   "filesize" : 24596,
   "uid" : 60,
   "fid" : 314,
   "filename" : "minutes-2013-02-15.pdf",
   "filemime" : "application/pdf",
   "uuid" : "2e4e86b1-c724-4c9f-9071-c9c50f8af2ed",
   "timestamp" : 1378826511
}
