{
   "timestamp" : 1538416979,
   "filename" : "ea-per.jpg",
   "filemime" : "image/jpeg",
   "uuid" : "2ec0f07c-73f5-4ef1-baf9-70f8fc90cd40",
   "filesize" : 79196,
   "fid" : 276,
   "uid" : 25,
   "uri" : "public://about/ea-per.jpg",
   "status" : 1
}
