{
   "fid" : 2591,
   "uid" : 67,
   "filesize" : 116254,
   "status" : 1,
   "uri" : "public://users/megan.crain/21901831194_841778d019_o.jpg",
   "timestamp" : 1495030451,
   "uuid" : "2f46cd0b-cddd-4847-a101-97d9e3cf47ac",
   "filename" : "21901831194_841778d019_o.jpg",
   "filemime" : "image/jpeg"
}
