{
   "status" : 1,
   "uri" : "public://exhibits/girlinwindow.jpg",
   "uid" : 0,
   "fid" : 1603,
   "filesize" : 170666,
   "uuid" : "2f7f07f5-48bd-4f22-83b7-1b64307fe3dd",
   "filemime" : "image/jpeg",
   "filename" : "girlinwindow.jpg",
   "timestamp" : 1438862068
}
