{
   "filename" : "Friends_Duke_Libraries_Logo_Page_3.jpg",
   "filemime" : "image/jpeg",
   "uuid" : "3024d261-4c10-4c6d-bebb-628794e5f867",
   "timestamp" : 1379535134,
   "status" : 1,
   "uri" : "public://support/Friends_Duke_Libraries_Logo_Page_3.jpg",
   "filesize" : 85312,
   "fid" : 355,
   "uid" : 3
}
