{
   "filemime" : "image/jpeg",
   "filename" : "bentoSeeAll.jpg",
   "uuid" : "304a888e-5068-4566-99b2-be542d8fd4f5",
   "timestamp" : 1409150594,
   "uri" : "public://about/bentoSeeAll.jpg",
   "status" : 1,
   "filesize" : 9537,
   "uid" : 25,
   "fid" : 1085
}
