{
   "filesize" : 60064,
   "fid" : 1611,
   "uid" : 339,
   "uri" : "public://exhibits/blmbc010060010.jpg",
   "status" : 1,
   "timestamp" : 1438868314,
   "filename" : "blmbc010060010.jpg",
   "filemime" : "image/jpeg",
   "uuid" : "30bfeb08-4fcf-48b3-b633-bf6710263de0"
}
