{
   "filemime" : "application/pdf",
   "filename" : "liberalclubopt.pdf",
   "uuid" : "315f75d6-0827-45e7-b41a-81a95e5d86c6",
   "timestamp" : 1515685859,
   "uri" : "public://research/student-activism/liberalclubopt.pdf",
   "status" : 1,
   "filesize" : 1006462,
   "uid" : 55,
   "fid" : 3677
}
