{
   "status" : 1,
   "uri" : "public://research/student-activism/distaffp12-27optimized.pdf",
   "fid" : 4035,
   "uid" : 73,
   "filesize" : 12032573,
   "uuid" : "3219e91f-9450-4b6e-a1e7-1d8f6567c4a7",
   "filemime" : "application/pdf",
   "filename" : "distaffp12-27optimized.pdf",
   "timestamp" : 1518732444
}
