{
   "uri" : "public://users/megan.crain/8773594692_e1b801269f_o.jpg",
   "status" : 1,
   "fid" : 2657,
   "uid" : 67,
   "filesize" : 138787,
   "uuid" : "326e254d-ff08-42f0-9c07-a75ae378c41b",
   "filemime" : "image/jpeg",
   "filename" : "8773594692_e1b801269f_o.jpg",
   "timestamp" : 1495053422
}
