{
   "timestamp" : 1538417048,
   "filemime" : "image/jpeg",
   "filename" : "cryo-section-example.jpg",
   "uuid" : "3327dfd3-e8d5-44c1-9b4a-e29e13b192e2",
   "filesize" : 23775,
   "uid" : 25,
   "fid" : 2383,
   "status" : 1,
   "uri" : "public://about/cryo-section-example.jpg"
}
