{
   "uuid" : "3545d6b8-ce56-4604-b83a-b6304aa8e71c",
   "filename" : "Chroniclenov261935thanksgivingdinner.pdf",
   "filemime" : "application/pdf",
   "timestamp" : 1509117943,
   "uri" : "public://research/student-activism/Chroniclenov261935thanksgivingdinner.pdf",
   "status" : 1,
   "fid" : 2971,
   "uid" : 73,
   "filesize" : 1051469
}
