{
   "uri" : "public://support/DSC_9784.jpg",
   "status" : 1,
   "uid" : 3,
   "fid" : 368,
   "filesize" : 138578,
   "uuid" : "36012868-4705-4259-937b-e921800fe42d",
   "filemime" : "image/jpeg",
   "filename" : "DSC_9784.jpg",
   "timestamp" : 1379540805
}
