{
   "timestamp" : 1496258663,
   "filename" : "large_LWV1927-1.jpg",
   "filemime" : "image/jpeg",
   "uuid" : "361e1246-7b73-4a65-812a-408c50427587",
   "filesize" : 6448,
   "fid" : 2689,
   "uid" : 48,
   "status" : 1,
   "uri" : "public://users/lee.sorensen/large_LWV1927-1.jpg"
}
