{
   "uuid" : "37629c37-c6d8-4934-995c-1e585aa3e6cf",
   "filemime" : "application/pdf",
   "filename" : "dulfall-winter2019-2020.lowrespgs.pdf",
   "timestamp" : 1580835085,
   "uri" : "public://users/aaron.welborn/dulfall-winter2019-2020.lowrespgs.pdf",
   "status" : 1,
   "uid" : 60,
   "fid" : 4821,
   "filesize" : 6934123
}
