{
   "uri" : "public://carousel_images/Workshop Room 2.jpg",
   "status" : 1,
   "filesize" : 267903,
   "fid" : 1795,
   "uid" : 36,
   "filemime" : "image/jpeg",
   "filename" : "Workshop Room 2.jpg",
   "uuid" : "382083d0-8483-43c1-b0dc-5190fab5533c",
   "timestamp" : 1446671297
}
