{
   "timestamp" : 1385406096,
   "filemime" : "image/jpeg",
   "filename" : "exhibits_77.jpg",
   "uuid" : "39d0f007-15b7-4256-8ae6-259d98ab8aa7",
   "filesize" : 5690,
   "fid" : 737,
   "uid" : 139,
   "status" : 1,
   "uri" : "public://pictures/exhibits_77.jpg"
}
