{
   "status" : 1,
   "uri" : "public://about/perkins-bostock-rubenstein-floor-plan.jpg",
   "filesize" : 37338,
   "uid" : 2193,
   "fid" : 4271,
   "filename" : "perkins-bostock-rubenstein-floor-plan.jpg",
   "filemime" : "image/jpeg",
   "uuid" : "3a178e02-c649-4b51-b364-82623cb0b6c7",
   "timestamp" : 1533237801
}
