{
   "filesize" : 1123569,
   "uid" : 149,
   "fid" : 3291,
   "uri" : "public://research/student-activism/19420501_Food_editorials.pdf",
   "status" : 1,
   "timestamp" : 1510155141,
   "filename" : "19420501_Food_editorials.pdf",
   "filemime" : "application/pdf",
   "uuid" : "3a17e684-e107-4d20-a747-8033945c8a89"
}
