{
   "timestamp" : 1472064730,
   "filename" : "FL3-kiosk.jpg",
   "filemime" : "image/jpeg",
   "uuid" : "3a8ad318-b629-42bc-88fd-2a260d09eb87",
   "filesize" : 113153,
   "uid" : 25,
   "fid" : 2143,
   "uri" : "public://kiosks/lobby/FL3-kiosk.jpg",
   "status" : 1
}
