{
   "filemime" : "image/jpeg",
   "filename" : "Ruth_Rebecca_Davidow.jpg",
   "uuid" : "3b939a3d-b218-4f55-88db-d04e50781196",
   "timestamp" : 1510320914,
   "status" : 1,
   "uri" : "public://research/student-activism/Ruth_Rebecca_Davidow.jpg",
   "filesize" : 19034,
   "fid" : 3315,
   "uid" : 149
}
