{
   "timestamp" : 1395946219,
   "filemime" : "image/jpeg",
   "filename" : "McDonald, Amy.jpg",
   "uuid" : "3b9bffd7-8826-4b57-ae33-73c36746b322",
   "filesize" : 35331,
   "uid" : 36,
   "fid" : 967,
   "uri" : "public://users/brittany.wofford@duke.edu/McDonald, Amy.jpg",
   "status" : 1
}
