{
   "filesize" : 59496,
   "uid" : 433,
   "fid" : 4982,
   "uri" : "public://users/arianne.hartsellgundy/othered.pdf",
   "status" : 1,
   "timestamp" : 1599844481,
   "filename" : "othered.pdf",
   "filemime" : "application/pdf",
   "uuid" : "3bf71e45-764b-489f-8e4e-2d5aee17d3e7"
}
