{
   "uri" : "public://staff-portraits/shreve-catherine_0.jpg",
   "status" : 1,
   "filesize" : 9023,
   "fid" : 1201,
   "uid" : 25,
   "filename" : "shreve-catherine_0.jpg",
   "filemime" : "image/jpeg",
   "uuid" : "3c5c8967-1500-45bf-8b77-02b17fbb85c1",
   "timestamp" : 1419366478
}
