{
   "timestamp" : 1509469757,
   "uuid" : "3ccd9e1f-a003-4da2-9722-08314b135347",
   "filemime" : "application/pdf",
   "filename" : "chroniclemay11936vwfcombined.pdf",
   "uid" : 73,
   "fid" : 3059,
   "filesize" : 2033111,
   "uri" : "public://research/student-activism/chroniclemay11936vwfcombined.pdf",
   "status" : 1
}
