{
   "filesize" : 94763,
   "fid" : 1545,
   "uid" : 3,
   "uri" : "public://exhibits/mangum.jpg",
   "status" : 1,
   "timestamp" : 1438187962,
   "filename" : "mangum.jpg",
   "filemime" : "image/jpeg",
   "uuid" : "3d4a782c-213f-4085-9706-608e04b281a3"
}
