{
   "filesize" : 21349,
   "uid" : 3,
   "fid" : 1087,
   "status" : 1,
   "uri" : "public://carousel_images/the_edge.png",
   "timestamp" : 1409257137,
   "filename" : "the_edge.png",
   "filemime" : "image/png",
   "uuid" : "3d76b06a-fe9e-4edd-8c85-b43b459504f0"
}
