{
   "status" : 1,
   "uri" : "public://pictures/iznik.jpg",
   "fid" : 382,
   "uid" : 139,
   "filesize" : 73136,
   "uuid" : "3df2e288-dac4-4b1e-af03-8e2f407408bb",
   "filemime" : "image/jpeg",
   "filename" : "iznik.jpg",
   "timestamp" : 1379619586
}
