{
   "uuid" : "3e0ec873-d7ec-450c-8bf9-6be2169534fe",
   "filemime" : "image/jpeg",
   "filename" : "bathers.jpg",
   "timestamp" : 1438881364,
   "status" : 1,
   "uri" : "public://exhibits/bathers.jpg",
   "uid" : 339,
   "fid" : 1635,
   "filesize" : 116287
}
