{
   "uuid" : "3e1cefc8-9ee3-4998-9efc-ff9e7469bb16",
   "filemime" : "image/jpeg",
   "filename" : "imageedit_2_9820772726.jpg",
   "timestamp" : 1565797468,
   "uri" : "public://staff_images/imageedit_2_9820772726.jpg",
   "status" : 1,
   "fid" : 4577,
   "uid" : 172,
   "filesize" : 342663
}
