{
   "timestamp" : 1376580828,
   "filemime" : "image/jpeg",
   "filename" : "6235402262_a99bd59229.jpg",
   "uuid" : "3ecb5441-b97b-47e2-8a5e-8efb18d037c9",
   "filesize" : 162368,
   "uid" : 67,
   "fid" : 195,
   "uri" : "public://users/megan.crain/6235402262_a99bd59229.jpg",
   "status" : 1
}
