{
   "status" : 1,
   "uri" : "public://staff-portraits/daly-emily-2016.jpg",
   "filesize" : 16832,
   "fid" : 1925,
   "uid" : 25,
   "filemime" : "image/jpeg",
   "filename" : "daly-emily-2016.jpg",
   "uuid" : "3f043895-570f-412e-916f-e0da15b1dddc",
   "timestamp" : 1456846993
}
