{
   "status" : 1,
   "uri" : "public://exhibits/prphoto.jpg",
   "filesize" : 18233,
   "uid" : 47,
   "fid" : 4053,
   "filename" : "prphoto.jpg",
   "filemime" : "image/jpeg",
   "uuid" : "3fe05632-39ae-43c1-97e2-efafad49031f",
   "timestamp" : 1519240726
}
