{
   "filename" : "brad-williams-993x675.jpg",
   "filemime" : "image/jpeg",
   "uuid" : "3ffeb53b-5cf6-43b5-87a4-1494784156ff",
   "timestamp" : 1392910712,
   "uri" : "public://carousel_images/brad-williams-993x675.jpg",
   "status" : 1,
   "filesize" : 153721,
   "uid" : 4,
   "fid" : 917
}
