{
   "fid" : 3683,
   "uid" : 81,
   "filesize" : 52993,
   "uri" : "public://research/student-activism/Labor Leaders Talk.png",
   "status" : 1,
   "timestamp" : 1515689586,
   "uuid" : "40dfcfca-5702-48d7-a457-69803276ddbb",
   "filemime" : "image/png",
   "filename" : "Labor Leaders Talk.png"
}
