{
   "timestamp" : 1516820597,
   "filemime" : "application/pdf",
   "filename" : "chronicledec161931ruthrush.pdf",
   "uuid" : "41368ead-c46b-4ab9-8025-cbaf8850fa6e",
   "filesize" : 758780,
   "uid" : 55,
   "fid" : 3761,
   "uri" : "public://research/student-activism/chronicledec161931ruthrush.pdf",
   "status" : 1
}
