{
   "timestamp" : 1379624492,
   "uuid" : "4143a7e5-0534-43b1-8cbf-f8825ee59a90",
   "filemime" : "image/jpeg",
   "filename" : "troost-kris_0.jpg",
   "uid" : 139,
   "fid" : 385,
   "filesize" : 8488,
   "uri" : "public://staff-portraits/troost-kris_0.jpg",
   "status" : 1
}
