{
   "filesize" : 44854,
   "fid" : 147,
   "uid" : 47,
   "uri" : "public://users/meg.brown@duke.edu/IASgallery.jpg",
   "status" : 1,
   "timestamp" : 1375899964,
   "filemime" : "image/jpeg",
   "filename" : "IASgallery.jpg",
   "uuid" : "41af3892-19fa-4f34-b67f-36e6c6c8fda0"
}
