{
   "timestamp" : 1487011865,
   "filename" : "LC11-15-16.docx",
   "filemime" : "application/vnd.openxmlformats-officedocument.wordprocessingml.document",
   "uuid" : "4328f8c6-7103-42bc-b428-fdcb4dbf024e",
   "filesize" : 20629,
   "fid" : 2311,
   "uid" : 513,
   "uri" : "public://about/LC11-15-16.docx",
   "status" : 1
}
