{
   "timestamp" : 1438960841,
   "filemime" : "image/jpeg",
   "filename" : "Bay-Psalm-Book-for-web.jpg",
   "uuid" : "4493b6c0-d88f-4243-9ea5-0739179acef2",
   "filesize" : 92265,
   "uid" : 3,
   "fid" : 1643,
   "status" : 1,
   "uri" : "public://exhibits/Bay-Psalm-Book-for-web.jpg"
}
