{
   "timestamp" : 1425496684,
   "uuid" : "44f03c28-6051-4564-8c2f-08f04fdf2f8a",
   "filename" : "Dantoin.pdf",
   "filemime" : "application/pdf",
   "uid" : 67,
   "fid" : 1273,
   "filesize" : 172677,
   "uri" : "public://users/megan.crain/Dantoin.pdf",
   "status" : 1
}
