{
   "fid" : 1569,
   "uid" : 339,
   "filesize" : 60689,
   "status" : 1,
   "uri" : "public://exhibits/alexharris.jpg",
   "timestamp" : 1438716756,
   "uuid" : "450dd14e-886c-4f40-a205-5a82168acb83",
   "filemime" : "image/jpeg",
   "filename" : "alexharris.jpg"
}
