{
   "uri" : "public://research/student-activism/chroniclenov271929industrialcrisis.pdf",
   "status" : 1,
   "fid" : 3751,
   "uid" : 55,
   "filesize" : 1816630,
   "uuid" : "4641818c-9bce-4eaa-8567-703537f41797",
   "filemime" : "application/pdf",
   "filename" : "chroniclenov271929industrialcrisis.pdf",
   "timestamp" : 1516740699
}
