{
   "timestamp" : 1398090641,
   "uuid" : "46be0acc-9004-4aa8-a2f7-46bb8793101b",
   "filename" : "large_ddr-permissions.jpg",
   "filemime" : "image/jpeg",
   "fid" : 977,
   "uid" : 92,
   "filesize" : 3601,
   "uri" : "public://users/jim.tuttle/large_ddr-permissions.jpg",
   "status" : 1
}
