{
   "timestamp" : 1494959693,
   "filemime" : "image/jpeg",
   "filename" : "83ea09efd80e363cb59e47f9b0cefd61_0.jpg",
   "uuid" : "4743c691-382f-49b1-a7eb-9dd9c6086e41",
   "filesize" : 76687,
   "uid" : 67,
   "fid" : 2565,
   "status" : 1,
   "uri" : "public://users/megan.crain/83ea09efd80e363cb59e47f9b0cefd61_0.jpg"
}
