{
   "timestamp" : 1438182453,
   "filemime" : "image/jpeg",
   "filename" : "student_gallery.jpg",
   "uuid" : "478457e8-e5b4-4d18-90be-4b7e96119443",
   "filesize" : 125845,
   "fid" : 1531,
   "uid" : 3,
   "status" : 1,
   "uri" : "public://exhibits/student_gallery.jpg"
}
