{
   "uid" : 43,
   "fid" : 95,
   "filesize" : 48586,
   "status" : 1,
   "uri" : "public://users/zitser/Aptman index.jpg",
   "timestamp" : 1375116261,
   "uuid" : "47857452-9430-41d0-b899-18f37cc7f07e",
   "filename" : "Aptman index.jpg",
   "filemime" : "image/jpeg"
}
