{
   "filesize" : 61980,
   "fid" : 4087,
   "uid" : 3,
   "status" : 1,
   "uri" : "public://about/jantz-ms-124.jpg",
   "timestamp" : 1522348833,
   "filename" : "jantz-ms-124.jpg",
   "filemime" : "image/jpeg",
   "uuid" : "48440667-f26c-4b57-a565-ab344a99f238"
}
