{
   "fid" : 4107,
   "uid" : 110,
   "filesize" : 15927,
   "uri" : "public://users/kate.collins/2018 Middlesworth Nomination Form.docx",
   "status" : 1,
   "timestamp" : 1525443709,
   "uuid" : "4859f85a-9874-4433-8906-67e44ba1e3dd",
   "filemime" : "application/vnd.openxmlformats-officedocument.wordprocessingml.document",
   "filename" : "2018 Middlesworth Nomination Form.docx"
}
