{
   "status" : 1,
   "uri" : "public://using-the-library/jstor-http-not-secure.png",
   "uid" : 25,
   "fid" : 2913,
   "filesize" : 17796,
   "uuid" : "4862a983-2df5-4448-aa55-83e400341ead",
   "filename" : "jstor-http-not-secure.png",
   "filemime" : "image/png",
   "timestamp" : 1507125488
}
