{
   "timestamp" : 1517330065,
   "uuid" : "48a47c46-84b7-4ad9-9180-c4577dced4be",
   "filemime" : "application/pdf",
   "filename" : "11-16-1937pg4.pdf",
   "fid" : 3821,
   "uid" : 81,
   "filesize" : 820186,
   "status" : 1,
   "uri" : "public://users/danette.pachtner/11-16-1937pg4.pdf"
}
