{
   "timestamp" : 1502464646,
   "uuid" : "48d9791e-fa6a-4f63-9a1a-71940a4de409",
   "filemime" : "application/pdf",
   "filename" : "74779.pdf",
   "uid" : 147,
   "fid" : 2761,
   "filesize" : 5496096,
   "uri" : "public://research/student-activism/74779.pdf",
   "status" : 1
}
