{
   "filename" : "8368389924_29200bb8ea_o.jpg",
   "filemime" : "image/jpeg",
   "uuid" : "4a340895-e2d1-461d-bf78-13297df63088",
   "timestamp" : 1494869809,
   "uri" : "public://users/megan.crain/8368389924_29200bb8ea_o.jpg",
   "status" : 1,
   "filesize" : 163366,
   "uid" : 67,
   "fid" : 2491
}
