{
   "uuid" : "4aa8712d-f6e5-4cc6-919b-007c362baf5a",
   "filemime" : "image/jpeg",
   "filename" : "Crazy Smart 16 small.jpg",
   "timestamp" : 1419022477,
   "uri" : "public://users/aaron.welborn/Crazy Smart 16 small.jpg",
   "status" : 1,
   "fid" : 1197,
   "uid" : 60,
   "filesize" : 47950
}
