{
   "filemime" : "image/png",
   "filename" : "time-3-white.png",
   "uuid" : "4aade185-147f-41d1-a060-61e46b69e46a",
   "timestamp" : 1613509204,
   "uri" : "public://users/angela.zoss/time-3-white.png",
   "status" : 1,
   "filesize" : 2191,
   "uid" : 71,
   "fid" : 5031
}
