{
   "timestamp" : 1391630202,
   "uuid" : "4b1d3663-ed66-46f3-8946-31c87a8ab943",
   "filemime" : "image/png",
   "filename" : "browzine_article_ios_onDevice.png",
   "uid" : 181,
   "fid" : 887,
   "filesize" : 69206,
   "status" : 1,
   "uri" : "public://users/Melanie Sturgeon/browzine_article_ios_onDevice.png"
}
