{
   "fid" : 3879,
   "uid" : 81,
   "filesize" : 1773891,
   "uri" : "public://research/student-activism/12-3-1937combined.pdf",
   "status" : 1,
   "timestamp" : 1517343831,
   "uuid" : "4b7275a3-b1ce-49b0-b410-8f1ca5e57d20",
   "filemime" : "application/pdf",
   "filename" : "12-3-1937combined.pdf"
}
