{
   "filemime" : "image/jpeg",
   "filename" : "medium_diderot4.jpg",
   "uuid" : "4b8e613a-aba9-4bc3-9511-1ea20a2f9112",
   "timestamp" : 1383161619,
   "uri" : "public://users/beth.doyle/medium_diderot4.jpg",
   "status" : 1,
   "filesize" : 3127,
   "uid" : 69,
   "fid" : 536
}
