{
   "status" : 1,
   "uri" : "public://carousel_images/hmpgp133440000_880x500.jpg",
   "fid" : 1399,
   "uid" : 199,
   "filesize" : 111679,
   "uuid" : "4baceb1a-d580-4647-8155-696b89afd90b",
   "filemime" : "image/jpeg",
   "filename" : "hmpgp133440000_880x500.jpg",
   "timestamp" : 1431720175
}
