{
   "filesize" : 4282,
   "fid" : 2335,
   "uid" : 191,
   "status" : 1,
   "uri" : "public://users/Laura Williams/medium_chanticleerseria1929duke_0007.jpg",
   "timestamp" : 1487034668,
   "filename" : "medium_chanticleerseria1929duke_0007.jpg",
   "filemime" : "image/jpeg",
   "uuid" : "4c998cd5-283e-45fd-adb2-124100ee3e13"
}
