{
   "timestamp" : 1507125458,
   "filemime" : "image/png",
   "filename" : "proquest-https-secure.png",
   "uuid" : "4cc35565-e8b0-4659-b535-b7fa7c2e40e1",
   "filesize" : 21067,
   "uid" : 25,
   "fid" : 2911,
   "status" : 1,
   "uri" : "public://using-the-library/proquest-https-secure.png"
}
