{
   "uuid" : "4ce3258f-608c-443d-a52f-7851c724a692",
   "filename" : "williams-brad.png",
   "filemime" : "image/png",
   "timestamp" : 1432235197,
   "uri" : "public://staff-portraits/williams-brad.png",
   "status" : 1,
   "fid" : 1423,
   "uid" : 25,
   "filesize" : 15496
}
