{
   "uri" : "public://course-support/group-study2.jpg",
   "status" : 1,
   "fid" : 1759,
   "uid" : 25,
   "filesize" : 12393,
   "uuid" : "4db332e4-8210-4f28-8684-6863684fa661",
   "filename" : "group-study2.jpg",
   "filemime" : "image/jpeg",
   "timestamp" : 1441214871
}
