{
   "filemime" : "application/vnd.openxmlformats-officedocument.wordprocessingml.document",
   "filename" : "Library Council April 25.docx",
   "uuid" : "4dbcc739-af34-4a7d-8604-844d3467d78d",
   "timestamp" : 1558023344,
   "uri" : "public://about/Library Council April 25.docx",
   "status" : 1,
   "filesize" : 19161,
   "uid" : 513,
   "fid" : 4525
}
