{
   "status" : 1,
   "uri" : "public://staff_images/crichlow-12.jpg",
   "uid" : 25,
   "fid" : 4570,
   "filesize" : 1352399,
   "uuid" : "4e7414a8-e13b-43f0-9a15-b78bd272fbe6",
   "filemime" : "image/jpeg",
   "filename" : "crichlow-12.jpg",
   "timestamp" : 1565372504
}
