{
   "timestamp" : 1541349795,
   "filename" : "2018-nov-paintByStickers.png",
   "filemime" : "image/png",
   "uuid" : "4e9aa45c-edeb-40fa-ac6b-a0fb55c250fd",
   "filesize" : 158567,
   "fid" : 4343,
   "uid" : 2077,
   "uri" : "public://rooms/2018-nov-paintByStickers.png",
   "status" : 1
}
