{
   "timestamp" : 1491590245,
   "uuid" : "4ef1e0a7-ddbc-4587-b70a-3c9be69a5e39",
   "filemime" : "image/jpeg",
   "filename" : "paradise_1.jpg",
   "uid" : 69,
   "fid" : 2457,
   "filesize" : 112997,
   "status" : 1,
   "uri" : "public://users/beth.doyle/paradise_1.jpg"
}
