{
   "filesize" : 42121,
   "fid" : 2259,
   "uid" : 25,
   "status" : 1,
   "uri" : "public://rooms/perkins118.jpg",
   "timestamp" : 1486068392,
   "filemime" : "image/jpeg",
   "filename" : "perkins118.jpg",
   "uuid" : "4f513306-a714-4d22-b5f0-7637dd5d7f77"
}
