{
   "status" : 1,
   "uri" : "public://users/lee.sorensen/VoFW.jpg",
   "filesize" : 76629,
   "fid" : 2759,
   "uid" : 48,
   "filename" : "VoFW.jpg",
   "filemime" : "image/jpeg",
   "uuid" : "4fd4d4c6-33b7-43b6-bf5f-94c665017089",
   "timestamp" : 1502370894
}
