{
   "uuid" : "50961d96-aee9-4793-b60a-b9d2133ce4c8",
   "filename" : "jacqueline-reid-wachholz.jpg",
   "filemime" : "image/jpeg",
   "timestamp" : 1432235052,
   "uri" : "public://staff-portraits/jacqueline-reid-wachholz.jpg",
   "status" : 1,
   "uid" : 25,
   "fid" : 1417,
   "filesize" : 14891
}
