{
   "uid" : 101,
   "fid" : 3993,
   "filesize" : 14943,
   "status" : 1,
   "uri" : "public://users/ciarahealy/medium_VPN+MFA-2-1.png",
   "timestamp" : 1517599394,
   "uuid" : "50ecb3b9-5879-4dc6-a486-d7a155d88c7a",
   "filename" : "medium_VPN+MFA-2-1.png",
   "filemime" : "image/png"
}
