{
   "timestamp" : 1385406115,
   "filename" : "exhibits_81.jpg",
   "filemime" : "image/jpeg",
   "uuid" : "50fcedf5-a7e1-4ad5-87ab-a3dcb1be81f6",
   "filesize" : 7788,
   "fid" : 745,
   "uid" : 139,
   "status" : 1,
   "uri" : "public://pictures/exhibits_81.jpg"
}
