{
   "status" : 1,
   "uri" : "public://research/student-activism/Slide 49 3.9.1937.pdf",
   "filesize" : 8613764,
   "uid" : 81,
   "fid" : 3509,
   "filename" : "Slide 49 3.9.1937.pdf",
   "filemime" : "application/pdf",
   "uuid" : "5114eddf-c0b3-4bc9-b541-2895e8aaa3af",
   "timestamp" : 1514999178
}
