{
   "filemime" : "image/jpeg",
   "filename" : "article-ill.jpg",
   "uuid" : "5134e9ee-2fa1-490c-8405-e7e423c19651",
   "timestamp" : 1389890878,
   "status" : 1,
   "uri" : "public://course-support/article-ill.jpg",
   "filesize" : 19242,
   "uid" : 63,
   "fid" : 853
}
