{
   "timestamp" : 1446671297,
   "uuid" : "5142591d-af3b-45d8-9af7-8cfe7779bb3b",
   "filemime" : "image/jpeg",
   "filename" : "open lab.jpg",
   "fid" : 1797,
   "uid" : 36,
   "filesize" : 102298,
   "uri" : "public://carousel_images/open lab.jpg",
   "status" : 1
}
