{
   "uid" : 59,
   "fid" : 214,
   "filesize" : 2342,
   "status" : 1,
   "uri" : "public://users/shelby.tilley/large_flowchart for web4.jpg",
   "timestamp" : 1376598416,
   "uuid" : "525fa706-4db3-444d-b22c-a4e1325353c2",
   "filemime" : "image/jpeg",
   "filename" : "large_flowchart for web4.jpg"
}
