{
   "uuid" : "52b4aea0-3040-4512-9d98-7d952d1ffb0d",
   "filemime" : "image/jpeg",
   "filename" : "IMG_0332.JPG",
   "timestamp" : 1430229117,
   "status" : 1,
   "uri" : "public://users/Will Sexton/IMG_0332.JPG",
   "uid" : 114,
   "fid" : 1373,
   "filesize" : 89841
}
