{
   "uri" : "public://research/student-activism/corrihertosharpefeb101936tn_1.jpg",
   "status" : 1,
   "uid" : 73,
   "fid" : 3007,
   "filesize" : 23663,
   "uuid" : "53f2c372-aada-4631-8645-e507299a01a0",
   "filename" : "corrihertosharpefeb101936tn_1.jpg",
   "filemime" : "image/jpeg",
   "timestamp" : 1509132519
}
