{
   "filesize" : 20805,
   "uid" : 69,
   "fid" : 965,
   "status" : 1,
   "uri" : "public://users/beth.doyle/Duke Chronicle 1905_0.jpg",
   "timestamp" : 1395255024,
   "filename" : "Duke Chronicle 1905_0.jpg",
   "filemime" : "image/jpeg",
   "uuid" : "53f644d0-47b1-4434-bc4d-576f9d6f2175"
}
