{
   "filemime" : "image/jpeg",
   "filename" : "exhibits_25.jpg",
   "uuid" : "5526b837-3a7d-4068-bbeb-ab160127cd0c",
   "timestamp" : 1385405754,
   "uri" : "public://pictures/exhibits_25.jpg",
   "status" : 1,
   "filesize" : 9759,
   "uid" : 139,
   "fid" : 633
}
