{
   "timestamp" : 1431695916,
   "uuid" : "55747a44-db19-4e6f-9f96-0e55d81fa7db",
   "filename" : "DUL Crazy Smart 19_125x125.jpg",
   "filemime" : "image/jpeg",
   "uid" : 60,
   "fid" : 1381,
   "filesize" : 44728,
   "status" : 1,
   "uri" : "public://users/aaron.welborn/DUL Crazy Smart 19_125x125.jpg"
}
