{
   "timestamp" : 1375470297,
   "uuid" : "57847a3f-701f-4ff5-be61-5e396639b05a",
   "filemime" : "image/png",
   "filename" : "image5.png",
   "fid" : 114,
   "uid" : 84,
   "filesize" : 107300,
   "uri" : "public://image5.png",
   "status" : 1
}
