{
   "filename" : "Chroniclemarch261936publicationsboard.pdf",
   "filemime" : "application/pdf",
   "uuid" : "5876b054-3884-44ac-8189-c27da6d625b6",
   "timestamp" : 1508780105,
   "status" : 1,
   "uri" : "public://research/student-activism/Chroniclemarch261936publicationsboard.pdf",
   "filesize" : 1018948,
   "uid" : 73,
   "fid" : 2963
}
