{
   "uuid" : "58b4abc2-ada6-4942-87dc-fc9f6b3cb136",
   "filename" : "small_Untitled.jpg",
   "filemime" : "image/jpeg",
   "timestamp" : 1381764042,
   "uri" : "public://users/jean.ferguson/small_Untitled.jpg",
   "status" : 1,
   "fid" : 445,
   "uid" : 95,
   "filesize" : 3229
}
