{
   "timestamp" : 1381439673,
   "filename" : "sharpening_our_vision_1pg.pdf",
   "filemime" : "application/pdf",
   "uuid" : "58e42c24-3844-4479-92d1-56773f9328a3",
   "filesize" : 266624,
   "fid" : 443,
   "uid" : 139,
   "status" : 1,
   "uri" : "public://pdf/sharpening_our_vision_1pg.pdf"
}
