{
   "uri" : "public://research/student-activism/VFWPrincetonGorintoderTatevasiantn.jpg",
   "status" : 1,
   "uid" : 73,
   "fid" : 3101,
   "filesize" : 18919,
   "uuid" : "598cd647-4b37-4d0e-b103-0f6720616b4c",
   "filemime" : "image/jpeg",
   "filename" : "VFWPrincetonGorintoderTatevasiantn.jpg",
   "timestamp" : 1509479930
}
