{
   "uid" : 47,
   "fid" : 1011,
   "filesize" : 84359,
   "status" : 1,
   "uri" : "public://users/meg.brown@duke.edu/guardianarchivesexhibitmay2014small.jpg",
   "timestamp" : 1399562574,
   "uuid" : "598dabc2-57ac-4009-9484-d6723d48c647",
   "filemime" : "image/jpeg",
   "filename" : "guardianarchivesexhibitmay2014small.jpg"
}
