{
   "timestamp" : 1418824396,
   "filemime" : "image/jpeg",
   "filename" : "picture-369-1418824396.jpg",
   "uuid" : "5999637b-a8f6-41bd-a3a1-f5ac99e0137f",
   "filesize" : 294720,
   "fid" : 1185,
   "uid" : 369,
   "status" : 1,
   "uri" : "public://pictures/picture-369-1418824396.jpg"
}
