{
   "uri" : "public://research/student-activism/8-11.27.1929-industrial crisis 1_4 opt.pdf",
   "status" : 1,
   "uid" : 55,
   "fid" : 3363,
   "filesize" : 1816629,
   "uuid" : "59fe150e-c97d-4596-9916-bbbb78ea8bca",
   "filemime" : "application/pdf",
   "filename" : "8-11.27.1929-industrial crisis 1_4 opt.pdf",
   "timestamp" : 1513363573
}
