{
   "uuid" : "5a9ae6c0-a12d-43c7-9a51-2b44e537114b",
   "filename" : "Karen 3.jpg",
   "filemime" : "image/jpeg",
   "timestamp" : 1566246876,
   "status" : 1,
   "uri" : "public://staff_images/Karen 3.jpg",
   "fid" : 4602,
   "uid" : 2167,
   "filesize" : 4278439
}
