{
   "fid" : 3651,
   "uid" : 55,
   "filesize" : 894613,
   "uri" : "public://research/student-activism/Interracial council opt Slide 3.pdf",
   "status" : 1,
   "timestamp" : 1515637600,
   "uuid" : "5b04f0f3-329d-4a6a-9ba0-40817774f7c0",
   "filemime" : "application/pdf",
   "filename" : "Interracial council opt Slide 3.pdf"
}
