{
   "uuid" : "5b7869c6-7816-43e0-a7d8-4ccc8bd3b242",
   "filename" : "banner2.jpg",
   "filemime" : "image/jpeg",
   "timestamp" : 1502985886,
   "uri" : "public://users/lee.sorensen/banner2.jpg",
   "status" : 1,
   "uid" : 48,
   "fid" : 2809,
   "filesize" : 83591
}
