{
   "filesize" : 54169,
   "uid" : 81,
   "fid" : 3687,
   "status" : 1,
   "uri" : "public://research/student-activism/Statewide Conference.png",
   "timestamp" : 1515690691,
   "filename" : "Statewide Conference.png",
   "filemime" : "image/png",
   "uuid" : "5b9113df-7e26-4852-9c90-e02fd18b98ab"
}
