{
   "filesize" : 181479,
   "fid" : 402,
   "uid" : 36,
   "status" : 1,
   "uri" : "public://users/brittany.wofford@duke.edu/Second Floor Perkins 2.jpg",
   "timestamp" : 1380307502,
   "filemime" : "image/jpeg",
   "filename" : "Second Floor Perkins 2.jpg",
   "uuid" : "5bf1d334-04c9-40d9-9b2f-80a51c2f18fe"
}
