{
   "timestamp" : 1418758454,
   "uuid" : "5c130cdd-2ffc-4e3d-ab0e-464e965e3563",
   "filemime" : "image/jpeg",
   "filename" : "wofford-brittany.jpeg",
   "uid" : 25,
   "fid" : 1169,
   "filesize" : 7478,
   "uri" : "public://staff-portraits/wofford-brittany.jpeg",
   "status" : 1
}
