{
   "timestamp" : 1504032024,
   "uuid" : "5c6d522a-184e-4df7-966a-b87acc21c93e",
   "filename" : "the_edge.png",
   "filemime" : "image/png",
   "fid" : 1101,
   "uid" : 3,
   "filesize" : 20744,
   "uri" : "public://carousel_images/the_edge_1.png",
   "status" : 1
}
