{
   "filesize" : 1622492,
   "fid" : 4147,
   "uid" : 313,
   "status" : 1,
   "uri" : "public://users/Joyce Chapman/Instructions-tableau-dashboards2018_1.pdf",
   "timestamp" : 1528200375,
   "filemime" : "application/pdf",
   "filename" : "Instructions-tableau-dashboards2018_1.pdf",
   "uuid" : "5cab9508-ef1c-434a-bcd0-a361262940d4"
}
