{
   "uuid" : "5cdbdb22-4906-4047-af3d-9efdd6c69b71",
   "filemime" : "image/jpeg",
   "filename" : "Library Sources_HERO.jpg",
   "timestamp" : 1475264297,
   "uri" : "public://carousel_images/Library Sources_HERO.jpg",
   "status" : 1,
   "uid" : 433,
   "fid" : 2207,
   "filesize" : 162005
}
