{
   "status" : 1,
   "uri" : "public://about/FullSizeRender.jpg",
   "filesize" : 85579,
   "uid" : 25,
   "fid" : 1883,
   "filename" : "FullSizeRender.jpg",
   "filemime" : "image/jpeg",
   "uuid" : "5cdf964f-48b5-4f50-a309-44c7477fa052",
   "timestamp" : 1538417030
}
