{
   "timestamp" : 1576090540,
   "filemime" : "image/jpeg",
   "filename" : "20191211_135233.jpg",
   "uuid" : "5dfc0d7e-031c-476b-93ec-2875836b486f",
   "filesize" : 29528,
   "fid" : 4781,
   "uid" : 2213,
   "uri" : "public://exhibits/20191211_135233.jpg",
   "status" : 1
}
