{
   "timestamp" : 1486068686,
   "filename" : "perkins218-b.jpg",
   "filemime" : "image/jpeg",
   "uuid" : "5e46dbc4-7c64-42b6-b433-49c17f8dea29",
   "filesize" : 44266,
   "fid" : 2275,
   "uid" : 25,
   "status" : 1,
   "uri" : "public://rooms/perkins218-b.jpg"
}
