{
   "uuid" : "5e5a302c-fbc6-4e65-b4fa-eafffc33377b",
   "filename" : "pavilion5.jpg",
   "filemime" : "image/jpeg",
   "timestamp" : 1379539471,
   "uri" : "public://support/pavilion5.jpg",
   "status" : 1,
   "fid" : 362,
   "uid" : 3,
   "filesize" : 52318
}
