{
   "uuid" : "5f098ea9-6d27-4c9e-a97b-2874a412e625",
   "filemime" : "image/jpeg",
   "filename" : "small_Kenya House_0.jpg",
   "timestamp" : 1371651779,
   "uri" : "public://pictures/small_Kenya House_0.jpg",
   "status" : 1,
   "uid" : 45,
   "fid" : 7,
   "filesize" : 2827
}
