{
   "status" : 1,
   "uri" : "public://medium_Penguins.jpg",
   "fid" : 34,
   "uid" : 54,
   "filesize" : 4530,
   "uuid" : "60fb14da-692e-4353-a5ae-059bd2f577b5",
   "filename" : "medium_Penguins.jpg",
   "filemime" : "image/jpeg",
   "timestamp" : 1372172282
}
