{
   "status" : 1,
   "uri" : "public://research/student-activism/chronicleoct161929liberalclubforms.pdf",
   "uid" : 73,
   "fid" : 3713,
   "filesize" : 1062061,
   "uuid" : "610cb2f0-14fc-4d00-b3b2-5e3dbca1199a",
   "filemime" : "application/pdf",
   "filename" : "chronicleoct161929liberalclubforms.pdf",
   "timestamp" : 1516327612
}
