{
   "status" : 1,
   "uri" : "public://users/shelby.tilley/flowchart for web2.png",
   "uid" : 59,
   "fid" : 205,
   "filesize" : 190325,
   "uuid" : "612af057-f807-41db-9d63-cc08da94516e",
   "filename" : "flowchart for web2.png",
   "filemime" : "image/png",
   "timestamp" : 1376595875
}
