{
   "status" : 1,
   "uri" : "public://using-the-library/CardBack_MedStu.gif",
   "fid" : 452,
   "uid" : 25,
   "filesize" : 27505,
   "uuid" : "61680c51-ef36-4b80-8fec-25a32b5750d0",
   "filename" : "CardBack_MedStu.gif",
   "filemime" : "image/gif",
   "timestamp" : 1381769128
}
