{
   "uid" : 69,
   "fid" : 999,
   "filesize" : 38282,
   "status" : 1,
   "uri" : "public://users/beth.doyle/adopt_wright.jpg",
   "timestamp" : 1398784132,
   "uuid" : "617af2a3-f51e-4ccb-a6e0-7e202356594a",
   "filemime" : "image/jpeg",
   "filename" : "adopt_wright.jpg"
}
