{
   "timestamp" : 1510329954,
   "uuid" : "645bd799-7366-40a7-a30a-f9bba5ffd0f7",
   "filemime" : "application/pdf",
   "filename" : "Archive193802_Pacifist.pdf",
   "fid" : 3321,
   "uid" : 149,
   "filesize" : 17815507,
   "status" : 1,
   "uri" : "public://research/student-activism/Archive193802_Pacifist.pdf"
}
