{
   "timestamp" : 1431697967,
   "uuid" : "645c3b0c-e3b9-4c57-98c1-3037995260da",
   "filename" : "picture-55-1431697967.jpg",
   "filemime" : "image/jpeg",
   "uid" : 55,
   "fid" : 1383,
   "filesize" : 80483,
   "uri" : "public://pictures/picture-55-1431697967.jpg",
   "status" : 1
}
