{
   "uuid" : "649545ed-1169-4473-b4a4-db277307cd7d",
   "filename" : "Bronte sampler.jpg",
   "filemime" : "image/jpeg",
   "timestamp" : 1494858798,
   "status" : 1,
   "uri" : "public://users/megan.crain/Bronte sampler.jpg",
   "uid" : 67,
   "fid" : 2471,
   "filesize" : 181957
}
