{
   "filesize" : 84297,
   "fid" : 560,
   "uid" : 36,
   "status" : 1,
   "uri" : "public://users/brittany.wofford@duke.edu/Perkins 412-2.jpg",
   "timestamp" : 1383848340,
   "filename" : "Perkins 412-2.jpg",
   "filemime" : "image/jpeg",
   "uuid" : "64afc1b4-a87a-4abb-92b8-f7771a8bed04"
}
