{
   "timestamp" : 1516820626,
   "filename" : "chroniclemar121931economicroots.pdf",
   "filemime" : "application/pdf",
   "uuid" : "64dd1b4e-1764-49ba-90ca-d052fc6206a3",
   "filesize" : 932425,
   "fid" : 3765,
   "uid" : 55,
   "uri" : "public://research/student-activism/chroniclemar121931economicroots.pdf",
   "status" : 1
}
