{
   "uid" : 149,
   "fid" : 3285,
   "filesize" : 2038348,
   "status" : 1,
   "uri" : "public://research/student-activism/19420313_WSSF.pdf",
   "timestamp" : 1510155114,
   "uuid" : "64e5d846-a158-4215-abbf-c9b05083f41e",
   "filemime" : "application/pdf",
   "filename" : "19420313_WSSF.pdf"
}
