{
   "uuid" : "65d6800e-b82c-4f9e-ae15-e0675b30193a",
   "filemime" : "application/pdf",
   "filename" : "sharpening_our_vision.pdf",
   "timestamp" : 1381439636,
   "status" : 1,
   "uri" : "public://pdf/sharpening_our_vision.pdf",
   "uid" : 139,
   "fid" : 442,
   "filesize" : 77779
}
