{
   "filename" : "Tulips_0.jpg",
   "filemime" : "image/jpeg",
   "uuid" : "66164e31-d4f4-4d38-8c3f-7b201e62231b",
   "timestamp" : 1374775175,
   "status" : 1,
   "uri" : "public://users/greta.boers@duke.edu/Tulips_0.jpg",
   "filesize" : 8156,
   "fid" : 75,
   "uid" : 100
}
