{
   "filesize" : 246139,
   "uid" : 339,
   "fid" : 1591,
   "uri" : "public://exhibits/It-Aint-Me.jpg",
   "status" : 1,
   "timestamp" : 1438804100,
   "filename" : "It-Aint-Me.jpg",
   "filemime" : "image/jpeg",
   "uuid" : "66619b31-7370-43eb-85cf-4fde7772a5db"
}
