{
   "uri" : "public://Hydrangeas_0.jpg",
   "status" : 1,
   "uid" : 84,
   "fid" : 127,
   "filesize" : 7137,
   "uuid" : "66a11d14-316f-4dd7-97e5-831355c8bdf1",
   "filemime" : "image/jpeg",
   "filename" : "Hydrangeas_0.jpg",
   "timestamp" : 1375716955
}
