{
   "uuid" : "66b226cd-65c6-4e33-8ffa-e9eb5fafc571",
   "filename" : "dorothy_allison.jpg",
   "filemime" : "image/jpeg",
   "timestamp" : 1439311192,
   "uri" : "public://exhibits/dorothy_allison.jpg",
   "status" : 1,
   "fid" : 1707,
   "uid" : 3,
   "filesize" : 30548
}
