{
   "uuid" : "66b6c6a4-c96d-4b72-9716-7cef5cb28cbc",
   "filemime" : "application/pdf",
   "filename" : "Slide 49 3.9.1937 (1).pdf",
   "timestamp" : 1514999409,
   "uri" : "public://research/student-activism/Slide 49 3.9.1937 (1).pdf",
   "status" : 1,
   "fid" : 3517,
   "uid" : 81,
   "filesize" : 1026879
}
