{
   "filesize" : 42173,
   "uid" : 25,
   "fid" : 2359,
   "status" : 1,
   "uri" : "public://rooms/bostock039.jpg",
   "timestamp" : 1488209643,
   "filemime" : "image/jpeg",
   "filename" : "bostock039.jpg",
   "uuid" : "671ae345-c8be-4075-ad7e-e9612e23f8af"
}
