{
   "uid" : 2355,
   "fid" : 4897,
   "filesize" : 14835,
   "uri" : "public://users/Anastasia Forte/rosaticoversheet2020_0.docx",
   "status" : 1,
   "timestamp" : 1585938711,
   "uuid" : "673be5b2-32f5-4049-b658-528d04762ddf",
   "filename" : "rosaticoversheet2020_0.docx",
   "filemime" : "application/vnd.openxmlformats-officedocument.wordprocessingml.document"
}
