{
   "timestamp" : 1398089286,
   "uuid" : "677f4382-1dac-4047-b79d-e4c15ea700aa",
   "filename" : "ddr-browse.jpg",
   "filemime" : "image/jpeg",
   "fid" : 971,
   "uid" : 92,
   "filesize" : 69400,
   "uri" : "public://users/jim.tuttle/ddr-browse.jpg",
   "status" : 1
}
