{
   "filesize" : 34383,
   "fid" : 310,
   "uid" : 84,
   "status" : 1,
   "uri" : "public://users/christina holder/emmanuel_senga.jpg",
   "timestamp" : 1378756459,
   "filemime" : "image/jpeg",
   "filename" : "emmanuel_senga.jpg",
   "uuid" : "68fb8430-0178-44f8-9e0f-8daac3dd0728"
}
