{
   "uuid" : "69096e6c-ffa9-4d06-aeb1-4e769eafe249",
   "filename" : "rosaticoversheet2020.docx",
   "filemime" : "application/vnd.openxmlformats-officedocument.wordprocessingml.document",
   "timestamp" : 1585593035,
   "uri" : "public://users/Anastasia Forte/rosaticoversheet2020.docx",
   "status" : 1,
   "uid" : 2355,
   "fid" : 4891,
   "filesize" : 14857
}
