{
   "uid" : 57,
   "fid" : 3077,
   "filesize" : 1526592,
   "status" : 1,
   "uri" : "public://research/student-activism/Chronicle_11_10_1944 Inter-racial Meeting.pdf",
   "timestamp" : 1509474052,
   "uuid" : "692058af-aa8d-451a-8761-b74a0b6d6c21",
   "filemime" : "application/pdf",
   "filename" : "Chronicle_11_10_1944 Inter-racial Meeting.pdf"
}
