{
   "uuid" : "694a9757-86c9-4a81-a5b3-e2e47a40ee4f",
   "filename" : "chroniclesept271935publicationsboard.pdf",
   "filemime" : "application/pdf",
   "timestamp" : 1508779712,
   "uri" : "public://research/student-activism/chroniclesept271935publicationsboard.pdf",
   "status" : 1,
   "fid" : 2961,
   "uid" : 73,
   "filesize" : 1071161
}
