{
   "uri" : "public://research/student-activism/Poems of Cabin.png",
   "status" : 1,
   "filesize" : 847507,
   "uid" : 147,
   "fid" : 3647,
   "filemime" : "image/png",
   "filename" : "Poems of Cabin.png",
   "uuid" : "69a23845-c9f3-46be-af23-cfbbb548512d",
   "timestamp" : 1515600516
}
