{
   "timestamp" : 1371585106,
   "filemime" : "image/jpeg",
   "filename" : "picture-43-1371585106.jpg",
   "uuid" : "6aa1c9fe-ff33-4cac-82ce-0b3b41c7cb69",
   "filesize" : 50513,
   "fid" : 2,
   "uid" : 43,
   "status" : 1,
   "uri" : "public://pictures/picture-43-1371585106.jpg"
}
