{
   "timestamp" : 1513106167,
   "uuid" : "6b274c5e-0830-4aff-b46c-5347ee0430cc",
   "filename" : "11-eagle1939nort_0014.jpg",
   "filemime" : "image/jpeg",
   "uid" : 55,
   "fid" : 3341,
   "filesize" : 78378,
   "uri" : "public://research/student-activism/11-eagle1939nort_0014.jpg",
   "status" : 1
}
