{
   "uuid" : "6b328809-0f55-418e-b4dc-011d859c57a5",
   "filemime" : "image/jpeg",
   "filename" : "dul_takeout_rectangular_0.jpg",
   "timestamp" : 1596032727,
   "status" : 1,
   "uri" : "public://users/danette.pachtner/dul_takeout_rectangular_0.jpg",
   "uid" : 81,
   "fid" : 4952,
   "filesize" : 42746
}
