{
   "status" : 1,
   "uri" : "public://exhibits/dickens.jpg",
   "filesize" : 28903,
   "uid" : 3,
   "fid" : 1665,
   "filemime" : "image/jpeg",
   "filename" : "dickens.jpg",
   "uuid" : "6be3f293-7361-4d28-845d-dfbef5c40f5f",
   "timestamp" : 1438982442
}
