{
   "status" : 1,
   "uri" : "public://staff_images/crichlow-12_2.jpg",
   "uid" : 25,
   "fid" : 4655,
   "filesize" : 1352399,
   "uuid" : "6c36fc41-dd10-4add-aa4a-1bedfdcb8ae8",
   "filename" : "crichlow-12.jpg",
   "filemime" : "image/jpeg",
   "timestamp" : 1567003060
}
