{
   "filename" : "light_table_gamble_880.jpg",
   "filemime" : "image/jpeg",
   "uuid" : "6ccaa236-9d95-424b-8084-3581524d1e4c",
   "timestamp" : 1431715716,
   "status" : 1,
   "uri" : "public://carousel_images/light_table_gamble_880.jpg",
   "filesize" : 110967,
   "uid" : 199,
   "fid" : 1393
}
