{
   "timestamp" : 1514924199,
   "filemime" : "image/jpeg",
   "filename" : "epcstudentvolunteersupdatetn_0.jpg",
   "uuid" : "6d2a4aa0-c9c1-4194-b3f3-66e20668bee4",
   "filesize" : 24613,
   "fid" : 3431,
   "uid" : 73,
   "uri" : "public://research/student-activism/epcstudentvolunteersupdatetn_0.jpg",
   "status" : 1
}
