{
   "filesize" : 141467,
   "fid" : 2559,
   "uid" : 67,
   "uri" : "public://users/megan.crain/7467571526_0847af88b3_o.jpg",
   "status" : 1,
   "timestamp" : 1494959465,
   "filename" : "7467571526_0847af88b3_o.jpg",
   "filemime" : "image/jpeg",
   "uuid" : "6d5c5699-4bd6-4b14-836b-f2ff62d103b2"
}
