{
   "fid" : 508,
   "uid" : 69,
   "filesize" : 196111,
   "status" : 1,
   "uri" : "public://users/beth.doyle/Photo 3.jpg",
   "timestamp" : 1382633529,
   "uuid" : "6d7d5ccc-a674-4614-8ae7-d8e3ff2bcc8a",
   "filename" : "Photo 3.jpg",
   "filemime" : "image/jpeg"
}
