{
   "timestamp" : 1435332546,
   "uuid" : "6e0212e0-ef0b-45e1-a856-a82d2c34f945",
   "filemime" : "image/png",
   "filename" : "roses.png",
   "uid" : 3,
   "fid" : 1503,
   "filesize" : 274170,
   "uri" : "public://exhibits/roses.png",
   "status" : 1
}
