{
   "uuid" : "6ecb5e0f-c08a-4ad4-ad53-022274a0a5c8",
   "filename" : "duke_dance.jpg",
   "filemime" : "image/jpeg",
   "timestamp" : 1435332806,
   "uri" : "public://exhibits/duke_dance.jpg",
   "status" : 1,
   "uid" : 3,
   "fid" : 1507,
   "filesize" : 61891
}
