{
   "uri" : "public://exhibits/westphal.jpg",
   "status" : 1,
   "fid" : 4321,
   "uid" : 47,
   "filesize" : 91249,
   "uuid" : "70b7e556-fa15-4a32-b896-ada6a571c0fc",
   "filename" : "westphal.jpg",
   "filemime" : "image/jpeg",
   "timestamp" : 1538602082
}
