{
   "uuid" : "71d2584b-144b-40d6-ab82-5e1c68b91d71",
   "filename" : "Library Newsletter Screenshot_0.jpg",
   "filemime" : "image/jpeg",
   "timestamp" : 1472674947,
   "uri" : "public://users/aaron.welborn/Library Newsletter Screenshot_0.jpg",
   "status" : 1,
   "uid" : 60,
   "fid" : 2169,
   "filesize" : 402476
}
