{
   "timestamp" : 1381340933,
   "uuid" : "72366e06-ec20-4351-9b85-cb2f2039b899",
   "filename" : "french_studies.jpg",
   "filemime" : "image/jpeg",
   "fid" : 417,
   "uid" : 139,
   "filesize" : 115999,
   "status" : 1,
   "uri" : "public://research-support/international/french_studies.jpg"
}
