{
   "uri" : "public://users/christina holder/lsc_location_entry.png",
   "status" : 1,
   "filesize" : 36013,
   "fid" : 294,
   "uid" : 84,
   "filename" : "lsc_location_entry.png",
   "filemime" : "image/png",
   "uuid" : "7248f677-d545-45ed-8703-d1a5e7628faf",
   "timestamp" : 1378500079
}
