{
   "filemime" : "application/pdf",
   "filename" : "Prexy_0.pdf",
   "uuid" : "729e9ec5-9758-4729-851d-ccdd27c9c7c9",
   "timestamp" : 1517586562,
   "status" : 1,
   "uri" : "public://research/student-activism/Prexy_0.pdf",
   "filesize" : 2554085,
   "fid" : 3955,
   "uid" : 147
}
