{
   "timestamp" : 1515523164,
   "uuid" : "745c6c7a-c22e-4a8c-b0f5-a078eb3d8a27",
   "filename" : "Weekly-Post-Xmas-Fund.jpg",
   "filemime" : "image/jpeg",
   "uid" : 81,
   "fid" : 3631,
   "filesize" : 60654,
   "status" : 1,
   "uri" : "public://research/student-activism/Weekly-Post-Xmas-Fund.jpg"
}
