{
   "uuid" : "7495698b-6d4e-4e4f-b3ee-dc46f994e5a7",
   "filemime" : "image/png",
   "filename" : "time-4-black.png",
   "timestamp" : 1613509215,
   "uri" : "public://users/angela.zoss/time-4-black.png",
   "status" : 1,
   "fid" : 5032,
   "uid" : 71,
   "filesize" : 2058
}
