{
   "timestamp" : 1481739091,
   "uuid" : "751cafda-4062-4c9a-b39a-93cfa4b0327c",
   "filemime" : "image/jpeg",
   "filename" : "strategy-3-researchteaching.jpg",
   "uid" : 4,
   "fid" : 197,
   "filesize" : 101512,
   "uri" : "public://carousel_images/strategy-3-researchteaching.jpg",
   "status" : 1
}
