{
   "status" : 1,
   "uri" : "public://using-the-library/drs.jpg",
   "filesize" : 30336,
   "uid" : 25,
   "fid" : 4975,
   "filename" : "drs.jpg",
   "filemime" : "image/jpeg",
   "uuid" : "760ff09c-4e18-4002-9346-51791059c870",
   "timestamp" : 1597777880
}
