{
   "uri" : "public://research/student-activism/chroniclemay191936ymcacombined.pdf",
   "status" : 1,
   "uid" : 73,
   "fid" : 2847,
   "filesize" : 1704494,
   "uuid" : "7654fa10-5d0c-4883-8247-9c70175ccbcf",
   "filename" : "chroniclemay191936ymcacombined.pdf",
   "filemime" : "application/pdf",
   "timestamp" : 1503012466
}
