{
   "uri" : "public://using-the-library/Bostock_KIC.jpeg",
   "status" : 1,
   "uid" : 2197,
   "fid" : 4219,
   "filesize" : 61974,
   "uuid" : "76c3fe22-f8e4-4de3-8995-74b680950770",
   "filemime" : "image/jpeg",
   "filename" : "Bostock_KIC.jpeg",
   "timestamp" : 1531240825
}
