{
   "status" : 1,
   "uri" : "public://about/DUL Org Chart 2017 no header - Page 1 (1).jpeg",
   "filesize" : 63086,
   "uid" : 1997,
   "fid" : 2377,
   "filename" : "DUL Org Chart 2017 no header - Page 1 (1).jpeg",
   "filemime" : "image/jpeg",
   "uuid" : "7786b2b8-0cd8-4c20-8e02-4194821b8170",
   "timestamp" : 1489689838
}
