{
   "uuid" : "77b00fa8-24b1-4fa1-864e-208a709d8738",
   "filename" : "copyright-and-fair-use.pdf",
   "filemime" : "application/pdf",
   "timestamp" : 1386162502,
   "uri" : "public://users/paolo.mangiafico/copyright-and-fair-use.pdf",
   "status" : 1,
   "uid" : 87,
   "fid" : 803,
   "filesize" : 42359
}
