{
   "uri" : "public://pdf/lab/2015-fall-agenda-FINAL.pdf",
   "status" : 1,
   "uid" : 25,
   "fid" : 1811,
   "filesize" : 458601,
   "uuid" : "7a2cb134-2f47-4fb1-a09d-5bbd8981b85d",
   "filemime" : "application/pdf",
   "filename" : "2015-fall-agenda-FINAL.pdf",
   "timestamp" : 1447187587
}
