{
   "uuid" : "7a384d60-95f6-46a2-ab1b-a5329bd234d5",
   "filename" : "mar17 newsletter screenshot.jpg",
   "filemime" : "image/jpeg",
   "timestamp" : 1489434191,
   "status" : 1,
   "uri" : "public://users/aaron.welborn/mar17 newsletter screenshot.jpg",
   "fid" : 2367,
   "uid" : 60,
   "filesize" : 62146
}
