{
   "uri" : "public://exhibits/forwebdayaltaj.jpg",
   "status" : 1,
   "uid" : 47,
   "fid" : 2417,
   "filesize" : 92497,
   "uuid" : "7a3c5283-8e5d-4683-b018-ffd6e0a704fc",
   "filemime" : "image/jpeg",
   "filename" : "forwebdayaltaj.jpg",
   "timestamp" : 1491358984
}
