{
   "timestamp" : 1470167295,
   "uuid" : "7aab8185-540c-4575-b1e0-77513354080c",
   "filemime" : "text/css",
   "filename" : "ejp2.css",
   "fid" : 2097,
   "uid" : 25,
   "filesize" : 3845,
   "uri" : "public://users/thomas.crichlow/ejp2.css",
   "status" : 1
}
