{
   "filesize" : 142654,
   "fid" : 2533,
   "uid" : 67,
   "uri" : "public://users/megan.crain/home_collage.jpg",
   "status" : 1,
   "timestamp" : 1494948034,
   "filemime" : "image/jpeg",
   "filename" : "home_collage.jpg",
   "uuid" : "7b3713da-c6b6-481b-8eea-78eb7af94147"
}
