{
   "uuid" : "7b7dc918-6a56-4581-96f0-16d3dd0261f7",
   "filename" : "2018 front image_0.PNG",
   "filemime" : "image/png",
   "timestamp" : 1544627966,
   "uri" : "public://users/Joyce Chapman/2018 front image_0.PNG",
   "status" : 1,
   "uid" : 313,
   "fid" : 4381,
   "filesize" : 1119947
}
