{
   "filesize" : 7053,
   "uid" : 3,
   "fid" : 1299,
   "status" : 1,
   "uri" : "public://services/firstyear/research_advanced.gif",
   "timestamp" : 1427306194,
   "filemime" : "image/gif",
   "filename" : "research_advanced.gif",
   "uuid" : "7be12ebf-31e6-46b6-b268-d6a54a977e88"
}
