{
   "timestamp" : 1613510076,
   "filename" : "music.jpg",
   "filemime" : "image/jpeg",
   "uuid" : "7bf8a553-9a65-4768-8a1d-6c268b5f85d6",
   "filesize" : 202212,
   "uid" : 71,
   "fid" : 5046,
   "uri" : "public://users/angela.zoss/music.jpg",
   "status" : 1
}
