{
   "timestamp" : 1502992370,
   "uuid" : "7c42f64d-c568-4f7b-aa06-c7c0e6bed1c7",
   "filename" : "Prizes. Full Chronicle Page.pdf",
   "filemime" : "application/pdf",
   "fid" : 2817,
   "uid" : 147,
   "filesize" : 1176362,
   "status" : 1,
   "uri" : "public://research/student-activism/Prizes. Full Chronicle Page.pdf"
}
