{
   "uri" : "public://research/student-activism/2nd-worker-student-conference-1938.pdf",
   "status" : 1,
   "filesize" : 1187435,
   "fid" : 3259,
   "uid" : 149,
   "filemime" : "application/pdf",
   "filename" : "2nd-worker-student-conference-1938.pdf",
   "uuid" : "7cf5d176-94bf-4813-918a-7884488737e4",
   "timestamp" : 1510154758
}
