{
   "uuid" : "7deaace1-0d89-4df2-9715-79545059254e",
   "filename" : "large_Writing20students2009.JPG",
   "filemime" : "image/jpeg",
   "timestamp" : 1375908403,
   "uri" : "public://users/meg.brown@duke.edu/large_Writing20students2009.JPG",
   "status" : 1,
   "fid" : 160,
   "uid" : 47,
   "filesize" : 10139
}
