{
   "timestamp" : 1405087037,
   "uuid" : "7e87a120-0183-4a91-b504-91b47b9c7cca",
   "filename" : "360link-sidebar-header.png",
   "filemime" : "image/png",
   "fid" : 1067,
   "uid" : 25,
   "filesize" : 4298,
   "uri" : "public://icons/360link-sidebar-header.png",
   "status" : 1
}
