{
   "timestamp" : 1385405879,
   "filemime" : "image/jpeg",
   "filename" : "exhibits_46.jpg",
   "uuid" : "7f643d62-6bb0-4f45-a75b-e7b870980784",
   "filesize" : 11376,
   "uid" : 139,
   "fid" : 675,
   "status" : 1,
   "uri" : "public://pictures/exhibits_46.jpg"
}
