{
   "timestamp" : 1517345392,
   "filename" : "2-8-1938pg1.pdf",
   "filemime" : "application/pdf",
   "uuid" : "7fa8baed-4744-4386-b25d-96b8ae11e4b3",
   "filesize" : 942624,
   "uid" : 81,
   "fid" : 3909,
   "uri" : "public://research/student-activism/2-8-1938pg1.pdf",
   "status" : 1
}
