{
   "filesize" : 2529,
   "uid" : 82,
   "fid" : 178,
   "status" : 1,
   "uri" : "public://users/michael.peper/logo-mendeley.png",
   "timestamp" : 1376414713,
   "filemime" : "image/png",
   "filename" : "logo-mendeley.png",
   "uuid" : "7fc07833-c693-4b9d-b666-a1c807ae07db"
}
