{
   "uuid" : "7fc30532-bdfd-47a1-ad7b-0639b0bf6061",
   "filemime" : "application/vnd.openxmlformats-officedocument.wordprocessingml.document",
   "filename" : "Holsti Prize faculty support letter 2015.docx",
   "timestamp" : 1427394169,
   "uri" : "public://users/catherine.shreve/Holsti Prize faculty support letter 2015.docx",
   "status" : 1,
   "fid" : 1307,
   "uid" : 83,
   "filesize" : 16534
}
