{
   "timestamp" : 1469825607,
   "filename" : "milewicz-liz_0.jpg",
   "filemime" : "image/jpeg",
   "uuid" : "8042df58-975e-41ba-b5e2-321961e997a2",
   "filesize" : 46329,
   "fid" : 2095,
   "uid" : 25,
   "status" : 1,
   "uri" : "public://staff-portraits/milewicz-liz_0.jpg"
}
