{
   "uri" : "public://staff-portraits/fields-deb.jpg",
   "status" : 1,
   "filesize" : 6570,
   "fid" : 1975,
   "uid" : 25,
   "filename" : "fields-deb.jpg",
   "filemime" : "image/jpeg",
   "uuid" : "806f769b-a328-4507-9d48-6a6e1cc95051",
   "timestamp" : 1458135935
}
