{
   "uuid" : "80780bd0-f9c6-4744-bffc-3a9a831facc9",
   "filemime" : "image/jpeg",
   "filename" : "13958771198_2417291db9_o.jpg",
   "timestamp" : 1615226240,
   "uri" : "public://exhibits/13958771198_2417291db9_o.jpg",
   "status" : 1,
   "fid" : 5065,
   "uid" : 47,
   "filesize" : 45183
}
