{
   "timestamp" : 1509559591,
   "uuid" : "81d5fea3-1b6b-4a43-bbb3-b216dd96fc4a",
   "filename" : "VFWPrincetonderTatevasiantoBarnes.pdf",
   "filemime" : "application/pdf",
   "fid" : 3115,
   "uid" : 73,
   "filesize" : 439136,
   "status" : 1,
   "uri" : "public://research/student-activism/VFWPrincetonderTatevasiantoBarnes.pdf"
}
