{
   "timestamp" : 1496257105,
   "filemime" : "image/jpeg",
   "filename" : "harte1937.jpg",
   "uuid" : "8223db8b-d767-465d-a39a-29c52f614dfc",
   "filesize" : 7790,
   "uid" : 48,
   "fid" : 2683,
   "uri" : "public://users/lee.sorensen/harte1937.jpg",
   "status" : 1
}
