{
   "timestamp" : 1495030790,
   "filename" : "22336579360_778a09e4dc_o.jpg",
   "filemime" : "image/jpeg",
   "uuid" : "8282ce69-7eae-4a65-8e41-c0f990ee13f6",
   "filesize" : 225632,
   "uid" : 67,
   "fid" : 2595,
   "uri" : "public://users/megan.crain/22336579360_778a09e4dc_o.jpg",
   "status" : 1
}
