{
   "uuid" : "8293b52c-c52e-4bb2-a414-9e706c97ca91",
   "filemime" : "image/jpeg",
   "filename" : "Tulips.jpg",
   "timestamp" : 1374775338,
   "uri" : "public://users/Sarah Carrier/Tulips.jpg",
   "status" : 1,
   "fid" : 82,
   "uid" : 94,
   "filesize" : 620888
}
