{
   "status" : 1,
   "uri" : "public://users/megan.crain/83a24c9084460223e42346553cc1fece.jpg",
   "uid" : 67,
   "fid" : 2481,
   "filesize" : 35731,
   "uuid" : "84b4db10-b254-4008-a4e0-5a1017084a26",
   "filename" : "83a24c9084460223e42346553cc1fece.jpg",
   "filemime" : "image/jpeg",
   "timestamp" : 1494863455
}
