{
   "timestamp" : 1439233101,
   "uuid" : "852bcb48-06ca-4b45-be58-45b92c509399",
   "filename" : "abusingpower18.jpg",
   "filemime" : "image/jpeg",
   "fid" : 1687,
   "uid" : 339,
   "filesize" : 41432,
   "status" : 1,
   "uri" : "public://exhibits/abusingpower18.jpg"
}
