{
   "uri" : "public://icons/360link-sidebar-header-1.png",
   "status" : 1,
   "fid" : 1267,
   "uid" : 25,
   "filesize" : 3638,
   "uuid" : "8547d64f-9ad2-469e-856a-5ab0622615a6",
   "filemime" : "image/png",
   "filename" : "360link-sidebar-header-1.png",
   "timestamp" : 1423770579
}
