{
   "uid" : 69,
   "fid" : 2431,
   "filesize" : 3341,
   "uri" : "public://users/beth.doyle/medium_moon_0.jpg",
   "status" : 1,
   "timestamp" : 1491585570,
   "uuid" : "856b56d5-8767-4321-bc34-8ba6c90496d7",
   "filemime" : "image/jpeg",
   "filename" : "medium_moon_0.jpg"
}
