{
   "filemime" : "image/jpeg",
   "filename" : "Center Study Room.jpg",
   "uuid" : "85902ced-d423-4f24-9e2b-7ba19580a5f5",
   "timestamp" : 1382467816,
   "uri" : "public://users/brittany.wofford@duke.edu/Center Study Room.jpg",
   "status" : 1,
   "filesize" : 107710,
   "uid" : 36,
   "fid" : 488
}
