{
   "uri" : "public://users/jaci.wilkinson/user_service_philosophy.jpg",
   "status" : 1,
   "fid" : 1277,
   "uid" : 425,
   "filesize" : 170962,
   "uuid" : "85c88c25-965f-43dc-8c6e-52523198bde0",
   "filemime" : "image/jpeg",
   "filename" : "user_service_philosophy.jpg",
   "timestamp" : 1425590582
}
