{
   "uuid" : "8662f378-7f45-4754-acc1-199e3c8f3804",
   "filename" : "Koala.jpg",
   "filemime" : "image/jpeg",
   "timestamp" : 1372172280,
   "uri" : "public://Koala.jpg",
   "status" : 1,
   "fid" : 31,
   "uid" : 39,
   "filesize" : 780831
}
