{
   "timestamp" : 1515442210,
   "uuid" : "87e3c5bf-4bd9-49c1-9d80-14085e819111",
   "filemime" : "application/vnd.openxmlformats-officedocument.presentationml.presentation",
   "filename" : "alaposterdigitalproject17version3.pptx",
   "uid" : 100,
   "fid" : 3593,
   "filesize" : 854150,
   "uri" : "public://users/greta.boers@duke.edu/alaposterdigitalproject17version3.pptx",
   "status" : 1
}
