{
   "timestamp" : 1517955939,
   "uuid" : "891a14ef-fc2f-46e4-b1db-dab1220bc7d8",
   "filemime" : "application/pdf",
   "filename" : "chronicleoct121932liberalclub.pdf",
   "fid" : 4007,
   "uid" : 73,
   "filesize" : 889730,
   "status" : 1,
   "uri" : "public://research/student-activism/chronicleoct121932liberalclub.pdf"
}
