{
   "filesize" : 52662,
   "fid" : 4245,
   "uid" : 2077,
   "uri" : "public://rooms/graduateReadingRoomMap.jpg",
   "status" : 1,
   "timestamp" : 1531414292,
   "filename" : "graduateReadingRoomMap.jpg",
   "filemime" : "image/jpeg",
   "uuid" : "89490fa8-f68c-4d43-a93b-36e881a574a7"
}
