{
   "timestamp" : 1376599315,
   "filename" : "large_flowchart for web3_0.png",
   "filemime" : "image/png",
   "uuid" : "8a34a6cd-ef1c-4b93-bda8-eec2fa003094",
   "filesize" : 57205,
   "uid" : 59,
   "fid" : 215,
   "uri" : "public://users/shelby.tilley/large_flowchart for web3_0.png",
   "status" : 1
}
