{
   "status" : 1,
   "uri" : "public://research/student-activism/WSSF_headline_19420313.jpg",
   "filesize" : 43125,
   "uid" : 149,
   "fid" : 3237,
   "filename" : "WSSF_headline_19420313.jpg",
   "filemime" : "image/jpeg",
   "uuid" : "8ab2655a-b42a-4179-9285-37027fa928e6",
   "timestamp" : 1510152039
}
