{
   "uri" : "public://research/student-activism/11-16-1937combined.pdf",
   "status" : 1,
   "filesize" : 1796520,
   "uid" : 81,
   "fid" : 3877,
   "filename" : "11-16-1937combined.pdf",
   "filemime" : "application/pdf",
   "uuid" : "8cbe6132-d742-44b4-98c9-5132a6f22e40",
   "timestamp" : 1517343695
}
