{
   "status" : 1,
   "uri" : "public://research/student-activism/chronicledec61930thomas.pdf",
   "filesize" : 2842842,
   "fid" : 3759,
   "uid" : 55,
   "filename" : "chronicledec61930thomas.pdf",
   "filemime" : "application/pdf",
   "uuid" : "8cc45188-4a55-499d-a872-17b702485b22",
   "timestamp" : 1516820583
}
