{
   "status" : 1,
   "uri" : "public://using-the-library/drs_desk.jpg",
   "filesize" : 76152,
   "fid" : 4991,
   "uid" : 2077,
   "filemime" : "image/jpeg",
   "filename" : "drs_desk.jpg",
   "uuid" : "8cd59376-580c-4619-a26a-4bb32a4cfa3c",
   "timestamp" : 1601055509
}
