{
   "filesize" : 32717,
   "fid" : 1125,
   "uid" : 69,
   "uri" : "public://users/beth.doyle/mice men 2.jpg",
   "status" : 1,
   "timestamp" : 1412690961,
   "filemime" : "image/jpeg",
   "filename" : "mice men 2.jpg",
   "uuid" : "8d75a16e-e297-4b43-8feb-dd5eafbb9661"
}
