{
   "uri" : "public://users/megan.crain/Curry_Ann.jpg",
   "status" : 1,
   "filesize" : 50084,
   "uid" : 67,
   "fid" : 125,
   "filename" : "Curry_Ann.jpg",
   "filemime" : "image/jpeg",
   "uuid" : "8d8b288d-4ccc-49a2-81ef-2707fda6ded9",
   "timestamp" : 1375716072
}
