{
   "uid" : 36,
   "fid" : 2285,
   "filesize" : 572982,
   "status" : 1,
   "uri" : "public://users/brittany.wofford@duke.edu/2017-02-09_1453.png",
   "timestamp" : 1486670171,
   "uuid" : "8e4f9bb2-4a28-4a68-8b1e-eec4d1e97178",
   "filename" : "2017-02-09_1453.png",
   "filemime" : "image/png"
}
