{
   "uri" : "public://research/student-activism/Chroniclemarch171936peaceagent.pdf",
   "status" : 1,
   "filesize" : 874612,
   "uid" : 73,
   "fid" : 2973,
   "filemime" : "application/pdf",
   "filename" : "Chroniclemarch171936peaceagent.pdf",
   "uuid" : "8ed4b070-9bde-4220-9d7e-1c477271702e",
   "timestamp" : 1509119656
}
