{
   "filesize" : 2290,
   "fid" : 5024,
   "uid" : 71,
   "uri" : "public://users/angela.zoss/time-1-5-black.png",
   "status" : 1,
   "timestamp" : 1613509137,
   "filemime" : "image/png",
   "filename" : "time-1-5-black.png",
   "uuid" : "903d5523-8e78-4cf0-9613-28215ea8db86"
}
