{
   "uuid" : "90570710-dd61-439c-b8b1-2e1dc904058f",
   "filename" : "Bostock 425.jpg",
   "filemime" : "image/jpeg",
   "timestamp" : 1385058211,
   "uri" : "public://users/brittany.wofford@duke.edu/Bostock 425.jpg",
   "status" : 1,
   "fid" : 577,
   "uid" : 36,
   "filesize" : 69008
}
