{
   "uri" : "public://users/megan.crain/DSC_2885b.jpg",
   "status" : 1,
   "uid" : 67,
   "fid" : 2505,
   "filesize" : 158861,
   "uuid" : "90cad65a-48c3-4071-8ba7-9f3523843723",
   "filename" : "DSC_2885b.jpg",
   "filemime" : "image/jpeg",
   "timestamp" : 1494877784
}
