{
   "status" : 1,
   "uri" : "public://research/student-activism/SSG_HG_Gantt_chart.pdf",
   "filesize" : 16452,
   "fid" : 3369,
   "uid" : 3,
   "filename" : "SSG_HG_Gantt_chart.pdf",
   "filemime" : "application/pdf",
   "uuid" : "90f43d22-2f0c-4dbc-84a5-68db665d3432",
   "timestamp" : 1514317896
}
