{
   "status" : 1,
   "uri" : "public://users/brittany.wofford@duke.edu/Wachholz, Jacqueline.jpg",
   "filesize" : 33391,
   "uid" : 36,
   "fid" : 518,
   "filename" : "Wachholz, Jacqueline.jpg",
   "filemime" : "image/jpeg",
   "uuid" : "91587634-c002-4c38-87c3-1a6a0cb034eb",
   "timestamp" : 1382723361
}
