{
   "status" : 1,
   "uri" : "public://users/megan.crain/Bronte sampler_0.jpg",
   "fid" : 2515,
   "uid" : 67,
   "filesize" : 235621,
   "uuid" : "918ecd1b-c242-4c18-aa79-81e6447abefe",
   "filemime" : "image/jpeg",
   "filename" : "Bronte sampler_0.jpg",
   "timestamp" : 1494879533
}
