{
   "uuid" : "92265281-b819-4faa-b666-3159d167db99",
   "filename" : "maxwell-daniel.jpg",
   "filemime" : "image/jpeg",
   "timestamp" : 1458136059,
   "uri" : "public://staff-portraits/maxwell-daniel.jpg",
   "status" : 1,
   "uid" : 25,
   "fid" : 1985,
   "filesize" : 6123
}
