{
   "filemime" : "image/jpeg",
   "filename" : "gil_blas_crop005.jpg",
   "uuid" : "928d74d0-9d88-4fec-a853-81dc7bd99171",
   "timestamp" : 1435177729,
   "uri" : "public://exhibits/gil_blas_crop005.jpg",
   "status" : 1,
   "filesize" : 84586,
   "fid" : 1467,
   "uid" : 3
}
