{
   "uuid" : "92d0e55c-cb48-4864-9834-f7adf883850a",
   "filemime" : "image/jpeg",
   "filename" : "medium_shakespeare.jpg",
   "timestamp" : 1491587615,
   "status" : 1,
   "uri" : "public://users/beth.doyle/medium_shakespeare.jpg",
   "uid" : 69,
   "fid" : 2439,
   "filesize" : 2704
}
