{
   "timestamp" : 1484065814,
   "uuid" : "92e38303-dc3f-40a1-a014-fc224084eb3e",
   "filemime" : "image/jpeg",
   "filename" : "picture-1967-1484065814.jpg",
   "fid" : 2227,
   "uid" : 1967,
   "filesize" : 86592,
   "uri" : "public://pictures/picture-1967-1484065814.jpg",
   "status" : 1
}
