{
   "status" : 1,
   "uri" : "public://research/student-activism/sheldonharte.jpg",
   "fid" : 3399,
   "uid" : 73,
   "filesize" : 4992,
   "uuid" : "9372e01c-fabe-44f1-826d-b911ba5e3648",
   "filename" : "sheldonharte.jpg",
   "filemime" : "image/jpeg",
   "timestamp" : 1514427400
}
