{
   "uri" : "public://users/danette.pachtner/1-7-1938editorial.pdf",
   "status" : 1,
   "uid" : 81,
   "fid" : 3847,
   "filesize" : 848907,
   "uuid" : "93902bb1-e4c2-4513-a33f-671c6750d26e",
   "filename" : "1-7-1938editorial.pdf",
   "filemime" : "application/pdf",
   "timestamp" : 1517337127
}
