{
   "status" : 1,
   "uri" : "public://pictures/exhibits_12.jpg",
   "filesize" : 11210,
   "fid" : 607,
   "uid" : 139,
   "filename" : "exhibits_12.jpg",
   "filemime" : "image/jpeg",
   "uuid" : "941e8ee5-4b27-4216-9481-9f42c38a4fb9",
   "timestamp" : 1385405692
}
