{
   "uri" : "public://exhibits/herbarium.jpg",
   "status" : 1,
   "filesize" : 36201,
   "fid" : 1537,
   "uid" : 3,
   "filename" : "herbarium.jpg",
   "filemime" : "image/jpeg",
   "uuid" : "94385902-eff6-4d76-9bf0-31bd943fe44b",
   "timestamp" : 1438187345
}
