{
   "filename" : "daydead.jpg",
   "filemime" : "image/jpeg",
   "uuid" : "9494abee-38f5-4853-869a-5886ca4d48c5",
   "timestamp" : 1438804300,
   "uri" : "public://exhibits/daydead.jpg",
   "status" : 1,
   "filesize" : 50924,
   "fid" : 1593,
   "uid" : 339
}
