{
   "uuid" : "962db0fa-a156-4ff0-a71e-55286d5ff01a",
   "filename" : "desegregation.jpg",
   "filemime" : "image/jpeg",
   "timestamp" : 1438187810,
   "status" : 1,
   "uri" : "public://exhibits/desegregation.jpg",
   "uid" : 3,
   "fid" : 1543,
   "filesize" : 36597
}
