{
   "filename" : "DUL Crazy Smart 17 small.jpg",
   "filemime" : "image/jpeg",
   "uuid" : "974751d0-ca34-4262-8b08-fd905a2a2a38",
   "timestamp" : 1425571978,
   "uri" : "public://users/aaron.welborn/DUL Crazy Smart 17 small.jpg",
   "status" : 1,
   "filesize" : 52381,
   "fid" : 1275,
   "uid" : 60
}
