{
   "filesize" : 47081,
   "fid" : 1019,
   "uid" : 60,
   "status" : 1,
   "uri" : "public://users/aaron.welborn/Crazy Smart Data Visualization Small Square.jpg",
   "timestamp" : 1400253276,
   "filemime" : "image/jpeg",
   "filename" : "Crazy Smart Data Visualization Small Square.jpg",
   "uuid" : "98175433-342a-417e-a5ce-f2868d60df78"
}
