{
   "uuid" : "9829d872-9823-4d39-ba07-a5583b31d569",
   "filemime" : "image/jpeg",
   "filename" : "elder.jpg",
   "timestamp" : 1565877147,
   "status" : 1,
   "uri" : "public://staff_images/elder.jpg",
   "uid" : 2299,
   "fid" : 4596,
   "filesize" : 677221
}
