{
   "uid" : 147,
   "fid" : 3833,
   "filesize" : 1483572,
   "status" : 1,
   "uri" : "public://research/student-activism/Doc - May 24 2016 - 12-20 PM.pdf",
   "timestamp" : 1517333289,
   "uuid" : "983396b0-aa7e-4bb7-97f4-d0e79c64b171",
   "filemime" : "application/pdf",
   "filename" : "Doc - May 24 2016 - 12-20 PM.pdf"
}
