{
   "filesize" : 215825,
   "uid" : 47,
   "fid" : 911,
   "uri" : "public://users/meg.brown@duke.edu/gil_blas_crop005.jpg",
   "status" : 1,
   "timestamp" : 1392847215,
   "filemime" : "image/jpeg",
   "filename" : "gil_blas_crop005.jpg",
   "uuid" : "997454ca-abf3-475a-ab14-788161e112ee"
}
