{
   "uuid" : "998c99b4-0f3c-42c6-b70f-b12dde498f28",
   "filemime" : "image/jpeg",
   "filename" : "oldman.jpg",
   "timestamp" : 1438873859,
   "status" : 1,
   "uri" : "public://exhibits/oldman.jpg",
   "fid" : 1623,
   "uid" : 339,
   "filesize" : 25741
}
