{
   "uuid" : "99d083a4-95a4-4ae3-b7bf-53cc40bce7f4",
   "filemime" : "application/pdf",
   "filename" : "chronicleapr301930NCCU.pdf",
   "timestamp" : 1516820550,
   "status" : 1,
   "uri" : "public://research/student-activism/chronicleapr301930NCCU.pdf",
   "uid" : 55,
   "fid" : 3757,
   "filesize" : 968096
}
