{
   "status" : 1,
   "uri" : "public://using-the-library/Perkins_Scannx.jpeg",
   "uid" : 2197,
   "fid" : 4207,
   "filesize" : 103730,
   "uuid" : "9a3282dc-2094-4aba-89c2-15d0493f521a",
   "filename" : "Perkins_Scannx.jpeg",
   "filemime" : "image/jpeg",
   "timestamp" : 1531240744
}
