{
   "uuid" : "9ac2723a-984b-4067-9ec7-90c534711685",
   "filename" : "kiosk-basement.jpg",
   "filemime" : "image/jpeg",
   "timestamp" : 1510090115,
   "uri" : "public://kiosks/lobby/kiosk-basement.jpg",
   "status" : 1,
   "fid" : 3229,
   "uid" : 25,
   "filesize" : 133951
}
