{
   "timestamp" : 1375116720,
   "filename" : "Aptman research essay.jpg",
   "filemime" : "image/jpeg",
   "uuid" : "9bafa263-46b6-4551-bc6d-8858bacaa3dd",
   "filesize" : 43556,
   "fid" : 97,
   "uid" : 43,
   "uri" : "public://users/zitser/Aptman research essay.jpg",
   "status" : 1
}
