{
   "uid" : 82,
   "fid" : 1837,
   "filesize" : 83181,
   "status" : 1,
   "uri" : "public://carousel_images/Lemur 800.jpg",
   "timestamp" : 1474403940,
   "uuid" : "9bb466bb-a8d0-4ce0-b78e-39404b329b66",
   "filename" : "Lemur 800.jpg",
   "filemime" : "image/jpeg"
}
