{
   "filesize" : 132856,
   "uid" : 73,
   "fid" : 3447,
   "uri" : "public://research/student-activism/chanticleer1937edithshookywca_0.jpg",
   "status" : 1,
   "timestamp" : 1514948571,
   "filename" : "chanticleer1937edithshookywca_0.jpg",
   "filemime" : "image/jpeg",
   "uuid" : "9bc68d4b-4e3c-4280-9a8c-3dfdb9dadabc"
}
