{
   "timestamp" : 1513109243,
   "uuid" : "9bf54079-ad03-4eec-9b1d-0fb6c77b42bd",
   "filename" : "Slide 4 Chronicle highlighted opt.pdf",
   "filemime" : "application/pdf",
   "fid" : 3351,
   "uid" : 55,
   "filesize" : 510235,
   "status" : 1,
   "uri" : "public://research/student-activism/Slide 4 Chronicle highlighted opt.pdf"
}
