{
   "timestamp" : 1506003918,
   "uuid" : "9c12cc52-6147-4700-8863-d68da40707f5",
   "filemime" : "image/jpeg",
   "filename" : "Sept 21 17 screenshot.jpg",
   "fid" : 2905,
   "uid" : 60,
   "filesize" : 148613,
   "uri" : "public://users/aaron.welborn/Sept 21 17 screenshot.jpg",
   "status" : 1
}
