{
   "timestamp" : 1435091567,
   "uuid" : "9c58e2e7-1af4-4e8c-9813-7f4b7387b2a7",
   "filename" : "ARLDUL-2010.xlsx",
   "filemime" : "application/vnd.openxmlformats-officedocument.spreadsheetml.sheet",
   "uid" : 313,
   "fid" : 1447,
   "filesize" : 13849,
   "status" : 1,
   "uri" : "public://users/Joyce Chapman/ARLDUL-2010.xlsx"
}
