{
   "uri" : "public://users/Elena Feinstein/dorabadge1.png",
   "status" : 1,
   "fid" : 4755,
   "uid" : 305,
   "filesize" : 7399,
   "uuid" : "9c932491-6896-460b-b4ee-7366821a9a4c",
   "filename" : "dorabadge1.png",
   "filemime" : "image/png",
   "timestamp" : 1574353719
}
