{
   "filesize" : 135539,
   "uid" : 199,
   "fid" : 1219,
   "uri" : "public://carousel_images/greyhoundad.jpg",
   "status" : 1,
   "timestamp" : 1420234119,
   "filename" : "greyhoundad.jpg",
   "filemime" : "image/jpeg",
   "uuid" : "9cc3187e-f32c-4f3f-94e5-53b56de1b80a"
}
