{
   "filesize" : 117509,
   "uid" : 67,
   "fid" : 2489,
   "uri" : "public://users/megan.crain/Civitates01-768x958.jpg",
   "status" : 1,
   "timestamp" : 1494869750,
   "filemime" : "image/jpeg",
   "filename" : "Civitates01-768x958.jpg",
   "uuid" : "9d1a723d-388b-4aff-bf47-d6a1c16ac578"
}
