{
   "status" : 1,
   "uri" : "public://traffic_sign_6.jpg",
   "fid" : 119,
   "uid" : 84,
   "filesize" : 47669,
   "uuid" : "9d42e742-47c0-4593-9342-eb88c487b04b",
   "filemime" : "image/jpeg",
   "filename" : "traffic_sign_6.jpg",
   "timestamp" : 1375471053
}
