{
   "uri" : "public://users/beth.doyle/adopt_woolf.jpg",
   "status" : 1,
   "filesize" : 38390,
   "uid" : 69,
   "fid" : 1001,
   "filename" : "adopt_woolf.jpg",
   "filemime" : "image/jpeg",
   "uuid" : "9d7ffca8-c1dd-4ffb-984a-086a23cdd2c3",
   "timestamp" : 1398785014
}
