{
   "filename" : "elenafeinstein_headshot-sgpedit.jpg",
   "filemime" : "image/jpeg",
   "uuid" : "9eaedac5-4aab-475f-9ae5-14d9851b20fe",
   "timestamp" : 1596546504,
   "uri" : "public://staff_images/elenafeinstein_headshot-sgpedit.jpg",
   "status" : 1,
   "filesize" : 125989,
   "uid" : 305,
   "fid" : 4959
}
