{
   "filesize" : 77863,
   "fid" : 3239,
   "uid" : 149,
   "uri" : "public://research/student-activism/Survey_headline_19380111.jpg",
   "status" : 1,
   "timestamp" : 1510152053,
   "filemime" : "image/jpeg",
   "filename" : "Survey_headline_19380111.jpg",
   "uuid" : "9f4e5eaa-76f5-413b-b9a2-5e0ece4d0590"
}
