{
   "timestamp" : 1438982808,
   "filename" : "lowy.jpg",
   "filemime" : "image/jpeg",
   "uuid" : "9f567a97-8ada-4c07-9211-8ae57552f067",
   "filesize" : 93086,
   "fid" : 1669,
   "uid" : 3,
   "status" : 1,
   "uri" : "public://exhibits/lowy.jpg"
}
