{
   "timestamp" : 1514999058,
   "uuid" : "9faacfa5-ccc0-4fde-a267-32e2a2979115",
   "filemime" : "application/pdf",
   "filename" : "2-19-1937.pdf",
   "fid" : 3505,
   "uid" : 81,
   "filesize" : 8880989,
   "status" : 1,
   "uri" : "public://research/student-activism/2-19-1937.pdf"
}
