{
   "uri" : "public://research/student-activism/chronicle1929 11_27 headline.png.pdf",
   "status" : 1,
   "uid" : 55,
   "fid" : 3743,
   "filesize" : 771121,
   "uuid" : "a01f39cf-23a1-4852-bd5c-122da0786952",
   "filename" : "chronicle1929 11_27 headline.png.pdf",
   "filemime" : "application/pdf",
   "timestamp" : 1516653722
}
