{
   "uri" : "public://users/michael.peper/logo-mendeley-1.png",
   "status" : 1,
   "uid" : 82,
   "fid" : 231,
   "filesize" : 3801,
   "uuid" : "a03a8e96-ac32-4f2f-a99a-83d639d05f9d",
   "filename" : "logo-mendeley-1.png",
   "filemime" : "image/png",
   "timestamp" : 1377012612
}
