{
   "fid" : 4435,
   "uid" : 4,
   "filesize" : 2494126,
   "uri" : "public://carousel_images/3 Proposed Entry Lobby Before and After 2476x1201.jpg",
   "status" : 1,
   "timestamp" : 1549566945,
   "uuid" : "a0a1baf8-1584-4708-8aed-095d2777f013",
   "filename" : "3 Proposed Entry Lobby Before and After 2476x1201.jpg",
   "filemime" : "image/jpeg"
}
