{
   "uid" : 25,
   "fid" : 453,
   "filesize" : 59892,
   "status" : 1,
   "uri" : "public://using-the-library/CardBack_White.jpg",
   "timestamp" : 1381769139,
   "uuid" : "a0d447b9-4bce-4dd4-9d7a-5bf07ba9a958",
   "filename" : "CardBack_White.jpg",
   "filemime" : "image/jpeg"
}
