{
   "filesize" : 2939007,
   "fid" : 3615,
   "uid" : 81,
   "uri" : "public://research/student-activism/2-26-37chronicle.pdf",
   "status" : 1,
   "timestamp" : 1515515968,
   "filename" : "2-26-37chronicle.pdf",
   "filemime" : "application/pdf",
   "uuid" : "a11b8d93-574e-496a-8aa8-0bdf8e79260a"
}
