{
   "timestamp" : 1514940512,
   "uuid" : "a1252cf7-5f53-47ba-987c-b25a19ba5b13",
   "filemime" : "application/pdf",
   "filename" : "epcstudentvolunteers1937.pdf",
   "uid" : 73,
   "fid" : 3435,
   "filesize" : 433720,
   "status" : 1,
   "uri" : "public://research/student-activism/epcstudentvolunteers1937.pdf"
}
