{
   "uuid" : "a1b1307c-16c5-4bdf-8b8d-ddc9c9c6fa49",
   "filemime" : "image/jpeg",
   "filename" : "DSC_0408.jpg",
   "timestamp" : 1382633162,
   "uri" : "public://users/beth.doyle/DSC_0408.jpg",
   "status" : 1,
   "fid" : 503,
   "uid" : 69,
   "filesize" : 151651
}
