{
   "uuid" : "a28dce64-f912-4226-aa28-ca0eec5b1dcf",
   "filemime" : "image/jpeg",
   "filename" : "martin-heather.jpg",
   "timestamp" : 1501595373,
   "uri" : "public://staff-portraits/martin-heather.jpg",
   "status" : 1,
   "fid" : 2753,
   "uid" : 25,
   "filesize" : 10471
}
