{
   "filesize" : 115594,
   "fid" : 349,
   "uid" : 3,
   "status" : 1,
   "uri" : "public://support/plaq02_2.jpg",
   "timestamp" : 1379533668,
   "filemime" : "image/jpeg",
   "filename" : "plaq02_2.jpg",
   "uuid" : "a29113e2-2783-4203-ac50-b83b295ca22b"
}
