{
   "filesize" : 465917,
   "fid" : 491,
   "uid" : 139,
   "uri" : "public://using-the-library/bostock.jpg",
   "status" : 1,
   "timestamp" : 1382547568,
   "filename" : "bostock.jpg",
   "filemime" : "image/jpeg",
   "uuid" : "a30464eb-0aac-4c22-b872-b85cc0dbb6b4"
}
