{
   "uuid" : "a39514c3-7b01-4843-a858-5df67fc0c8d2",
   "filemime" : "image/png",
   "filename" : "Thomas and students.png",
   "timestamp" : 1515179766,
   "uri" : "public://research/student-activism/Thomas and students.png",
   "status" : 1,
   "uid" : 147,
   "fid" : 3569,
   "filesize" : 234505
}
