{
   "uri" : "public://using-the-library/CardBack_Old_Campus.gif",
   "status" : 1,
   "uid" : 25,
   "fid" : 450,
   "filesize" : 25840,
   "uuid" : "a3b07fc5-4bc2-4cb5-afde-e5d82c741567",
   "filemime" : "image/gif",
   "filename" : "CardBack_Old_Campus.gif",
   "timestamp" : 1381769105
}
