{
   "uuid" : "a3d55921-58e7-45b8-8967-65aa584e0995",
   "filemime" : "image/jpeg",
   "filename" : "20140728_153825.jpg",
   "timestamp" : 1454516254,
   "uri" : "public://20140728_153825.jpg",
   "status" : 1,
   "uid" : 541,
   "fid" : 1885,
   "filesize" : 147486
}
