{
   "timestamp" : 1535486169,
   "filename" : "appalachian-town.jpg",
   "filemime" : "image/jpeg",
   "uuid" : "a491f29e-c5da-4a73-aba7-7eae17555f93",
   "filesize" : 41857,
   "fid" : 4283,
   "uid" : 2213,
   "status" : 1,
   "uri" : "public://exhibits/appalachian-town.jpg"
}
