{
   "uuid" : "a564029e-bb84-4331-b17a-700d6c7dc0da",
   "filemime" : "image/jpeg",
   "filename" : "game.jpg",
   "timestamp" : 1553702589,
   "status" : 1,
   "uri" : "public://users/beth.doyle/game.jpg",
   "uid" : 69,
   "fid" : 4487,
   "filesize" : 125155
}
