{
   "uid" : 67,
   "fid" : 2589,
   "filesize" : 167803,
   "uri" : "public://users/megan.crain/22336856778_e2cf44090f_o (2).jpg",
   "status" : 1,
   "timestamp" : 1495030371,
   "uuid" : "a5db0cbf-1dd2-4c1b-9fdf-74185c1044d1",
   "filename" : "22336856778_e2cf44090f_o (2).jpg",
   "filemime" : "image/jpeg"
}
