{
   "uuid" : "a656c75f-a47f-4a47-a80f-76a005cf2595",
   "filename" : "image4.png",
   "filemime" : "image/png",
   "timestamp" : 1375470173,
   "status" : 1,
   "uri" : "public://image4.png",
   "fid" : 113,
   "uid" : 84,
   "filesize" : 229115
}
