{
   "timestamp" : 1376655400,
   "uuid" : "a65fd255-e980-4433-8c3a-8d48715a9850",
   "filemime" : "image/jpeg",
   "filename" : "1000244_10101258009485923_2374511344444444442_n.jpg",
   "fid" : 218,
   "uid" : 59,
   "filesize" : 71021,
   "uri" : "public://users/shelby.tilley/1000244_10101258009485923_2374511344444444442_n.jpg",
   "status" : 1
}
