{
   "status" : 1,
   "uri" : "public://users/christina holder/unc_duke_rubenstein_portal.png",
   "filesize" : 60005,
   "uid" : 84,
   "fid" : 295,
   "filename" : "unc_duke_rubenstein_portal.png",
   "filemime" : "image/png",
   "uuid" : "a6aec55d-dc1e-4085-a146-200f64ad5e9f",
   "timestamp" : 1378500995
}
