{
   "status" : 1,
   "uri" : "public://carousel_images/rc6.jpg",
   "filesize" : 140167,
   "uid" : 3,
   "fid" : 947,
   "filename" : "rc6.jpg",
   "filemime" : "image/jpeg",
   "uuid" : "a7fa6518-62f4-4b77-ad98-815ba654d595",
   "timestamp" : 1394483787
}
