{
   "fid" : 3097,
   "uid" : 57,
   "filesize" : 61157,
   "uri" : "public://research/student-activism/Myron Gatling_Chanticleer_1945.jpg",
   "status" : 1,
   "timestamp" : 1509479805,
   "uuid" : "a87b2c8d-8815-4453-99b2-1f2d7fcb15c8",
   "filemime" : "image/jpeg",
   "filename" : "Myron Gatling_Chanticleer_1945.jpg"
}
