{
   "uuid" : "a89c2b61-e14a-4c9e-828e-4c87bb6a266c",
   "filemime" : "image/jpeg",
   "filename" : "adopt_frank.jpg",
   "timestamp" : 1398789808,
   "status" : 1,
   "uri" : "public://users/beth.doyle/adopt_frank.jpg",
   "uid" : 69,
   "fid" : 1003,
   "filesize" : 34365
}
