{
   "filesize" : 154104,
   "uid" : 149,
   "fid" : 3233,
   "status" : 1,
   "uri" : "public://research/student-activism/YWCA_President-chanticleer1938_p265.jpg",
   "timestamp" : 1510152007,
   "filemime" : "image/jpeg",
   "filename" : "YWCA_President-chanticleer1938_p265.jpg",
   "uuid" : "a9762db8-8aac-459b-8d56-54d187b57a73"
}
