{
   "filesize" : 142443,
   "uid" : 433,
   "fid" : 2201,
   "status" : 1,
   "uri" : "public://carousel_images/Woolf-Desk-700x500.jpg",
   "timestamp" : 1475263277,
   "filename" : "Woolf-Desk-700x500.jpg",
   "filemime" : "image/jpeg",
   "uuid" : "a99b7590-b0f8-4edf-9afe-ed767b3acdc0"
}
