{
   "fid" : 2987,
   "uid" : 73,
   "filesize" : 48298,
   "status" : 1,
   "uri" : "public://research/student-activism/peaceagentmay41936(1).jpg",
   "timestamp" : 1509129881,
   "uuid" : "a9d499d9-ba33-4a48-8b07-91d3dfa05fa9",
   "filemime" : "image/jpeg",
   "filename" : "peaceagentmay41936(1).jpg"
}
