{
   "timestamp" : 1377202020,
   "filemime" : "image/jpeg",
   "filename" : "crazysmart_1_250x250.jpg",
   "uuid" : "aa332d0b-dc86-46a7-8e29-8cd6227e35f1",
   "filesize" : 118579,
   "fid" : 237,
   "uid" : 60,
   "status" : 1,
   "uri" : "public://users/aaron.welborn/crazysmart_1_250x250.jpg"
}
