{
   "timestamp" : 1526592517,
   "uuid" : "aaf1a2c7-bb9b-4836-a87a-7267cfa7e39f",
   "filename" : "2018studentwallmarchhonorcouncil.jpg",
   "filemime" : "image/jpeg",
   "uid" : 47,
   "fid" : 4131,
   "filesize" : 29923,
   "uri" : "public://exhibits/2018studentwallmarchhonorcouncil.jpg",
   "status" : 1
}
