{
   "filesize" : 754580,
   "uid" : 2219,
   "fid" : 4323,
   "uri" : "public://carousel_images/Untitled design.jpg",
   "status" : 1,
   "timestamp" : 1539190603,
   "filename" : "Untitled design.jpg",
   "filemime" : "image/jpeg",
   "uuid" : "accd7937-65b5-480d-84b7-b6c055794ed1"
}
