{
   "status" : 1,
   "uri" : "public://exhibits/webkrepsandcarter.jpg",
   "filesize" : 34721,
   "uid" : 47,
   "fid" : 2077,
   "filename" : "webkrepsandcarter.jpg",
   "filemime" : "image/jpeg",
   "uuid" : "add6d6a8-736b-407b-8375-bd321b6641e2",
   "timestamp" : 1467079291
}
