{
   "uri" : "public://research/student-activism/74798.pdf",
   "status" : 1,
   "filesize" : 2753680,
   "fid" : 3459,
   "uid" : 147,
   "filename" : "74798.pdf",
   "filemime" : "application/pdf",
   "uuid" : "add8d682-4061-4f17-b2cd-492ebd09fe4f",
   "timestamp" : 1514990854
}
