{
   "timestamp" : 1509570180,
   "uuid" : "addc463b-890f-403d-aef9-9b840e603886",
   "filename" : "Chronicle article 1_19_1945 COGS Posts War Bulletins in Union.pdf",
   "filemime" : "application/pdf",
   "fid" : 3151,
   "uid" : 57,
   "filesize" : 1456658,
   "status" : 1,
   "uri" : "public://research/student-activism/Chronicle article 1_19_1945 COGS Posts War Bulletins in Union.pdf"
}
