{
   "status" : 1,
   "uri" : "public://users/sara.berghausen/sylvan2.jpeg",
   "filesize" : 60101,
   "uid" : 111,
   "fid" : 3545,
   "filename" : "sylvan2.jpeg",
   "filemime" : "image/jpeg",
   "uuid" : "ae651b36-6393-4ddd-a4fb-32211d83002a",
   "timestamp" : 1515006745
}
