{
   "filemime" : "image/jpeg",
   "filename" : "Gardner Photo Book Title Page.jpg",
   "uuid" : "af130ccb-5db9-4dbd-8de6-a49eeaa931f9",
   "timestamp" : 1494876434,
   "uri" : "public://users/megan.crain/Gardner Photo Book Title Page.jpg",
   "status" : 1,
   "filesize" : 165326,
   "uid" : 67,
   "fid" : 2501
}
