{
   "timestamp" : 1391629956,
   "uuid" : "af3c8a4f-0729-4963-8bdc-6cc1135cbfd0",
   "filemime" : "image/png",
   "filename" : "browzine_mybookshelf_iOS_OnDevice_small.png",
   "uid" : 181,
   "fid" : 883,
   "filesize" : 81281,
   "status" : 1,
   "uri" : "public://users/Melanie Sturgeon/browzine_mybookshelf_iOS_OnDevice_small.png"
}
