{
   "uuid" : "af79c25a-52e0-4f5f-abdb-7c8b76223c59",
   "filemime" : "image/jpeg",
   "filename" : "interview.jpg",
   "timestamp" : 1613510085,
   "status" : 1,
   "uri" : "public://users/angela.zoss/interview.jpg",
   "uid" : 71,
   "fid" : 5048,
   "filesize" : 91628
}
