{
   "filesize" : 7213,
   "uid" : 2219,
   "fid" : 4305,
   "uri" : "public://users/MeredithGraham/large_Milewicz_Liz_2016-1_0.jpg",
   "status" : 1,
   "timestamp" : 1536190717,
   "filename" : "large_Milewicz_Liz_2016-1_0.jpg",
   "filemime" : "image/jpeg",
   "uuid" : "afcf66d4-b508-4410-9aba-e88290781ff6"
}
