{
   "status" : 1,
   "uri" : "public://users/angela.zoss/dulcatalog.png",
   "filesize" : 174645,
   "fid" : 4921,
   "uid" : 71,
   "filemime" : "image/png",
   "filename" : "dulcatalog.png",
   "uuid" : "afd46d60-19c1-4ba5-acc6-b75a3a3c9563",
   "timestamp" : 1588612056
}
