{
   "uuid" : "aff135dd-e2e9-4d8b-abce-ebbb5aae86bf",
   "filename" : "perkins-B09.jpg",
   "filemime" : "image/jpeg",
   "timestamp" : 1481637458,
   "status" : 1,
   "uri" : "public://rooms/perkins-B09.jpg",
   "fid" : 2218,
   "uid" : 25,
   "filesize" : 38528
}
