{
   "status" : 1,
   "uri" : "public://staff_images/laurinpenland_headshot1.jpg",
   "fid" : 4944,
   "uid" : 2383,
   "filesize" : 3096235,
   "uuid" : "b1ce9797-3387-4bba-a823-4c896ae2d188",
   "filemime" : "image/jpeg",
   "filename" : "laurinpenland_headshot1.jpg",
   "timestamp" : 1594235578
}
