{
   "timestamp" : 1495034624,
   "filemime" : "image/jpeg",
   "filename" : "22511441552_b137ba2ec4_o_0.jpg",
   "uuid" : "b2a918e8-573b-4789-903a-2675a056c000",
   "filesize" : 175495,
   "fid" : 2623,
   "uid" : 67,
   "uri" : "public://users/megan.crain/22511441552_b137ba2ec4_o_0.jpg",
   "status" : 1
}
