{
   "status" : 1,
   "uri" : "public://exhibits/uterusforweb2.jpg",
   "fid" : 4127,
   "uid" : 47,
   "filesize" : 69123,
   "uuid" : "b2d9ea7f-e205-4bec-a5c8-ab64a3a9c81d",
   "filemime" : "image/jpeg",
   "filename" : "uterusforweb2.jpg",
   "timestamp" : 1526434492
}
