{
   "filesize" : 30860,
   "fid" : 2865,
   "uid" : 25,
   "uri" : "public://rooms/perkinsB09.jpg",
   "status" : 1,
   "timestamp" : 1504793868,
   "filename" : "perkinsB09.jpg",
   "filemime" : "image/jpeg",
   "uuid" : "b414dd8a-63c6-4224-8cc4-af63e45dea6a"
}
