{
   "timestamp" : 1504032024,
   "filemime" : "image/jpeg",
   "filename" : "edge_view_4.jpg",
   "uuid" : "b5724523-a18f-4144-ba67-23d9ecfd8b9a",
   "filesize" : 122379,
   "uid" : 3,
   "fid" : 1803,
   "uri" : "public://carousel_images/edge_view_4.jpg",
   "status" : 1
}
