{
   "timestamp" : 1371654173,
   "uuid" : "b595f00a-25ef-4858-b661-04a10eed5163",
   "filename" : "fracking.jpg",
   "filemime" : "image/jpeg",
   "uid" : 47,
   "fid" : 13,
   "filesize" : 89747,
   "uri" : "public://pictures/fracking.jpg",
   "status" : 1
}
