{
   "fid" : 1965,
   "uid" : 25,
   "filesize" : 6655,
   "status" : 1,
   "uri" : "public://staff-portraits/carter-corrina.jpg",
   "timestamp" : 1458135834,
   "uuid" : "b5cc9443-bd8d-4fae-b404-916061d53965",
   "filemime" : "image/jpeg",
   "filename" : "carter-corrina.jpg"
}
