{
   "uuid" : "b6186e27-1bce-426e-8cc8-a027d3feba53",
   "filename" : "DerTatevasian_0.jpg",
   "filemime" : "image/jpeg",
   "timestamp" : 1521227439,
   "status" : 1,
   "uri" : "public://research/student-activism/DerTatevasian_0.jpg",
   "fid" : 4063,
   "uid" : 73,
   "filesize" : 164268
}
