{
   "timestamp" : 1383680015,
   "filename" : "Front of Library Staff Office.jpg",
   "filemime" : "image/jpeg",
   "uuid" : "b6f9809f-e4c7-4a6e-9633-4a68dac3f102",
   "filesize" : 98424,
   "fid" : 554,
   "uid" : 36,
   "uri" : "public://users/brittany.wofford@duke.edu/Front of Library Staff Office.jpg",
   "status" : 1
}
