{
   "uuid" : "b75168a1-542e-4ae8-9fb9-30f3aa02e2be",
   "filemime" : "image/png",
   "filename" : "trans_reading_devil_200.png",
   "timestamp" : 1376082376,
   "status" : 1,
   "uri" : "public://support/trans_reading_devil_200.png",
   "uid" : 3,
   "fid" : 169,
   "filesize" : 5348
}
