{
   "uid" : 73,
   "fid" : 3795,
   "filesize" : 30323,
   "status" : 1,
   "uri" : "public://research/student-activism/howardjensen2.jpg",
   "timestamp" : 1517255286,
   "uuid" : "b7bfb027-a01c-49dc-8496-8481f69290ca",
   "filename" : "howardjensen2.jpg",
   "filemime" : "image/jpeg"
}
