{
   "filename" : "VFWPrincetonGorintoderTatevasian.pdf",
   "filemime" : "application/pdf",
   "uuid" : "b84a005a-b777-4d3d-81a1-f5ae3c9d095a",
   "timestamp" : 1509559829,
   "status" : 1,
   "uri" : "public://research/student-activism/VFWPrincetonGorintoderTatevasian.pdf",
   "filesize" : 555468,
   "fid" : 3123,
   "uid" : 73
}
