{
   "fid" : 4739,
   "uid" : 2363,
   "filesize" : 217895,
   "status" : 1,
   "uri" : "public://staff_images/brick_wall_-_copy.jpg",
   "timestamp" : 1572544622,
   "uuid" : "b95fca3f-53ae-4226-a24b-fac78536861b",
   "filemime" : "image/jpeg",
   "filename" : "brick_wall_-_copy.jpg"
}
