{
   "timestamp" : 1517345434,
   "uuid" : "ba1b243e-bea2-4354-afc4-43adb10ba51e",
   "filemime" : "application/pdf",
   "filename" : "5-3-1938pg1.pdf",
   "uid" : 81,
   "fid" : 3915,
   "filesize" : 886382,
   "status" : 1,
   "uri" : "public://research/student-activism/5-3-1938pg1.pdf"
}
