{
   "timestamp" : 1385406203,
   "uuid" : "ba441c57-4315-4be8-9a49-b83b1503a9a0",
   "filemime" : "image/jpeg",
   "filename" : "exhibits_97.jpg",
   "fid" : 777,
   "uid" : 139,
   "filesize" : 5789,
   "uri" : "public://pictures/exhibits_97.jpg",
   "status" : 1
}
