{
   "filesize" : 147083,
   "fid" : 2621,
   "uid" : 67,
   "uri" : "public://users/megan.crain/22511441552_b137ba2ec4_o.jpg",
   "status" : 1,
   "timestamp" : 1495034578,
   "filename" : "22511441552_b137ba2ec4_o.jpg",
   "filemime" : "image/jpeg",
   "uuid" : "ba87240e-a254-4e27-9518-640cc93a391f"
}
