{
   "status" : 1,
   "uri" : "public://research/student-activism/VFWPrincetonCorrihertCommander.pdf",
   "filesize" : 677401,
   "fid" : 3113,
   "uid" : 73,
   "filename" : "VFWPrincetonCorrihertCommander.pdf",
   "filemime" : "application/pdf",
   "uuid" : "bad72659-3f9f-40c8-ae81-2472208565eb",
   "timestamp" : 1509559495
}
