{
   "status" : 1,
   "uri" : "public://icons/transparent.gif",
   "uid" : 25,
   "fid" : 1881,
   "filesize" : 43,
   "uuid" : "bb437e49-9e55-4f38-b407-82ed9b1df10f",
   "filemime" : "image/gif",
   "filename" : "transparent.gif",
   "timestamp" : 1454013913
}
