{
   "status" : 1,
   "uri" : "public://users/beth.doyle/medium_naked.jpg",
   "fid" : 2435,
   "uid" : 69,
   "filesize" : 3349,
   "uuid" : "bb85703c-f0c4-4f93-a44e-359b4e99926e",
   "filemime" : "image/jpeg",
   "filename" : "medium_naked.jpg",
   "timestamp" : 1491587119
}
