{
   "uri" : "public://pictures/exhibits_99.jpg",
   "status" : 1,
   "filesize" : 3315,
   "fid" : 781,
   "uid" : 139,
   "filemime" : "image/jpeg",
   "filename" : "exhibits_99.jpg",
   "uuid" : "bb99ab19-a356-4a23-915c-c52bbaf80ad7",
   "timestamp" : 1385406209
}
