{
   "filemime" : "image/jpeg",
   "filename" : "work_pic.jpg",
   "uuid" : "bbc2c11a-c404-4ed9-a951-2fd2e4104575",
   "timestamp" : 1566486944,
   "uri" : "public://staff_images/work_pic.jpg",
   "status" : 1,
   "filesize" : 166604,
   "fid" : 4617,
   "uid" : 2316
}
