{
   "uid" : 513,
   "fid" : 4517,
   "filesize" : 17911,
   "uri" : "public://users/Katryna Robinson/LC 10-26-17.docx",
   "status" : 1,
   "timestamp" : 1558023212,
   "uuid" : "bc2081f5-9823-4801-9016-e3532bc44e0f",
   "filename" : "LC 10-26-17.docx",
   "filemime" : "application/vnd.openxmlformats-officedocument.wordprocessingml.document"
}
