{
   "uid" : 81,
   "fid" : 2841,
   "filesize" : 7946671,
   "status" : 1,
   "uri" : "public://research/student-activism/3 25 31 (1).pdf",
   "timestamp" : 1503002109,
   "uuid" : "bc2b8731-63b0-448e-a650-b5f6a7f9bb3e",
   "filename" : "3 25 31 (1).pdf",
   "filemime" : "application/pdf"
}
