{
   "timestamp" : 1418412539,
   "filemime" : "image/jpeg",
   "filename" : "brandaleone video screenshot_0.jpg",
   "uuid" : "bc35d8a1-5e5f-462d-9c6b-1be7e39833c9",
   "filesize" : 407063,
   "uid" : 64,
   "fid" : 1165,
   "uri" : "public://users/kurt.cumiskey/brandaleone video screenshot_0.jpg",
   "status" : 1
}
