{
   "timestamp" : 1509129627,
   "filename" : "peaceagentfeb241936(1).jpg",
   "filemime" : "image/jpeg",
   "uuid" : "bdc07396-3a4a-46f0-a6ee-31fea7df01cb",
   "filesize" : 40513,
   "uid" : 73,
   "fid" : 2979,
   "status" : 1,
   "uri" : "public://research/student-activism/peaceagentfeb241936(1).jpg"
}
