{
   "timestamp" : 1509480271,
   "filename" : "DnD-4-1936-001tn.jpg",
   "filemime" : "image/jpeg",
   "uuid" : "bdcb0097-0d72-4280-ac14-cdbfeb3d20b8",
   "filesize" : 54357,
   "fid" : 3103,
   "uid" : 73,
   "uri" : "public://research/student-activism/DnD-4-1936-001tn.jpg",
   "status" : 1
}
