{
   "uid" : 139,
   "fid" : 763,
   "filesize" : 6743,
   "uri" : "public://pictures/exhibits_90.jpg",
   "status" : 1,
   "timestamp" : 1385406166,
   "uuid" : "bec3000f-7467-48ba-9846-671443bceb0d",
   "filename" : "exhibits_90.jpg",
   "filemime" : "image/jpeg"
}
