{
   "uri" : "public://research/student-activism/74916-2_0.pdf",
   "status" : 1,
   "filesize" : 4223195,
   "fid" : 3473,
   "uid" : 147,
   "filemime" : "application/pdf",
   "filename" : "74916-2_0.pdf",
   "uuid" : "befe7516-4932-4c55-9cf3-9a75a7a9402d",
   "timestamp" : 1514991013
}
