{
   "timestamp" : 1375470783,
   "filemime" : "image/jpeg",
   "filename" : "traffic_sign_4.jpg",
   "uuid" : "bf9b534a-d2fc-42ff-abf2-c5dffae6bf8b",
   "filesize" : 47669,
   "uid" : 84,
   "fid" : 117,
   "uri" : "public://traffic_sign_4.jpg",
   "status" : 1
}
