{
   "uri" : "public://icons/envelope-small.png",
   "status" : 1,
   "filesize" : 306,
   "uid" : 25,
   "fid" : 1957,
   "filename" : "envelope-small.png",
   "filemime" : "image/png",
   "uuid" : "bfc4f1a4-09d6-45ab-9325-3192c54047cf",
   "timestamp" : 1457980321
}
