{
   "uuid" : "c071b103-1294-47f2-8b6f-cb43d138c99e",
   "filemime" : "application/pdf",
   "filename" : "VFWPrincetonderTatevasiantoGorin.pdf",
   "timestamp" : 1509559668,
   "status" : 1,
   "uri" : "public://research/student-activism/VFWPrincetonderTatevasiantoGorin.pdf",
   "fid" : 3117,
   "uid" : 73,
   "filesize" : 580637
}
