{
   "fid" : 1999,
   "uid" : 25,
   "filesize" : 7791,
   "status" : 1,
   "uri" : "public://staff-portraits/mandy-hurt.jpg",
   "timestamp" : 1458239912,
   "uuid" : "c0e2d567-3884-4826-81db-1451900c7e67",
   "filename" : "mandy-hurt.jpg",
   "filemime" : "image/jpeg"
}
