{
   "uid" : 73,
   "fid" : 3719,
   "filesize" : 1006245,
   "status" : 1,
   "uri" : "public://research/student-activism/chronicleoct301929millstrike.pdf",
   "timestamp" : 1516387385,
   "uuid" : "c2ca9435-58b4-44b7-98c3-04c95aaa8461",
   "filename" : "chronicleoct301929millstrike.pdf",
   "filemime" : "application/pdf"
}
