{
   "filemime" : "image/jpeg",
   "filename" : "Weekly-Post-Xmas-Fund_0.jpg",
   "uuid" : "c2d7b0a9-7993-43b2-83c1-8e7716ff475a",
   "timestamp" : 1515523412,
   "status" : 1,
   "uri" : "public://research/student-activism/Weekly-Post-Xmas-Fund_0.jpg",
   "filesize" : 185445,
   "uid" : 81,
   "fid" : 3633
}
