{
   "timestamp" : 1378923115,
   "filemime" : "image/gif",
   "filename" : "apsi.gif",
   "uuid" : "c32af967-23e3-4574-a550-4248eabecb26",
   "filesize" : 1553,
   "uid" : 99,
   "fid" : 328,
   "status" : 1,
   "uri" : "public://users/kristina.troost/apsi.gif"
}
