{
   "filesize" : 3840,
   "uid" : 63,
   "fid" : 2051,
   "uri" : "public://users/hannah.rozear/medium_Rozear_Hannah.jpg",
   "status" : 1,
   "timestamp" : 1461612629,
   "filename" : "medium_Rozear_Hannah.jpg",
   "filemime" : "image/jpeg",
   "uuid" : "c3848a21-aa8e-41b4-aea7-f02de7bc0b5d"
}
