{
   "fid" : 4701,
   "uid" : 201,
   "filesize" : 1599948,
   "status" : 1,
   "uri" : "public://staff_images/img_1031b.jpg",
   "timestamp" : 1567805112,
   "uuid" : "c3921c43-25ec-4849-8b4b-4ff16bc49a2f",
   "filemime" : "image/jpeg",
   "filename" : "img_1031b.jpg"
}
