{
   "uri" : "public://users/megan.crain/Patty.pdf",
   "status" : 1,
   "fid" : 1271,
   "uid" : 67,
   "filesize" : 154006,
   "uuid" : "c3cf4775-3283-4e89-9b5b-171c73a02494",
   "filename" : "Patty.pdf",
   "filemime" : "application/pdf",
   "timestamp" : 1425496665
}
