{
   "filesize" : 53119,
   "uid" : 2275,
   "fid" : 5090,
   "uri" : "public://users/Ryan McGovern/orgchart.pdf",
   "status" : 1,
   "timestamp" : 1619542554,
   "filename" : "orgchart.pdf",
   "filemime" : "application/pdf",
   "uuid" : "c3f6bc4c-d888-4744-9aca-b22500ddad20"
}
