{
   "filename" : "laura4.jpg",
   "filemime" : "image/jpeg",
   "uuid" : "c5308c0f-e819-4ead-add8-a749016f7e46",
   "timestamp" : 1475264297,
   "status" : 1,
   "uri" : "public://carousel_images/laura4_0.jpg",
   "filesize" : 318490,
   "fid" : 2115,
   "uid" : 433
}
