{
   "uri" : "public://using-the-library/floor_plan_Printers_Perkins_low1.jpg",
   "status" : 1,
   "filesize" : 116016,
   "uid" : 2197,
   "fid" : 4233,
   "filemime" : "image/jpeg",
   "filename" : "floor_plan_Printers_Perkins_low1.jpg",
   "uuid" : "c640411c-5bf1-46bb-b537-0988f7e59815",
   "timestamp" : 1531240984
}
