{
   "timestamp" : 1380307507,
   "filename" : "Second Floor Perkins.jpg",
   "filemime" : "image/jpeg",
   "uuid" : "c652d40a-94d5-4b2e-b951-75ec9a3c6008",
   "filesize" : 80080,
   "uid" : 36,
   "fid" : 403,
   "status" : 1,
   "uri" : "public://users/brittany.wofford@duke.edu/Second Floor Perkins.jpg"
}
