{
   "uri" : "public://pictures/picture-2071-1503931614.jpg",
   "status" : 1,
   "filesize" : 77063,
   "uid" : 2071,
   "fid" : 2857,
   "filemime" : "image/jpeg",
   "filename" : "picture-2071-1503931614.jpg",
   "uuid" : "c819e081-13d5-49ad-9fc3-db212a8728b1",
   "timestamp" : 1503931614
}
