{
   "timestamp" : 1376678042,
   "uuid" : "c8781d83-db06-4290-b78b-0390a23661bd",
   "filename" : "Screen Shot 2013-08-16 at 2.31.40 PM.png",
   "filemime" : "image/png",
   "uid" : 84,
   "fid" : 225,
   "filesize" : 44449,
   "status" : 1,
   "uri" : "public://users/christina holder/Screen Shot 2013-08-16 at 2.31.40 PM.png"
}
