{
   "filesize" : 238695,
   "uid" : 47,
   "fid" : 164,
   "status" : 1,
   "uri" : "public://users/meg.brown@duke.edu/studentwallsetup.jpg",
   "timestamp" : 1375994342,
   "filename" : "studentwallsetup.jpg",
   "filemime" : "image/jpeg",
   "uuid" : "c93cd6bb-a19e-4e4e-a102-2a485a972d3a"
}
