{
   "uri" : "public://carousel_images/rc3_0.jpg",
   "status" : 1,
   "filesize" : 157317,
   "fid" : 1091,
   "uid" : 3,
   "filemime" : "image/jpeg",
   "filename" : "rc3.jpg",
   "uuid" : "c98863ff-b272-4350-9633-750bc0120b7f",
   "timestamp" : 1409257137
}
