{
   "timestamp" : 1513107685,
   "uuid" : "c9f099fc-5d62-4796-baea-50093f7caf6b",
   "filemime" : "image/jpeg",
   "filename" : "16-murrow-young1.jpg",
   "uid" : 55,
   "fid" : 3349,
   "filesize" : 30469,
   "uri" : "public://research/student-activism/16-murrow-young1.jpg",
   "status" : 1
}
