{
   "filesize" : 148986,
   "uid" : 3,
   "fid" : 819,
   "uri" : "public://ea-per.jpg",
   "status" : 1,
   "timestamp" : 1389635090,
   "filemime" : "image/jpeg",
   "filename" : "ea-per.jpg",
   "uuid" : "c9ff7e81-5442-4f0f-a858-80fadb8ebb25"
}
