{
   "filesize" : 163196,
   "fid" : 280,
   "uid" : 4,
   "uri" : "public://course-support/crazysmart-mooc-500.jpg",
   "status" : 1,
   "timestamp" : 1378306340,
   "filename" : "crazysmart-mooc-500.jpg",
   "filemime" : "image/jpeg",
   "uuid" : "cbfb3665-297c-4671-8485-38644c6d0adc"
}
