{
   "filesize" : 2364,
   "fid" : 963,
   "uid" : 69,
   "uri" : "public://users/beth.doyle/medium_Duke Chronicle 1905.jpg",
   "status" : 1,
   "timestamp" : 1395254936,
   "filename" : "medium_Duke Chronicle 1905.jpg",
   "filemime" : "image/jpeg",
   "uuid" : "cc6c49d7-8877-41a1-9835-19b83b37277c"
}
