{
   "timestamp" : 1618511013,
   "filename" : "go_styron.jpg",
   "filemime" : "image/jpeg",
   "uuid" : "cce75c4e-2eb5-41b4-b2fe-0dc39b7b75d7",
   "filesize" : 34341,
   "uid" : 3,
   "fid" : 5071,
   "uri" : "public://support/go_styron.jpg",
   "status" : 1
}
