{
   "status" : 1,
   "uri" : "public://users/megan.crain/dchnp530110010_0.jpg",
   "filesize" : 201250,
   "fid" : 2545,
   "uid" : 67,
   "filemime" : "image/jpeg",
   "filename" : "dchnp530110010_0.jpg",
   "uuid" : "cda39ddc-81fc-4ee0-9672-89845777a88a",
   "timestamp" : 1494948959
}
