{
   "fid" : 1841,
   "uid" : 82,
   "filesize" : 76678,
   "uri" : "public://carousel_images/Brain Blocks 800.jpg",
   "status" : 1,
   "timestamp" : 1474403940,
   "uuid" : "ce1cb489-194c-4639-8455-377c08520069",
   "filename" : "Brain Blocks 800.jpg",
   "filemime" : "image/jpeg"
}
