{
   "filesize" : 1144,
   "uid" : 71,
   "fid" : 5023,
   "uri" : "public://users/angela.zoss/sunrise-white.png",
   "status" : 1,
   "timestamp" : 1613509128,
   "filename" : "sunrise-white.png",
   "filemime" : "image/png",
   "uuid" : "ce8475b1-7297-4c40-89e7-d62b537834b5"
}
