{
   "fid" : 3881,
   "uid" : 81,
   "filesize" : 1004356,
   "status" : 1,
   "uri" : "public://research/student-activism/3-3-1937.pdf",
   "timestamp" : 1517344543,
   "uuid" : "ceb803bd-5965-47e2-b83a-1222840cf702",
   "filemime" : "application/pdf",
   "filename" : "3-3-1937.pdf"
}
