{
   "filename" : "libx_6.png",
   "filemime" : "image/png",
   "uuid" : "cef9ed69-4039-43f9-aaae-7eaeed3fc3f0",
   "timestamp" : 1379001785,
   "status" : 1,
   "uri" : "public://users/brittany.wofford@duke.edu/libx_6.png",
   "filesize" : 133465,
   "uid" : 36,
   "fid" : 344
}
