{
   "uuid" : "ceffa525-3583-4b7d-a22b-684c70839efb",
   "filemime" : "image/jpeg",
   "filename" : "BH0904.jpg",
   "timestamp" : 1494948640,
   "uri" : "public://users/megan.crain/BH0904.jpg",
   "status" : 1,
   "fid" : 2537,
   "uid" : 67,
   "filesize" : 176946
}
