{
   "timestamp" : 1495034550,
   "filemime" : "image/jpeg",
   "filename" : "21903693263_2962d7e5c6_o.jpg",
   "uuid" : "cf113f53-8e21-49b4-bb9b-801a57c7ae90",
   "filesize" : 166995,
   "fid" : 2617,
   "uid" : 67,
   "uri" : "public://users/megan.crain/21903693263_2962d7e5c6_o.jpg",
   "status" : 1
}
