{
   "filename" : "jason-rosewell-60014.jpg",
   "filemime" : "image/jpeg",
   "uuid" : "cf3606c9-3b36-48db-8ad2-1faec8d810cf",
   "timestamp" : 1515090673,
   "uri" : "public://carousel_images/jason-rosewell-60014.jpg",
   "status" : 1,
   "filesize" : 1971203,
   "fid" : 3557,
   "uid" : 77
}
