{
   "uri" : "public://kiosks/lobby/FL1-kiosk_0.jpg",
   "status" : 1,
   "filesize" : 105840,
   "uid" : 25,
   "fid" : 1755,
   "filename" : "FL1-kiosk_0.jpg",
   "filemime" : "image/jpeg",
   "uuid" : "cf493e36-ba1e-4ccd-8a74-5aff1e22ade0",
   "timestamp" : 1440164628
}
