{
   "status" : 1,
   "uri" : "public://users/megan.crain/beer-and-banjos-1-600x360.jpg",
   "fid" : 1245,
   "uid" : 67,
   "filesize" : 156064,
   "uuid" : "cf5667d7-5749-457d-9aec-aaa60ba2c886",
   "filemime" : "image/jpeg",
   "filename" : "beer-and-banjos-1-600x360.jpg",
   "timestamp" : 1421782030
}
