{
   "fid" : 1695,
   "uid" : 339,
   "filesize" : 148198,
   "uri" : "public://exhibits/mixedbloodimage.jpg",
   "status" : 1,
   "timestamp" : 1439236278,
   "uuid" : "cf801b77-777a-4807-8c46-88051ce1e531",
   "filemime" : "image/jpeg",
   "filename" : "mixedbloodimage.jpg"
}
