{
   "status" : 1,
   "uri" : "public://users/Joyce Chapman/arl-fy2017.xlsx",
   "filesize" : 11459,
   "fid" : 4787,
   "uid" : 313,
   "filemime" : "application/vnd.openxmlformats-officedocument.spreadsheetml.sheet",
   "filename" : "arl-fy2017.xlsx",
   "uuid" : "cf8386f1-024b-4f3c-b082-0e48945aeffd",
   "timestamp" : 1576685069
}
