{
   "filesize" : 1259753,
   "uid" : 73,
   "fid" : 3925,
   "status" : 1,
   "uri" : "public://research/student-activism/votinginncmanuscript.pdf",
   "timestamp" : 1517424857,
   "filemime" : "application/pdf",
   "filename" : "votinginncmanuscript.pdf",
   "uuid" : "cfec7d9b-072a-4fb9-9645-9461d0b0741f"
}
