{
   "timestamp" : 1378753211,
   "filemime" : "image/png",
   "filename" : "dukechroniclelogo.png",
   "uuid" : "cff1b70d-8a1a-4817-b7b7-105d0686e567",
   "filesize" : 17940,
   "uid" : 4,
   "fid" : 305,
   "uri" : "public://search-find/dukechroniclelogo.png",
   "status" : 1
}
