{
   "fid" : 340,
   "uid" : 36,
   "filesize" : 59497,
   "status" : 1,
   "uri" : "public://users/brittany.wofford@duke.edu/libx_1.png",
   "timestamp" : 1379000917,
   "uuid" : "d05b921d-9007-40c7-8d16-ca26c1a3de9c",
   "filename" : "libx_1.png",
   "filemime" : "image/png"
}
