{
   "filemime" : "application/pdf",
   "filename" : "19380204_Survey.pdf",
   "uuid" : "d081a2c3-a4b8-496d-ba2f-4d0b89a568cc",
   "timestamp" : 1510155019,
   "status" : 1,
   "uri" : "public://research/student-activism/19380204_Survey.pdf",
   "filesize" : 879303,
   "uid" : 149,
   "fid" : 3267
}
