{
   "uuid" : "d0b68dc3-6870-4f0d-85ca-19182a29a37e",
   "filemime" : "application/pdf",
   "filename" : "74779_0.pdf",
   "timestamp" : 1514990876,
   "status" : 1,
   "uri" : "public://research/student-activism/74779_0.pdf",
   "fid" : 3461,
   "uid" : 147,
   "filesize" : 5496096
}
