{
   "filesize" : 533795,
   "fid" : 4640,
   "uid" : 2213,
   "uri" : "public://staff_images/20190826_174541.jpg",
   "status" : 1,
   "timestamp" : 1566856364,
   "filemime" : "image/jpeg",
   "filename" : "20190826_174541.jpg",
   "uuid" : "d10d1fa0-430a-4f09-8266-3a03a3ef43ee"
}
