{
   "uuid" : "d14a5bb0-d6e8-4620-b351-731f77285a43",
   "filemime" : "application/vnd.openxmlformats-officedocument.wordprocessingml.document",
   "filename" : "LC 3-21-17.docx",
   "timestamp" : 1558019764,
   "uri" : "public://users/Katryna Robinson/LC 3-21-17.docx",
   "status" : 1,
   "uid" : 513,
   "fid" : 4513,
   "filesize" : 19171
}
