{
   "timestamp" : 1491589499,
   "uuid" : "d201b20f-5668-489d-ac13-2f954cc3a53d",
   "filemime" : "image/jpeg",
   "filename" : "medium_vidication.jpg",
   "fid" : 2443,
   "uid" : 69,
   "filesize" : 2765,
   "status" : 1,
   "uri" : "public://users/beth.doyle/medium_vidication.jpg"
}
