{
   "timestamp" : 1472064413,
   "uuid" : "d212d954-3e38-4643-91e7-779a873294ce",
   "filemime" : "image/jpeg",
   "filename" : "LL2-kiosk.jpg",
   "fid" : 2137,
   "uid" : 25,
   "filesize" : 83826,
   "uri" : "public://kiosks/lobby/LL2-kiosk.jpg",
   "status" : 1
}
