{
   "uri" : "public://research/student-activism/Chanticleer 1945_p8.pdf",
   "status" : 1,
   "uid" : 57,
   "fid" : 3721,
   "filesize" : 355682,
   "uuid" : "d2c25762-7adc-4a1e-92d1-cc9c9bbd4126",
   "filename" : "Chanticleer 1945_p8.pdf",
   "filemime" : "application/pdf",
   "timestamp" : 1516398957
}
