{
   "filename" : "ef9266b2-a7c6-49d9-a316-0ad7741361ce.jpg",
   "filemime" : "image/jpeg",
   "uuid" : "d2cc3b41-1d01-4390-845f-59906efb6999",
   "timestamp" : 1566564361,
   "status" : 1,
   "uri" : "public://staff_images/ef9266b2-a7c6-49d9-a316-0ad7741361ce.jpg",
   "filesize" : 1691036,
   "uid" : 2327,
   "fid" : 4623
}
