{
   "uuid" : "d3534d74-99ff-4673-8c48-1c0f2cfee58b",
   "filename" : "crazysmart_8_250x250_0.jpg",
   "filemime" : "image/jpeg",
   "timestamp" : 1377202797,
   "uri" : "public://users/aaron.welborn/crazysmart_8_250x250_0.jpg",
   "status" : 1,
   "fid" : 253,
   "uid" : 60,
   "filesize" : 6278
}
