{
   "fid" : 4813,
   "uid" : 513,
   "filesize" : 946059,
   "status" : 1,
   "uri" : "public://users/Katryna Robinson/fy2021_library_collections_budget_1540220_request.pdf",
   "timestamp" : 1579799003,
   "uuid" : "d371a839-0c98-4625-8858-d14880409826",
   "filename" : "fy2021_library_collections_budget_1540220_request.pdf",
   "filemime" : "application/pdf"
}
