{
   "timestamp" : 1596032524,
   "filename" : "dul_takeout_rectangular.jpg",
   "filemime" : "image/jpeg",
   "uuid" : "d43574b6-588a-4de7-97ef-c56b11b07ecc",
   "filesize" : 42746,
   "uid" : 81,
   "fid" : 4950,
   "uri" : "public://users/danette.pachtner/dul_takeout_rectangular.jpg",
   "status" : 1
}
