{
   "uuid" : "d43c38e5-c367-4ff6-acfc-fba249dec45e",
   "filemime" : "application/pdf",
   "filename" : "YMCA-AnnualRept-36-37-p3optimzed.pdf",
   "timestamp" : 1515097018,
   "uri" : "public://research/student-activism/YMCA-AnnualRept-36-37-p3optimzed.pdf",
   "status" : 1,
   "fid" : 3559,
   "uid" : 81,
   "filesize" : 299572
}
