{
   "timestamp" : 1495052662,
   "filemime" : "image/jpeg",
   "filename" : "6975892830_d8b94f7872_o.jpg",
   "uuid" : "d4d49f9d-f7a5-4fe2-b62e-b891c9643341",
   "filesize" : 144435,
   "uid" : 67,
   "fid" : 2645,
   "uri" : "public://users/megan.crain/6975892830_d8b94f7872_o.jpg",
   "status" : 1
}
