{
   "uuid" : "d50a14a8-36b1-4ca3-b699-399eafad6a2f",
   "filemime" : "image/jpeg",
   "filename" : "Official_Presidential_portrait_of_Thomas_Jefferson_(by_Rembrandt_Peale,_1800).jpg",
   "timestamp" : 1438866359,
   "uri" : "public://exhibits/Official_Presidential_portrait_of_Thomas_Jefferson_(by_Rembrandt_Peale,_1800).jpg",
   "status" : 1,
   "fid" : 1605,
   "uid" : 339,
   "filesize" : 24127
}
