{
   "timestamp" : 1419345170,
   "uuid" : "d5256940-b29a-4756-b46a-1a5ea67ea25b",
   "filename" : "picture-377-1419345170.jpg",
   "filemime" : "image/jpeg",
   "fid" : 1199,
   "uid" : 377,
   "filesize" : 53400,
   "uri" : "public://pictures/picture-377-1419345170.jpg",
   "status" : 1
}
