{
   "timestamp" : 1382557454,
   "uuid" : "d661687b-f652-47c9-a36e-b7c31a731f59",
   "filemime" : "image/jpeg",
   "filename" : "british_studies.JPG",
   "fid" : 497,
   "uid" : 139,
   "filesize" : 68084,
   "status" : 1,
   "uri" : "public://research-support/international/british_studies.JPG"
}
