{
   "filesize" : 42514,
   "uid" : 71,
   "fid" : 4927,
   "status" : 1,
   "uri" : "public://users/emily.daly/daly-emily.jpg",
   "timestamp" : 1588616973,
   "filemime" : "image/jpeg",
   "filename" : "daly-emily.jpg",
   "uuid" : "d6a909d4-9806-4ef4-8b09-f170ed5d0b0a"
}
