{
   "filename" : "headway-537308-unsplash.jpg",
   "filemime" : "image/jpeg",
   "uuid" : "d70474ce-0d68-4942-bfa3-a963400411fe",
   "timestamp" : 1556626992,
   "uri" : "public://carousel_images/headway-537308-unsplash.jpg",
   "status" : 1,
   "filesize" : 5158451,
   "uid" : 77,
   "fid" : 4423
}
