{
   "filesize" : 22240,
   "uid" : 73,
   "fid" : 4031,
   "uri" : "public://research/student-activism/distaffcoverrotatedtn.jpg",
   "status" : 1,
   "timestamp" : 1518732397,
   "filemime" : "image/jpeg",
   "filename" : "distaffcoverrotatedtn.jpg",
   "uuid" : "d843eafb-5bfe-41bb-9de6-a1678f7acb1c"
}
