{
   "filesize" : 10252,
   "uid" : 139,
   "fid" : 617,
   "uri" : "public://pictures/exhibits_17.jpg",
   "status" : 1,
   "timestamp" : 1385405715,
   "filemime" : "image/jpeg",
   "filename" : "exhibits_17.jpg",
   "uuid" : "d8ad216f-be56-4bd3-aa9c-8ffa4667de69"
}
