{
   "uid" : 73,
   "fid" : 4065,
   "filesize" : 149389,
   "status" : 1,
   "uri" : "public://research/student-activism/NewMassesCover1932.jpg",
   "timestamp" : 1521230946,
   "uuid" : "d8cb284c-5baa-40a6-a4a5-3951a92b66cc",
   "filename" : "NewMassesCover1932.jpg",
   "filemime" : "image/jpeg"
}
