{
   "uid" : 2077,
   "fid" : 4992,
   "filesize" : 79632,
   "uri" : "public://using-the-library/drs_entrance.jpg",
   "status" : 1,
   "timestamp" : 1601055516,
   "uuid" : "d9a79a3e-3dde-499d-ae13-cd45d7418e6d",
   "filemime" : "image/jpeg",
   "filename" : "drs_entrance.jpg"
}
