{
   "uid" : 2355,
   "fid" : 4899,
   "filesize" : 14717,
   "status" : 1,
   "uri" : "public://users/Anastasia Forte/rosatifacultysignature20.docx",
   "timestamp" : 1585938735,
   "uuid" : "da651b4b-d6f1-4d77-8a6e-ce8a07215aba",
   "filename" : "rosatifacultysignature20.docx",
   "filemime" : "application/vnd.openxmlformats-officedocument.wordprocessingml.document"
}
