{
   "timestamp" : 1438615124,
   "uuid" : "daaf0fa9-ef18-4f6f-83c0-0e13e4717824",
   "filename" : "44c3b69fdfa155697eeec588867b21a2.jpg",
   "filemime" : "image/jpeg",
   "fid" : 1553,
   "uid" : 339,
   "filesize" : 34901,
   "uri" : "public://exhibits/44c3b69fdfa155697eeec588867b21a2.jpg",
   "status" : 1
}
