{
   "filesize" : 127494,
   "fid" : 1595,
   "uid" : 339,
   "uri" : "public://exhibits/danny-wilcox-frazier.jpg",
   "status" : 1,
   "timestamp" : 1438804580,
   "filemime" : "image/jpeg",
   "filename" : "danny-wilcox-frazier.jpg",
   "uuid" : "db64c2f9-46f0-4af8-9bf6-60554e6d0e7f"
}
