{
   "status" : 1,
   "uri" : "public://research/student-activism/VFWPrincetonderTatevasiantoBarnestn.jpg",
   "filesize" : 18806,
   "fid" : 3089,
   "uid" : 73,
   "filename" : "VFWPrincetonderTatevasiantoBarnestn.jpg",
   "filemime" : "image/jpeg",
   "uuid" : "db8f0f5d-7fc8-4bbe-ba02-ba8ecb611cd9",
   "timestamp" : 1509478753
}
