{
   "uri" : "public://pictures/korea.jpg",
   "status" : 1,
   "filesize" : 4206,
   "fid" : 546,
   "uid" : 139,
   "filename" : "korea.jpg",
   "filemime" : "image/jpeg",
   "uuid" : "dbf5eae1-f14d-48c2-93ee-93ccbcd9ff02",
   "timestamp" : 1383590795
}
