{
   "filesize" : 123678,
   "uid" : 67,
   "fid" : 2643,
   "uri" : "public://users/megan.crain/3821606080_c04f43ce77_o.jpg",
   "status" : 1,
   "timestamp" : 1495052594,
   "filename" : "3821606080_c04f43ce77_o.jpg",
   "filemime" : "image/jpeg",
   "uuid" : "dc255eaa-0101-4352-866a-a075f0dd0f06"
}
