{
   "uri" : "public://research/student-activism/world relations institute.jpg",
   "status" : 1,
   "filesize" : 14623,
   "uid" : 57,
   "fid" : 3139,
   "filename" : "world relations institute.jpg",
   "filemime" : "image/jpeg",
   "uuid" : "dcff1e22-abc7-4e6d-a578-5c03e47243e8",
   "timestamp" : 1509568180
}
