{
   "timestamp" : 1490983719,
   "filename" : "medium_no 1.jpg",
   "filemime" : "image/jpeg",
   "uuid" : "dde8adeb-ef27-4135-923e-c92378887a02",
   "filesize" : 4630,
   "fid" : 2401,
   "uid" : 69,
   "status" : 1,
   "uri" : "public://users/beth.doyle/medium_no 1.jpg"
}
