{
   "uri" : "public://pictures/exhibits_69.jpg",
   "status" : 1,
   "uid" : 139,
   "fid" : 721,
   "filesize" : 7345,
   "uuid" : "ddfe6ed2-9d23-49db-9ec7-f30bce2373fd",
   "filename" : "exhibits_69.jpg",
   "filemime" : "image/jpeg",
   "timestamp" : 1385406029
}
