{
   "timestamp" : 1380128520,
   "filename" : "ias_jewishstudies.jpg",
   "filemime" : "image/jpeg",
   "uuid" : "de7f058b-5220-46fd-8128-f000dc988da8",
   "filesize" : 825541,
   "fid" : 390,
   "uid" : 139,
   "status" : 1,
   "uri" : "public://pictures/ias_jewishstudies.jpg"
}
