{
   "filesize" : 30105,
   "uid" : 67,
   "fid" : 168,
   "uri" : "public://users/megan.crain/Barber_Ginger.jpeg",
   "status" : 1,
   "timestamp" : 1376081071,
   "filename" : "Barber_Ginger.jpeg",
   "filemime" : "image/jpeg",
   "uuid" : "de9a29d9-d194-449c-8d7b-714148824969"
}
