{
   "status" : 1,
   "uri" : "public://research/student-activism/HIstory Forum Shadow.psd",
   "uid" : 147,
   "fid" : 3947,
   "filesize" : 8201173,
   "uuid" : "ded1f148-6e0d-4157-b4c4-0cc7939d9c4b",
   "filename" : "HIstory Forum Shadow.psd",
   "filemime" : "image/x-photoshop",
   "timestamp" : 1517502257
}
