{
   "uid" : 1997,
   "fid" : 5063,
   "filesize" : 76339,
   "status" : 1,
   "uri" : "public://users/Dracine Hodges/dults_orgchart_02.27.2021-page0001.jpg",
   "timestamp" : 1614444006,
   "uuid" : "e118371b-694c-4cd9-a823-9ad75b75d072",
   "filename" : "dults_orgchart_02.27.2021-page0001.jpg",
   "filemime" : "image/jpeg"
}
