{
   "uri" : "public://research-support/international/gamble-program-cover-210x300.png",
   "status" : 1,
   "filesize" : 96043,
   "uid" : 97,
   "fid" : 267,
   "filemime" : "image/png",
   "filename" : "gamble-program-cover-210x300.png",
   "uuid" : "e205f9f7-6df2-4f73-bce5-4ebf76bdb414",
   "timestamp" : 1377718600
}
