{
   "status" : 1,
   "uri" : "public://users/megan.crain/DSC_2974b.jpg",
   "filesize" : 142954,
   "fid" : 2507,
   "uid" : 67,
   "filemime" : "image/jpeg",
   "filename" : "DSC_2974b.jpg",
   "uuid" : "e3790194-902e-412a-81fb-f5ea4e790b23",
   "timestamp" : 1494877877
}
