{
   "filemime" : "image/png",
   "filename" : "DD_photofaid_schema_880x500.png",
   "uuid" : "e3d2b9d8-d11d-460e-92a5-92cdb4eda465",
   "timestamp" : 1432934115,
   "status" : 1,
   "uri" : "public://carousel_images/DD_photofaid_schema_880x500_0.png",
   "filesize" : 245618,
   "fid" : 1403,
   "uid" : 199
}
