{
   "timestamp" : 1584122025,
   "uuid" : "e49db5a6-ce6b-4587-9068-1372d0c61ac3",
   "filemime" : "image/jpeg",
   "filename" : "cigarette_parade_float1.jpg",
   "fid" : 4867,
   "uid" : 47,
   "filesize" : 182581,
   "status" : 1,
   "uri" : "public://exhibits/cigarette_parade_float1_0.jpg"
}
