{
   "fid" : 3603,
   "uid" : 81,
   "filesize" : 153810,
   "uri" : "public://users/danette.pachtner/American Youth Congress 1937.jpg",
   "status" : 1,
   "timestamp" : 1515513662,
   "uuid" : "e4d891dd-1053-4675-b308-9ac7329f6d9c",
   "filemime" : "image/jpeg",
   "filename" : "American Youth Congress 1937.jpg"
}
