{
   "timestamp" : 1446671060,
   "filemime" : "image/jpeg",
   "filename" : "rc5.jpg",
   "uuid" : "e4d91487-e406-47f7-994a-1bf95665d147",
   "filesize" : 144656,
   "uid" : 3,
   "fid" : 1109,
   "status" : 1,
   "uri" : "public://carousel_images/rc5_1.jpg"
}
