{
   "filemime" : "application/pdf",
   "filename" : "YMCA-AnnualRept-36-37 section.pdf",
   "uuid" : "e5e0f4ba-b240-4dd0-9d6d-d921768eef7a",
   "timestamp" : 1515097153,
   "status" : 1,
   "uri" : "public://research/student-activism/YMCA-AnnualRept-36-37 section.pdf",
   "filesize" : 299582,
   "fid" : 3561,
   "uid" : 81
}
