{
   "status" : 1,
   "uri" : "public://users/rita.johnston/medium_cute-cat-couple-wallpaper-800x600.jpg",
   "filesize" : 3973,
   "uid" : 58,
   "fid" : 37,
   "filename" : "medium_cute-cat-couple-wallpaper-800x600.jpg",
   "filemime" : "image/jpeg",
   "uuid" : "e71db17c-bbcd-4455-99dc-981270a5f987",
   "timestamp" : 1372172369
}
