{
   "fid" : 1601,
   "uid" : 339,
   "filesize" : 72587,
   "uri" : "public://exhibits/songsofglory.jpg",
   "status" : 1,
   "timestamp" : 1438805452,
   "uuid" : "e73b81a6-1745-4128-ad7e-541a1f9192ef",
   "filename" : "songsofglory.jpg",
   "filemime" : "image/jpeg"
}
