{
   "uuid" : "e7747e4f-9f4b-4e84-8fe8-13f66606a317",
   "filemime" : "image/jpeg",
   "filename" : "norman_thomas.jpg",
   "timestamp" : 1516821844,
   "status" : 1,
   "uri" : "public://research/student-activism/norman_thomas.jpg",
   "uid" : 55,
   "fid" : 3781,
   "filesize" : 77777
}
