{
   "status" : 1,
   "uri" : "public://users/emily.daly/readrm4.jpg",
   "fid" : 102,
   "uid" : 42,
   "filesize" : 272991,
   "uuid" : "e7aef2e1-d4d9-4442-9b74-862f061cef9b",
   "filemime" : "image/jpeg",
   "filename" : "readrm4.jpg",
   "timestamp" : 1375282444
}
