{
   "filemime" : "image/jpeg",
   "filename" : "7 Proposed Few Reading Room Before and After 2476x1201.jpg",
   "uuid" : "e810bcdb-4bcd-4bd6-87ee-6738c067eb8e",
   "timestamp" : 1549571979,
   "status" : 1,
   "uri" : "public://carousel_images/7 Proposed Few Reading Room Before and After 2476x1201.jpg",
   "filesize" : 1685887,
   "uid" : 4,
   "fid" : 4443
}
