{
   "uri" : "public://research/student-activism/19380218_Archive.pdf",
   "status" : 1,
   "fid" : 3269,
   "uid" : 149,
   "filesize" : 920693,
   "uuid" : "e88e7734-26dc-4744-94e6-1cc749a01519",
   "filemime" : "application/pdf",
   "filename" : "19380218_Archive.pdf",
   "timestamp" : 1510155041
}
