{
   "uuid" : "e8aef1bd-fa5a-4d08-8c4c-82fb797ba314",
   "filename" : "rubenstein-outside-240.jpg",
   "filemime" : "image/jpeg",
   "timestamp" : 1392328263,
   "uri" : "public://users/seanaery@duke.edu/rubenstein-outside-240.jpg",
   "status" : 1,
   "uid" : 4,
   "fid" : 907,
   "filesize" : 27862
}
