{
   "filesize" : 1532513,
   "uid" : 147,
   "fid" : 3943,
   "status" : 1,
   "uri" : "public://research/student-activism/Liberal Oct 19.png",
   "timestamp" : 1517501721,
   "filename" : "Liberal Oct 19.png",
   "filemime" : "image/png",
   "uuid" : "e8b76410-4542-4290-85e4-65b51c7ae956"
}
