{
   "filesize" : 134804,
   "uid" : 3,
   "fid" : 1847,
   "uri" : "public://exhibits/rush_0.jpg",
   "status" : 1,
   "timestamp" : 1451923846,
   "filename" : "rush.jpg",
   "filemime" : "image/jpeg",
   "uuid" : "e9295caf-a377-49c6-9dba-fb7867e776bd"
}
