{
   "fid" : 981,
   "uid" : 92,
   "filesize" : 4408,
   "status" : 1,
   "uri" : "public://users/jim.tuttle/large_ddr-preservation.jpg",
   "timestamp" : 1398090652,
   "uuid" : "ea1c2a3d-7e5e-4e8a-84d1-19642b84f393",
   "filemime" : "image/jpeg",
   "filename" : "large_ddr-preservation.jpg"
}
