{
   "status" : 1,
   "uri" : "public://research/student-activism/chroniclefeb261937youthcongress.pdf",
   "uid" : 73,
   "fid" : 4025,
   "filesize" : 1012008,
   "uuid" : "edf217f4-0716-4e8b-b35c-1ed8a1f95f6c",
   "filemime" : "application/pdf",
   "filename" : "chroniclefeb261937youthcongress.pdf",
   "timestamp" : 1518203774
}
