{
   "timestamp" : 1426869284,
   "uuid" : "ee0e50cd-b200-4225-a17a-f92e62085821",
   "filemime" : "image/jpeg",
   "filename" : "Citation_Tools.JPG",
   "uid" : 337,
   "fid" : 1297,
   "filesize" : 40469,
   "uri" : "public://services/firstyear/Citation_Tools.JPG",
   "status" : 1
}
