{
   "timestamp" : 1384987963,
   "uuid" : "ee937680-0271-432d-aab5-32c21162d051",
   "filemime" : "image/jpeg",
   "filename" : "exhibits_01.jpg",
   "uid" : 139,
   "fid" : 571,
   "filesize" : 6882,
   "status" : 1,
   "uri" : "public://pictures/exhibits_01.jpg"
}
