{
   "timestamp" : 1459368678,
   "filemime" : "image/jpeg",
   "filename" : "bacon-virginia.jpg",
   "uuid" : "eebcc506-abc6-4d56-88b2-94ecf9d8843f",
   "filesize" : 14057,
   "fid" : 2009,
   "uid" : 25,
   "status" : 1,
   "uri" : "public://staff-portraits/bacon-virginia.jpg"
}
