{
   "uuid" : "ef05a5e8-341c-4c4d-8d80-1f92788f822d",
   "filemime" : "image/jpeg",
   "filename" : "wooten-kelly_0.jpg",
   "timestamp" : 1418758754,
   "uri" : "public://staff-portraits/wooten-kelly_0.jpg",
   "status" : 1,
   "fid" : 1171,
   "uid" : 25,
   "filesize" : 7245
}
