{
   "uri" : "public://users/aaron.welborn/9729274988_4596934d78_q_0.jpg",
   "status" : 1,
   "filesize" : 5735,
   "uid" : 60,
   "fid" : 811,
   "filemime" : "image/jpeg",
   "filename" : "9729274988_4596934d78_q_0.jpg",
   "uuid" : "efe66dbd-c80b-4134-bc07-0e5e4c23f9d3",
   "timestamp" : 1389378401
}
