{
   "uuid" : "f015c3ab-6540-4aea-9373-379c19e59666",
   "filemime" : "image/jpeg",
   "filename" : "medium_citation buttons_0.jpg",
   "timestamp" : 1429022958,
   "uri" : "public://users/sarah griffin/medium_citation buttons_0.jpg",
   "status" : 1,
   "uid" : 74,
   "fid" : 1361,
   "filesize" : 2325
}
