{
   "uri" : "public://users/christof.galli/egypt_said_180square.jpg",
   "status" : 1,
   "filesize" : 74412,
   "fid" : 39,
   "uid" : 65,
   "filemime" : "image/jpeg",
   "filename" : "egypt_said_180square.jpg",
   "uuid" : "f02b7694-115e-495a-96b9-1936c552d829",
   "timestamp" : 1372345050
}
