{
   "uid" : 139,
   "fid" : 542,
   "filesize" : 5924,
   "uri" : "public://pictures/africa.jpg",
   "status" : 1,
   "timestamp" : 1383590684,
   "uuid" : "f061b09c-1ae2-4bae-8211-3b3f1ab43b8a",
   "filename" : "africa.jpg",
   "filemime" : "image/jpeg"
}
