{
   "filesize" : 90923,
   "uid" : 67,
   "fid" : 2495,
   "uri" : "public://users/megan.crain/Civitates01-768x958_0.jpg",
   "status" : 1,
   "timestamp" : 1494872956,
   "filename" : "Civitates01-768x958_0.jpg",
   "filemime" : "image/jpeg",
   "uuid" : "f0c03a8f-864a-4615-9b3b-dc99fb4001cf"
}
