{
   "uid" : 48,
   "fid" : 2241,
   "filesize" : 102959,
   "uri" : "public://users/lee.sorensen/boycott.jpg",
   "status" : 1,
   "timestamp" : 1485216059,
   "uuid" : "f26f5dce-e638-4918-9080-c42220a1b7c5",
   "filename" : "boycott.jpg",
   "filemime" : "image/jpeg"
}
