{
   "timestamp" : 1385405689,
   "filename" : "exhibits_11.jpg",
   "filemime" : "image/jpeg",
   "uuid" : "f29e53f0-01b8-4d5b-a1d9-5b634263203b",
   "filesize" : 8499,
   "uid" : 139,
   "fid" : 605,
   "uri" : "public://pictures/exhibits_11.jpg",
   "status" : 1
}
