{
   "uid" : 147,
   "fid" : 3479,
   "filesize" : 336276,
   "uri" : "public://research/student-activism/4-12-1934 History Forum.png",
   "status" : 1,
   "timestamp" : 1514992183,
   "uuid" : "f2d73c8d-4993-4c15-950d-8689f109a76f",
   "filename" : "4-12-1934 History Forum.png",
   "filemime" : "image/png"
}
