{
   "filesize" : 20441,
   "uid" : 73,
   "fid" : 2791,
   "status" : 1,
   "uri" : "public://research/student-activism/peaceconferenceuncgagenda1936.jpg",
   "timestamp" : 1502916073,
   "filename" : "peaceconferenceuncgagenda1936.jpg",
   "filemime" : "image/jpeg",
   "uuid" : "f33688ea-0d08-46a1-8cc6-df391429d72a"
}
