{
   "timestamp" : 1488209654,
   "uuid" : "f5cc52a1-0a0e-4d35-869a-dfbe9e30042c",
   "filename" : "bostock042.jpg",
   "filemime" : "image/jpeg",
   "uid" : 25,
   "fid" : 2361,
   "filesize" : 41224,
   "uri" : "public://rooms/bostock042.jpg",
   "status" : 1
}
