{
   "timestamp" : 1501252519,
   "filename" : "DUL-Strategic-Plan-2016.pdf",
   "filemime" : "application/pdf",
   "uuid" : "f5f8eacc-2f19-4841-93c5-b1cdb850a655",
   "filesize" : 594026,
   "fid" : 2747,
   "uid" : 25,
   "status" : 1,
   "uri" : "public://pdf/DUL-Strategic-Plan-2016.pdf"
}
