{
   "filesize" : 75217,
   "uid" : 36,
   "fid" : 556,
   "uri" : "public://users/brittany.wofford@duke.edu/Few Periodicals Room.jpg",
   "status" : 1,
   "timestamp" : 1383684250,
   "filename" : "Few Periodicals Room.jpg",
   "filemime" : "image/jpeg",
   "uuid" : "f68466e2-f0a3-4cfc-bea1-03f30bdc07e0"
}
