{
   "uri" : "public://users/yuyuan/Scanners_Bostock_edge.jpg",
   "status" : 1,
   "uid" : 2197,
   "fid" : 4177,
   "filesize" : 83437,
   "uuid" : "f779671c-19ea-4473-8ab9-fd648abbb294",
   "filemime" : "image/jpeg",
   "filename" : "Scanners_Bostock_edge.jpg",
   "timestamp" : 1530030296
}
