{
   "filemime" : "image/jpeg",
   "filename" : "Iconographic_OF20.jpg",
   "uuid" : "f8c85eec-4fb4-41a8-b6bf-6d531a39c891",
   "timestamp" : 1472506260,
   "status" : 1,
   "uri" : "public://exhibits/Iconographic_OF20.jpg",
   "filesize" : 47954,
   "uid" : 47,
   "fid" : 2167
}
