{
   "uuid" : "f92a41a1-5c80-46d2-96ec-99da65be8012",
   "filemime" : "image/jpeg",
   "filename" : "photo.JPG",
   "timestamp" : 1376596796,
   "status" : 1,
   "uri" : "public://users/kurt.cumiskey/photo.JPG",
   "uid" : 64,
   "fid" : 210,
   "filesize" : 203461
}
