{
   "status" : 1,
   "uri" : "public://carousel_images/Leopard Seal 800.jpg",
   "uid" : 82,
   "fid" : 2185,
   "filesize" : 77884,
   "uuid" : "f9ace118-b568-4e12-97a5-6aae618508a1",
   "filemime" : "image/jpeg",
   "filename" : "Leopard Seal 800.jpg",
   "timestamp" : 1474403940
}
