{
   "filemime" : "image/jpeg",
   "filename" : "lydia.jpg",
   "uuid" : "f9c1d8bc-a8db-46cd-821d-b3cae386a809",
   "timestamp" : 1559188167,
   "status" : 1,
   "uri" : "public://exhibits/lydia.jpg",
   "filesize" : 39010,
   "fid" : 4557,
   "uid" : 47
}
