{
   "uuid" : "fb814dee-70ae-4b13-a5db-f813b734f8e3",
   "filemime" : "image/jpeg",
   "filename" : "crazysmart_5_250x250_0.jpg",
   "timestamp" : 1377202752,
   "uri" : "public://users/aaron.welborn/crazysmart_5_250x250_0.jpg",
   "status" : 1,
   "fid" : 252,
   "uid" : 60,
   "filesize" : 6330
}
