{
   "uri" : "public://users/megan.crain/sqfoto1.jpg",
   "status" : 1,
   "fid" : 126,
   "uid" : 67,
   "filesize" : 133642,
   "uuid" : "fcd98d6f-d2b5-49ed-865e-f3fa61b0e06a",
   "filemime" : "image/jpeg",
   "filename" : "sqfoto1.jpg",
   "timestamp" : 1375716542
}
