{
   "timestamp" : 1574526257,
   "uuid" : "fd614cf5-fac6-4a59-be8b-03d47daf6547",
   "filename" : "dune.jpg",
   "filemime" : "image/jpeg",
   "fid" : 4767,
   "uid" : 69,
   "filesize" : 161049,
   "status" : 1,
   "uri" : "public://users/beth.doyle/dune.jpg"
}
