{
   "filemime" : "application/pdf",
   "filename" : "Instructions-tableau-dashboards_0.pdf",
   "uuid" : "fe1cd357-9e85-4656-a783-26e473367608",
   "timestamp" : 1467924267,
   "uri" : "public://users/Joyce Chapman/Instructions-tableau-dashboards_0.pdf",
   "status" : 1,
   "filesize" : 1408101,
   "fid" : 2083,
   "uid" : 313
}
