{
   "uri" : "public://course-support/cit_logo_blue.png",
   "status" : 1,
   "fid" : 2091,
   "uid" : 25,
   "filesize" : 1040,
   "uuid" : "fed1356b-19a4-459f-9205-52e2ceef75fb",
   "filename" : "cit_logo_blue.png",
   "filemime" : "image/png",
   "timestamp" : 1469717266
}
