{
   "status" : 1,
   "uri" : "public://exhibits/larryschwarm.jpg",
   "fid" : 1571,
   "uid" : 339,
   "filesize" : 38303,
   "uuid" : "ff516142-13da-4d90-ac70-90a3c57979b2",
   "filemime" : "image/jpeg",
   "filename" : "larryschwarm.jpg",
   "timestamp" : 1438717000
}
