{
   "timestamp" : 1432934115,
   "filename" : "ad_BH0904_880x500.jpg",
   "filemime" : "image/jpeg",
   "uuid" : "ff753e61-5613-4f6d-a365-56850cbd5c06",
   "filesize" : 160471,
   "fid" : 1397,
   "uid" : 199,
   "uri" : "public://carousel_images/ad_BH0904_880x500.jpg",
   "status" : 1
}
