{
   "term" : {
      "vid" : 2,
      "uuid" : "3e3bf127-ba95-4f9b-9836-ba722ba48b17",
      "vocab_machine_name" : "audience_tags",
      "tid" : 5,
      "description" : "",
      "weight" : 0,
      "format" : "full_html",
      "name" : "undergraduate"
   }
}
